[
  {
    "model": "Astronomik Typ 2 c RGB",
    "name": "Astronomik Typ 2 c Red",
    "type": "MONO_FILTER",
    "dataQualityMarker": 4,
    "dataSource": "OEM tabulated data",
    "manufacturer": "Astronomik",
    "channel": "RED",
    "version": 2,
    "wavelength": { 
       "value":  [360,361,362,363,364,365,366,367,368,369,370,371,372,373,374,375,376,377,378,379,380,381,382,383,384,385,386,387,388,389,390,391,392,393,394,395,396,397,398,399,400,401,402,403,404,405,406,407,408,409,410,411,412,413,414,415,416,417,418,419,420,421,422,423,424,425,426,427,428,429,430,431,432,433,434,435,436,437,438,439,440,441,442,443,444,445,446,447,448,449,450,451,452,453,454,455,456,457,458,459,460,461,462,463,464,465,466,467,468,469,470,471,472,473,474,475,476,477,478,479,480,481,482,483,484,485,486,487,488,489,490,491,492,493,494,495,496,497,498,499,500,501,502,503,504,505,506,507,508,509,510,511,512,513,514,515,516,517,518,519,520,521,522,523,524,525,526,527,528,529,530,531,532,533,534,535,536,537,538,539,540,541,542,543,544,545,546,547,548,549,550,551,552,553,554,555,556,557,558,559,560,561,562,563,564,565,566,567,568,569,570,571,572,573,574,575,576,577,578,579,580,581,582,583,584,585,586,587,588,589,590,591,592,593,594,595,596,597,598,599,600,601,602,603,604,605,606,607,608,609,610,611,612,613,614,615,616,617,618,619,620,621,622,623,624,625,626,627,628,629,630,631,632,633,634,635,636,637,638,639,640,641,642,643,644,645,646,647,648,649,650,651,652,653,654,655,656,657,658,659,660,661,662,663,664,665,666,667,668,669,670,671,672,673,674,675,676,677,678,679,680,681,682,683,684,685,686,687,688,689,690,691,692,693,694,695,696,697,698,699,700,701,702,703,704,705,706,707,708,709,710,711,712,713,714,715,716,717,718,719,720,721,722,723,724,725,726,727,728,729,730,731,732,733,734,735,736,737,738,739,740,741,742,743,744,745,746,747,748,749,750,751,752,753,754,755,756,757,758,759,760,761,762,763,764,765,766,767,768,769,770,771,772,773,774,775,776,777,778,779,780,781,782,783,784,785,786,787,788,789,790,791,792,793,794,795,796,797,798,799,800],
       "units": "nm"
    },
    "values": {
      "value": [0,0.01,0.02,0.01,0.01,0,0.01,0.02,0.04,0.07,0.09,0.09,0.08,0.07,0.06,0.05,0.06,0.06,0.07,0.08,0.07,0.07,0.06,0.05,0.05,0.05,0.06,0.08,0.11,0.15,0.19,0.2,0.19,0.16,0.12,0.09,0.07,0.06,0.05,0.05,0.04,0.04,0.04,0.05,0.05,0.06,0.07,0.09,0.12,0.15,0.18,0.2,0.2,0.17,0.13,0.1,0.08,0.06,0.05,0.04,0.04,0.03,0.03,0.03,0.03,0.03,0.04,0.04,0.05,0.07,0.09,0.13,0.2,0.3,0.42,0.48,0.46,0.36,0.25,0.18,0.13,0.1,0.08,0.07,0.06,0.06,0.06,0.06,0.06,0.06,0.07,0.08,0.1,0.12,0.16,0.21,0.27,0.33,0.35,0.34,0.28,0.22,0.17,0.13,0.1,0.08,0.07,0.06,0.05,0.05,0.04,0.04,0.04,0.04,0.04,0.05,0.05,0.05,0.06,0.07,0.08,0.09,0.1,0.11,0.11,0.11,0.1,0.09,0.07,0.06,0.05,0.04,0.03,0.03,0.02,0.02,0.02,0.01,0.01,0.01,0.01,0.01,0.01,0.01,0.01,0.01,0.01,0.01,0.01,0.01,0.01,0.01,0.01,0.01,0.01,0.01,0.01,0.01,0.01,0.01,0.01,0.01,0.01,0.01,0.02,0.02,0.02,0.02,0.03,0.03,0.03,0.04,0.04,0.05,0.06,0.07,0.08,0.09,0.11,0.13,0.15,0.18,0.21,0.26,0.31,0.37,0.46,0.56,0.7,0.86,1.08,1.35,1.7,2.14,2.7,3.4,4.26,5.31,6.58,8.06,9.71,11.51,13.4,15.37,17.27,19.14,20.93,22.68,24.39,26.1,27.8,29.55,31.36,33.2,35.15,37.13,39.19,41.28,43.41,45.57,47.74,49.86,51.94,54.01,55.97,57.91,59.71,61.49,63.21,64.89,66.6,68.33,70.05,71.81,73.65,75.61,77.6,79.62,81.69,83.81,85.83,87.78,89.63,91.33,92.86,94.22,95.32,96.25,96.99,97.62,98.05,98.38,98.57,98.72,98.82,98.79,98.72,98.68,98.59,98.5,98.4,98.3,98.25,98.23,98.17,98.2,98.23,98.27,98.29,98.27,98.3,98.28,98.21,98.15,98.07,98,97.97,97.92,97.95,97.99,98.02,98.11,98.24,98.3,98.38,98.46,98.55,98.57,98.62,98.6,98.64,98.66,98.7,98.72,98.78,98.86,98.89,98.92,98.96,99,99,98.91,98.56,97.51,95.27,91.04,84.2,74.59,62.89,50.49,38.81,28.89,21.1,15.29,11.11,8.12,6.02,4.51,3.43,2.64,2.07,1.64,1.32,1.08,0.89,0.74,0.63,0.54,0.46,0.41,0.36,0.32,0.29,0.26,0.24,0.23,0.21,0.2,0.19,0.19,0.18,0.18,0.18,0.18,0.19,0.19,0.2,0.21,0.22,0.24,0.26,0.28,0.3,0.32,0.34,0.36,0.36,0.36,0.35,0.33,0.31,0.28,0.25,0.22,0.2,0.18,0.16,0.14,0.13,0.12,0.11,0.1,0.1,0.09,0.09,0.09,0.08,0.08,0.08,0.08,0.08,0.09,0.09,0.09,0.1,0.11,0.11,0.12,0.14,0.15,0.17,0.19,0.21,0.24,0.27,0.31,0.34,0.37,0.4,0.41,0.42,0.41,0.39,0.37,0.34,0.31,0.28,0.26,0.24,0.22,0.2,0.19,0.17,0.16,0.16,0.15,0.14,0.14,0.14,0.14,0.14,0.14,0.14,0.14,0.14,0.15,0.15,0.16,0.17,0.19,0.2,0.22,0.24,0.26,0.29,0.33,0.37,0.42,0.48,0.53,0.58],
      "range": 100
    }
  },
  {
    "model": "Astronomik Typ 2 c RGB",
    "name": "Astronomik Typ 2 c Green",
    "type": "MONO_FILTER",
    "dataQualityMarker": 4,
    "dataSource": "OEM tabulated data",
    "manufacturer": "Astronomik",
    "channel": "GREEN",
    "version": 2,
    "wavelength":  { 
       "value": [360,361,362,363,364,365,366,367,368,369,370,371,372,373,374,375,376,377,378,379,380,381,382,383,384,385,386,387,388,389,390,391,392,393,394,395,396,397,398,399,400,401,402,403,404,405,406,407,408,409,410,411,412,413,414,415,416,417,418,419,420,421,422,423,424,425,426,427,428,429,430,431,432,433,434,435,436,437,438,439,440,441,442,443,444,445,446,447,448,449,450,451,452,453,454,455,456,457,458,459,460,461,462,463,464,465,466,467,468,469,470,471,472,473,474,475,476,477,478,479,480,481,482,483,484,485,486,487,488,489,490,491,492,493,494,495,496,497,498,499,500,501,502,503,504,505,506,507,508,509,510,511,512,513,514,515,516,517,518,519,520,521,522,523,524,525,526,527,528,529,530,531,532,533,534,535,536,537,538,539,540,541,542,543,544,545,546,547,548,549,550,551,552,553,554,555,556,557,558,559,560,561,562,563,564,565,566,567,568,569,570,571,572,573,574,575,576,577,578,579,580,581,582,583,584,585,586,587,588,589,590,591,592,593,594,595,596,597,598,599,600,601,602,603,604,605,606,607,608,609,610,611,612,613,614,615,616,617,618,619,620,621,622,623,624,625,626,627,628,629,630,631,632,633,634,635,636,637,638,639,640,641,642,643,644,645,646,647,648,649,650,651,652,653,654,655,656,657,658,659,660,661,662,663,664,665,666,667,668,669,670,671,672,673,674,675,676,677,678,679,680,681,682,683,684,685,686,687,688,689,690,691,692,693,694,695,696,697,698,699,700,701,702,703,704,705,706,707,708,709,710,711,712,713,714,715,716,717,718,719,720,721,722,723,724,725,726,727,728,729,730,731,732,733,734,735,736,737,738,739,740,741,742,743,744,745,746,747,748,749,750,751,752,753,754,755,756,757,758,759,760,761,762,763,764,765,766,767,768,769,770,771,772,773,774,775,776,777,778,779,780,781,782,783,784,785,786,787,788,789,790,791,792,793,794,795,796,797,798,799,800],
       "units": "nm"
    },
    "values": {
      "value": [0,0,0,0,0,0,0,0,0,0,0,0.01,0.01,0.01,0,0.01,0.02,0.03,0.02,0.01,0.01,0.02,0.03,0.05,0.06,0.05,0.03,0.01,0,0,0,0,0,0,0,0,0,0,0,0,0,0.01,0.01,0.01,0.01,0.01,0,0,0,0,0,0,0,0,0,0,0.01,0.01,0.01,0.01,0.01,0.01,0.01,0.01,0.01,0.01,0.01,0.01,0.01,0.01,0.02,0.02,0.02,0.02,0.03,0.03,0.03,0.03,0.04,0.04,0.03,0.03,0.03,0.03,0.03,0.03,0.03,0.03,0.04,0.04,0.04,0.05,0.06,0.07,0.08,0.1,0.12,0.14,0.18,0.22,0.29,0.37,0.48,0.62,0.82,1.07,1.41,1.85,2.41,3.12,3.99,5.05,6.33,7.85,9.64,11.71,14.06,16.71,19.64,22.8,26.12,29.54,32.93,36.3,39.46,42.4,45.07,47.52,49.77,51.81,53.65,55.32,56.87,58.39,59.94,61.56,63.36,65.38,67.63,70.18,72.96,75.82,78.74,81.53,84.11,86.42,88.36,90.05,91.59,92.97,94.27,95.48,96.59,97.57,98.29,98.61,98.63,98.41,97.98,97.5,97.15,96.85,96.73,96.77,97,97.25,97.51,97.76,97.97,98.09,98.13,98.07,98.04,97.96,97.85,97.76,97.72,97.76,97.86,98.09,98.3,98.54,98.73,98.84,98.8,98.62,98.21,97.7,97.02,96.22,95.39,94.5,93.62,92.68,91.8,90.82,89.78,88.71,87.55,86.26,84.89,83.49,81.9,80.35,78.71,77.06,75.44,73.86,72.27,70.72,69.27,67.85,66.52,65.21,63.91,62.62,61.31,59.92,58.44,56.83,55.06,53.18,51.14,48.99,46.74,44.4,42.06,39.72,37.46,35.22,33.08,31.02,29.06,27.17,25.39,23.67,22.04,20.45,18.94,17.47,16.05,14.7,13.41,12.19,11.04,9.98,9.01,8.12,7.31,6.59,5.93,5.35,4.82,4.35,3.93,3.56,3.22,2.92,2.65,2.4,2.17,1.96,1.77,1.59,1.43,1.29,1.15,1.03,0.92,0.82,0.73,0.65,0.58,0.51,0.45,0.4,0.36,0.32,0.29,0.26,0.23,0.21,0.19,0.17,0.16,0.14,0.13,0.12,0.11,0.1,0.1,0.09,0.08,0.08,0.07,0.07,0.07,0.06,0.06,0.06,0.06,0.06,0.05,0.05,0.05,0.05,0.05,0.05,0.05,0.05,0.05,0.05,0.05,0.05,0.06,0.06,0.06,0.06,0.06,0.07,0.07,0.07,0.07,0.08,0.08,0.09,0.09,0.1,0.1,0.11,0.11,0.12,0.13,0.13,0.14,0.14,0.15,0.15,0.15,0.15,0.15,0.15,0.15,0.15,0.15,0.15,0.14,0.14,0.14,0.14,0.14,0.14,0.15,0.15,0.15,0.15,0.15,0.14,0.14,0.13,0.11,0.1,0.08,0.07,0.05,0.04,0.04,0.03,0.02,0.02,0.02,0.01,0.01,0.01,0.01,0.01,0.01,0.01,0.01,0.01,0.01,0.01,0.01,0.01,0.01,0.01,0.01,0.01,0.01,0.01,0.01,0.02,0.02,0.02,0.02,0.02,0.02,0.03,0.03,0.02,0.02,0.02,0.02,0.02,0.02,0.01,0.01,0.01,0.01,0.01,0.01,0.01,0,0,0,0,0,0,0,0,0,0,0,0,0,0,0,0,0,0,0,0,0,0,0,0,0,0,0,0,0],
      "range": 100
    }
  },
  {
    "model": "Astronomik Typ 2 c RGB",
    "name": "Astronomik Typ 2 c Blue",
    "type": "MONO_FILTER",
    "dataQualityMarker": 4,
    "dataSource": "OEM tabulated data",
    "manufacturer": "Astronomik",
    "channel": "BLUE",
    "version": 2,
    "wavelength": { 
       "value":  [360,361,362,363,364,365,366,367,368,369,370,371,372,373,374,375,376,377,378,379,380,381,382,383,384,385,386,387,388,389,390,391,392,393,394,395,396,397,398,399,400,401,402,403,404,405,406,407,408,409,410,411,412,413,414,415,416,417,418,419,420,421,422,423,424,425,426,427,428,429,430,431,432,433,434,435,436,437,438,439,440,441,442,443,444,445,446,447,448,449,450,451,452,453,454,455,456,457,458,459,460,461,462,463,464,465,466,467,468,469,470,471,472,473,474,475,476,477,478,479,480,481,482,483,484,485,486,487,488,489,490,491,492,493,494,495,496,497,498,499,500,501,502,503,504,505,506,507,508,509,510,511,512,513,514,515,516,517,518,519,520,521,522,523,524,525,526,527,528,529,530,531,532,533,534,535,536,537,538,539,540,541,542,543,544,545,546,547,548,549,550,551,552,553,554,555,556,557,558,559,560,561,562,563,564,565,566,567,568,569,570,571,572,573,574,575,576,577,578,579,580,581,582,583,584,585,586,587,588,589,590,591,592,593,594,595,596,597,598,599,600,601,602,603,604,605,606,607,608,609,610,611,612,613,614,615,616,617,618,619,620,621,622,623,624,625,626,627,628,629,630,631,632,633,634,635,636,637,638,639,640,641,642,643,644,645,646,647,648,649,650,651,652,653,654,655,656,657,658,659,660,661,662,663,664,665,666,667,668,669,670,671,672,673,674,675,676,677,678,679,680,681,682,683,684,685,686,687,688,689,690,691,692,693,694,695,696,697,698,699,700,701,702,703,704,705,706,707,708,709,710,711,712,713,714,715,716,717,718,719,720,721,722,723,724,725,726,727,728,729,730,731,732,733,734,735,736,737,738,739,740,741,742,743,744,745,746,747,748,749,750,751,752,753,754,755,756,757,758,759,760,761,762,763,764,765,766,767,768,769,770,771,772,773,774,775,776,777,778,779,780,781,782,783,784,785,786,787,788,789,790,791,792,793,794,795,796,797,798,799,800],
       "units": "nm"
    },
    "values": {
      "value": [0,0,0,0,0,0,0,0,0,0,0,0,0,0,0.01,0.01,0,0,0.06,0.23,0.32,0.21,0.06,0,0,0,0.01,0.03,0.09,0.14,0.12,0.07,0.03,0.02,0.02,0.02,0.02,0.02,0.04,0.07,0.15,0.35,0.94,2.76,7.27,15.54,27.01,40.38,54.4,67.13,76.64,83.06,87.79,91.56,94.23,95.64,96.03,95.77,95.04,94.21,93.59,93.39,93.73,94.42,95.19,95.74,96.03,96.18,96.41,96.62,96.75,96.8,96.73,96.58,96.39,96.31,96.32,96.42,96.55,96.67,96.84,96.92,96.92,96.86,96.7,96.58,96.52,96.45,96.37,96.36,96.46,96.58,96.67,96.7,96.67,96.56,96.39,96.27,96.15,96.16,96.25,96.4,96.53,96.6,96.47,96.11,95.5,94.68,93.6,92.27,90.74,89.09,87.3,85.54,83.84,82.23,80.73,79.38,78.18,77.07,76.04,75.06,74.07,72.95,71.78,70.48,69.03,67.36,65.52,63.42,61.1,58.56,55.86,52.93,49.84,46.74,43.68,40.77,38.05,35.59,33.39,31.44,29.77,28.3,27.01,25.86,24.77,23.69,22.59,21.38,20.07,18.67,17.21,15.72,14.28,12.93,11.69,10.59,9.63,8.78,8.01,7.29,6.58,5.85,5.09,4.31,3.54,2.82,2.19,1.67,1.26,0.94,0.71,0.53,0.4,0.31,0.24,0.19,0.15,0.12,0.1,0.08,0.07,0.05,0.05,0.04,0.03,0.03,0.02,0.02,0.02,0.02,0.01,0.01,0.01,0.01,0.01,0.01,0.01,0.01,0.01,0.01,0.01,0.01,0.01,0.01,0.01,0.01,0.01,0.02,0.02,0.02,0.03,0.03,0.05,0.06,0.1,0.16,0.27,0.42,0.48,0.39,0.24,0.13,0.07,0.04,0.03,0.02,0.01,0.01,0.01,0,0,0,0,0,0,0,0,0,0,0,0,0,0,0,0,0,0,0,0,0,0,0,0,0,0,0,0,0,0,0,0,0,0,0,0,0,0,0,0,0,0,0,0,0,0,0,0,0,0.01,0.01,0.01,0.01,0.01,0.02,0.02,0.03,0.04,0.05,0.07,0.1,0.13,0.18,0.22,0.26,0.28,0.27,0.25,0.21,0.18,0.15,0.13,0.11,0.09,0.08,0.07,0.07,0.06,0.06,0.06,0.05,0.05,0.05,0.05,0.05,0.05,0.05,0.05,0.06,0.06,0.06,0.06,0.07,0.07,0.08,0.08,0.09,0.1,0.11,0.12,0.14,0.16,0.18,0.2,0.23,0.26,0.3,0.34,0.39,0.44,0.49,0.54,0.58,0.6,0.61,0.59,0.56,0.52,0.46,0.41,0.36,0.32,0.28,0.24,0.21,0.19,0.17,0.15,0.13,0.12,0.11,0.1,0.1,0.09,0.08,0.08,0.08,0.08,0.08,0.08,0.08,0.08,0.08,0.08,0.08,0.09,0.09,0.1,0.1,0.11,0.12,0.13,0.14,0.15,0.16,0.17,0.19,0.2,0.22,0.24,0.25,0.26,0.27,0.28,0.28,0.27,0.26,0.25,0.23,0.22,0.2,0.18,0.16,0.15,0.13,0.12,0.11,0.1,0.09,0.08,0.07,0.07,0.06,0.06,0.06,0.05,0.05,0.05,0.05,0.05,0.05,0.05,0.05,0.05,0.05,0.05,0.05,0.05,0.05,0.05,0.06,0.06,0.06,0.07,0.07,0.08,0.08,0.09,0.1,0.1],
      "range": 100
    }
  }
]
