[
  {
    "model": "Astrodon Gen 2 RGB",
    "name": "Astrodon Red (E series)",
    "type": "MONO_FILTER",
    "dataQualityMarker": 4,
    "dataSource": "High resolution OEM tabulated data from website",
    "manufacturer": "Astrodon",
    "channel": "RED",
    "version": 1,
    "wavelength": { 
       "value":  [350,351,352,353,354,355,356,357,358,359,360,361,362,363,364,365,366,367,368,369,370,371,372,373,374,375,376,377,378,379,380,381,382,383,384,385,386,387,388,389,390,391,392,393,394,395,396,397,398,399,400,401,402,403,404,405,406,407,408,409,410,411,412,413,414,415,416,417,418,419,420,421,422,423,424,425,426,427,428,429,430,431,432,433,434,435,436,437,438,439,440,441,442,443,444,445,446,447,448,449,450,451,452,453,454,455,456,457,458,459,460,461,462,463,464,465,466,467,468,469,470,471,472,473,474,475,476,477,478,479,480,481,482,483,484,485,486,487,488,489,490,491,492,493,494,495,496,497,498,499,500,501,502,503,504,505,506,507,508,509,510,511,512,513,514,515,516,517,518,519,520,521,522,523,524,525,526,527,528,529,530,531,532,533,534,535,536,537,538,539,540,541,542,543,544,545,546,547,548,549,550,551,552,553,554,555,556,557,558,559,560,561,562,563,564,565,566,567,568,569,570,571,572,573,574,575,576,577,578,579,580,581,582,583,584,585,586,587,588,589,590,591,592,593,594,595,596,597,598,599,600,601,602,603,604,605,606,607,608,609,610,611,612,613,614,615,616,617,618,619,620,621,622,623,624,625,626,627,628,629,630,631,632,633,634,635,636,637,638,639,640,641,642,643,644,645,646,647,648,649,650,651,652,653,654,655,656,657,658,659,660,661,662,663,664,665,666,667,668,669,670,671,672,673,674,675,676,677,678,679,680,681,682,683,684,685,686,687,688,689,690,691,692,693,694,695,696,697,698,699,700,701,702,703,704,705,706,707,708,709,710,711,712,713,714,715,716,717,718,719,720,721,722,723,724,725,726,727,728,729,730,731,732,733,734,735,736,737,738,739,740,741,742,743,744,745,746,747,748,749,750],
       "units": "nm"
    },
    "values": {
      "value": [0.000000465000398747391,0.0000013316532246573,0.0000294269343309748,0.000187384356506949,0.00168006331672275,0.0000682962721190611,0.000314453272599017,0.000502614444748912,0.000946319934636578,0.000227156221998232,0.0000653930741236037,0.000132719498518484,0.00298519465533343,0.0121932307866333,0.0248713455199867,0.00426044061298888,0.0148526350781175,0.00205440343542127,0.0105362343215867,0.00183176403960598,0.000533375590284784,0.000997608114502236,0.0167466645763561,0.0029337156637051,0.00272001891936221,0.0100671496961479,0.00134688346718812,0.0003297806628776,0.000332392910861821,0.00379616379807143,0.000835694796350417,0.000295290518674247,0.000502584747090098,0.00155553300171614,0.00195176262538614,0.00615221472518644,0.00254265129549116,0.000132791630546293,0.0000432229465766207,0.0000472154291970711,0.000391253899460653,0.0000514728135173317,0.000022205678810668,0.0000298819749510888,0.00000764928675069233,0.00000250797964486319,0.00000200445215982102,0.00000409925016102251,0.000016070471081392,0.00000362622452851871,0.00000195410041228192,0.00000255020882414648,0.00000790666801914572,0.0000439931454954529,0.000028641559107442,0.000035773436842117,0.000128414071819133,0.000524621421460373,0.00060909111250285,0.000118882796888844,0.00007344838794151,0.000138540346324639,0.0000517852647185832,0.0000152588640668915,0.0000102640777875992,0.0000126729163193831,0.0000229813777491536,0.0000343395485702327,0.0000383541138742349,0.0000604664668147402,0.000166046800709998,0.000450189231261907,0.000679503028123526,0.00223413409381785,0.0145364068062717,0.00458064811286858,0.00573380445781501,0.00423310355629304,0.00261138607554725,0.00239987512386671,0.00143647852989698,0.000408772304160412,0.000118799931355342,0.0000542463470938562,0.000042177568610782,0.000054668956705574,0.0000497484365960603,0.0000166192970414983,0.00000730751937877453,0.00000502866502418458,0.00000510016256232792,0.00000731257319079409,0.0000133743083243407,0.0000211161756759811,0.0000222279753576234,0.0000244649183707732,0.0000374815481511594,0.0000816418287558549,0.000185067423031311,0.000238031426564075,0.00026257424853288,0.000376555164678517,0.000468215732125258,0.000263801137505084,0.000149238994092592,0.000127592253628372,0.000130259646045204,0.0000689562049436636,0.0000271239966350856,0.0000145947741965167,0.0000115328658399575,0.0000135778094905894,0.0000257636547215534,0.0000738933436567195,0.0000499068855940373,0.0000204499875605947,0.0000142347152852993,0.0000153691895718432,0.0000242308167397561,0.0000471421270023011,0.0000555553422331761,0.0000380928044804907,0.0000308311330367233,0.0000342147418414221,0.0000512415877587901,0.0000984234905586962,0.000201154064545513,0.000308222866162898,0.00037164726645217,0.000503639436343473,0.00089374596182555,0.00207612278108991,0.0051360673542585,0.00887475294707584,0.0132972637585703,0.0235746192501283,0.0219392029524438,0.0125513893187413,0.0114689406012688,0.0191464071825464,0.0174185726738064,0.00556615322091431,0.0026886766692372,0.00161765299556536,0.000750189837590699,0.000287475840925419,0.000126623288929017,0.000070314171726531,0.0000490709339565328,0.0000424241762176285,0.00004491301240322,0.0000568254840864422,0.0000783835209471192,0.0000922256904993776,0.0000787687738774469,0.0000606970408819648,0.0000520777613749958,0.0000528682291169452,0.0000634523335105222,0.0000873613867592355,0.000128401092817772,0.000178944932960066,0.000220030741526301,0.000252315691289449,0.000292213418973564,0.00034111305779655,0.000377557050353573,0.000390224869060104,0.000403615625161521,0.000451071728664114,0.000552926567062411,0.000684014200853182,0.000728417441652978,0.000643123258306738,0.00054718974129789,0.000511922694936363,0.000555363272400216,0.000711881923583164,0.0010912829701313,0.0020299895865043,0.00461129797940998,0.0116654263382842,0.0219075776159331,0.0242341283617091,0.025024858777585,0.0305657303272985,0.0439950112952935,0.06725796551044,0.087536871914994,0.0825467713046955,0.065142196213206,0.0518382130214184,0.0440602545174225,0.039304289758287,0.0352217345040418,0.0307781167392136,0.0264984883030956,0.0233046384339957,0.0216205618317211,0.021468922152101,0.0227751759444929,0.0254398728371395,0.0291805018635415,0.0330359322544616,0.0349199784357199,0.0328526971987756,0.0277219536686935,0.0223795584326858,0.0185469133904859,0.0165211580559961,0.0161864959031299,0.0175739937096038,0.0210076182271302,0.0268230246997968,0.0341131320694609,0.0394088555765807,0.0403110686008996,0.0394870401299451,0.0406251285644616,0.0458631545318992,0.0555621945966839,0.063918729780817,0.0584713969154033,0.042914710076782,0.0301782799429299,0.0227764014495535,0.0190255168271393,0.0174820436445345,0.0172499424076781,0.0175107301586917,0.017235831901136,0.0156793171728398,0.0132109111401107,0.0108046766470136,0.00901979588827795,0.00793005707762573,0.0074418829547371,0.00746347118193228,0.00793226299859865,0.00875481147169991,0.00968795865171142,0.0102781073739543,0.0101384002630922,0.00936209926677751,0.00839766025745848,0.00760639943104027,0.00713285795086268,0.00700074360120316,0.00720152788477858,0.00772643145842307,0.00856521645634681,0.00968673699661388,0.011035708177931,0.0125404576717876,0.0141692063218483,0.0159946069657183,0.0182299124846592,0.0212443979878563,0.0256104595825681,0.0322427385269216,0.042707440736993,0.0597975114338779,0.0890349127252504,0.141651997340944,0.241979989949614,0.445959299890589,0.889701760716184,1.9172224476126,4.37566266823654,9.93717844787992,19.8939093415856,31.8618049906808,42.8303840738982,53.4732772467047,64.9377761670132,76.5890959402795,86.6104897041458,93.5861901838921,97.439233292667,99.0700274170191,99.5427021309647,99.6085487104625,99.6231471810518,99.660939256764,99.6823059828713,99.6599130814262,99.6197069569262,99.608046068018,99.641758087145,99.6928546394677,99.7167425518505,99.6933903545036,99.6435812969614,99.6085826096461,99.6144765418384,99.6517375229723,99.6853270093991,99.6845850286203,99.6478831134483,99.6025300960791,99.5816198787372,99.5974388862574,99.6325127247772,99.653868357185,99.6386605576465,99.5915148173978,99.540565387809,99.5159804713963,99.5278432779539,99.5598712889749,99.5830986432345,99.5787523068523,99.5526317108588,99.5294229126765,99.5317974919256,99.5604266188345,99.5912655166435,99.5937156274545,99.5567460639751,99.5017525882648,99.4690878002428,99.4855711323835,99.5384637006861,99.5796338834188,99.5646149070748,99.4993071151271,99.4463287579757,99.4561820347688,99.4351075255401,99.0196129882744,97.5799412082357,94.4763005367295,89.4828858616164,83.0432752432821,76.0219407951059,69.1669110650322,62.7550605340329,56.6162972783033,50.4445251615695,44.1721573241457,38.078536987989,32.475154371449,27.224024278239,21.6266877110527,15.2330947334866,9.13618388022911,4.8620202534777,2.48852241067483,1.29802537094713,0.708413634329955,0.407839895207195,0.247854797518618,0.158527341709229,0.106368940522895,0.07463920955532,0.0546196807353876,0.0415841538781187,0.0328731228712592,0.0269389992144674,0.0228547700274288,0.02005240499979,0.0181789227263024,0.0170165168066819,0.0164369867969664,0.0163751648573589,0.0168150218499529,0.0177831717196745,0.0193466188764663,0.0216113760448469,0.0247164368783962,0.0288128688105451,0.0340009163197317,0.0402496049856999,0.0472098850952735,0.0540552730814312,0.0594832121641177,0.0620838889951166,0.0610224890681473,0.0565510129901285,0.0498660256640415,0.0424445958473214,0.035441634650408,0.0294592058133718,0.0246711147123857,0.0210087118682118,0.01831225748186,0.0164163067288378,0.0151874433441021,0.0145372695541433,0.0144262372567792,0.0148669541937805,0.0159291750320737,0.0177562631508971,0.0205728422457114,0.0246705779949427,0.0302880611430936,0.0372240404941195,0.044139686873254,0.0484249815396307,0.0481472576047293,0.0441916274633212],
      "range": 100
    }
  },
  {
    "model": "Astrodon Gen 2 RGB",
    "name": "Astrodon Red (I series)",
    "type": "MONO_FILTER",
    "dataQualityMarker": 4,
    "dataSource": "High resolution OEM tabulated data from website",
    "manufacturer": "Astrodon",
    "channel": "RED",
    "version": 1,
    "wavelength": { 
       "value":  [290,290.5,291,291.5,292,292.5,293,293.5,294,294.5,295,295.5,296,296.5,297,297.5,298,298.5,299,299.5,300,300.5,301,301.5,302,302.5,303,303.5,304,304.5,305,305.5,306,306.5,307,307.5,308,308.5,309,309.5,310,310.5,311,311.5,312,312.5,313,313.5,314,314.5,315,315.5,316,316.5,317,317.5,318,318.5,319,319.5,320,320.5,321,321.5,322,322.5,323,323.5,324,324.5,325,325.5,326,326.5,327,327.5,328,328.5,329,329.5,330,330.5,331,331.5,332,332.5,333,333.5,334,334.5,335,335.5,336,336.5,337,337.5,338,338.5,339,339.5,340,340.5,341,341.5,342,342.5,343,343.5,344,344.5,345,345.5,346,346.5,347,347.5,348,348.5,349,349.5,350,350.5,351,351.5,352,352.5,353,353.5,354,354.5,355,355.5,356,356.5,357,357.5,358,358.5,359,359.5,360,360.5,361,361.5,362,362.5,363,363.5,364,364.5,365,365.5,366,366.5,367,367.5,368,368.5,369,369.5,370,370.5,371,371.5,372,372.5,373,373.5,374,374.5,375,375.5,376,376.5,377,377.5,378,378.5,379,379.5,380,380.5,381,381.5,382,382.5,383,383.5,384,384.5,385,385.5,386,386.5,387,387.5,388,388.5,389,389.5,390,390.5,391,391.5,392,392.5,393,393.5,394,394.5,395,395.5,396,396.5,397,397.5,398,398.5,399,399.5,400,400.5,401,401.5,402,402.5,403,403.5,404,404.5,405,405.5,406,406.5,407,407.5,408,408.5,409,409.5,410,410.5,411,411.5,412,412.5,413,413.5,414,414.5,415,415.5,416,416.5,417,417.5,418,418.5,419,419.5,420,420.5,421,421.5,422,422.5,423,423.5,424,424.5,425,425.5,426,426.5,427,427.5,428,428.5,429,429.5,430,430.5,431,431.5,432,432.5,433,433.5,434,434.5,435,435.5,436,436.5,437,437.5,438,438.5,439,439.5,440,440.5,441,441.5,442,442.5,443,443.5,444,444.5,445,445.5,446,446.5,447,447.5,448,448.5,449,449.5,450,450.5,451,451.5,452,452.5,453,453.5,454,454.5,455,455.5,456,456.5,457,457.5,458,458.5,459,459.5,460,460.5,461,461.5,462,462.5,463,463.5,464,464.5,465,465.5,466,466.5,467,467.5,468,468.5,469,469.5,470,470.5,471,471.5,472,472.5,473,473.5,474,474.5,475,475.5,476,476.5,477,477.5,478,478.5,479,479.5,480,480.5,481,481.5,482,482.5,483,483.5,484,484.5,485,485.5,486,486.5,487,487.5,488,488.5,489,489.5,490,490.5,491,491.5,492,492.5,493,493.5,494,494.5,495,495.5,496,496.5,497,497.5,498,498.5,499,499.5,500,500.5,501,501.5,502,502.5,503,503.5,504,504.5,505,505.5,506,506.5,507,507.5,508,508.5,509,509.5,510,510.5,511,511.5,512,512.5,513,513.5,514,514.5,515,515.5,516,516.5,517,517.5,518,518.5,519,519.5,520,520.5,521,521.5,522,522.5,523,523.5,524,524.5,525,525.5,526,526.5,527,527.5,528,528.5,529,529.5,530,530.5,531,531.5,532,532.5,533,533.5,534,534.5,535,535.5,536,536.5,537,537.5,538,538.5,539,539.5,540,540.5,541,541.5,542,542.5,543,543.5,544,544.5,545,545.5,546,546.5,547,547.5,548,548.5,549,549.5,550,550.5,551,551.5,552,552.5,553,553.5,554,554.5,555,555.5,556,556.5,557,557.5,558,558.5,559,559.5,560,560.5,561,561.5,562,562.5,563,563.5,564,564.5,565,565.5,566,566.5,567,567.5,568,568.5,569,569.5,570,570.5,571,571.5,572,572.5,573,573.5,574,574.5,575,575.5,576,576.5,577,577.5,578,578.5,579,579.5,580,580.5,581,581.5,582,582.5,583,583.5,584,584.5,585,585.5,586,586.5,587,587.5,588,588.5,589,589.5,590,590.5,591,591.5,592,592.5,593,593.5,594,594.5,595,595.5,596,596.5,597,597.5,598,598.5,599,599.5,600,600.5,601,601.5,602,602.5,603,603.5,604,604.5,605,605.5,606,606.5,607,607.5,608,608.5,609,609.5,610,610.5,611,611.5,612,612.5,613,613.5,614,614.5,615,615.5,616,616.5,617,617.5,618,618.5,619,619.5,620,620.5,621,621.5,622,622.5,623,623.5,624,624.5,625,625.5,626,626.5,627,627.5,628,628.5,629,629.5,630,630.5,631,631.5,632,632.5,633,633.5,634,634.5,635,635.5,636,636.5,637,637.5,638,638.5,639,639.5,640,640.5,641,641.5,642,642.5,643,643.5,644,644.5,645,645.5,646,646.5,647,647.5,648,648.5,649,649.5,650,650.5,651,651.5,652,652.5,653,653.5,654,654.5,655,655.5,656,656.5,657,657.5,658,658.5,659,659.5,660,660.5,661,661.5,662,662.5,663,663.5,664,664.5,665,665.5,666,666.5,667,667.5,668,668.5,669,669.5,670,670.5,671,671.5,672,672.5,673,673.5,674,674.5,675,675.5,676,676.5,677,677.5,678,678.5,679,679.5,680,680.5,681,681.5,682,682.5,683,683.5,684,684.5,685,685.5,686,686.5,687,687.5,688,688.5,689,689.5,690,690.5,691,691.5,692,692.5,693,693.5,694,694.5,695,695.5,696,696.5,697,697.5,698,698.5,699,699.5,700,700.5,701,701.5,702,702.5,703,703.5,704,704.5,705,705.5,706,706.5,707,707.5,708,708.5,709,709.5,710,710.5,711,711.5,712,712.5,713,713.5,714,714.5,715,715.5,716,716.5,717,717.5,718,718.5,719,719.5,720,720.5,721,721.5,722,722.5,723,723.5,724,724.5,725,725.5,726,726.5,727,727.5,728,728.5,729,729.5,730,730.5,731,731.5,732,732.5,733,733.5,734,734.5,735,735.5,736,736.5,737,737.5,738,738.5,739,739.5,740,740.5,741,741.5,742,742.5,743,743.5,744,744.5,745,745.5,746,746.5,747,747.5,748,748.5,749,749.5,750],
       "units": "nm"
    },
    "values": {
      "value": [0.0000010109,0.0000059182,0.0000088935,0.0000162164,0,0.0000111653,0.0000208212,0.0000218267,0.0000318661,0.0000553637,0.0000569739,0.0001157857,0.0001952433,0.0002690063,0.000775382,0.001683105,0.0021439421,0.0018648198,0.0016653943,0.0027447459,0.004136283,0.0043706726,0.0032340074,0.0021645729,0.0016194846,0.0014802582,0.0034245099,0.0416569002,0.1436923891,0.2286499441,0.1840857416,0.1201265603,0.1836302876,0.2481384426,0.2066035271,0.2219012231,0.3110571504,0.3511202037,0.3331445456,0.179393515,0.037902873,0.0110788289,0.0691596344,0.1674323976,0.1940228045,0.2943567038,0.9153012037,1.753695488,1.62332058,0.894438386,0.31286484,0.0348186307,0.0090647619,0.0148984734,0.2418470383,0.7912284732,1.108363032,0.776307404,0.4578984678,0.468634814,0.4384058416,0.920345664,1.425203681,0.9436940551,0.2651147842,0.1236430034,0.1288238615,0.0966633186,0.0404589698,0.0071933451,0.0021285615,0.0023958667,0.0049484698,0.1498629898,0.8387234807,1.801968575,2.080631971,1.559539199,0.6752849817,0.0707822889,0.1683196574,0.511009872,0.6995803118,0.4960951805,0.3323532343,0.2424178421,0.0754625201,0.0008496844,0.0003274508,0.0001195026,0.0003615457,0.0011745181,0.0017455798,0.0009280968,0.00006288,0.0005319443,0.0022899825,0.0031633689,0.0016618983,0.0026118669,0.0056243921,0.0050958046,0.0019046714,0.0042085182,0.0659038276,0.1364067644,0.1038893387,0.0329388827,0.0039029433,0.0060555814,0.0045397882,0.0013870791,0.000074948,0.0002364664,0.0006542702,0.0007598042,0.0006974192,0.000742652,0.0005557436,0.0001422713,0.0000183449,0.0000074277,0.0000199106,0.000019148,0.0000253341,0.0002375237,0.0010879784,0.0016231061,0.0013391576,0.0027096095,0.0042718593,0.0028763069,0.0235818345,0.0953768417,0.1482837796,0.0784211457,0.0112800822,0.0012312237,0.0062448778,0.0124916323,0.010004919,0.0031945657,0.0002089819,0.0013743916,0.0024756896,0.0016277637,0.0004413723,0.0000266866,0.0000161736,0.0001604658,0.0005425726,0.0007746474,0.0004276829,0.0001364237,0.0009850574,0.0117518725,0.0259484537,0.0344702639,0.0334769934,0.0171355959,0.0038040653,0.000209239,0.0002038523,0.0001636733,0.0000842055,0.0000541282,0.0000123707,0.0000139987,0.0000233554,0.0000161437,0.0000285124,0.0000297667,0.0000370322,0.0001121353,0.0002406073,0.0002758267,0.0001937006,0.0001909227,0.0005530319,0.0013091374,0.0020622148,0.002626806,0.0032025124,0.0028642656,0.0013956304,0.0003856039,0.0001597441,0.0001937035,0.0021020442,0.0099131772,0.0156796165,0.0085571697,0.0013627573,0.0001044972,0.0000813088,0.000103857,0.0002416322,0.0004143693,0.0003663092,0.0001803156,0.0000351152,0.0000260847,0.0000108556,0.0000217324,0.0000442869,0.0000904893,0.0001390083,0.0000833945,0.0000499059,0.0001116271,0.0002375571,0.0002904929,0.000133844,0.0000207554,0.0000297692,0.0000030355,0.000013434,0.0000243852,0.0000455784,0.000146621,0.0002466861,0.0003897733,0.0004835828,0.0003644641,0.0001625381,0.0000330385,0.0000181562,0.0000106095,0.0000289706,0.0000458072,0.0000835788,0.0001140755,0.0000797125,0.0000349082,0.0000264027,0.0000329933,0.0000287474,0.0000336243,0.0000246315,0.0000417474,0.0000394453,0.0000605957,0.0001343714,0.0002459447,0.0011437832,0.0050371597,0.0077263424,0.0047637522,0.0009529487,0.0001974532,0.000161856,0.0001122382,0.0000504735,0.0000297005,0.0000138447,0.0000146103,0.0000220788,0.000020469,0.0000133635,0.0000086208,0.0000129025,0.0000192059,0.000038102,0.0000475225,0.0000450214,0.0000408573,0.0000349611,0.0000315607,0.0000623331,0.0001754169,0.0002895011,0.0003438122,0.0003149703,0.0007116504,0.004201727,0.0075163008,0.0057854499,0.001863561,0.0003198366,0.0003703162,0.0004876266,0.0004180676,0.0002372205,0.0001039312,0.0000634184,0.0000446302,0.0000403715,0.0000444806,0.0000660053,0.0001197336,0.0002565717,0.0006389934,0.002167149,0.0090174759,0.0249263216,0.03606911,0.0275005177,0.0129178381,0.0063440958,0.0040775109,0.0022971341,0.0011447233,0.0005778896,0.0003367294,0.0002587333,0.0002318795,0.0002690519,0.0003424183,0.0004824785,0.0008003128,0.001173949,0.0016515395,0.0024834019,0.0051644156,0.0091735553,0.0103325024,0.0064253639,0.0026232596,0.0012202041,0.0009381287,0.001051961,0.0013770413,0.001789007,0.0018704683,0.0014411713,0.0009628218,0.0006935005,0.0006123714,0.0006479312,0.0007794114,0.0008948379,0.0008857423,0.0007572071,0.0005582783,0.0004366846,0.0003590674,0.0003582576,0.0003801593,0.0005284643,0.0007847065,0.0011941901,0.0016974502,0.0019502438,0.0020155953,0.0021264416,0.0028260292,0.0043096542,0.0054558557,0.0044685421,0.0023818784,0.0009942889,0.000527916,0.0003663492,0.0003114284,0.0003195093,0.0004070776,0.0005609157,0.0007702382,0.0008871587,0.0008169576,0.0006314046,0.0005000553,0.0004509158,0.0004012926,0.0003613054,0.0002753274,0.0001782834,0.0001142986,0.0000602994,0.0000587063,0.0000459424,0.0000299443,0.0000350685,0.0000286908,0.0000499365,0.0000477931,0.0000554437,0.0000648179,0.0001019623,0.0001765727,0.0003581204,0.000953339,0.0019532901,0.0027824198,0.0028497402,0.0023724355,0.0020600886,0.0020763725,0.0023945903,0.0028375394,0.0032534453,0.0033724376,0.0031693643,0.0027415489,0.0022522837,0.0018557152,0.0016336946,0.0015836403,0.0017000808,0.0019993763,0.002596728,0.0033459419,0.0040637739,0.0041859322,0.0037612375,0.0030253918,0.0022818292,0.0016630352,0.0011826135,0.0007719568,0.0005254571,0.000356934,0.0002382506,0.0001785892,0.0001531439,0.0001287738,0.0001264929,0.0001229191,0.0001414505,0.0001873759,0.0002690906,0.0004655845,0.0010272173,0.0021594502,0.0029840372,0.0026340324,0.001554669,0.0008052403,0.0005282963,0.0004286963,0.0004082839,0.0004157826,0.0004669538,0.0005776263,0.0007690268,0.0010456846,0.0015201326,0.0021502734,0.0028961259,0.0036345562,0.0041007097,0.0041287388,0.0039218687,0.0036104324,0.0033113672,0.003148627,0.0030367905,0.003112447,0.0032141476,0.0033542651,0.0033724373,0.0032287119,0.0029757323,0.0026623141,0.0023819099,0.002221497,0.0021731651,0.0023006476,0.0027131701,0.0034340192,0.0043726601,0.0053109848,0.005499369,0.0046815025,0.0034837569,0.0024137713,0.0017781616,0.0013963489,0.0012112069,0.0011312744,0.0011085171,0.0011882772,0.0014220225,0.0017427284,0.0022496409,0.0032406799,0.0047631734,0.007184526,0.0107001383,0.0145346932,0.017926747,0.0196579807,0.0197299998,0.0185178984,0.0167220794,0.0142803155,0.0117241032,0.0095671089,0.0077842865,0.0066377753,0.0059303497,0.0055920924,0.0057164007,0.0061245025,0.0069614341,0.0081639737,0.0091926511,0.0095318388,0.0087557454,0.0072583323,0.0056379633,0.0042135199,0.0033231613,0.0026959982,0.0023084029,0.0020629796,0.0019563357,0.0019105752,0.001918496,0.0019757673,0.0021042244,0.0022150357,0.0023866312,0.002658084,0.0028904232,0.0031670686,0.003538701,0.0039945613,0.0045205308,0.0053446977,0.0062998035,0.0073953918,0.0086624641,0.0097410697,0.0107100243,0.0113222711,0.0117528169,0.0121019101,0.0124632902,0.0129444627,0.0137350475,0.0141250361,0.0140254414,0.0131705413,0.0116018541,0.0098842485,0.0081842979,0.0069465647,0.0060451762,0.0054940251,0.0051037665,0.0049379747,0.0047828462,0.0045099976,0.0040595112,0.0033989458,0.0026627085,0.0020283065,0.0014839824,0.0010996709,0.0008248422,0.0006479637,0.000546651,0.0004537637,0.0004019541,0.0003564613,0.0003219397,0.0003211707,0.0003144288,0.0003055714,0.0003254182,0.0003487068,0.0003735507,0.0004440847,0.0004735562,0.0005927205,0.000718188,0.0009114029,0.0011596477,0.0016169481,0.0023057472,0.003497204,0.0056707459,0.0097482884,0.0178186633,0.0334896371,0.0599852055,0.0874594226,0.1013817266,0.0960922539,0.0826369301,0.0716277957,0.06631127,0.0663373992,0.071060881,0.0806919336,0.0968708172,0.121298328,0.1593121737,0.2198831588,0.3099229038,0.4504051507,0.6835685372,1.026672482,1.538748026,2.296092749,3.310956001,4.618748188,6.260948658,8.357914925,10.9116993,14.21168423,18.78296089,24.32476044,31.18364716,39.59708405,48.43348694,57.34039688,65.88494873,73.4618988,79.85977936,84.96533203,89.05179596,91.98542786,94.01422882,95.46235657,96.38258362,97.04212189,97.6385498,98.20383453,98.70767212,99.09194946,99.39910126,99.58731842,99.61475372,99.61388397,99.57363129,99.49443817,99.53684998,99.53508759,99.61426544,99.56856537,99.60186768,99.6159668,99.51055908,99.46008301,99.38736725,99.36080933,99.38308716,99.46513367,99.4450531,99.50267792,99.57338715,99.57004547,99.54685974,99.57707214,99.58262634,99.53588867,99.55135345,99.54841614,99.54698944,99.55619049,99.52230835,99.59646606,99.56291962,99.5911026,99.62563324,99.59157562,99.56811523,99.59911346,99.55649567,99.56902313,99.57914734,99.61166382,99.59780121,99.58674622,99.57226563,99.57631683,99.51334381,99.47366333,99.42432404,99.48636627,99.47415924,99.4936676,99.46312714,99.46887207,99.52298737,99.51102448,99.54456329,99.49614716,99.54870605,99.52378082,99.54968262,99.51976776,99.61256409,99.57136536,99.61258698,99.63603973,99.61761475,99.60855103,99.64252472,99.63176727,99.63220978,99.63200378,99.60260773,99.61715698,99.61976624,99.5931778,99.65358734,99.65476227,99.62828827,99.62529755,99.61437225,99.57763672,99.54205322,99.55419159,99.52362061,99.50379181,99.4888916,99.52688599,99.54682922,99.58208466,99.62211609,99.61341858,99.65935516,99.73356628,99.68370056,99.66479492,99.67001343,99.6182251,99.64151001,99.59205627,99.62754822,99.63309479,99.63238525,99.64511871,99.64698792,99.66264343,99.68345642,99.69913483,99.68388367,99.70790863,99.69371033,99.68869781,99.647995,99.68942261,99.68413544,99.71504211,99.7070694,99.70188141,99.73389435,99.66065216,99.66172791,99.65578461,99.64918518,99.63201904,99.56987,99.65135193,99.6233139,99.60666656,99.57952118,99.66786194,99.61288452,99.71740723,99.68690491,99.69313812,99.69206238,99.69535828,99.70453644,99.71748352,99.70650482,99.72884369,99.71317291,99.72958374,99.66508484,99.70774078,99.73771667,99.74095154,99.72415924,99.65678406,99.7050705,99.62936401,99.72123718,99.64199066,99.66590118,99.68175507,99.6247406,99.71051788,99.63047028,99.68558502,99.54142761,99.49237823,99.42277527,99.39279175,99.22337341,99.10436249,98.79337311,98.42904663,98.01577759,97.21931458,96.18374634,94.6516571,92.71748352,90.20043945,87.16505432,83.45198822,79.43043518,75.02687836,70.32022095,65.76474762,61.29256058,56.66196823,52.43118286,48.37340164,44.35565948,40.55007935,36.82820892,33.14546967,29.43367004,25.83425713,22.31051254,18.7352562,15.5701046,12.69248009,9.988222122,7.79253149,5.952538967,4.451500893,3.280050039,2.392713308,1.727224708,1.229643583,0.8834638596,0.6355079412,0.4489808381,0.3260083795,0.2371976078,0.1718138009,0.1265524626,0.0942994505,0.0704217553,0.0532532632,0.0407802537,0.0315785632,0.0244202092,0.0193805005,0.0155035565,0.0124238608,0.0102509754,0.0083954958,0.0068473071,0.0057605403,0.0048216749,0.0041686306,0.003577898,0.0030840714,0.0027401347,0.0024086665,0.00216428,0.0018918061,0.0017445849,0.0015970129,0.0014710663,0.0013864724,0.0013040891,0.0012056205,0.0012013348,0.0011771769,0.0010964783,0.0010452461,0.0010578375,0.0010284494,0.0010366581,0.0010108491,0.0010716532,0.0010997166,0.0010982074,0.0011337399,0.0011624577,0.0011468417,0.0012192513,0.0012986028,0.0012864097,0.0013315359,0.001367962,0.0013824946,0.0014320526,0.0013673373,0.0014119996,0.0013377944,0.0013288026,0.0012453391,0.0011966133,0.0011407958,0.0011047896,0.0010600452,0.0010521545,0.0009938662,0.0009399912,0.0009593082,0.0009556985,0.0009650693,0.0009445637,0.0009766199,0.0009534812,0.0010246341,0.0010756823,0.0011301652,0.0011604762,0.0012824759,0.0013696103,0.0014959594,0.0015992025,0.0017409102,0.0020126966,0.002289173,0.0025612267,0.0028494559,0.0032510615,0.0037610468,0.0040433514,0.0045760917,0.0047869901,0.0051489584,0.005495647,0.0054695667,0.0054453919,0.0052825687,0.0050994325,0.0048775482,0.0045234477],
      "range": 100
    }
  },
  {
    "model": "Astrodon Gen 2 RGB",
    "name": "Astrodon Green (E series)",
    "type": "MONO_FILTER",
    "dataQualityMarker": 4,
    "dataSource": "High resolution OEM tabulated data from website",
    "manufacturer": "Astrodon",
    "channel": "GREEN",
    "version": 1,
    "wavelength": { 
       "value":  [350,351,352,353,354,355,356,357,358,359,360,361,362,363,364,365,366,367,368,369,370,371,372,373,374,375,376,377,378,379,380,381,382,383,384,385,386,387,388,389,390,391,392,393,394,395,396,397,398,399,400,401,402,403,404,405,406,407,408,409,410,411,412,413,414,415,416,417,418,419,420,421,422,423,424,425,426,427,428,429,430,431,432,433,434,435,436,437,438,439,440,441,442,443,444,445,446,447,448,449,450,451,452,453,454,455,456,457,458,459,460,461,462,463,464,465,466,467,468,469,470,471,472,473,474,475,476,477,478,479,480,481,482,483,484,485,486,487,488,489,490,491,492,493,494,495,496,497,498,499,500,501,502,503,504,505,506,507,508,509,510,511,512,513,514,515,516,517,518,519,520,521,522,523,524,525,526,527,528,529,530,531,532,533,534,535,536,537,538,539,540,541,542,543,544,545,546,547,548,549,550,551,552,553,554,555,556,557,558,559,560,561,562,563,564,565,566,567,568,569,570,571,572,573,574,575,576,577,578,579,580,581,582,583,584,585,586,587,588,589,590,591,592,593,594,595,596,597,598,599,600,601,602,603,604,605,606,607,608,609,610,611,612,613,614,615,616,617,618,619,620,621,622,623,624,625,626,627,628,629,630,631,632,633,634,635,636,637,638,639,640,641,642,643,644,645,646,647,648,649,650,651,652,653,654,655,656,657,658,659,660,661,662,663,664,665,666,667,668,669,670,671,672,673,674,675,676,677,678,679,680,681,682,683,684,685,686,687,688,689,690,691,692,693,694,695,696,697,698,699,700,701,702,703,704,705,706,707,708,709,710,711,712,713,714,715,716,717,718,719,720,721,722,723,724,725,726,727,728,729,730,731,732,733,734,735,736,737,738,739,740,741,742,743,744,745,746,747,748,749,750],
       "units": "nm"
    },
    "values": {
      "value": [0.00000399292070925486,0.0000175378727379876,0.0000511763597599692,0.00007260248769096,0.0000900988609876859,0.0000572483543364341,0.00853945908622253,0.000274152781773778,0.00477903096976045,0.000538494000408813,0.0022818912069144,0.000277273500380204,0.00208779986776036,0.00357204000265046,0.0236166424098709,0.0264207387772121,0.00995566126562946,0.0302957116789497,0.000379490019016102,0.000357497023095182,0.000246084055623563,0.0000220229282239336,0.0000184822339243545,0.000129232664136239,0.000185290055743406,0.000104147740743376,0.00285273297309893,0.000158306546100877,0.000341947664641403,0.00949802800539968,0.00700002098569688,0.000319560130214671,0.0000847309239891899,0.000136549162447038,0.00183328208998505,0.00107777916246013,0.000879278354903437,0.00105955904180387,0.00884630642121424,0.000171744435907108,0.0000760331057550696,0.000116347200582169,0.000684001609593752,0.00751512754550061,0.00803345243654041,0.00145984156473829,0.00107639857839441,0.00498803452630675,0.00733326316949717,0.00438842200374204,0.00332137800893501,0.0027628651765425,0.0242010203380277,0.00298105495000975,0.00115717414360214,0.00166297800511159,0.0040552029183613,0.00762735525498474,0.0140588973779864,0.00910050306547466,0.00698859108596592,0.00155423972075424,0.000716847872114145,0.000890111731820751,0.00338620991835241,0.00901017282379476,0.00828735003109861,0.0823718680539202,0.00798763814938425,0.00728715429485169,0.0350119345100559,0.00542689249359961,0.00255867116509892,0.00213659869229212,0.00309003941260194,0.00474325579160404,0.000799037655527017,0.000460817579853789,0.00143022147951053,0.000265889310757903,0.0000458037741285358,0.0000223903629993964,0.0000217268313176987,0.0000429161475174584,0.000228844236123812,0.000236172648198708,0.000142111571878726,0.000495527671954598,0.000513054128896782,0.0000768100003579284,0.0000515791235010217,0.0000869271481127448,0.000493817673882501,0.000596703732033806,0.000292578145235115,0.000745146602330565,0.000274640278810379,0.0000652884244238641,0.0000398474551194558,0.0000466740950879874,0.000104885668687103,0.000481560944773096,0.000687163842667809,0.000697718299812562,0.00564604537403367,0.000502030430663712,0.000127868415283401,0.0000817364626779675,0.0000923871016703453,0.000176544073517985,0.000602927556557991,0.00168336074057283,0.0012866851473883,0.00167537741720196,0.00583996813053833,0.0124088789992467,0.00514515880035759,0.0072005086154279,0.0342796942813197,0.00444275522186823,0.0014325338982002,0.000973827786039682,0.00107129111874025,0.00177203069529536,0.00397835776726653,0.00655354720242997,0.0054464297908668,0.00499886380407067,0.00658085789103854,0.0125904370593077,0.033035601661011,0.0736910824631208,0.0824170196844629,0.0916653309981173,0.145397760323886,0.335836316244736,0.946711177951212,1.7087259888715,1.98787552188357,2.78172651754806,5.26310545062487,11.8814281562573,24.6694639197465,40.8129523825525,59.6337770680217,78.4290524536991,90.4302161575476,96.1477045283704,98.5887192337096,99.1470744582775,99.106069888497,99.143290726151,99.1824159630356,99.1664101441574,99.1787772269154,99.2028479412904,99.2008996263763,99.2098622547656,99.2400915903268,99.2534495764823,99.2526849751279,99.2715982294925,99.301922971759,99.3139704817856,99.3180832750287,99.3406713277323,99.3724915200957,99.3908468295137,99.4012707944533,99.4207039274128,99.4428224415076,99.4534077415961,99.4604871303696,99.478680071685,99.5009831317508,99.511393645634,99.5136199670939,99.5229735954668,99.5377094161295,99.5431878840817,99.5391201095635,99.5395845358034,99.5474845055246,99.550266692904,99.5442657611069,99.5416867312762,99.5465988865733,99.5446436266106,99.5275691502389,99.5105788182823,99.5088609982507,99.5114904658538,99.4995783188226,99.4781637776586,99.4667812977829,99.4642488824278,99.4516041706214,99.4286755918438,99.412716680114,99.402132574663,99.3875192842835,99.3825262634785,99.2839060218962,98.5472168770501,96.1669044301279,91.4874762843504,85.1258313709863,78.4331076666041,72.08101171524,65.5672220609921,58.1655206197462,50.044185869856,41.7712370894457,33.1166200548489,23.6037342303938,14.5409229801603,8.00027580079633,4.20680105764799,2.21392971741048,1.18616630303653,0.648732944702679,0.362363538230181,0.207074532026059,0.121814383820647,0.0744452512833449,0.0477673344086363,0.0325322875891015,0.0237474228507688,0.0187555871496124,0.0161655242472314,0.0152972626542014,0.0158263895093955,0.0172239351409617,0.0174701290878725,0.0138977838849753,0.00870808375814329,0.00511066617880953,0.00315044885554386,0.00211174513620407,0.00154140042951727,0.00121491655132859,0.00102253260038317,0.000907868596971214,0.000839851056753518,0.000800175522826522,0.00077829265112768,0.000769699645970754,0.000775525068350793,0.000801496175260984,0.000857281642370268,0.000956585925822894,0.00111712278606405,0.00135915387426525,0.00168968328832995,0.00206556702361379,0.00236692113406768,0.00247981009746215,0.00242588904002259,0.00231769941433603,0.00223857153919363,0.00221361805653467,0.00223160643127054,0.00226900113960699,0.00231166009307621,0.00237245875519473,0.00249522180400182,0.00275166440757417,0.00325274687426364,0.0041902785985099,0.00590630973557641,0.00887530927200365,0.0130720177874312,0.0169171932279392,0.0193939913803724,0.0222817779866629,0.025197866387618,0.0189338991313255,0.00860522993840965,0.00375243273322065,0.00189335256999379,0.00111478811656263,0.000751196622705729,0.000568770699597149,0.000478135764132906,0.000442997818551608,0.000450563199324581,0.000502072541302153,0.000611700302336643,0.000809146602390748,0.00113538360814153,0.00159301792004085,0.00202497771256238,0.00219127407241139,0.00212622197725402,0.00204255862957198,0.00206353100682855,0.00222519010684624,0.00251960737037382,0.00287312955805533,0.00309170548187679,0.0029054560802648,0.00225400947830678,0.00146074357964607,0.000854472868453332,0.000490470797326128,0.000291173329774703,0.000183157758470589,0.00012309422007743,0.0000884771487123998,0.0000678867183793095,0.0000554450776417744,0.0000480583948254934,0.0000440688362188339,0.0000426237239070937,0.0000433415993357473,0.0000461499623589796,0.0000511953781946067,0.0000587774720123925,0.0000692874581635275,0.0000831893027518936,0.000101186925925832,0.000124773952053518,0.000157715026527094,0.000208786664178967,0.000298985408643075,0.00048314932130075,0.000909466623181045,0.0016756069687817,0.00144195284185975,0.000696134801525295,0.000362779501104028,0.000223721481573418,0.000158270931550823,0.000124659897073756,0.000107061692309801,0.0000988022966705855,0.000096893213932163,0.000100027716357711,0.000107744376166977,0.00012001808079136,0.000137033014028133,0.000159046213116777,0.000186700495498904,0.000221384264256454,0.00026613871636054,0.000326923034203569,0.000414598136963835,0.000548498277316605,0.000762866186991088,0.00111580451096466,0.00168780394043691,0.00251319167884541,0.00340222731238045,0.0039792870003416,0.00419679746823956,0.00435842565329648,0.00472957996537569,0.00544154453092884,0.0064526972147805,0.00735114421296934,0.00746342974024796,0.00674632839322559,0.00585936133590244,0.00526876983054944,0.00508872697168257,0.00527889726996089,0.00563474441768592,0.00560492971540349,0.00467687936174588,0.00331371822726963,0.00222223388085466,0.00153543222511957,0.00113116500338416,0.000896102394535442,0.000762605851082684,0.000694735405879928,0.000674960356579104,0.000696903328827006,0.000762176781758988,0.00087960132621726,0.00106562916929944,0.00134374924373859,0.00174235543382388,0.0022795264852171,0.00293109566437614,0.00358322824834165,0.00401053281295095,0.00397234058985995,0.00344209589808482,0.00267767957993545,0.00196613472488485,0.0014291143141943,0.00106094215853643,0.000818216905701541,0.000660711883813435,0.000560284280210197,0.000499213515295207,0.000467037289816383,0.000458130506714001,0.000470157264190511,0.000503039035049433],
      "range": 100
    }
  },
  {
    "model": "Astrodon Gen 2 RGB",
    "name": "Astrodon Green (I series)",
    "type": "MONO_FILTER",
    "dataQualityMarker": 4,
    "dataSource": "High resolution OEM tabulated data from website",
    "manufacturer": "Astrodon",
    "channel": "GREEN",
    "version": 1,
    "wavelength": { 
       "value":  [290,290.5,291,291.5,292,292.5,293,293.5,294,294.5,295,295.5,296,296.5,297,297.5,298,298.5,299,299.5,300,300.5,301,301.5,302,302.5,303,303.5,304,304.5,305,305.5,306,306.5,307,307.5,308,308.5,309,309.5,310,310.5,311,311.5,312,312.5,313,313.5,314,314.5,315,315.5,316,316.5,317,317.5,318,318.5,319,319.5,320,320.5,321,321.5,322,322.5,323,323.5,324,324.5,325,325.5,326,326.5,327,327.5,328,328.5,329,329.5,330,330.5,331,331.5,332,332.5,333,333.5,334,334.5,335,335.5,336,336.5,337,337.5,338,338.5,339,339.5,340,340.5,341,341.5,342,342.5,343,343.5,344,344.5,345,345.5,346,346.5,347,347.5,348,348.5,349,349.5,350,350.5,351,351.5,352,352.5,353,353.5,354,354.5,355,355.5,356,356.5,357,357.5,358,358.5,359,359.5,360,360.5,361,361.5,362,362.5,363,363.5,364,364.5,365,365.5,366,366.5,367,367.5,368,368.5,369,369.5,370,370.5,371,371.5,372,372.5,373,373.5,374,374.5,375,375.5,376,376.5,377,377.5,378,378.5,379,379.5,380,380.5,381,381.5,382,382.5,383,383.5,384,384.5,385,385.5,386,386.5,387,387.5,388,388.5,389,389.5,390,390.5,391,391.5,392,392.5,393,393.5,394,394.5,395,395.5,396,396.5,397,397.5,398,398.5,399,399.5,400,400.5,401,401.5,402,402.5,403,403.5,404,404.5,405,405.5,406,406.5,407,407.5,408,408.5,409,409.5,410,410.5,411,411.5,412,412.5,413,413.5,414,414.5,415,415.5,416,416.5,417,417.5,418,418.5,419,419.5,420,420.5,421,421.5,422,422.5,423,423.5,424,424.5,425,425.5,426,426.5,427,427.5,428,428.5,429,429.5,430,430.5,431,431.5,432,432.5,433,433.5,434,434.5,435,435.5,436,436.5,437,437.5,438,438.5,439,439.5,440,440.5,441,441.5,442,442.5,443,443.5,444,444.5,445,445.5,446,446.5,447,447.5,448,448.5,449,449.5,450,450.5,451,451.5,452,452.5,453,453.5,454,454.5,455,455.5,456,456.5,457,457.5,458,458.5,459,459.5,460,460.5,461,461.5,462,462.5,463,463.5,464,464.5,465,465.5,466,466.5,467,467.5,468,468.5,469,469.5,470,470.5,471,471.5,472,472.5,473,473.5,474,474.5,475,475.5,476,476.5,477,477.5,478,478.5,479,479.5,480,480.5,481,481.5,482,482.5,483,483.5,484,484.5,485,485.5,486,486.5,487,487.5,488,488.5,489,489.5,490,490.5,491,491.5,492,492.5,493,493.5,494,494.5,495,495.5,496,496.5,497,497.5,498,498.5,499,499.5,500,500.5,501,501.5,502,502.5,503,503.5,504,504.5,505,505.5,506,506.5,507,507.5,508,508.5,509,509.5,510,510.5,511,511.5,512,512.5,513,513.5,514,514.5,515,515.5,516,516.5,517,517.5,518,518.5,519,519.5,520,520.5,521,521.5,522,522.5,523,523.5,524,524.5,525,525.5,526,526.5,527,527.5,528,528.5,529,529.5,530,530.5,531,531.5,532,532.5,533,533.5,534,534.5,535,535.5,536,536.5,537,537.5,538,538.5,539,539.5,540,540.5,541,541.5,542,542.5,543,543.5,544,544.5,545,545.5,546,546.5,547,547.5,548,548.5,549,549.5,550,550.5,551,551.5,552,552.5,553,553.5,554,554.5,555,555.5,556,556.5,557,557.5,558,558.5,559,559.5,560,560.5,561,561.5,562,562.5,563,563.5,564,564.5,565,565.5,566,566.5,567,567.5,568,568.5,569,569.5,570,570.5,571,571.5,572,572.5,573,573.5,574,574.5,575,575.5,576,576.5,577,577.5,578,578.5,579,579.5,580,580.5,581,581.5,582,582.5,583,583.5,584,584.5,585,585.5,586,586.5,587,587.5,588,588.5,589,589.5,590,590.5,591,591.5,592,592.5,593,593.5,594,594.5,595,595.5,596,596.5,597,597.5,598,598.5,599,599.5,600,600.5,601,601.5,602,602.5,603,603.5,604,604.5,605,605.5,606,606.5,607,607.5,608,608.5,609,609.5,610,610.5,611,611.5,612,612.5,613,613.5,614,614.5,615,615.5,616,616.5,617,617.5,618,618.5,619,619.5,620,620.5,621,621.5,622,622.5,623,623.5,624,624.5,625,625.5,626,626.5,627,627.5,628,628.5,629,629.5,630,630.5,631,631.5,632,632.5,633,633.5,634,634.5,635,635.5,636,636.5,637,637.5,638,638.5,639,639.5,640,640.5,641,641.5,642,642.5,643,643.5,644,644.5,645,645.5,646,646.5,647,647.5,648,648.5,649,649.5,650,650.5,651,651.5,652,652.5,653,653.5,654,654.5,655,655.5,656,656.5,657,657.5,658,658.5,659,659.5,660,660.5,661,661.5,662,662.5,663,663.5,664,664.5,665,665.5,666,666.5,667,667.5,668,668.5,669,669.5,670,670.5,671,671.5,672,672.5,673,673.5,674,674.5,675,675.5,676,676.5,677,677.5,678,678.5,679,679.5,680,680.5,681,681.5,682,682.5,683,683.5,684,684.5,685,685.5,686,686.5,687,687.5,688,688.5,689,689.5,690,690.5,691,691.5,692,692.5,693,693.5,694,694.5,695,695.5,696,696.5,697,697.5,698,698.5,699,699.5,700,700.5,701,701.5,702,702.5,703,703.5,704,704.5,705,705.5,706,706.5,707,707.5,708,708.5,709,709.5,710,710.5,711,711.5,712,712.5,713,713.5,714,714.5,715,715.5,716,716.5,717,717.5,718,718.5,719,719.5,720,720.5,721,721.5,722,722.5,723,723.5,724,724.5,725,725.5,726,726.5,727,727.5,728,728.5,729,729.5,730,730.5,731,731.5,732,732.5,733,733.5,734,734.5,735,735.5,736,736.5,737,737.5,738,738.5,739,739.5,740,740.5,741,741.5,742,742.5,743,743.5,744,744.5,745,745.5,746,746.5,747,747.5,748,748.5,749,749.5,750],
       "units": "nm"
    },
    "values": {
      "value": [0.0000788334,0,0,0,0,0.0000004911,0,0.0000611951,0.0000140951,0.0002282194,0,0.0001969578,0.0001072597,0.0001324033,0.0001810966,0.0003277544,0.0001081293,0.0003195564,0.0004166669,0.0005261159,0.0005858334,0.0005447649,0.0005199641,0.0016969386,0.0044671129,0.0071836556,0.0081809042,0.0031053936,0.0003654446,0.0003574956,0.0015730576,0.0052867732,0.0080920141,0.0067885742,0.0045351093,0.0015322994,0.0009243255,0.0032331634,0.0049965484,0.0035410461,0.0008862577,0,0.0007521996,0.0013814913,0.0037843084,0.0061844541,0.0058702501,0.0029404985,0.001136531,0.0005526529,0.0007448064,0.0009728141,0.0014505329,0.0066276086,0.0245616268,0.0422469862,0.0404998623,0.0248600356,0.0128017357,0.0071085561,0.004623957,0.018732639,0.0438393988,0.0556141846,0.0419176817,0.0198222753,0.0078414781,0.0046952711,0.0022429836,0.0017664958,0.0016632777,0.0018472443,0.0019139238,0.003452467,0.0043908181,0.0060952893,0.0039411434,0.0015766961,0.0080388924,0.0336006731,0.0577392653,0.0524096526,0.0240200553,0.0042251516,0.0020633007,0.0059817047,0.0080261491,0.0043436326,0.0010582627,0.000151015,0.000425038,0.000665122,0,0.0002485537,0,0.0001363464,0.0007596913,0.0014900737,0.0014530203,0.0001108518,0,0.0003640374,0.0000380752,0,0.0001467765,0.0004058877,0.0005597444,0.0003639905,0.0001784462,0.000252384,0,0.0000234279,0,0,0.0000422512,0.0001109251,0.0003975628,0,0,0,0,0.000502758,0.0003319949,0.0033769771,0.0078107025,0.0095313713,0.0046732998,0.0006819101,0.0000836039,0.0030193941,0.0048279995,0.0036390943,0.0005926341,0.0029133898,0.0086201988,0.0130043449,0.0080677988,0.0035418605,0.0026123931,0.0009348993,0.0002795459,0.0018890109,0.0031195618,0.0021992563,0.0004033278,0.0000581019,0,0.0005576689,0.0136673991,0.0347863994,0.0357367545,0.0216630306,0.0133340964,0.0148857292,0.0121720852,0.0127856098,0.0125844246,0.0075971265,0.0020662325,0,0,0,0.0003808951,0.000398647,0.0002545343,0.0001990755,0.0001122841,0.0002454279,0.0000816237,0.0004886894,0.000953652,0.0007690783,0.0000138847,0.0001540768,0.0001652935,0.0013350454,0.0008761957,0.0019599057,0.0035672886,0.0028873575,0.0010602491,0.0007184054,0.0017533613,0.0025379201,0.0014882159,0.0003787807,0,0.0001235448,0.0000258581,0.0002143196,0.0001970224,0.0000257638,0.0001663743,0,0,0.0004702149,0,0.0001904576,0.000109031,0.0001841181,0.0002711522,0,0.0001742829,0,0.0005067614,0.0000145947,0,0.0002652351,0.0003172865,0.0002145244,0.0002073396,0.0001078855,0,0.0006636331,0,0,0.0001336232,0.0001374165,0.0002426697,0.0002418473,0,0.0003978698,0.0001398174,0,0,0,0.0002350251,0.0002195781,0.0000787884,0.0003525642,0.0000275015,0,0.0000682687,0.000197048,0,0.0004066087,0.00004909,0.0002223736,0.0000598262,0.0000674616,0,0,0.0001301778,0,0,0.0001066221,0.0000650019,0,0,0.0001242127,0.0002248948,0.000133158,0,0.0002918502,0,0.0002139311,0.0000583423,0,0.0001583896,0.0001233691,0.000193096,0.0000057632,0.0001597648,0,0.000569702,0.0008862383,0.0018222367,0.0029937532,0.0045724404,0.0072673969,0.0109777628,0.009875128,0.0048819389,0.0016597471,0.0005674983,0.0003980967,0.0008771431,0.0009532713,0.0009625345,0.000599481,0.0000851906,0.0002844397,0.0000072582,0,0.0004298437,0.0007853143,0.0008846678,0.0007255538,0.0001714352,0.0000914584,0,0.000137282,0,0.0005707729,0.0027108493,0.0082820207,0.0127705513,0.0091680717,0.0034689845,0.000978471,0.0001916274,0.0000423303,0.0002033714,0.0001442811,0.0002526772,0.0006871271,0.002505508,0.0039421562,0.002684203,0.0007371837,0.0000433891,0.000074002,0.0001456387,0.0001007174,0.0000374093,0,0.0003027975,0.0001766085,0.0001904239,0.0000815888,0.000044134,0.0005406188,0.0000040223,0.0005037929,0.0001714661,0.0003759581,0.0004813459,0.0005450806,0.0003783726,0.0004659333,0.0004690216,0.0004923476,0.0005411748,0.0005967339,0.0001675172,0.000353641,0.000228435,0.0002807791,0.0004743385,0.0004523579,0.0008351709,0.0015203049,0.0019677286,0.0013298749,0.0010495906,0.0005911638,0.0006470394,0.0007578358,0.0009787688,0.0011866207,0.0014111003,0.0013271527,0.0011000838,0.0010842795,0.0015088279,0.0020968693,0.0029025443,0.0045721531,0.0047887093,0.0041796505,0.0032455933,0.0023386562,0.0019210613,0.0021077255,0.0023771203,0.0030252764,0.0036037636,0.0038575213,0.0031746451,0.0022666592,0.0016916702,0.0013898755,0.0013698214,0.0013711939,0.0015240412,0.0013222629,0.0015943896,0.0024210026,0.0025044035,0.003153461,0.003756091,0.004019713,0.0046272655,0.0052223671,0.0058319652,0.0076429453,0.0101492591,0.0151377562,0.0239694808,0.0432785675,0.0797236562,0.1449030638,0.2269253135,0.2911585271,0.3209084868,0.3303724229,0.3570612073,0.4203600883,0.5508186817,0.8023482561,1.267730713,2.180354834,4.083845615,7.686773777,14.21470165,24.61897278,36.75439835,48.89230347,58.9526062,66.62441254,73.03559875,78.8521347,84.35651398,89.36758423,93.60480499,96.76391602,98.60336304,99.38657379,99.62952423,99.63118744,99.62690735,99.65032959,99.71507263,99.7529068,99.78318787,99.80636597,99.75504303,99.80098724,99.78669739,99.75790405,99.75757599,99.69115448,99.69796753,99.6943512,99.69168091,99.73361969,99.7828064,99.73317719,99.77004242,99.78009796,99.76933289,99.80258179,99.80727386,99.79167175,99.79449463,99.80473328,99.80187225,99.80960083,99.79505157,99.83272552,99.81869507,99.8331604,99.82957458,99.81846619,99.8246994,99.78466797,99.80069733,99.79881287,99.78870392,99.80117798,99.82098389,99.83722687,99.84031677,99.79767609,99.76111603,99.79098511,99.78382111,99.76886749,99.79780579,99.79728699,99.84991455,99.84482574,99.79140472,99.79210663,99.78057098,99.79084015,99.78276062,99.75526428,99.7549057,99.74797821,99.78266144,99.71884918,99.75593567,99.77354431,99.75345612,99.74404144,99.74806976,99.77878571,99.78026581,99.7227478,99.75963593,99.71711731,99.76895142,99.78256226,99.78113556,99.76970673,99.69911957,99.74983215,99.72586823,99.64750671,99.64344788,99.65016174,99.65985107,99.65628815,99.7078476,99.74582672,99.76460266,99.75528717,99.75791168,99.72512817,99.75766754,99.76442719,99.79646301,99.751091,99.75340271,99.76925659,99.76486206,99.75894928,99.7394104,99.7869339,99.76250458,99.77840424,99.777565,99.73616791,99.75,99.72669983,99.72775269,99.688591,99.68405914,99.73182678,99.67358398,99.70911407,99.70797729,99.69216919,99.69774628,99.6995163,99.73383331,99.74589539,99.74700928,99.71055603,99.71607971,99.72373199,99.65231323,99.60919952,99.61109924,99.59296417,99.60863495,99.69276428,99.69203186,99.61528778,99.29460907,98.73154449,97.74760437,96.24158478,94.31799316,91.98252106,89.35267639,86.61842346,83.67971039,80.87795258,78.2576828,75.66546631,73.26609802,70.78436279,68.1914978,65.58393097,62.75421524,59.7301712,56.62898254,53.40297318,50.13713074,46.82209396,43.54150772,40.21484375,36.66595078,33.22517014,29.74768829,26.24973297,23.25795364,20.573452,18.23500633,16.19677925,14.11478233,11.73571014,9.107628822,6.446364403,4.200463295,2.582620382,1.555969834,0.9440893531,0.5788620114,0.3729663193,0.2479529232,0.1687820405,0.1204076931,0.0891397744,0.0666518286,0.0521907173,0.0418393351,0.0345667377,0.0289024375,0.0250554532,0.0221946538,0.0197922103,0.0187119488,0.0176328011,0.0168062821,0.0164420437,0.0160206743,0.0155393835,0.015244998,0.0146104591,0.0135897379,0.0125452224,0.0111376317,0.0094522238,0.0083196126,0.0067233522,0.0056759669,0.0046819355,0.0038172719,0.0032886844,0.0024265263,0.0020748675,0.0017049115,0.0015337457,0.001424163,0.0013752053,0.0010254368,0.0010522926,0.0007721371,0.0006707242,0.0008677745,0.0006479031,0.0009324054,0.0007541244,0.0006137156,0.0005564973,0.0006450655,0.0006173771,0.0005149561,0.0012740379,0.0008366402,0.000685953,0.000746134,0.0009617075,0.0010847606,0.0011991175,0.0010964222,0.0014197375,0.0016475343,0.0019075222,0.0018669725,0.0020221684,0.0026882882,0.002853994,0.0031357885,0.0033692359,0.0039792182,0.0047481521,0.005456314,0.0062719709,0.0072501148,0.0081054978,0.0097610252,0.0111573478,0.0128145218,0.0131987501,0.013807049,0.0139269428,0.0134441173,0.0124909664,0.0113946572,0.0109970383,0.0099599063,0.0094109345,0.0094210049,0.0086336043,0.0087877586,0.0088658733,0.0091014402,0.0097706784,0.0108124903,0.0117224613,0.0134977195,0.0145244133,0.0156697221,0.0156219145,0.0141654685,0.0124421641,0.0095430361,0.0075307833,0.0058381092,0.0041984729,0.0035525528,0.0026929828,0.0019998117,0.0018747138,0.0016525285,0.0016039414,0.001240729,0.0011694379,0.0012519031,0.0011850143,0.000977523,0.0011613518,0.0010371709,0.001367703,0.0013929089,0.0014916981,0.0016573025,0.0018493622,0.0023089303,0.0025996715,0.0025064626,0.0025645334,0.0024383049,0.0021813493,0.0019376539,0.0014950257,0.001011194,0.0009061979,0.0006865211,0.0005687511,0.0005178462,0.0003690168,0.0002022221,0.0002778978,0.0000844699,0.0000494301,0.0002270475,0.0002368535,0.0000863236,0.0003060484,0.0000582054,0.0000988073,0,0,0.0001609545,0.0001513914,0.000040896,0.0002160517,0,0,0,0,0.0001655331,0,0.0001032593,0,0.0001297351,0,0.0000494465,0,0.0001169103,0.0001993514,0.0001527452,0.000196989,0,0,0.0000580219,0,0,0,0.0000529876,0,0.0002080291,0,0,0.0000755682,0.0002668072,0.0002342621,0,0.0000869715,0,0,0.0001344354,0,0.0001217116,0.0002709129,0.0000499413,0.0003367359,0,0.000417889,0.0001900172,0.0005575287,0.0005077714,0.0010815992,0.0012944719,0.0023217385,0.0017505845,0.0015666666,0.0007986911,0.0007404219,0.0002675802,0.0000545695,0.0002533811,0.0000560359,0.0001501636,0.0000751827,0.0000894891,0.0002170893,0.0000702581,0.0000503282,0,0.0001259565,0,0,0.0000919445,0,0,0,0,0.0001714277,0,0,0,0,0,0,0.0001621101,0.0003053115,0.0001867051,0.0002393288,0.000077593,0.000103649,0.0003483137,0.0002721689,0.000379346,0,0.000302486,0.0002390074,0.0002959292,0.0001681406,0.0001217838,0.0002005248,0.0002066307,0.000125714,0.0000784134,0.0001334642,0.0002748436,0.0000154526,0.0001776384,0.0000509056,0.0000971332,0.0000815532,0.0002392062,0.0001358419,0.0003619297,0.0001241046,0.0001242457,0.0001571738,0.0002614441,0.0003829759,0.0002549118,0.0004411866,0.000375941,0.0007569435,0.0010102986,0.0016719466,0.0023875064,0.0031823504,0.0032526248,0.0028145842,0.0025898996,0.0024238939,0.0013701593,0.0012201264,0.0013744737,0.0010074452,0.0011383289,0.000801169,0.0008888009,0.0009464155,0.0010251489,0.0010754759,0.0010298559,0.0012754358,0.0012379492,0.0015043058,0.0012833348,0.0016179491,0.0015018495,0.0018536621,0.0019494725,0.0018314893,0.0018865238,0.0013891316,0.0016006528,0.0014830177,0.001473577,0.0015063015,0.0013677053,0.0015855973,0.0014992481,0.0015670544,0.0017257724,0.0019135758,0.0017968094,0.0017373185,0.0018803497,0.0014642468,0.0013979758,0.0012427256,0.0010876304,0.001208081,0.0006250163,0.0004370037,0.0006915151,0.0008193603,0.0007200101,0.0006122806,0.0006290715,0.0002776173,0.0004131126,0.0006143472,0.0004629854,0.0003262985,0.000199502,0.0002716118,0.0003051072],
      "range": 100
    }
  },
  {
    "model": "Astrodon Gen 2 RGB",
    "name": "Astrodon Blue (E / I series)",
    "type": "MONO_FILTER",
    "dataQualityMarker": 4,
    "dataSource": "High resolution OEM tabulated data from website",
    "manufacturer": "Astrodon",
    "channel": "BLUE",
    "version": 1,
    "wavelength": { 
       "value":  [350,351,352,353,354,355,356,357,358,359,360,361,362,363,364,365,366,367,368,369,370,371,372,373,374,375,376,377,378,379,380,381,382,383,384,385,386,387,388,389,390,391,392,393,394,395,396,397,398,399,400,401,402,403,404,405,406,407,408,409,410,411,412,413,414,415,416,417,418,419,420,421,422,423,424,425,426,427,428,429,430,431,432,433,434,435,436,437,438,439,440,441,442,443,444,445,446,447,448,449,450,451,452,453,454,455,456,457,458,459,460,461,462,463,464,465,466,467,468,469,470,471,472,473,474,475,476,477,478,479,480,481,482,483,484,485,486,487,488,489,490,491,492,493,494,495,496,497,498,499,500,501,502,503,504,505,506,507,508,509,510,511,512,513,514,515,516,517,518,519,520,521,522,523,524,525,526,527,528,529,530,531,532,533,534,535,536,537,538,539,540,541,542,543,544,545,546,547,548,549,550,551,552,553,554,555,556,557,558,559,560,561,562,563,564,565,566,567,568,569,570,571,572,573,574,575,576,577,578,579,580,581,582,583,584,585,586,587,588,589,590,591,592,593,594,595,596,597,598,599,600,601,602,603,604,605,606,607,608,609,610,611,612,613,614,615,616,617,618,619,620,621,622,623,624,625,626,627,628,629,630,631,632,633,634,635,636,637,638,639,640,641,642,643,644,645,646,647,648,649,650,651,652,653,654,655,656,657,658,659,660,661,662,663,664,665,666,667,668,669,670,671,672,673,674,675,676,677,678,679,680,681,682,683,684,685,686,687,688,689,690,691,692,693,694,695,696,697,698,699,700,701,702,703,704,705,706,707,708,709,710,711,712,713,714,715,716,717,718,719,720,721,722,723,724,725,726,727,728,729,730,731,732,733,734,735,736,737,738,739,740,741,742,743,744,745,746,747,748,749,750],
       "units": "nm"
    },
    "values": {
      "value": [0.000000907586244614443,0.00000147248746344595,0.00000244433896886056,0.000000414397910764885,0.00000163918846885703,0.00000279791318489714,0.00000190121986090973,0.0000033383833473623,0.000000406513284362977,0.000000757001141005701,0.000699461707094564,0.00000340175792431031,0.000941131863666706,0.000002541338589882,0.0000025540426433835,0.0000624398837699888,0.0000219185956887255,0.0000716456280244293,0.0000604438995469897,0.0000288092063228043,0.000348495491673325,0.000323318570140846,0.00112009733549359,0.000402247054676341,0.000215183724032766,0.00304930564396626,0.001154258496685,0.00143285996117362,0.0388752200161372,0.00271697220528333,0.0246263786939056,0.00399102109302388,0.00225328063420435,0.00882954562073927,0.0380789155547987,0.0109914028940407,0.020725631211557,0.177166604680322,1.92447995580302,1.16609039973087,2.89409627387837,8.41714270406298,20.1409020299236,31.1426009760976,42.5397996526851,50.7602552525344,64.3794312225367,76.7300737664245,91.6395030906682,97.1733488437004,97.0138104169988,97.5109616856868,97.6556007900318,97.7293109877386,97.7644649705952,97.9397611383757,97.9067870513849,97.9609350338528,98.0586918399774,98.0815444377234,98.0617751681955,98.1899041868664,98.1844576912425,98.0771578187318,98.2015519893283,98.1910040540478,98.1769327685546,98.2411438009213,98.1610635396328,98.2203548074471,98.2606969308338,98.2041110630771,98.3360293536261,98.3507443620696,98.280759908654,98.38416538096,98.3972548502293,98.4215027739849,98.5648157860406,98.5562032872802,98.6029610106999,98.7612570938021,98.7048553025588,98.66067724552,98.7703959839862,98.7552536393028,98.7755660040351,98.9116891075976,98.8519527941377,98.7774298749894,98.9236474501662,98.9705001577839,98.8819142106787,98.9159064817866,98.9348308960804,98.8626594862556,98.886375922647,98.8986849060914,98.7964397241119,98.7893890042973,98.8551713256466,98.8121326336279,98.8004856371072,98.8859452097582,98.8774790554118,98.8451051605344,98.9249915397481,98.9051238019267,98.7461297429716,98.7582487104903,98.8971520475792,98.8705457797736,98.8271063501108,98.9677152273075,99.04061340716,98.9495133461386,98.9959205952461,99.1479949536818,99.097964415047,99.0081809116583,99.1506736385732,99.235637193641,99.044721230669,98.9729055810609,99.1939808693006,99.2713283184598,99.1027574511969,99.1273779460448,99.3456241534649,99.3247561463515,99.1557659459112,99.2267313263782,99.3393652415309,99.1633345777568,99.0297004282298,99.2406476984351,99.3589618025453,99.0948859368485,98.946755335602,99.1769825826136,99.2648208482821,98.9942001922797,98.8921377238289,99.13624112944,99.2754854015037,99.2033607743448,99.2139465616872,99.2452187662849,99.1619509239036,99.1759035890405,99.2225148445569,99.0846678785214,99.1174948695022,99.1965764982066,98.933016433725,99.1769834902762,89.8367165004524,54.0619543125124,24.015297021455,11.0123848547464,5.57882343101452,3.06518203843418,1.91029417525988,1.48722130466852,1.48760126295427,1.16533043907015,0.410073617436521,0.146794676266166,0.0761102374640182,0.06079267130857,0.0853852822299325,0.14680587752742,0.0277759994786599,0.00650145405472011,0.00254127914477777,0.00141595870364166,0.00106560558244304,0.00109857227439005,0.00169338700268903,0.00385551060920894,0.00206139557443481,0.000550096451615159,0.000230472168053612,0.00013576436338762,0.000103878343746416,0.000100641904945483,0.000124883032208519,0.000207923887292741,0.000464686203468452,0.000611582926093989,0.000275416659333862,0.00014296885693073,0.000102264911872495,0.0000960514748954581,0.000116174070748419,0.000184998730138786,0.000422159581517137,0.00175566396492413,0.0109646057068703,0.00367896089597619,0.00251142731497965,0.00396071715536759,0.00802900258745974,0.00258010686975389,0.000936759147688323,0.000562031756446587,0.000488059824614406,0.000585342777259295,0.000989129804804482,0.00250916691801557,0.00706758253222933,0.00590248565964165,0.00454208119069609,0.00683881032638125,0.0112216886684666,0.00276178216210548,0.000876707987178093,0.00044716764185301,0.000316896529960743,0.000292576966205606,0.000345849387700105,0.000528535692241978,0.00103782167406073,0.0019141854085486,0.00163415491589072,0.001070299453555,0.000901072324632573,0.00104714099303631,0.00172945800765664,0.00402942314488527,0.00632861572079974,0.00362753804177034,0.00253687951645516,0.00294419468979343,0.00560647289914528,0.00383107945512493,0.000957169348058421,0.000359080124461974,0.000189644282301356,0.000128269719230664,0.000106479693397674,0.000107277101478762,0.000132684585308262,0.00020514253382808,0.000356999776085211,0.000368891137291551,0.000196907716558762,0.000111665828248778,0.0000818219983398199,0.0000786515200225438,0.000101630823092255,0.000171143113727422,0.000172669475910435,0.0000629412325064766,0.0000247285593850283,0.0000126965985698707,0.00000808545995921205,0.00000614042627841267,0.00000546421345531212,0.00000569464121052566,0.00000706336824803852,0.0000107727219354972,0.0000206074414951799,0.0000349179638547881,0.0000218614126085182,0.0000100848238040725,0.00000574685621851623,0.00000406516446493086,0.00000344486085025325,0.00000343496635601096,0.00000402866629520104,0.00000562958100185603,0.00000946981343387856,0.0000167404146138668,0.0000169285100239349,0.00000930576753952688,0.00000519457640346892,0.00000344668157100889,0.00000268251290233966,0.00000239118741574944,0.0000024055254189757,0.00000271415773310585,0.00000344605242129144,0.00000498679288785616,0.00000843846985762795,0.0000173430480652355,0.0000423221629946784,0.0000692256974703654,0.0000436839744343126,0.0000252038553292787,0.0000177537670110721,0.000014911380807619,0.0000144156839435932,0.0000157214499605138,0.000019202661505077,0.0000263688552485358,0.0000412831286460393,0.0000749740845561679,0.000151762097255309,0.000238810923141899,0.000185735084216334,0.000113746254346686,0.00007795833840217,0.0000619530963196783,0.0000557177545046099,0.0000550587688706113,0.0000577977666986404,0.0000617890665895081,0.0000643000759814908,0.0000634606524261373,0.0000601260855110676,0.0000568884651906904,0.00005601109701682,0.0000591752932032766,0.0000685020329978182,0.0000880333377825679,0.000125126373734428,0.000184143722523551,0.000226474121345972,0.000190564996125584,0.000129869923917988,0.0000900395615649042,0.0000685448273127433,0.000057745596443183,0.0000534038700361411,0.0000537070354596901,0.0000582689202058901,0.0000677822504976973,0.0000841855530847768,0.000111478891408279,0.000157983643371908,0.000242747871425826,0.000418225886789296,0.000867562010117365,0.00247611494424626,0.0069255245171381,0.00281722387907012,0.00103386409941564,0.000541987355192013,0.00035814088344554,0.000278599162555658,0.000246976549943156,0.000245794758168614,0.000273402192081654,0.000340586096314541,0.000476903178488912,0.000741221224380522,0.0011628057320317,0.00140311930142339,0.00111933108398627,0.000764848589232773,0.000550371831163718,0.000437571931674768,0.000382710004088335,0.000362907712017339,0.00036734352670255,0.000390947616938633,0.000431361627213987,0.000488101969031938,0.00056391019440466,0.000668672916829,0.000826952260337585,0.00109661424743085,0.00162456577326491,0.00286329933692042,0.00655847035226986,0.0160268094897796,0.010020198078872,0.00385879484275185,0.00197408630272825,0.00127119274403653,0.000965129603065052,0.000833179660892347,0.000802778623823156,0.000856086855232876,0.00100898365601057,0.00131940385843071,0.00192741625420982,0.00314594364527234,0.00546785042005776,0.00825009093961708,0.00823025671634337,0.00623490649089145,0.00472511205515271,0.00393189042705575,0.00359344192173502,0.00350447905132383,0.00348672918799617,0.0033544663984064,0.00300321999872187,0.00250919430701491,0.00202867085923207,0.00165011893295358,0.00138484684981303,0.00121337354318612,0.00111372298368865,0.00106976312451156,0.0010716053018907,0.00111411802530161,0.00119541063264335,0.00131574227699175],
      "range": 100
    }
  }
]
