[
  {
    "model": "S0",
    "name": "Galaxy, spiral, S0",
    "type": "WB_REF",
    "dataQualityMarker": 3,
    "dataSource": "http://www.iasf-milano.inaf.it/~polletta/templates/swire_templates.html",
    "manufacturer": "SWIRE Template Library",
    "version": 1,
    "wavelength": { 
       "value": [1005,1015,1025,1035,1045,1055,1065,1075,1085,1095,1105,1115,1125,1135,1145,1155,1165,1175,1185,1195,1205,1215,1225,1235,1245,1255,1265,1275,1285,1295,1305,1315,1325,1335,1345,1355,1365,1375,1385,1395,1405,1415,1425,1435,1442,1447,1455,1465,1475,1485,1495,1505,1512,1517,1525,1535,1545,1555,1565,1575,1585,1595,1605,1615,1625,1635,1645,1655,1665,1672,1677,1685,1695,1705,1715,1725,1735,1745,1755,1765,1775,1785,1795,1805,1815,1825,1835,1845,1855,1865,1875,1885,1895,1905,1915,1925,1935,1945,1955,1967,1976,1984,1995,2005,2015,2025,2035,2045,2055,2065,2074,2078,2085,2095,2105,2115,2125,2135,2145,2155,2165,2175,2185,2195,2205,2215,2225,2235,2245,2255,2265,2275,2285,2295,2305,2315,2325,2335,2345,2355,2365,2375,2385,2395,2405,2415,2425,2435,2445,2455,2465,2475,2485,2495,2505,2513,2518,2525,2535,2545,2555,2565,2575,2585,2595,2605,2615,2625,2635,2645,2655,2665,2675,2685,2695,2705,2715,2725,2735,2745,2755,2765,2775,2785,2795,2805,2815,2825,2835,2845,2855,2865,2875,2885,2895,2910,2930,2950,2970,2990,3010,3030,3050,3070,3090,3110,3130,3150,3170,3190,3210,3230,3250,3270,3290,3310,3330,3350,3370,3390,3410,3430,3450,3470,3490,3510,3530,3550,3570,3590,3610,3630,3640,3650,3670,3690,3710,3730,3750,3770,3790,3810,3830,3850,3870,3890,3910,3930,3950,3970,3990,4010,4030,4050,4070,4090,4110,4130,4150,4170,4190,4210,4230,4250,4270,4290,4310,4330,4350,4370,4390,4410,4430,4450,4470,4490,4510,4530,4550,4570,4590,4610,4630,4650,4670,4690,4710,4730,4750,4770,4790,4810,4830,4850,4870,4890,4910,4930,4950,4970,4990,5010,5030,5050,5070,5090,5110,5130,5150,5170,5190,5210,5230,5250,5270,5290,5310,5330,5350,5370,5390,5410,5430,5450,5470,5490,5510,5530,5550,5570,5590,5610,5630,5650,5670,5690,5710,5730,5750,5770,5790,5810,5830,5850,5870,5890,5910,5930,5950,5970,5990,6010,6030,6050,6070,6090,6110,6130,6150,6170,6190,6210,6230,6250,6270,6290,6310,6330,6350,6370,6390,6410,6430,6450,6470,6490,6510,6530,6550,6570,6590,6610,6630,6650,6670,6690,6710,6730,6750,6770,6790,6810,6830,6850,6870,6890,6910,6930,6950,6970,6990,7010,7030,7050,7070,7090,7110,7130,7150,7170,7190,7210,7230,7250,7270,7290,7310,7330,7350,7370,7390,7410,7430,7450,7470,7490,7510,7530,7550,7570,7590,7610,7630,7650,7670,7690,7710,7730,7750,7770,7790,7810,7830,7850,7870,7890,7910,7930,7950,7970,7990,8010,8030,8050,8070,8090,8110,8130,8150,8170,8190,8210,8230,8250,8270,8290,8310,8330,8350,8370,8390,8410,8430,8450,8470,8490,8510,8530,8550,8570,8590,8610,8630,8650,8670,8690,8710,8730,8750,8770,8790,8810,8830,8850,8870,8890,8910,8930,8950,8970,8990,9010,9030,9050,9070,9090,9110,9130,9150,9170,9190,9210,9230,9250,9270,9290,9310,9330,9350,9370,9390,9410,9430,9450,9470,9490,9510,9530,9550,9570,9590,9610,9630,9650,9670,9690,9710,9730,9750,9770,9790,9810,9830,9850,9870,9890,9910,9930,9950,9970,9990,10030,10070,10130,10170,10220,10280,10320,10380,10430,10480,10520,10580,10630,10680,10720,10780,10820,10870,10920,10980,11020,11080,11130,11170,11220,11280,11330,11380,11430,11470,11530,11570,11620,11670,11730,11770,11830,11870,11920,11980,12030,12070,12120,12180,12230,12270,12320,12370,12430,12480,12530,12580,12620,12670,12720,12780,12830,12880,12920,12980,13020,13080,13130,13180,13230,13280,13320,13380,13430,13470,13520,13570,13630,13670,13730,13770,13820,13880,13930,13970,14020,14080,14120,14180,14230,14280,14330,14380,14420,14480,14520,14570,14620,14670,14720,14770,14830,14880,14920,14980,15030,15070,15120,15170,15220,15280,15330,15370,15430,15480,15520,15570,15620,15670,15720,15780,15830,15870,15930,15980,16050,16150,16250,16350,16450,16550,16650,16750,16850,16950,17050,17150,17250,17350,17450,17550,17650,17750,17850,17950,18050,18150,18250,18350,18450,18550,18650,18750,18850,18950,19050,19150,19250,19350,19450,19550,19650,19750,19850,19950,20050,20150,20250,20350,20450,20550,20650,20750,20850,20950,21050,21150,21250,21350,21450,21550,21650,21750,21850,21950,22050,22150,22250,22350,22450,22550,22650,22750,22850,22950,23050,23150,23250,23350,23450,23550,23650,23750,23850,23950,24050,24150,24250,24350,24450,24550,24650,24750,24850,24950,25050],
       "units": "angstrom"
    },
    "values": {
      "value": [0.0897489,0.0863186,0.0515279,0.0651696,0.104428,0.106582,0.0887917,0.100838,0.0815319,0.102354,0.104986,0.101875,0.0977266,0.115995,0.105864,0.113761,0.118708,0.0944558,0.111049,0.0660632,0.056123,0.0399203,0.0675151,0.112565,0.130356,0.123095,0.0953332,0.141045,0.152214,0.119905,0.109852,0.143518,0.140486,0.117352,0.15014,0.144077,0.125967,0.137535,0.13937,0.131393,0.13211,0.127164,0.133227,0.127563,0.136817,0.142003,0.136259,0.124612,0.12158,0.126287,0.130275,0.124452,0.109773,0.119665,0.110012,0.0955726,0.112086,0.103072,0.100678,0.106103,0.113204,0.116315,0.11113,0.111527,0.102912,0.108815,0.110731,0.0985245,0.109453,0.0910253,0.108177,0.116474,0.108177,0.101875,0.0958918,0.0948547,0.101476,0.0991626,0.108017,0.0943759,0.0999608,0.100599,0.109214,0.106741,0.0997216,0.0995618,0.0948547,0.0863186,0.0865579,0.0895095,0.0970085,0.0902277,0.0879939,0.0901478,0.0883926,0.087276,0.0868771,0.0918231,0.0871961,0.0954131,0.0967692,0.0918231,0.0883926,0.0895095,0.0852814,0.0885524,0.08576,0.0899882,0.0850422,0.0846433,0.0911849,0.0923018,0.095812,0.0900681,0.0883926,0.0903074,0.0900681,0.0812127,0.0880736,0.0902277,0.0846433,0.0836061,0.0856005,0.0895095,0.0858399,0.077942,0.0773116,0.0879939,0.0820106,0.0747827,0.0752215,0.0787956,0.08576,0.0789153,0.0808139,0.0748227,0.0574633,0.0657361,0.0594019,0.0724133,0.0597289,0.0648665,0.0548545,0.0614441,0.0588672,0.0617792,0.0736739,0.0712806,0.078979,0.0788594,0.0751258,0.0698366,0.0647229,0.0652495,0.0785882,0.0600879,0.0589391,0.0566735,0.0636061,0.0634385,0.0816914,0.0720306,0.0827286,0.0784207,0.0749105,0.0693579,0.0664301,0.0763624,0.0979659,0.118948,0.148066,0.1073,0.117431,0.12868,0.103231,0.119187,0.0962906,0.0845635,0.098684,0.0711928,0.0824094,0.0968492,0.102513,0.0785563,0.049677,0.0562745,0.0956524,0.118309,0.110092,0.0886321,0.0691746,0.108417,0.134823,0.12844,0.15006,0.195533,0.173355,0.16067,0.164739,0.166813,0.165218,0.176467,0.18213,0.199282,0.193619,0.224013,0.207101,0.209813,0.22896,0.200001,0.217791,0.188592,0.257599,0.298365,0.294536,0.273396,0.281931,0.27164,0.205983,0.231672,0.237735,0.251217,0.260791,0.270045,0.304189,0.325888,0.291903,0.33594,0.229837,0.234863,0.295654,0.313922,0.328361,0.371042,0.397129,0.352614,0.371441,0.249702,0.289909,0.374153,0.392103,0.373116,0.224413,0.305625,0.309055,0.351257,0.447229,0.241964,0.390428,0.263263,0.565379,0.627364,0.616755,0.591864,0.554289,0.674115,0.623056,0.620504,0.607581,0.618669,0.605186,0.611728,0.576149,0.619148,0.581653,0.547029,0.478103,0.676986,0.673315,0.745992,0.658239,0.697329,0.754289,0.762428,0.817713,0.839252,0.96131,0.831275,0.874353,0.947749,0.895894,0.918231,0.896691,0.90786,0.952535,0.936579,0.905467,0.935781,0.966896,0.949345,0.95413,0.955726,0.990031,0.932592,0.85122,0.953333,0.954929,0.932592,0.974075,0.951736,0.882332,0.828882,0.886321,0.880736,0.920626,0.865579,0.891106,0.856802,0.819308,0.746631,0.778782,0.854411,0.934984,0.98285,0.856802,0.998804,1.06981,0.92621,1.02434,1.01636,0.992423,0.976468,0.991626,1.01875,0.998804,1.00758,0.992423,1.0363,1.05305,1.02833,0.99801,1.0379,1.03231,1.05226,1.02434,1.06103,1.02035,1.11687,1.0722,1.08257,1.0363,1.08417,1.11926,1.07938,1.07619,0.927007,1.05465,1.06741,1.06821,1.08896,1.06981,1.05545,1.08815,1.11049,1.10731,1.06502,1.07061,1.00519,1.0371,0.970085,1.04029,1.02912,0.993217,0.96131,1.01077,1.03311,1.00519,1.02114,1.02354,1.01795,1.04109,1.02035,1.03072,1.02274,1.01955,0.999608,1.04029,1.04029,1.01476,0.962109,1.02274,1.03311,1.02035,1.02035,0.994021,1.00678,0.963703,0.991626,0.973278,0.978861,0.966098,0.972478,0.98684,0.958918,0.977266,0.993217,0.991626,0.984446,0.986041,1.0012,0.997216,0.984446,1.00758,1.01157,0.974873,0.938974,0.912647,0.890311,0.886321,0.900681,0.878343,0.901478,0.92621,0.934984,0.943759,0.932592,0.963703,0.967692,0.980457,1.00998,0.991626,0.992423,1.02035,1.01875,1.03869,1.0379,1.04986,1.06981,1.07859,1.0746,1.04667,1.02513,0.99801,0.972478,0.91903,0.943759,0.92541,0.928603,0.92222,0.935781,0.943759,0.943759,0.935781,0.923018,0.941367,0.9294,0.907063,0.911849,0.904669,0.938175,0.938974,0.951736,0.957323,0.958918,0.974873,0.967692,0.980457,1.01397,1.02912,1.04109,1.00279,0.991626,0.99801,0.996412,1.00599,0.994021,0.958918,0.950142,0.950939,0.956524,0.920626,0.954929,0.903871,0.879939,0.880736,0.886321,0.848825,0.884725,0.811331,0.917432,0.90786,0.919827,0.938974,0.94057,0.844039,0.91903,0.956524,0.966098,0.958918,0.977266,0.990829,0.970884,0.981254,0.980457,0.939771,0.952535,0.964501,0.94695,0.950142,0.95413,0.956524,0.928603,0.966098,0.99801,0.999608,0.981254,0.994815,1.01316,1.00599,1.00599,1.01795,0.97567,0.94695,0.942962,0.949345,0.933389,0.939771,0.942166,0.938175,0.921422,0.94057,0.923815,0.947749,0.934186,0.95812,0.960513,0.941367,0.948547,0.932592,0.942166,0.960513,0.946152,0.953333,0.933389,0.934984,0.950939,0.934186,0.923815,0.921422,0.927007,0.912647,0.938175,0.927804,0.935781,0.9294,0.928603,0.916635,0.923815,0.927007,0.927804,0.92541,0.92541,0.914244,0.924613,0.913445,0.917432,0.919827,0.909455,0.903073,0.907063,0.892702,0.881535,0.861589,0.852814,0.845635,0.852016,0.846433,0.833668,0.831275,0.830476,0.818511,0.811331,0.796411,0.793939,0.788275,0.788115,0.777823,0.777026,0.770006,0.761391,0.771681,0.768809,0.759555,0.747111,0.746312,0.748466,0.729877,0.721741,0.7081,0.718868,0.694297,0.708179,0.702514,0.703153,0.704349,0.699723,0.694297,0.688794,0.686959,0.674911,0.672519,0.665898,0.663584,0.659117,0.653053,0.653053,0.652654,0.631673,0.640847,0.633109,0.639332,0.631034,0.632152,0.616755,0.61508,0.614681,0.603113,0.601915,0.594817,0.595933,0.590349,0.585084,0.576547,0.573037,0.575829,0.577266,0.575589,0.575749,0.569686,0.542722,0.538573,0.532989,0.536818,0.529877,0.534824,0.529399,0.520623,0.529399,0.533627,0.521102,0.529559,0.52541,0.527884,0.516076,0.512566,0.508338,0.511529,0.514241,0.508258,0.52174,0.517193,0.508498,0.510811,0.520623,0.522298,0.522139,0.52541,0.524372,0.523096,0.519028,0.520224,0.515597,0.502275,0.506184,0.504509,0.515198,0.484325,0.48608,0.485601,0.500361,0.490547,0.492303,0.499801,0.485443,0.499801,0.479619,0.490788,0.478661,0.476667,0.469088,0.470045,0.460472,0.452733,0.443559,0.430316,0.424173,0.415239,0.406144,0.394417,0.387157,0.376786,0.366335,0.359634,0.354449,0.349422,0.340168,0.33626,0.327404,0.319426,0.318868,0.307619,0.31121,0.305705,0.301876,0.293819,0.286878,0.285203,0.280415,0.272597,0.269805,0.266774,0.265497,0.261828,0.256084,0.25377,0.252973,0.249063,0.246191,0.244198,0.241006,0.236937,0.237016,0.232948,0.230395,0.229757,0.226805,0.223615,0.219945,0.216993,0.214998,0.212525,0.207261,0.207659,0.202872,0.200479,0.198086,0.195853,0.191703,0.191225,0.186757,0.159234,0.168648,0.167691,0.144875,0.154368,0.148784,0.133546,0.143119,0.137695,0.125489,0.13243,0.129637,0.119027,0.123415,0.120224,0.113842,0.111608,0.112565,0.107699,0.0982052,0.0973278,0.0986041],
      "range": 1
    }
  }
]
