[
  {
    "model":"Star, type M2(iii)",
    "name":"Star, type M2(iii)",
    "type":"WB_REF",
    "dataQualityMarker":3,
    "dataSource":"https://www.eso.org/sci/facilities/paranal/decommissioned/isaac/tools/lib.html",
    "manufacturer":"A. Pickles (A.J. Pickles, PASP 110,863, 1998)",
    "version":1,
    "wavelength":{
      "value":[
        1150.0,
        1155.0,
        1160.0,
        1165.0,
        1170.0,
        1175.0,
        1180.0,
        1185.0,
        1190.0,
        1195.0,
        1200.0,
        1205.0,
        1210.0,
        1215.0,
        1220.0,
        1225.0,
        1230.0,
        1235.0,
        1240.0,
        1245.0,
        1250.0,
        1255.0,
        1260.0,
        1265.0,
        1270.0,
        1275.0,
        1280.0,
        1285.0,
        1290.0,
        1295.0,
        1300.0,
        1305.0,
        1310.0,
        1315.0,
        1320.0,
        1325.0,
        1330.0,
        1335.0,
        1340.0,
        1345.0,
        1350.0,
        1355.0,
        1360.0,
        1365.0,
        1370.0,
        1375.0,
        1380.0,
        1385.0,
        1390.0,
        1395.0,
        1400.0,
        1405.0,
        1410.0,
        1415.0,
        1420.0,
        1425.0,
        1430.0,
        1435.0,
        1440.0,
        1445.0,
        1450.0,
        1455.0,
        1460.0,
        1465.0,
        1470.0,
        1475.0,
        1480.0,
        1485.0,
        1490.0,
        1495.0,
        1500.0,
        1505.0,
        1510.0,
        1515.0,
        1520.0,
        1525.0,
        1530.0,
        1535.0,
        1540.0,
        1545.0,
        1550.0,
        1555.0,
        1560.0,
        1565.0,
        1570.0,
        1575.0,
        1580.0,
        1585.0,
        1590.0,
        1595.0,
        1600.0,
        1605.0,
        1610.0,
        1615.0,
        1620.0,
        1625.0,
        1630.0,
        1635.0,
        1640.0,
        1645.0,
        1650.0,
        1655.0,
        1660.0,
        1665.0,
        1670.0,
        1675.0,
        1680.0,
        1685.0,
        1690.0,
        1695.0,
        1700.0,
        1705.0,
        1710.0,
        1715.0,
        1720.0,
        1725.0,
        1730.0,
        1735.0,
        1740.0,
        1745.0,
        1750.0,
        1755.0,
        1760.0,
        1765.0,
        1770.0,
        1775.0,
        1780.0,
        1785.0,
        1790.0,
        1795.0,
        1800.0,
        1805.0,
        1810.0,
        1815.0,
        1820.0,
        1825.0,
        1830.0,
        1835.0,
        1840.0,
        1845.0,
        1850.0,
        1855.0,
        1860.0,
        1865.0,
        1870.0,
        1875.0,
        1880.0,
        1885.0,
        1890.0,
        1895.0,
        1900.0,
        1905.0,
        1910.0,
        1915.0,
        1920.0,
        1925.0,
        1930.0,
        1935.0,
        1940.0,
        1945.0,
        1950.0,
        1955.0,
        1960.0,
        1965.0,
        1970.0,
        1975.0,
        1980.0,
        1985.0,
        1990.0,
        1995.0,
        2000.0,
        2005.0,
        2010.0,
        2015.0,
        2020.0,
        2025.0,
        2030.0,
        2035.0,
        2040.0,
        2045.0,
        2050.0,
        2055.0,
        2060.0,
        2065.0,
        2070.0,
        2075.0,
        2080.0,
        2085.0,
        2090.0,
        2095.0,
        2100.0,
        2105.0,
        2110.0,
        2115.0,
        2120.0,
        2125.0,
        2130.0,
        2135.0,
        2140.0,
        2145.0,
        2150.0,
        2155.0,
        2160.0,
        2165.0,
        2170.0,
        2175.0,
        2180.0,
        2185.0,
        2190.0,
        2195.0,
        2200.0,
        2205.0,
        2210.0,
        2215.0,
        2220.0,
        2225.0,
        2230.0,
        2235.0,
        2240.0,
        2245.0,
        2250.0,
        2255.0,
        2260.0,
        2265.0,
        2270.0,
        2275.0,
        2280.0,
        2285.0,
        2290.0,
        2295.0,
        2300.0,
        2305.0,
        2310.0,
        2315.0,
        2320.0,
        2325.0,
        2330.0,
        2335.0,
        2340.0,
        2345.0,
        2350.0,
        2355.0,
        2360.0,
        2365.0,
        2370.0,
        2375.0,
        2380.0,
        2385.0,
        2390.0,
        2395.0,
        2400.0,
        2405.0,
        2410.0,
        2415.0,
        2420.0,
        2425.0,
        2430.0,
        2435.0,
        2440.0,
        2445.0,
        2450.0,
        2455.0,
        2460.0,
        2465.0,
        2470.0,
        2475.0,
        2480.0,
        2485.0,
        2490.0,
        2495.0,
        2500.0,
        2505.0,
        2510.0,
        2515.0,
        2520.0,
        2525.0,
        2530.0,
        2535.0,
        2540.0,
        2545.0,
        2550.0,
        2555.0,
        2560.0,
        2565.0,
        2570.0,
        2575.0,
        2580.0,
        2585.0,
        2590.0,
        2595.0,
        2600.0,
        2605.0,
        2610.0,
        2615.0,
        2620.0,
        2625.0,
        2630.0,
        2635.0,
        2640.0,
        2645.0,
        2650.0,
        2655.0,
        2660.0,
        2665.0,
        2670.0,
        2675.0,
        2680.0,
        2685.0,
        2690.0,
        2695.0,
        2700.0,
        2705.0,
        2710.0,
        2715.0,
        2720.0,
        2725.0,
        2730.0,
        2735.0,
        2740.0,
        2745.0,
        2750.0,
        2755.0,
        2760.0,
        2765.0,
        2770.0,
        2775.0,
        2780.0,
        2785.0,
        2790.0,
        2795.0,
        2800.0,
        2805.0,
        2810.0,
        2815.0,
        2820.0,
        2825.0,
        2830.0,
        2835.0,
        2840.0,
        2845.0,
        2850.0,
        2855.0,
        2860.0,
        2865.0,
        2870.0,
        2875.0,
        2880.0,
        2885.0,
        2890.0,
        2895.0,
        2900.0,
        2905.0,
        2910.0,
        2915.0,
        2920.0,
        2925.0,
        2930.0,
        2935.0,
        2940.0,
        2945.0,
        2950.0,
        2955.0,
        2960.0,
        2965.0,
        2970.0,
        2975.0,
        2980.0,
        2985.0,
        2990.0,
        2995.0,
        3000.0,
        3005.0,
        3010.0,
        3015.0,
        3020.0,
        3025.0,
        3030.0,
        3035.0,
        3040.0,
        3045.0,
        3050.0,
        3055.0,
        3060.0,
        3065.0,
        3070.0,
        3075.0,
        3080.0,
        3085.0,
        3090.0,
        3095.0,
        3100.0,
        3105.0,
        3110.0,
        3115.0,
        3120.0,
        3125.0,
        3130.0,
        3135.0,
        3140.0,
        3145.0,
        3150.0,
        3155.0,
        3160.0,
        3165.0,
        3170.0,
        3175.0,
        3180.0,
        3185.0,
        3190.0,
        3195.0,
        3200.0,
        3205.0,
        3210.0,
        3215.0,
        3220.0,
        3225.0,
        3230.0,
        3235.0,
        3240.0,
        3245.0,
        3250.0,
        3255.0,
        3260.0,
        3265.0,
        3270.0,
        3275.0,
        3280.0,
        3285.0,
        3290.0,
        3295.0,
        3300.0,
        3305.0,
        3310.0,
        3315.0,
        3320.0,
        3325.0,
        3330.0,
        3335.0,
        3340.0,
        3345.0,
        3350.0,
        3355.0,
        3360.0,
        3365.0,
        3370.0,
        3375.0,
        3380.0,
        3385.0,
        3390.0,
        3395.0,
        3400.0,
        3405.0,
        3410.0,
        3415.0,
        3420.0,
        3425.0,
        3430.0,
        3435.0,
        3440.0,
        3445.0,
        3450.0,
        3455.0,
        3460.0,
        3465.0,
        3470.0,
        3475.0,
        3480.0,
        3485.0,
        3490.0,
        3495.0,
        3500.0,
        3505.0,
        3510.0,
        3515.0,
        3520.0,
        3525.0,
        3530.0,
        3535.0,
        3540.0,
        3545.0,
        3550.0,
        3555.0,
        3560.0,
        3565.0,
        3570.0,
        3575.0,
        3580.0,
        3585.0,
        3590.0,
        3595.0,
        3600.0,
        3605.0,
        3610.0,
        3615.0,
        3620.0,
        3625.0,
        3630.0,
        3635.0,
        3640.0,
        3645.0,
        3650.0,
        3655.0,
        3660.0,
        3665.0,
        3670.0,
        3675.0,
        3680.0,
        3685.0,
        3690.0,
        3695.0,
        3700.0,
        3705.0,
        3710.0,
        3715.0,
        3720.0,
        3725.0,
        3730.0,
        3735.0,
        3740.0,
        3745.0,
        3750.0,
        3755.0,
        3760.0,
        3765.0,
        3770.0,
        3775.0,
        3780.0,
        3785.0,
        3790.0,
        3795.0,
        3800.0,
        3805.0,
        3810.0,
        3815.0,
        3820.0,
        3825.0,
        3830.0,
        3835.0,
        3840.0,
        3845.0,
        3850.0,
        3855.0,
        3860.0,
        3865.0,
        3870.0,
        3875.0,
        3880.0,
        3885.0,
        3890.0,
        3895.0,
        3900.0,
        3905.0,
        3910.0,
        3915.0,
        3920.0,
        3925.0,
        3930.0,
        3935.0,
        3940.0,
        3945.0,
        3950.0,
        3955.0,
        3960.0,
        3965.0,
        3970.0,
        3975.0,
        3980.0,
        3985.0,
        3990.0,
        3995.0,
        4000.0,
        4005.0,
        4010.0,
        4015.0,
        4020.0,
        4025.0,
        4030.0,
        4035.0,
        4040.0,
        4045.0,
        4050.0,
        4055.0,
        4060.0,
        4065.0,
        4070.0,
        4075.0,
        4080.0,
        4085.0,
        4090.0,
        4095.0,
        4100.0,
        4105.0,
        4110.0,
        4115.0,
        4120.0,
        4125.0,
        4130.0,
        4135.0,
        4140.0,
        4145.0,
        4150.0,
        4155.0,
        4160.0,
        4165.0,
        4170.0,
        4175.0,
        4180.0,
        4185.0,
        4190.0,
        4195.0,
        4200.0,
        4205.0,
        4210.0,
        4215.0,
        4220.0,
        4225.0,
        4230.0,
        4235.0,
        4240.0,
        4245.0,
        4250.0,
        4255.0,
        4260.0,
        4265.0,
        4270.0,
        4275.0,
        4280.0,
        4285.0,
        4290.0,
        4295.0,
        4300.0,
        4305.0,
        4310.0,
        4315.0,
        4320.0,
        4325.0,
        4330.0,
        4335.0,
        4340.0,
        4345.0,
        4350.0,
        4355.0,
        4360.0,
        4365.0,
        4370.0,
        4375.0,
        4380.0,
        4385.0,
        4390.0,
        4395.0,
        4400.0,
        4405.0,
        4410.0,
        4415.0,
        4420.0,
        4425.0,
        4430.0,
        4435.0,
        4440.0,
        4445.0,
        4450.0,
        4455.0,
        4460.0,
        4465.0,
        4470.0,
        4475.0,
        4480.0,
        4485.0,
        4490.0,
        4495.0,
        4500.0,
        4505.0,
        4510.0,
        4515.0,
        4520.0,
        4525.0,
        4530.0,
        4535.0,
        4540.0,
        4545.0,
        4550.0,
        4555.0,
        4560.0,
        4565.0,
        4570.0,
        4575.0,
        4580.0,
        4585.0,
        4590.0,
        4595.0,
        4600.0,
        4605.0,
        4610.0,
        4615.0,
        4620.0,
        4625.0,
        4630.0,
        4635.0,
        4640.0,
        4645.0,
        4650.0,
        4655.0,
        4660.0,
        4665.0,
        4670.0,
        4675.0,
        4680.0,
        4685.0,
        4690.0,
        4695.0,
        4700.0,
        4705.0,
        4710.0,
        4715.0,
        4720.0,
        4725.0,
        4730.0,
        4735.0,
        4740.0,
        4745.0,
        4750.0,
        4755.0,
        4760.0,
        4765.0,
        4770.0,
        4775.0,
        4780.0,
        4785.0,
        4790.0,
        4795.0,
        4800.0,
        4805.0,
        4810.0,
        4815.0,
        4820.0,
        4825.0,
        4830.0,
        4835.0,
        4840.0,
        4845.0,
        4850.0,
        4855.0,
        4860.0,
        4865.0,
        4870.0,
        4875.0,
        4880.0,
        4885.0,
        4890.0,
        4895.0,
        4900.0,
        4905.0,
        4910.0,
        4915.0,
        4920.0,
        4925.0,
        4930.0,
        4935.0,
        4940.0,
        4945.0,
        4950.0,
        4955.0,
        4960.0,
        4965.0,
        4970.0,
        4975.0,
        4980.0,
        4985.0,
        4990.0,
        4995.0,
        5000.0,
        5005.0,
        5010.0,
        5015.0,
        5020.0,
        5025.0,
        5030.0,
        5035.0,
        5040.0,
        5045.0,
        5050.0,
        5055.0,
        5060.0,
        5065.0,
        5070.0,
        5075.0,
        5080.0,
        5085.0,
        5090.0,
        5095.0,
        5100.0,
        5105.0,
        5110.0,
        5115.0,
        5120.0,
        5125.0,
        5130.0,
        5135.0,
        5140.0,
        5145.0,
        5150.0,
        5155.0,
        5160.0,
        5165.0,
        5170.0,
        5175.0,
        5180.0,
        5185.0,
        5190.0,
        5195.0,
        5200.0,
        5205.0,
        5210.0,
        5215.0,
        5220.0,
        5225.0,
        5230.0,
        5235.0,
        5240.0,
        5245.0,
        5250.0,
        5255.0,
        5260.0,
        5265.0,
        5270.0,
        5275.0,
        5280.0,
        5285.0,
        5290.0,
        5295.0,
        5300.0,
        5305.0,
        5310.0,
        5315.0,
        5320.0,
        5325.0,
        5330.0,
        5335.0,
        5340.0,
        5345.0,
        5350.0,
        5355.0,
        5360.0,
        5365.0,
        5370.0,
        5375.0,
        5380.0,
        5385.0,
        5390.0,
        5395.0,
        5400.0,
        5405.0,
        5410.0,
        5415.0,
        5420.0,
        5425.0,
        5430.0,
        5435.0,
        5440.0,
        5445.0,
        5450.0,
        5455.0,
        5460.0,
        5465.0,
        5470.0,
        5475.0,
        5480.0,
        5485.0,
        5490.0,
        5495.0,
        5500.0,
        5505.0,
        5510.0,
        5515.0,
        5520.0,
        5525.0,
        5530.0,
        5535.0,
        5540.0,
        5545.0,
        5550.0,
        5555.0,
        5560.0,
        5565.0,
        5570.0,
        5575.0,
        5580.0,
        5585.0,
        5590.0,
        5595.0,
        5600.0,
        5605.0,
        5610.0,
        5615.0,
        5620.0,
        5625.0,
        5630.0,
        5635.0,
        5640.0,
        5645.0,
        5650.0,
        5655.0,
        5660.0,
        5665.0,
        5670.0,
        5675.0,
        5680.0,
        5685.0,
        5690.0,
        5695.0,
        5700.0,
        5705.0,
        5710.0,
        5715.0,
        5720.0,
        5725.0,
        5730.0,
        5735.0,
        5740.0,
        5745.0,
        5750.0,
        5755.0,
        5760.0,
        5765.0,
        5770.0,
        5775.0,
        5780.0,
        5785.0,
        5790.0,
        5795.0,
        5800.0,
        5805.0,
        5810.0,
        5815.0,
        5820.0,
        5825.0,
        5830.0,
        5835.0,
        5840.0,
        5845.0,
        5850.0,
        5855.0,
        5860.0,
        5865.0,
        5870.0,
        5875.0,
        5880.0,
        5885.0,
        5890.0,
        5895.0,
        5900.0,
        5905.0,
        5910.0,
        5915.0,
        5920.0,
        5925.0,
        5930.0,
        5935.0,
        5940.0,
        5945.0,
        5950.0,
        5955.0,
        5960.0,
        5965.0,
        5970.0,
        5975.0,
        5980.0,
        5985.0,
        5990.0,
        5995.0,
        6000.0,
        6005.0,
        6010.0,
        6015.0,
        6020.0,
        6025.0,
        6030.0,
        6035.0,
        6040.0,
        6045.0,
        6050.0,
        6055.0,
        6060.0,
        6065.0,
        6070.0,
        6075.0,
        6080.0,
        6085.0,
        6090.0,
        6095.0,
        6100.0,
        6105.0,
        6110.0,
        6115.0,
        6120.0,
        6125.0,
        6130.0,
        6135.0,
        6140.0,
        6145.0,
        6150.0,
        6155.0,
        6160.0,
        6165.0,
        6170.0,
        6175.0,
        6180.0,
        6185.0,
        6190.0,
        6195.0,
        6200.0,
        6205.0,
        6210.0,
        6215.0,
        6220.0,
        6225.0,
        6230.0,
        6235.0,
        6240.0,
        6245.0,
        6250.0,
        6255.0,
        6260.0,
        6265.0,
        6270.0,
        6275.0,
        6280.0,
        6285.0,
        6290.0,
        6295.0,
        6300.0,
        6305.0,
        6310.0,
        6315.0,
        6320.0,
        6325.0,
        6330.0,
        6335.0,
        6340.0,
        6345.0,
        6350.0,
        6355.0,
        6360.0,
        6365.0,
        6370.0,
        6375.0,
        6380.0,
        6385.0,
        6390.0,
        6395.0,
        6400.0,
        6405.0,
        6410.0,
        6415.0,
        6420.0,
        6425.0,
        6430.0,
        6435.0,
        6440.0,
        6445.0,
        6450.0,
        6455.0,
        6460.0,
        6465.0,
        6470.0,
        6475.0,
        6480.0,
        6485.0,
        6490.0,
        6495.0,
        6500.0,
        6505.0,
        6510.0,
        6515.0,
        6520.0,
        6525.0,
        6530.0,
        6535.0,
        6540.0,
        6545.0,
        6550.0,
        6555.0,
        6560.0,
        6565.0,
        6570.0,
        6575.0,
        6580.0,
        6585.0,
        6590.0,
        6595.0,
        6600.0,
        6605.0,
        6610.0,
        6615.0,
        6620.0,
        6625.0,
        6630.0,
        6635.0,
        6640.0,
        6645.0,
        6650.0,
        6655.0,
        6660.0,
        6665.0,
        6670.0,
        6675.0,
        6680.0,
        6685.0,
        6690.0,
        6695.0,
        6700.0,
        6705.0,
        6710.0,
        6715.0,
        6720.0,
        6725.0,
        6730.0,
        6735.0,
        6740.0,
        6745.0,
        6750.0,
        6755.0,
        6760.0,
        6765.0,
        6770.0,
        6775.0,
        6780.0,
        6785.0,
        6790.0,
        6795.0,
        6800.0,
        6805.0,
        6810.0,
        6815.0,
        6820.0,
        6825.0,
        6830.0,
        6835.0,
        6840.0,
        6845.0,
        6850.0,
        6855.0,
        6860.0,
        6865.0,
        6870.0,
        6875.0,
        6880.0,
        6885.0,
        6890.0,
        6895.0,
        6900.0,
        6905.0,
        6910.0,
        6915.0,
        6920.0,
        6925.0,
        6930.0,
        6935.0,
        6940.0,
        6945.0,
        6950.0,
        6955.0,
        6960.0,
        6965.0,
        6970.0,
        6975.0,
        6980.0,
        6985.0,
        6990.0,
        6995.0,
        7000.0,
        7005.0,
        7010.0,
        7015.0,
        7020.0,
        7025.0,
        7030.0,
        7035.0,
        7040.0,
        7045.0,
        7050.0,
        7055.0,
        7060.0,
        7065.0,
        7070.0,
        7075.0,
        7080.0,
        7085.0,
        7090.0,
        7095.0,
        7100.0,
        7105.0,
        7110.0,
        7115.0,
        7120.0,
        7125.0,
        7130.0,
        7135.0,
        7140.0,
        7145.0,
        7150.0,
        7155.0,
        7160.0,
        7165.0,
        7170.0,
        7175.0,
        7180.0,
        7185.0,
        7190.0,
        7195.0,
        7200.0,
        7205.0,
        7210.0,
        7215.0,
        7220.0,
        7225.0,
        7230.0,
        7235.0,
        7240.0,
        7245.0,
        7250.0,
        7255.0,
        7260.0,
        7265.0,
        7270.0,
        7275.0,
        7280.0,
        7285.0,
        7290.0,
        7295.0,
        7300.0,
        7305.0,
        7310.0,
        7315.0,
        7320.0,
        7325.0,
        7330.0,
        7335.0,
        7340.0,
        7345.0,
        7350.0,
        7355.0,
        7360.0,
        7365.0,
        7370.0,
        7375.0,
        7380.0,
        7385.0,
        7390.0,
        7395.0,
        7400.0,
        7405.0,
        7410.0,
        7415.0,
        7420.0,
        7425.0,
        7430.0,
        7435.0,
        7440.0,
        7445.0,
        7450.0,
        7455.0,
        7460.0,
        7465.0,
        7470.0,
        7475.0,
        7480.0,
        7485.0,
        7490.0,
        7495.0,
        7500.0,
        7505.0,
        7510.0,
        7515.0,
        7520.0,
        7525.0,
        7530.0,
        7535.0,
        7540.0,
        7545.0,
        7550.0,
        7555.0,
        7560.0,
        7565.0,
        7570.0,
        7575.0,
        7580.0,
        7585.0,
        7590.0,
        7595.0,
        7600.0,
        7605.0,
        7610.0,
        7615.0,
        7620.0,
        7625.0,
        7630.0,
        7635.0,
        7640.0,
        7645.0,
        7650.0,
        7655.0,
        7660.0,
        7665.0,
        7670.0,
        7675.0,
        7680.0,
        7685.0,
        7690.0,
        7695.0,
        7700.0,
        7705.0,
        7710.0,
        7715.0,
        7720.0,
        7725.0,
        7730.0,
        7735.0,
        7740.0,
        7745.0,
        7750.0,
        7755.0,
        7760.0,
        7765.0,
        7770.0,
        7775.0,
        7780.0,
        7785.0,
        7790.0,
        7795.0,
        7800.0,
        7805.0,
        7810.0,
        7815.0,
        7820.0,
        7825.0,
        7830.0,
        7835.0,
        7840.0,
        7845.0,
        7850.0,
        7855.0,
        7860.0,
        7865.0,
        7870.0,
        7875.0,
        7880.0,
        7885.0,
        7890.0,
        7895.0,
        7900.0,
        7905.0,
        7910.0,
        7915.0,
        7920.0,
        7925.0,
        7930.0,
        7935.0,
        7940.0,
        7945.0,
        7950.0,
        7955.0,
        7960.0,
        7965.0,
        7970.0,
        7975.0,
        7980.0,
        7985.0,
        7990.0,
        7995.0,
        8000.0,
        8005.0,
        8010.0,
        8015.0,
        8020.0,
        8025.0,
        8030.0,
        8035.0,
        8040.0,
        8045.0,
        8050.0,
        8055.0,
        8060.0,
        8065.0,
        8070.0,
        8075.0,
        8080.0,
        8085.0,
        8090.0,
        8095.0,
        8100.0,
        8105.0,
        8110.0,
        8115.0,
        8120.0,
        8125.0,
        8130.0,
        8135.0,
        8140.0,
        8145.0,
        8150.0,
        8155.0,
        8160.0,
        8165.0,
        8170.0,
        8175.0,
        8180.0,
        8185.0,
        8190.0,
        8195.0,
        8200.0,
        8205.0,
        8210.0,
        8215.0,
        8220.0,
        8225.0,
        8230.0,
        8235.0,
        8240.0,
        8245.0,
        8250.0,
        8255.0,
        8260.0,
        8265.0,
        8270.0,
        8275.0,
        8280.0,
        8285.0,
        8290.0,
        8295.0,
        8300.0,
        8305.0,
        8310.0,
        8315.0,
        8320.0,
        8325.0,
        8330.0,
        8335.0,
        8340.0,
        8345.0,
        8350.0,
        8355.0,
        8360.0,
        8365.0,
        8370.0,
        8375.0,
        8380.0,
        8385.0,
        8390.0,
        8395.0,
        8400.0,
        8405.0,
        8410.0,
        8415.0,
        8420.0,
        8425.0,
        8430.0,
        8435.0,
        8440.0,
        8445.0,
        8450.0,
        8455.0,
        8460.0,
        8465.0,
        8470.0,
        8475.0,
        8480.0,
        8485.0,
        8490.0,
        8495.0,
        8500.0,
        8505.0,
        8510.0,
        8515.0,
        8520.0,
        8525.0,
        8530.0,
        8535.0,
        8540.0,
        8545.0,
        8550.0,
        8555.0,
        8560.0,
        8565.0,
        8570.0,
        8575.0,
        8580.0,
        8585.0,
        8590.0,
        8595.0,
        8600.0,
        8605.0,
        8610.0,
        8615.0,
        8620.0,
        8625.0,
        8630.0,
        8635.0,
        8640.0,
        8645.0,
        8650.0,
        8655.0,
        8660.0,
        8665.0,
        8670.0,
        8675.0,
        8680.0,
        8685.0,
        8690.0,
        8695.0,
        8700.0,
        8705.0,
        8710.0,
        8715.0,
        8720.0,
        8725.0,
        8730.0,
        8735.0,
        8740.0,
        8745.0,
        8750.0,
        8755.0,
        8760.0,
        8765.0,
        8770.0,
        8775.0,
        8780.0,
        8785.0,
        8790.0,
        8795.0,
        8800.0,
        8805.0,
        8810.0,
        8815.0,
        8820.0,
        8825.0,
        8830.0,
        8835.0,
        8840.0,
        8845.0,
        8850.0,
        8855.0,
        8860.0,
        8865.0,
        8870.0,
        8875.0,
        8880.0,
        8885.0,
        8890.0,
        8895.0,
        8900.0,
        8905.0,
        8910.0,
        8915.0,
        8920.0,
        8925.0,
        8930.0,
        8935.0,
        8940.0,
        8945.0,
        8950.0,
        8955.0,
        8960.0,
        8965.0,
        8970.0,
        8975.0,
        8980.0,
        8985.0,
        8990.0,
        8995.0,
        9000.0,
        9005.0,
        9010.0,
        9015.0,
        9020.0,
        9025.0,
        9030.0,
        9035.0,
        9040.0,
        9045.0,
        9050.0,
        9055.0,
        9060.0,
        9065.0,
        9070.0,
        9075.0,
        9080.0,
        9085.0,
        9090.0,
        9095.0,
        9100.0,
        9105.0,
        9110.0,
        9115.0,
        9120.0,
        9125.0,
        9130.0,
        9135.0,
        9140.0,
        9145.0,
        9150.0,
        9155.0,
        9160.0,
        9165.0,
        9170.0,
        9175.0,
        9180.0,
        9185.0,
        9190.0,
        9195.0,
        9200.0,
        9205.0,
        9210.0,
        9215.0,
        9220.0,
        9225.0,
        9230.0,
        9235.0,
        9240.0,
        9245.0,
        9250.0,
        9255.0,
        9260.0,
        9265.0,
        9270.0,
        9275.0,
        9280.0,
        9285.0,
        9290.0,
        9295.0,
        9300.0,
        9305.0,
        9310.0,
        9315.0,
        9320.0,
        9325.0,
        9330.0,
        9335.0,
        9340.0,
        9345.0,
        9350.0,
        9355.0,
        9360.0,
        9365.0,
        9370.0,
        9375.0,
        9380.0,
        9385.0,
        9390.0,
        9395.0,
        9400.0,
        9405.0,
        9410.0,
        9415.0,
        9420.0,
        9425.0,
        9430.0,
        9435.0,
        9440.0,
        9445.0,
        9450.0,
        9455.0,
        9460.0,
        9465.0,
        9470.0,
        9475.0,
        9480.0,
        9485.0,
        9490.0,
        9495.0,
        9500.0,
        9505.0,
        9510.0,
        9515.0,
        9520.0,
        9525.0,
        9530.0,
        9535.0,
        9540.0,
        9545.0,
        9550.0,
        9555.0,
        9560.0,
        9565.0,
        9570.0,
        9575.0,
        9580.0,
        9585.0,
        9590.0,
        9595.0,
        9600.0,
        9605.0,
        9610.0,
        9615.0,
        9620.0,
        9625.0,
        9630.0,
        9635.0,
        9640.0,
        9645.0,
        9650.0,
        9655.0,
        9660.0,
        9665.0,
        9670.0,
        9675.0,
        9680.0,
        9685.0,
        9690.0,
        9695.0,
        9700.0,
        9705.0,
        9710.0,
        9715.0,
        9720.0,
        9725.0,
        9730.0,
        9735.0,
        9740.0,
        9745.0,
        9750.0,
        9755.0,
        9760.0,
        9765.0,
        9770.0,
        9775.0,
        9780.0,
        9785.0,
        9790.0,
        9795.0,
        9800.0,
        9805.0,
        9810.0,
        9815.0,
        9820.0,
        9825.0,
        9830.0,
        9835.0,
        9840.0,
        9845.0,
        9850.0,
        9855.0,
        9860.0,
        9865.0,
        9870.0,
        9875.0,
        9880.0,
        9885.0,
        9890.0,
        9895.0,
        9900.0,
        9905.0,
        9910.0,
        9915.0,
        9920.0,
        9925.0,
        9930.0,
        9935.0,
        9940.0,
        9945.0,
        9950.0,
        9955.0,
        9960.0,
        9965.0,
        9970.0,
        9975.0,
        9980.0,
        9985.0,
        9990.0,
        9995.0,
        10000.0,
        10005.0,
        10010.0,
        10015.0,
        10020.0,
        10025.0,
        10030.0,
        10035.0,
        10040.0,
        10045.0,
        10050.0,
        10055.0,
        10060.0,
        10065.0,
        10070.0,
        10075.0,
        10080.0,
        10085.0,
        10090.0,
        10095.0,
        10100.0,
        10105.0,
        10110.0,
        10115.0,
        10120.0,
        10125.0,
        10130.0,
        10135.0,
        10140.0,
        10145.0,
        10150.0,
        10155.0,
        10160.0,
        10165.0,
        10170.0,
        10175.0,
        10180.0,
        10185.0,
        10190.0,
        10195.0,
        10200.0,
        10205.0,
        10210.0,
        10215.0,
        10220.0,
        10225.0,
        10230.0,
        10235.0,
        10240.0,
        10245.0,
        10250.0,
        10255.0,
        10260.0,
        10265.0,
        10270.0,
        10275.0,
        10280.0,
        10285.0,
        10290.0,
        10295.0,
        10300.0,
        10305.0,
        10310.0,
        10315.0,
        10320.0,
        10325.0,
        10330.0,
        10335.0,
        10340.0,
        10345.0,
        10350.0,
        10355.0,
        10360.0,
        10365.0,
        10370.0,
        10375.0,
        10380.0,
        10385.0,
        10390.0,
        10395.0,
        10400.0,
        10405.0,
        10410.0,
        10415.0,
        10420.0,
        10425.0,
        10430.0,
        10435.0,
        10440.0,
        10445.0,
        10450.0,
        10455.0,
        10460.0,
        10465.0,
        10470.0,
        10475.0,
        10480.0,
        10485.0,
        10490.0,
        10495.0,
        10500.0
      ],
      "units":"angstrom"
    },
    "values":{
      "value":[
        0.0,
        0.0,
        0.0,
        0.0,
        0.0,
        0.0,
        0.0,
        0.0,
        0.0,
        0.0,
        0.0,
        0.0,
        0.0,
        0.0,
        0.0,
        0.0,
        0.0,
        0.0,
        0.0,
        0.0,
        0.0,
        0.0,
        0.0,
        0.0,
        0.0,
        0.0,
        0.0,
        0.0,
        0.0,
        0.0,
        0.0,
        0.0,
        0.0,
        0.0,
        0.0,
        0.0,
        0.0,
        0.0,
        0.0,
        0.0,
        0.0,
        0.0,
        0.0,
        0.0,
        0.0,
        0.0,
        0.0,
        0.0,
        0.0,
        0.0,
        0.0,
        0.0,
        0.0,
        0.0,
        0.0,
        0.0,
        0.0,
        0.0,
        0.0,
        0.0,
        0.0,
        0.0,
        0.0,
        0.0,
        0.0,
        0.0,
        0.0,
        0.0,
        0.0,
        0.0,
        0.0,
        0.0,
        0.0,
        0.0,
        0.0,
        0.0,
        0.0,
        0.0,
        0.0,
        0.0,
        0.0,
        0.0,
        0.0,
        0.0,
        0.0,
        0.0,
        0.0,
        0.0,
        0.0,
        0.0,
        0.0,
        0.0,
        0.0,
        0.0,
        0.0,
        0.0,
        0.0,
        0.0,
        0.0,
        0.0,
        0.0,
        0.0,
        0.0,
        0.0,
        0.0,
        0.0,
        0.0,
        0.0,
        0.0,
        0.0,
        0.0,
        0.0,
        0.0,
        0.0,
        0.0,
        0.0,
        0.0,
        0.0,
        0.0,
        0.0,
        0.0,
        0.0,
        0.0,
        0.0,
        0.0,
        0.0,
        0.0,
        0.0,
        0.0,
        0.0,
        0.0,
        0.0,
        0.0,
        0.0,
        0.0,
        0.0,
        0.0,
        0.0,
        0.0,
        0.0,
        0.0,
        0.0,
        0.0,
        0.0,
        0.0,
        0.0,
        0.0,
        0.0,
        0.0,
        0.0,
        0.0,
        0.0,
        0.0,
        0.0,
        0.0,
        0.0,
        0.0,
        0.0,
        0.0,
        0.0,
        0.0,
        0.0,
        0.0,
        0.0,
        0.0,
        0.0,
        0.0,
        0.0,
        0.0,
        0.0,
        0.0,
        0.0,
        0.0,
        0.0,
        1e-06,
        1e-06,
        1e-06,
        1e-06,
        1e-06,
        2e-06,
        2e-06,
        2e-06,
        3e-06,
        3e-06,
        4e-06,
        5e-06,
        5e-06,
        6e-06,
        7e-06,
        8e-06,
        9e-06,
        9e-06,
        1e-05,
        1.1e-05,
        1.2e-05,
        1.3e-05,
        1.4e-05,
        1.5e-05,
        1.6e-05,
        1.6e-05,
        1.7e-05,
        1.8e-05,
        1.9e-05,
        1.9e-05,
        2e-05,
        2.1e-05,
        2.1e-05,
        2.2e-05,
        2.3e-05,
        2.5e-05,
        2.6e-05,
        2.8e-05,
        3e-05,
        3.2e-05,
        3.4e-05,
        3.7e-05,
        4e-05,
        4.4e-05,
        4.8e-05,
        5.3e-05,
        5.8e-05,
        6.3e-05,
        6.9e-05,
        7.4e-05,
        8e-05,
        8.6e-05,
        9.1e-05,
        9.7e-05,
        0.000101,
        0.000106,
        0.000109,
        0.000112,
        0.000114,
        0.000114,
        0.000114,
        0.000112,
        0.000109,
        0.000105,
        9.9e-05,
        9.1e-05,
        8.1e-05,
        7e-05,
        5.8e-05,
        4.7e-05,
        3.7e-05,
        2.9e-05,
        2.4e-05,
        2.3e-05,
        2.6e-05,
        3.5e-05,
        5.1e-05,
        7.3e-05,
        0.000104,
        0.000141,
        0.000175,
        0.000183,
        0.000147,
        0.00015,
        0.000244,
        0.000215,
        0.000117,
        0.000121,
        0.000142,
        0.000115,
        8.6e-05,
        6.5e-05,
        4.1e-05,
        2.6e-05,
        4.1e-05,
        9.8e-05,
        0.000137,
        0.000126,
        0.000145,
        0.000166,
        8.9e-05,
        8e-05,
        0.00019,
        0.000197,
        0.000103,
        8.3e-05,
        0.000413,
        0.00077,
        0.000734,
        0.000651,
        0.000665,
        0.00062,
        0.000679,
        0.000941,
        0.000907,
        0.000613,
        0.00062,
        0.000842,
        0.001065,
        0.001271,
        0.001198,
        0.000851,
        0.0017,
        0.003108,
        0.002696,
        0.001497,
        0.001116,
        0.000973,
        0.001299,
        0.000868,
        0.000511,
        0.00072,
        0.00128,
        0.001525,
        0.001219,
        0.001047,
        0.002189,
        0.002043,
        0.001695,
        0.001309,
        0.000869,
        0.000794,
        0.001312,
        0.001341,
        0.000871,
        0.000955,
        0.001257,
        0.000686,
        0.000766,
        0.000852,
        0.000884,
        0.000974,
        0.001066,
        0.000945,
        0.000608,
        0.000233,
        0.000372,
        0.000864,
        0.001112,
        0.001352,
        0.001714,
        0.00162,
        0.001291,
        0.001178,
        0.000902,
        0.000422,
        0.000135,
        0.000161,
        0.000432,
        0.0008,
        0.001061,
        0.001102,
        0.001269,
        0.001771,
        0.002528,
        0.003122,
        0.003206,
        0.002789,
        0.002761,
        0.004147,
        0.004497,
        0.002956,
        0.002952,
        0.003693,
        0.003212,
        0.003363,
        0.004469,
        0.005479,
        0.005138,
        0.004036,
        0.004325,
        0.004805,
        0.003808,
        0.004112,
        0.005615,
        0.005333,
        0.004712,
        0.005174,
        0.005517,
        0.005101,
        0.004294,
        0.004965,
        0.006844,
        0.007252,
        0.00669,
        0.00623,
        0.006033,
        0.006534,
        0.007791,
        0.00822,
        0.008058,
        0.0091,
        0.010093,
        0.00976,
        0.008706,
        0.008972,
        0.012225,
        0.014989,
        0.016634,
        0.022625,
        0.025964,
        0.019644,
        0.018774,
        0.022696,
        0.016378,
        0.014336,
        0.022557,
        0.018434,
        0.016073,
        0.024307,
        0.036682,
        0.040109,
        0.029423,
        0.020305,
        0.02175,
        0.020651,
        0.021922,
        0.029408,
        0.030529,
        0.01951,
        0.014606,
        0.017017,
        0.018174,
        0.014095,
        0.014881,
        0.035595,
        0.046642,
        0.034219,
        0.03276,
        0.039978,
        0.038561,
        0.036586,
        0.038826,
        0.043337,
        0.055235,
        0.069436,
        0.061085,
        0.035542,
        0.022464,
        0.020857,
        0.023506,
        0.029788,
        0.032897,
        0.027782,
        0.025559,
        0.031333,
        0.039993,
        0.038271,
        0.023364,
        0.014118,
        0.019841,
        0.036794,
        0.044064,
        0.037723,
        0.032878,
        0.033876,
        0.037354,
        0.036203,
        0.032169,
        0.032646,
        0.042675,
        0.057239,
        0.057625,
        0.043899,
        0.029791,
        0.029746,
        0.039502,
        0.042183,
        0.045679,
        0.051941,
        0.04212,
        0.031406,
        0.041276,
        0.050939,
        0.049821,
        0.045318,
        0.045986,
        0.052608,
        0.052364,
        0.042265,
        0.032133,
        0.038147,
        0.06113,
        0.080735,
        0.095737,
        0.103632,
        0.088887,
        0.068223,
        0.062941,
        0.052756,
        0.033165,
        0.02093,
        0.02177,
        0.030476,
        0.030398,
        0.027077,
        0.039451,
        0.048354,
        0.043483,
        0.047714,
        0.056254,
        0.054513,
        0.05126,
        0.055251,
        0.068796,
        0.073796,
        0.073858,
        0.115132,
        0.144945,
        0.102782,
        0.082337,
        0.095346,
        0.06752,
        0.049587,
        0.08364,
        0.128051,
        0.138369,
        0.092527,
        0.054036,
        0.059822,
        0.064926,
        0.053844,
        0.038126,
        0.037557,
        0.046586,
        0.041416,
        0.041644,
        0.056425,
        0.0569,
        0.063471,
        0.107343,
        0.158911,
        0.175765,
        0.130727,
        0.083315,
        0.08085,
        0.098892,
        0.109047,
        0.094955,
        0.069879,
        0.049992,
        0.042378,
        0.044207,
        0.051986,
        0.072826,
        0.09168,
        0.080897,
        0.065188,
        0.064209,
        0.063126,
        0.06332,
        0.068188,
        0.055907,
        0.046788,
        0.088488,
        0.121422,
        0.094652,
        0.089078,
        0.115842,
        0.1072,
        0.076236,
        0.052584,
        0.037831,
        0.032204,
        0.039673,
        0.070096,
        0.097784,
        0.078401,
        0.046511,
        0.039049,
        0.05202,
        0.085145,
        0.129151,
        0.148441,
        0.145934,
        0.170148,
        0.198842,
        0.192528,
        0.189577,
        0.211106,
        0.240349,
        0.219824,
        0.155005,
        0.163102,
        0.223204,
        0.252551,
        0.243884,
        0.211135,
        0.179041,
        0.196577,
        0.252573,
        0.231985,
        0.206216,
        0.288886,
        0.350134,
        0.314971,
        0.279374,
        0.273337,
        0.27418,
        0.264133,
        0.260731,
        0.296109,
        0.308023,
        0.261823,
        0.22175,
        0.214815,
        0.234827,
        0.271324,
        0.29012,
        0.249754,
        0.202498,
        0.20433,
        0.255771,
        0.305561,
        0.298299,
        0.263441,
        0.246117,
        0.270341,
        0.280768,
        0.218213,
        0.143168,
        0.109634,
        0.13405,
        0.202997,
        0.272489,
        0.289283,
        0.259682,
        0.230466,
        0.273094,
        0.331878,
        0.26873,
        0.226515,
        0.291374,
        0.294656,
        0.256231,
        0.269493,
        0.268015,
        0.268402,
        0.35277,
        0.396877,
        0.312884,
        0.309496,
        0.414926,
        0.45735,
        0.481458,
        0.52674,
        0.512552,
        0.493829,
        0.54412,
        0.560665,
        0.517288,
        0.477727,
        0.412376,
        0.344606,
        0.412253,
        0.484234,
        0.393414,
        0.349536,
        0.458207,
        0.590961,
        0.617145,
        0.493585,
        0.399694,
        0.416053,
        0.475471,
        0.507689,
        0.475928,
        0.395266,
        0.334352,
        0.362435,
        0.465637,
        0.594507,
        0.67914,
        0.688589,
        0.639634,
        0.598992,
        0.592869,
        0.6024,
        0.593424,
        0.548528,
        0.508059,
        0.469836,
        0.41054,
        0.452929,
        0.601084,
        0.619921,
        0.565685,
        0.599268,
        0.648166,
        0.653059,
        0.621281,
        0.595496,
        0.59638,
        0.589207,
        0.562322,
        0.533941,
        0.557784,
        0.619598,
        0.640934,
        0.655507,
        0.697049,
        0.68724,
        0.615568,
        0.549942,
        0.538484,
        0.566915,
        0.540191,
        0.54763,
        0.683218,
        0.719494,
        0.638763,
        0.636145,
        0.64982,
        0.638126,
        0.72301,
        0.78566,
        0.673577,
        0.589476,
        0.608986,
        0.628875,
        0.658312,
        0.697195,
        0.674265,
        0.637081,
        0.667914,
        0.719134,
        0.743227,
        0.746838,
        0.691404,
        0.558875,
        0.489847,
        0.51875,
        0.556906,
        0.590509,
        0.629706,
        0.6771,
        0.684348,
        0.58407,
        0.483939,
        0.501752,
        0.656081,
        0.778878,
        0.650172,
        0.562787,
        0.679359,
        0.691786,
        0.626924,
        0.654333,
        0.704786,
        0.714284,
        0.680323,
        0.688989,
        0.748513,
        0.702953,
        0.656104,
        0.764809,
        0.860849,
        0.863608,
        0.841385,
        0.815713,
        0.804128,
        0.857616,
        0.91106,
        0.888451,
        0.894352,
        0.913148,
        0.820596,
        0.666991,
        0.548497,
        0.518704,
        0.574543,
        0.666633,
        0.683906,
        0.621764,
        0.625655,
        0.650768,
        0.5873,
        0.506623,
        0.479955,
        0.524101,
        0.591412,
        0.633241,
        0.645091,
        0.640018,
        0.637005,
        0.619185,
        0.626637,
        0.787583,
        0.919155,
        0.810633,
        0.720936,
        0.737076,
        0.718923,
        0.685115,
        0.678159,
        0.695651,
        0.716613,
        0.734657,
        0.813302,
        0.883553,
        0.794225,
        0.712124,
        0.763726,
        0.805195,
        0.763011,
        0.677701,
        0.634197,
        0.680881,
        0.765253,
        0.754336,
        0.584339,
        0.449726,
        0.442512,
        0.510841,
        0.611543,
        0.674761,
        0.603652,
        0.515734,
        0.629012,
        0.798725,
        0.851513,
        0.800771,
        0.796763,
        0.961506,
        0.978608,
        0.754435,
        0.739074,
        0.888318,
        0.910513,
        0.761002,
        0.667003,
        0.913531,
        1.095819,
        0.981154,
        0.926566,
        0.994197,
        1.063681,
        1.109695,
        1.098659,
        0.995347,
        0.879414,
        0.835691,
        0.885118,
        0.967629,
        0.998777,
        0.964583,
        0.949691,
        1.068954,
        1.140248,
        1.043733,
        0.940225,
        0.931934,
        1.012096,
        1.057782,
        1.025207,
        1.002089,
        1.002571,
        1.008957,
        1.060519,
        1.138158,
        1.150534,
        1.069485,
        0.984909,
        1.083089,
        1.219556,
        1.049832,
        0.834366,
        0.81082,
        0.840444,
        0.85864,
        0.855751,
        0.84665,
        0.865422,
        0.936974,
        1.015351,
        1.035222,
        0.948802,
        0.83874,
        0.875971,
        0.977901,
        1.029538,
        1.039333,
        1.046401,
        1.084871,
        1.108819,
        1.091537,
        1.074531,
        1.061498,
        1.039979,
        0.993718,
        0.954061,
        0.979624,
        0.986876,
        0.939556,
        0.949747,
        0.977059,
        0.934221,
        0.874739,
        0.873808,
        0.970384,
        1.001489,
        0.899544,
        0.862341,
        0.891507,
        0.903693,
        0.99791,
        1.122183,
        1.080488,
        0.969919,
        0.938056,
        0.992764,
        1.064605,
        1.047354,
        1.031258,
        1.088484,
        1.130697,
        1.123435,
        1.098316,
        1.095276,
        1.123664,
        1.130289,
        1.111419,
        1.119556,
        1.158639,
        1.208343,
        1.265225,
        1.290106,
        1.224318,
        1.149291,
        1.140128,
        1.174152,
        1.172273,
        1.090202,
        1.063381,
        1.131085,
        1.209487,
        1.24442,
        1.21762,
        1.15538,
        1.117198,
        1.146317,
        1.18843,
        1.203374,
        1.18902,
        1.172173,
        1.195948,
        1.189584,
        1.143719,
        1.039391,
        0.995124,
        1.021014,
        0.978344,
        0.934794,
        0.932198,
        0.89467,
        0.875756,
        0.893422,
        0.884413,
        0.841703,
        0.849278,
        0.862856,
        0.819974,
        0.837406,
        0.918373,
        0.948055,
        0.919271,
        0.867958,
        0.883644,
        0.932444,
        0.944673,
        0.945769,
        0.960625,
        0.995368,
        1.048181,
        1.08512,
        1.052853,
        1.000844,
        1.015878,
        1.041983,
        1.051632,
        1.073148,
        1.105379,
        1.125518,
        1.117928,
        1.121808,
        1.204933,
        1.240163,
        1.183031,
        1.176115,
        1.245226,
        1.319841,
        1.341937,
        1.302093,
        1.248866,
        1.23101,
        1.278605,
        1.305438,
        1.285383,
        1.284066,
        1.295428,
        1.310071,
        1.332142,
        1.343879,
        1.331066,
        1.343901,
        1.329173,
        1.274593,
        1.196018,
        1.063241,
        0.94046,
        0.869296,
        0.873736,
        0.892231,
        0.793317,
        0.763019,
        0.869868,
        0.934552,
        0.91391,
        0.822297,
        0.742747,
        0.709418,
        0.683216,
        0.680556,
        0.720234,
        0.770521,
        0.814576,
        0.812883,
        0.769708,
        0.766492,
        0.851897,
        0.898308,
        0.884632,
        0.917863,
        0.995378,
        1.007394,
        1.005693,
        1.061681,
        1.10263,
        1.127671,
        1.150303,
        1.145146,
        1.121192,
        1.151512,
        1.205891,
        1.229898,
        1.205956,
        1.187618,
        1.227417,
        1.263455,
        1.248249,
        1.278984,
        1.351723,
        1.383938,
        1.356473,
        1.287427,
        1.296,
        1.373446,
        1.395993,
        1.405717,
        1.438934,
        1.386323,
        1.330623,
        1.371095,
        1.43743,
        1.446868,
        1.413208,
        1.400659,
        1.494057,
        1.50187,
        1.428525,
        1.435898,
        1.495379,
        1.52907,
        1.45566,
        1.326535,
        1.260424,
        1.33324,
        1.445343,
        1.474013,
        1.460628,
        1.485212,
        1.515504,
        1.535836,
        1.588734,
        1.608786,
        1.551103,
        1.472724,
        1.406185,
        1.380025,
        1.378642,
        1.405507,
        1.394142,
        1.418285,
        1.481261,
        1.413814,
        1.281746,
        1.33609,
        1.421119,
        1.430788,
        1.446972,
        1.404239,
        1.269556,
        1.23365,
        1.310729,
        1.364409,
        1.348984,
        1.285108,
        1.254862,
        1.236243,
        1.183154,
        1.173311,
        1.182969,
        1.158368,
        1.158785,
        1.182586,
        1.188699,
        1.174478,
        1.137986,
        1.125275,
        1.120379,
        1.125237,
        1.137776,
        1.144523,
        1.133719,
        1.145648,
        1.182089,
        1.153976,
        1.129216,
        1.18154,
        1.246713,
        1.29902,
        1.331226,
        1.275944,
        1.166958,
        1.150354,
        1.180128,
        1.146718,
        1.157625,
        1.279243,
        1.349392,
        1.346787,
        1.31041,
        1.291269,
        1.316078,
        1.348853,
        1.366053,
        1.356975,
        1.344126,
        1.349752,
        1.386782,
        1.443834,
        1.494762,
        1.495247,
        1.466782,
        1.482458,
        1.529169,
        1.559695,
        1.517822,
        1.443597,
        1.453714,
        1.516226,
        1.556569,
        1.567103,
        1.559744,
        1.555064,
        1.574211,
        1.625262,
        1.679167,
        1.70686,
        1.696346,
        1.66567,
        1.623809,
        1.601665,
        1.630201,
        1.686375,
        1.747959,
        1.760383,
        1.72868,
        1.692629,
        1.678921,
        1.717467,
        1.749633,
        1.781794,
        1.790301,
        1.80154,
        1.801367,
        1.756703,
        1.640483,
        1.476252,
        1.351637,
        1.420673,
        1.532353,
        1.551025,
        1.42983,
        1.303594,
        1.289354,
        1.280738,
        1.317131,
        1.371608,
        1.420343,
        1.390063,
        1.204357,
        1.025014,
        1.002739,
        1.042498,
        1.049769,
        1.112778,
        1.300714,
        1.349475,
        1.253359,
        1.198036,
        1.229788,
        1.308041,
        1.301299,
        1.232584,
        1.24865,
        1.26646,
        1.268836,
        1.25269,
        1.312885,
        1.436518,
        1.46406,
        1.42472,
        1.41295,
        1.436648,
        1.457706,
        1.436842,
        1.431382,
        1.476265,
        1.526454,
        1.5523,
        1.557152,
        1.545582,
        1.546347,
        1.545911,
        1.590213,
        1.610808,
        1.633832,
        1.655767,
        1.673109,
        1.692031,
        1.697944,
        1.72334,
        1.744942,
        1.758597,
        1.734458,
        1.709515,
        1.643351,
        1.638541,
        1.634427,
        1.688107,
        1.735727,
        1.77667,
        1.792128,
        1.820424,
        1.861623,
        1.856758,
        1.874184,
        1.85046,
        1.825057,
        1.844691,
        1.874523,
        1.883069,
        1.877077,
        1.848803,
        1.836578,
        1.843916,
        1.834455,
        1.806504,
        1.823081,
        1.831623,
        1.836831,
        1.855783,
        1.871508,
        1.870951,
        1.878109,
        1.920748,
        1.917992,
        1.905442,
        1.903527,
        1.869975,
        1.830075,
        1.819049,
        1.81729,
        1.817642,
        1.822784,
        1.840187,
        1.859149,
        1.875397,
        1.882923,
        1.87358,
        1.844142,
        1.804217,
        1.764187,
        1.735474,
        1.727181,
        1.733878,
        1.745882,
        1.753765,
        1.749608,
        1.734505,
        1.713733,
        1.692589,
        1.676126,
        1.66629,
        1.662935,
        1.66588,
        1.674895,
        1.688275,
        1.702633,
        1.714261,
        1.719251,
        1.716947,
        1.71169,
        1.706584,
        1.703196,
        1.704688,
        1.70975,
        1.715537,
        1.719125,
        1.718967,
        1.71526,
        1.718167,
        1.72957,
        1.726473,
        1.689495,
        1.67482,
        1.705432,
        1.708565,
        1.6997,
        1.696231,
        1.703227,
        1.690773,
        1.686077,
        1.701237,
        1.734555,
        1.751769,
        1.775021,
        1.774243,
        1.782136,
        1.760155,
        1.735419,
        1.67941,
        1.636035,
        1.647561,
        1.648112,
        1.639854,
        1.659722,
        1.700472,
        1.723448,
        1.727106,
        1.73709,
        1.739676,
        1.748839,
        1.753142,
        1.711631,
        1.708853,
        1.698773,
        1.677425,
        1.671816,
        1.695458,
        1.72146,
        1.733329,
        1.728241,
        1.713167,
        1.698923,
        1.725296,
        1.74533,
        1.753249,
        1.784329,
        1.816839,
        1.818043,
        1.804688,
        1.798113,
        1.778236,
        1.758485,
        1.776806,
        1.814895,
        1.8471,
        1.863097,
        1.833759,
        1.747261,
        1.725195,
        1.738244,
        1.721094,
        1.714596,
        1.757984,
        1.829467,
        1.865554,
        1.852326,
        1.828057,
        1.831215,
        1.822502,
        1.818214,
        1.790266,
        1.777869,
        1.802309,
        1.80808,
        1.794413,
        1.767625,
        1.789162,
        1.815081,
        1.819501,
        1.842524,
        1.860634,
        1.862178,
        1.869589,
        1.881328,
        1.84473,
        1.847658,
        1.862314,
        1.860757,
        1.837972,
        1.816256,
        1.840044,
        1.821858,
        1.83464,
        1.849931,
        1.869241,
        1.876459,
        1.871628,
        1.870685,
        1.855128,
        1.864923,
        1.871123,
        1.877538,
        1.875714,
        1.843329,
        1.901122,
        1.917279,
        1.913922,
        1.904912,
        1.907292,
        1.886872,
        1.862056,
        1.836095,
        1.824049,
        1.789961,
        1.783693,
        1.815202,
        1.80625,
        1.795528,
        1.792236,
        1.798681,
        1.810894,
        1.817025,
        1.835379,
        1.860237,
        1.860584,
        1.84063,
        1.839524,
        1.782042,
        1.710176,
        1.645487,
        1.659043,
        1.703119,
        1.73826,
        1.78659,
        1.811189,
        1.821098,
        1.825991,
        1.801246,
        1.806283,
        1.759531,
        1.764819,
        1.770858,
        1.757866,
        1.752623,
        1.767092,
        1.748748,
        1.756053,
        1.794089,
        1.791369,
        1.782546,
        1.745192,
        1.620729,
        1.567665,
        1.664847,
        1.681136,
        1.666329,
        1.706491,
        1.736823,
        1.733679,
        1.663895,
        1.498561,
        1.499856,
        1.644677,
        1.709204,
        1.742978,
        1.764444,
        1.79038,
        1.812267,
        1.828087,
        1.835088,
        1.848145,
        1.846813,
        1.839935,
        1.838608,
        1.819181,
        1.823205,
        1.834831,
        1.855394,
        1.871727,
        1.878465,
        1.882569,
        1.865997,
        1.817863,
        1.74406,
        1.5617,
        1.562916,
        1.662223,
        1.68301,
        1.718865,
        1.733387,
        1.762787,
        1.836022,
        1.858554,
        1.884727,
        1.891293,
        1.899335,
        1.911493,
        1.906478,
        1.897212,
        1.887342,
        1.888764,
        1.904899,
        1.899856,
        1.895711,
        1.894677,
        1.878006,
        1.875514,
        1.885692,
        1.907715,
        1.918844,
        1.910348,
        1.89468,
        1.880278,
        1.810855,
        1.825494,
        1.858245,
        1.840552,
        1.844679,
        1.894615,
        1.904459,
        1.908327,
        1.936495,
        1.94535,
        1.93392,
        1.885988,
        1.862147,
        1.853744,
        1.846057,
        1.853862,
        1.872152,
        1.882132,
        1.890458,
        1.896767,
        1.895689,
        1.878879,
        1.848708,
        1.816865,
        1.814338,
        1.808858,
        1.819989,
        1.826884,
        1.816595,
        1.836614,
        1.854349,
        1.85878,
        1.857693,
        1.857432,
        1.860227,
        1.864085,
        1.838682,
        1.804632,
        1.824943,
        1.802802,
        1.821123,
        1.821901,
        1.83295,
        1.847152,
        1.859628,
        1.885574,
        1.899515,
        1.905352,
        1.903411,
        1.901734,
        1.902853,
        1.896333,
        1.892582,
        1.885876,
        1.886778,
        1.87474,
        1.852414,
        1.832669,
        1.834707,
        1.814518,
        1.79848,
        1.798515,
        1.798346,
        1.807975,
        1.831846,
        1.832214,
        1.820737,
        1.804895,
        1.794337,
        1.781999,
        1.762634,
        1.755851,
        1.737739,
        1.712773,
        1.713832,
        1.732067,
        1.746878,
        1.756403,
        1.769992,
        1.786793,
        1.790923,
        1.792919,
        1.79812,
        1.805607,
        1.808477,
        1.802819,
        1.796446,
        1.786029,
        1.782734,
        1.787218,
        1.786169,
        1.791794,
        1.804169,
        1.805415,
        1.791481,
        1.773917,
        1.760256,
        1.741398,
        1.730146,
        1.726141,
        1.722279,
        1.720825,
        1.723019,
        1.739299,
        1.757332,
        1.785014,
        1.782571,
        1.771131,
        1.763181,
        1.793067,
        1.760085,
        1.773601,
        1.790282,
        1.780332,
        1.801091,
        1.799007,
        1.825931,
        1.84782,
        1.86212,
        1.856451,
        1.84425,
        1.820313,
        1.802766,
        1.79794,
        1.759758,
        1.730132,
        1.730605,
        1.693228,
        1.711534,
        1.739052,
        1.74754,
        1.773164,
        1.809805,
        1.83412,
        1.843263,
        1.822967,
        1.837009,
        1.828968,
        1.791073,
        1.769503,
        1.796037,
        1.800927,
        1.77875,
        1.76618,
        1.779897,
        1.792431,
        1.799376,
        1.787795,
        1.771322,
        1.778785,
        1.770726,
        1.767622,
        1.739798,
        1.724255,
        1.717566,
        1.689151,
        1.686022,
        1.681585,
        1.689183,
        1.70125,
        1.726597,
        1.753338,
        1.768278,
        1.785028,
        1.774784,
        1.784802,
        1.756273,
        1.741929,
        1.733986,
        1.719919,
        1.719257,
        1.708013,
        1.699027,
        1.705176,
        1.703096,
        1.715466,
        1.728777,
        1.733881,
        1.755357,
        1.760638,
        1.760096,
        1.779503,
        1.778845,
        1.773069,
        1.764537,
        1.756222,
        1.745806,
        1.736202,
        1.728582,
        1.738937,
        1.747949,
        1.746819,
        1.745032,
        1.74551,
        1.748018,
        1.734024,
        1.724104,
        1.726369,
        1.735249,
        1.734856,
        1.741085,
        1.742792,
        1.746227,
        1.755336,
        1.75731,
        1.757151,
        1.768174,
        1.785482,
        1.78776,
        1.794236,
        1.800058,
        1.798012,
        1.789127,
        1.796228,
        1.794852,
        1.797381,
        1.787568,
        1.79251,
        1.788371,
        1.77933,
        1.788936,
        1.785199,
        1.785706,
        1.787405,
        1.781289,
        1.780822,
        1.784967,
        1.79217,
        1.780038,
        1.77601,
        1.771787,
        1.772508,
        1.764135,
        1.761785,
        1.756968,
        1.752705,
        1.749578,
        1.753527,
        1.759246,
        1.761659,
        1.76871,
        1.771445,
        1.789387,
        1.79576,
        1.785011,
        1.781982,
        1.761598,
        1.758158,
        1.741113,
        1.720622,
        1.722088,
        1.707263,
        1.723905,
        1.724069,
        1.741482,
        1.74452,
        1.761642,
        1.771453,
        1.772225,
        1.780343,
        1.778631,
        1.784551,
        1.772678,
        1.771534,
        1.778953,
        1.778084,
        1.777598,
        1.779555,
        1.781242,
        1.774065,
        1.768502,
        1.771315,
        1.771771,
        1.773265,
        1.774875,
        1.776733,
        1.767398,
        1.758165,
        1.772181,
        1.757125,
        1.76714,
        1.766232,
        1.766123,
        1.766783,
        1.768049,
        1.769755,
        1.771733,
        1.77382,
        1.775906,
        1.777919,
        1.779795,
        1.781491,
        1.782972,
        1.784163,
        1.784968,
        1.785293,
        1.785041,
        1.78413,
        1.78254,
        1.780277,
        1.777372,
        1.773968,
        1.77023,
        1.766299,
        1.762312,
        1.758403,
        1.754711,
        1.751412,
        1.748809,
        1.747226,
        1.74695,
        1.748107,
        1.750538,
        1.753494,
        1.756137,
        1.757631,
        1.757144,
        1.754416,
        1.750378,
        1.746109,
        1.74271,
        1.741354,
        1.742602,
        1.745795,
        1.750131,
        1.754809,
        1.759029,
        1.762265,
        1.764558,
        1.766019,
        1.76676,
        1.766893,
        1.766539,
        1.765841,
        1.764947,
        1.764001,
        1.76315,
        1.762448,
        1.761734,
        1.760814
      ],
      "range":1
    }
  }
]
