[
  {
    "model":"Star, type B1(v)",
    "name":"Star, type B1(v)",
    "type":"WB_REF",
    "dataQualityMarker":3,
    "dataSource":"https://www.eso.org/sci/facilities/paranal/decommissioned/isaac/tools/lib.html",
    "manufacturer":"A. Pickles (A.J. Pickles, PASP 110,863, 1998)",
    "version":1,
    "wavelength":{
      "value":[
        1150.0,
        1155.0,
        1160.0,
        1165.0,
        1170.0,
        1175.0,
        1180.0,
        1185.0,
        1190.0,
        1195.0,
        1200.0,
        1205.0,
        1210.0,
        1215.0,
        1220.0,
        1225.0,
        1230.0,
        1235.0,
        1240.0,
        1245.0,
        1250.0,
        1255.0,
        1260.0,
        1265.0,
        1270.0,
        1275.0,
        1280.0,
        1285.0,
        1290.0,
        1295.0,
        1300.0,
        1305.0,
        1310.0,
        1315.0,
        1320.0,
        1325.0,
        1330.0,
        1335.0,
        1340.0,
        1345.0,
        1350.0,
        1355.0,
        1360.0,
        1365.0,
        1370.0,
        1375.0,
        1380.0,
        1385.0,
        1390.0,
        1395.0,
        1400.0,
        1405.0,
        1410.0,
        1415.0,
        1420.0,
        1425.0,
        1430.0,
        1435.0,
        1440.0,
        1445.0,
        1450.0,
        1455.0,
        1460.0,
        1465.0,
        1470.0,
        1475.0,
        1480.0,
        1485.0,
        1490.0,
        1495.0,
        1500.0,
        1505.0,
        1510.0,
        1515.0,
        1520.0,
        1525.0,
        1530.0,
        1535.0,
        1540.0,
        1545.0,
        1550.0,
        1555.0,
        1560.0,
        1565.0,
        1570.0,
        1575.0,
        1580.0,
        1585.0,
        1590.0,
        1595.0,
        1600.0,
        1605.0,
        1610.0,
        1615.0,
        1620.0,
        1625.0,
        1630.0,
        1635.0,
        1640.0,
        1645.0,
        1650.0,
        1655.0,
        1660.0,
        1665.0,
        1670.0,
        1675.0,
        1680.0,
        1685.0,
        1690.0,
        1695.0,
        1700.0,
        1705.0,
        1710.0,
        1715.0,
        1720.0,
        1725.0,
        1730.0,
        1735.0,
        1740.0,
        1745.0,
        1750.0,
        1755.0,
        1760.0,
        1765.0,
        1770.0,
        1775.0,
        1780.0,
        1785.0,
        1790.0,
        1795.0,
        1800.0,
        1805.0,
        1810.0,
        1815.0,
        1820.0,
        1825.0,
        1830.0,
        1835.0,
        1840.0,
        1845.0,
        1850.0,
        1855.0,
        1860.0,
        1865.0,
        1870.0,
        1875.0,
        1880.0,
        1885.0,
        1890.0,
        1895.0,
        1900.0,
        1905.0,
        1910.0,
        1915.0,
        1920.0,
        1925.0,
        1930.0,
        1935.0,
        1940.0,
        1945.0,
        1950.0,
        1955.0,
        1960.0,
        1965.0,
        1970.0,
        1975.0,
        1980.0,
        1985.0,
        1990.0,
        1995.0,
        2000.0,
        2005.0,
        2010.0,
        2015.0,
        2020.0,
        2025.0,
        2030.0,
        2035.0,
        2040.0,
        2045.0,
        2050.0,
        2055.0,
        2060.0,
        2065.0,
        2070.0,
        2075.0,
        2080.0,
        2085.0,
        2090.0,
        2095.0,
        2100.0,
        2105.0,
        2110.0,
        2115.0,
        2120.0,
        2125.0,
        2130.0,
        2135.0,
        2140.0,
        2145.0,
        2150.0,
        2155.0,
        2160.0,
        2165.0,
        2170.0,
        2175.0,
        2180.0,
        2185.0,
        2190.0,
        2195.0,
        2200.0,
        2205.0,
        2210.0,
        2215.0,
        2220.0,
        2225.0,
        2230.0,
        2235.0,
        2240.0,
        2245.0,
        2250.0,
        2255.0,
        2260.0,
        2265.0,
        2270.0,
        2275.0,
        2280.0,
        2285.0,
        2290.0,
        2295.0,
        2300.0,
        2305.0,
        2310.0,
        2315.0,
        2320.0,
        2325.0,
        2330.0,
        2335.0,
        2340.0,
        2345.0,
        2350.0,
        2355.0,
        2360.0,
        2365.0,
        2370.0,
        2375.0,
        2380.0,
        2385.0,
        2390.0,
        2395.0,
        2400.0,
        2405.0,
        2410.0,
        2415.0,
        2420.0,
        2425.0,
        2430.0,
        2435.0,
        2440.0,
        2445.0,
        2450.0,
        2455.0,
        2460.0,
        2465.0,
        2470.0,
        2475.0,
        2480.0,
        2485.0,
        2490.0,
        2495.0,
        2500.0,
        2505.0,
        2510.0,
        2515.0,
        2520.0,
        2525.0,
        2530.0,
        2535.0,
        2540.0,
        2545.0,
        2550.0,
        2555.0,
        2560.0,
        2565.0,
        2570.0,
        2575.0,
        2580.0,
        2585.0,
        2590.0,
        2595.0,
        2600.0,
        2605.0,
        2610.0,
        2615.0,
        2620.0,
        2625.0,
        2630.0,
        2635.0,
        2640.0,
        2645.0,
        2650.0,
        2655.0,
        2660.0,
        2665.0,
        2670.0,
        2675.0,
        2680.0,
        2685.0,
        2690.0,
        2695.0,
        2700.0,
        2705.0,
        2710.0,
        2715.0,
        2720.0,
        2725.0,
        2730.0,
        2735.0,
        2740.0,
        2745.0,
        2750.0,
        2755.0,
        2760.0,
        2765.0,
        2770.0,
        2775.0,
        2780.0,
        2785.0,
        2790.0,
        2795.0,
        2800.0,
        2805.0,
        2810.0,
        2815.0,
        2820.0,
        2825.0,
        2830.0,
        2835.0,
        2840.0,
        2845.0,
        2850.0,
        2855.0,
        2860.0,
        2865.0,
        2870.0,
        2875.0,
        2880.0,
        2885.0,
        2890.0,
        2895.0,
        2900.0,
        2905.0,
        2910.0,
        2915.0,
        2920.0,
        2925.0,
        2930.0,
        2935.0,
        2940.0,
        2945.0,
        2950.0,
        2955.0,
        2960.0,
        2965.0,
        2970.0,
        2975.0,
        2980.0,
        2985.0,
        2990.0,
        2995.0,
        3000.0,
        3005.0,
        3010.0,
        3015.0,
        3020.0,
        3025.0,
        3030.0,
        3035.0,
        3040.0,
        3045.0,
        3050.0,
        3055.0,
        3060.0,
        3065.0,
        3070.0,
        3075.0,
        3080.0,
        3085.0,
        3090.0,
        3095.0,
        3100.0,
        3105.0,
        3110.0,
        3115.0,
        3120.0,
        3125.0,
        3130.0,
        3135.0,
        3140.0,
        3145.0,
        3150.0,
        3155.0,
        3160.0,
        3165.0,
        3170.0,
        3175.0,
        3180.0,
        3185.0,
        3190.0,
        3195.0,
        3200.0,
        3205.0,
        3210.0,
        3215.0,
        3220.0,
        3225.0,
        3230.0,
        3235.0,
        3240.0,
        3245.0,
        3250.0,
        3255.0,
        3260.0,
        3265.0,
        3270.0,
        3275.0,
        3280.0,
        3285.0,
        3290.0,
        3295.0,
        3300.0,
        3305.0,
        3310.0,
        3315.0,
        3320.0,
        3325.0,
        3330.0,
        3335.0,
        3340.0,
        3345.0,
        3350.0,
        3355.0,
        3360.0,
        3365.0,
        3370.0,
        3375.0,
        3380.0,
        3385.0,
        3390.0,
        3395.0,
        3400.0,
        3405.0,
        3410.0,
        3415.0,
        3420.0,
        3425.0,
        3430.0,
        3435.0,
        3440.0,
        3445.0,
        3450.0,
        3455.0,
        3460.0,
        3465.0,
        3470.0,
        3475.0,
        3480.0,
        3485.0,
        3490.0,
        3495.0,
        3500.0,
        3505.0,
        3510.0,
        3515.0,
        3520.0,
        3525.0,
        3530.0,
        3535.0,
        3540.0,
        3545.0,
        3550.0,
        3555.0,
        3560.0,
        3565.0,
        3570.0,
        3575.0,
        3580.0,
        3585.0,
        3590.0,
        3595.0,
        3600.0,
        3605.0,
        3610.0,
        3615.0,
        3620.0,
        3625.0,
        3630.0,
        3635.0,
        3640.0,
        3645.0,
        3650.0,
        3655.0,
        3660.0,
        3665.0,
        3670.0,
        3675.0,
        3680.0,
        3685.0,
        3690.0,
        3695.0,
        3700.0,
        3705.0,
        3710.0,
        3715.0,
        3720.0,
        3725.0,
        3730.0,
        3735.0,
        3740.0,
        3745.0,
        3750.0,
        3755.0,
        3760.0,
        3765.0,
        3770.0,
        3775.0,
        3780.0,
        3785.0,
        3790.0,
        3795.0,
        3800.0,
        3805.0,
        3810.0,
        3815.0,
        3820.0,
        3825.0,
        3830.0,
        3835.0,
        3840.0,
        3845.0,
        3850.0,
        3855.0,
        3860.0,
        3865.0,
        3870.0,
        3875.0,
        3880.0,
        3885.0,
        3890.0,
        3895.0,
        3900.0,
        3905.0,
        3910.0,
        3915.0,
        3920.0,
        3925.0,
        3930.0,
        3935.0,
        3940.0,
        3945.0,
        3950.0,
        3955.0,
        3960.0,
        3965.0,
        3970.0,
        3975.0,
        3980.0,
        3985.0,
        3990.0,
        3995.0,
        4000.0,
        4005.0,
        4010.0,
        4015.0,
        4020.0,
        4025.0,
        4030.0,
        4035.0,
        4040.0,
        4045.0,
        4050.0,
        4055.0,
        4060.0,
        4065.0,
        4070.0,
        4075.0,
        4080.0,
        4085.0,
        4090.0,
        4095.0,
        4100.0,
        4105.0,
        4110.0,
        4115.0,
        4120.0,
        4125.0,
        4130.0,
        4135.0,
        4140.0,
        4145.0,
        4150.0,
        4155.0,
        4160.0,
        4165.0,
        4170.0,
        4175.0,
        4180.0,
        4185.0,
        4190.0,
        4195.0,
        4200.0,
        4205.0,
        4210.0,
        4215.0,
        4220.0,
        4225.0,
        4230.0,
        4235.0,
        4240.0,
        4245.0,
        4250.0,
        4255.0,
        4260.0,
        4265.0,
        4270.0,
        4275.0,
        4280.0,
        4285.0,
        4290.0,
        4295.0,
        4300.0,
        4305.0,
        4310.0,
        4315.0,
        4320.0,
        4325.0,
        4330.0,
        4335.0,
        4340.0,
        4345.0,
        4350.0,
        4355.0,
        4360.0,
        4365.0,
        4370.0,
        4375.0,
        4380.0,
        4385.0,
        4390.0,
        4395.0,
        4400.0,
        4405.0,
        4410.0,
        4415.0,
        4420.0,
        4425.0,
        4430.0,
        4435.0,
        4440.0,
        4445.0,
        4450.0,
        4455.0,
        4460.0,
        4465.0,
        4470.0,
        4475.0,
        4480.0,
        4485.0,
        4490.0,
        4495.0,
        4500.0,
        4505.0,
        4510.0,
        4515.0,
        4520.0,
        4525.0,
        4530.0,
        4535.0,
        4540.0,
        4545.0,
        4550.0,
        4555.0,
        4560.0,
        4565.0,
        4570.0,
        4575.0,
        4580.0,
        4585.0,
        4590.0,
        4595.0,
        4600.0,
        4605.0,
        4610.0,
        4615.0,
        4620.0,
        4625.0,
        4630.0,
        4635.0,
        4640.0,
        4645.0,
        4650.0,
        4655.0,
        4660.0,
        4665.0,
        4670.0,
        4675.0,
        4680.0,
        4685.0,
        4690.0,
        4695.0,
        4700.0,
        4705.0,
        4710.0,
        4715.0,
        4720.0,
        4725.0,
        4730.0,
        4735.0,
        4740.0,
        4745.0,
        4750.0,
        4755.0,
        4760.0,
        4765.0,
        4770.0,
        4775.0,
        4780.0,
        4785.0,
        4790.0,
        4795.0,
        4800.0,
        4805.0,
        4810.0,
        4815.0,
        4820.0,
        4825.0,
        4830.0,
        4835.0,
        4840.0,
        4845.0,
        4850.0,
        4855.0,
        4860.0,
        4865.0,
        4870.0,
        4875.0,
        4880.0,
        4885.0,
        4890.0,
        4895.0,
        4900.0,
        4905.0,
        4910.0,
        4915.0,
        4920.0,
        4925.0,
        4930.0,
        4935.0,
        4940.0,
        4945.0,
        4950.0,
        4955.0,
        4960.0,
        4965.0,
        4970.0,
        4975.0,
        4980.0,
        4985.0,
        4990.0,
        4995.0,
        5000.0,
        5005.0,
        5010.0,
        5015.0,
        5020.0,
        5025.0,
        5030.0,
        5035.0,
        5040.0,
        5045.0,
        5050.0,
        5055.0,
        5060.0,
        5065.0,
        5070.0,
        5075.0,
        5080.0,
        5085.0,
        5090.0,
        5095.0,
        5100.0,
        5105.0,
        5110.0,
        5115.0,
        5120.0,
        5125.0,
        5130.0,
        5135.0,
        5140.0,
        5145.0,
        5150.0,
        5155.0,
        5160.0,
        5165.0,
        5170.0,
        5175.0,
        5180.0,
        5185.0,
        5190.0,
        5195.0,
        5200.0,
        5205.0,
        5210.0,
        5215.0,
        5220.0,
        5225.0,
        5230.0,
        5235.0,
        5240.0,
        5245.0,
        5250.0,
        5255.0,
        5260.0,
        5265.0,
        5270.0,
        5275.0,
        5280.0,
        5285.0,
        5290.0,
        5295.0,
        5300.0,
        5305.0,
        5310.0,
        5315.0,
        5320.0,
        5325.0,
        5330.0,
        5335.0,
        5340.0,
        5345.0,
        5350.0,
        5355.0,
        5360.0,
        5365.0,
        5370.0,
        5375.0,
        5380.0,
        5385.0,
        5390.0,
        5395.0,
        5400.0,
        5405.0,
        5410.0,
        5415.0,
        5420.0,
        5425.0,
        5430.0,
        5435.0,
        5440.0,
        5445.0,
        5450.0,
        5455.0,
        5460.0,
        5465.0,
        5470.0,
        5475.0,
        5480.0,
        5485.0,
        5490.0,
        5495.0,
        5500.0,
        5505.0,
        5510.0,
        5515.0,
        5520.0,
        5525.0,
        5530.0,
        5535.0,
        5540.0,
        5545.0,
        5550.0,
        5555.0,
        5560.0,
        5565.0,
        5570.0,
        5575.0,
        5580.0,
        5585.0,
        5590.0,
        5595.0,
        5600.0,
        5605.0,
        5610.0,
        5615.0,
        5620.0,
        5625.0,
        5630.0,
        5635.0,
        5640.0,
        5645.0,
        5650.0,
        5655.0,
        5660.0,
        5665.0,
        5670.0,
        5675.0,
        5680.0,
        5685.0,
        5690.0,
        5695.0,
        5700.0,
        5705.0,
        5710.0,
        5715.0,
        5720.0,
        5725.0,
        5730.0,
        5735.0,
        5740.0,
        5745.0,
        5750.0,
        5755.0,
        5760.0,
        5765.0,
        5770.0,
        5775.0,
        5780.0,
        5785.0,
        5790.0,
        5795.0,
        5800.0,
        5805.0,
        5810.0,
        5815.0,
        5820.0,
        5825.0,
        5830.0,
        5835.0,
        5840.0,
        5845.0,
        5850.0,
        5855.0,
        5860.0,
        5865.0,
        5870.0,
        5875.0,
        5880.0,
        5885.0,
        5890.0,
        5895.0,
        5900.0,
        5905.0,
        5910.0,
        5915.0,
        5920.0,
        5925.0,
        5930.0,
        5935.0,
        5940.0,
        5945.0,
        5950.0,
        5955.0,
        5960.0,
        5965.0,
        5970.0,
        5975.0,
        5980.0,
        5985.0,
        5990.0,
        5995.0,
        6000.0,
        6005.0,
        6010.0,
        6015.0,
        6020.0,
        6025.0,
        6030.0,
        6035.0,
        6040.0,
        6045.0,
        6050.0,
        6055.0,
        6060.0,
        6065.0,
        6070.0,
        6075.0,
        6080.0,
        6085.0,
        6090.0,
        6095.0,
        6100.0,
        6105.0,
        6110.0,
        6115.0,
        6120.0,
        6125.0,
        6130.0,
        6135.0,
        6140.0,
        6145.0,
        6150.0,
        6155.0,
        6160.0,
        6165.0,
        6170.0,
        6175.0,
        6180.0,
        6185.0,
        6190.0,
        6195.0,
        6200.0,
        6205.0,
        6210.0,
        6215.0,
        6220.0,
        6225.0,
        6230.0,
        6235.0,
        6240.0,
        6245.0,
        6250.0,
        6255.0,
        6260.0,
        6265.0,
        6270.0,
        6275.0,
        6280.0,
        6285.0,
        6290.0,
        6295.0,
        6300.0,
        6305.0,
        6310.0,
        6315.0,
        6320.0,
        6325.0,
        6330.0,
        6335.0,
        6340.0,
        6345.0,
        6350.0,
        6355.0,
        6360.0,
        6365.0,
        6370.0,
        6375.0,
        6380.0,
        6385.0,
        6390.0,
        6395.0,
        6400.0,
        6405.0,
        6410.0,
        6415.0,
        6420.0,
        6425.0,
        6430.0,
        6435.0,
        6440.0,
        6445.0,
        6450.0,
        6455.0,
        6460.0,
        6465.0,
        6470.0,
        6475.0,
        6480.0,
        6485.0,
        6490.0,
        6495.0,
        6500.0,
        6505.0,
        6510.0,
        6515.0,
        6520.0,
        6525.0,
        6530.0,
        6535.0,
        6540.0,
        6545.0,
        6550.0,
        6555.0,
        6560.0,
        6565.0,
        6570.0,
        6575.0,
        6580.0,
        6585.0,
        6590.0,
        6595.0,
        6600.0,
        6605.0,
        6610.0,
        6615.0,
        6620.0,
        6625.0,
        6630.0,
        6635.0,
        6640.0,
        6645.0,
        6650.0,
        6655.0,
        6660.0,
        6665.0,
        6670.0,
        6675.0,
        6680.0,
        6685.0,
        6690.0,
        6695.0,
        6700.0,
        6705.0,
        6710.0,
        6715.0,
        6720.0,
        6725.0,
        6730.0,
        6735.0,
        6740.0,
        6745.0,
        6750.0,
        6755.0,
        6760.0,
        6765.0,
        6770.0,
        6775.0,
        6780.0,
        6785.0,
        6790.0,
        6795.0,
        6800.0,
        6805.0,
        6810.0,
        6815.0,
        6820.0,
        6825.0,
        6830.0,
        6835.0,
        6840.0,
        6845.0,
        6850.0,
        6855.0,
        6860.0,
        6865.0,
        6870.0,
        6875.0,
        6880.0,
        6885.0,
        6890.0,
        6895.0,
        6900.0,
        6905.0,
        6910.0,
        6915.0,
        6920.0,
        6925.0,
        6930.0,
        6935.0,
        6940.0,
        6945.0,
        6950.0,
        6955.0,
        6960.0,
        6965.0,
        6970.0,
        6975.0,
        6980.0,
        6985.0,
        6990.0,
        6995.0,
        7000.0,
        7005.0,
        7010.0,
        7015.0,
        7020.0,
        7025.0,
        7030.0,
        7035.0,
        7040.0,
        7045.0,
        7050.0,
        7055.0,
        7060.0,
        7065.0,
        7070.0,
        7075.0,
        7080.0,
        7085.0,
        7090.0,
        7095.0,
        7100.0,
        7105.0,
        7110.0,
        7115.0,
        7120.0,
        7125.0,
        7130.0,
        7135.0,
        7140.0,
        7145.0,
        7150.0,
        7155.0,
        7160.0,
        7165.0,
        7170.0,
        7175.0,
        7180.0,
        7185.0,
        7190.0,
        7195.0,
        7200.0,
        7205.0,
        7210.0,
        7215.0,
        7220.0,
        7225.0,
        7230.0,
        7235.0,
        7240.0,
        7245.0,
        7250.0,
        7255.0,
        7260.0,
        7265.0,
        7270.0,
        7275.0,
        7280.0,
        7285.0,
        7290.0,
        7295.0,
        7300.0,
        7305.0,
        7310.0,
        7315.0,
        7320.0,
        7325.0,
        7330.0,
        7335.0,
        7340.0,
        7345.0,
        7350.0,
        7355.0,
        7360.0,
        7365.0,
        7370.0,
        7375.0,
        7380.0,
        7385.0,
        7390.0,
        7395.0,
        7400.0,
        7405.0,
        7410.0,
        7415.0,
        7420.0,
        7425.0,
        7430.0,
        7435.0,
        7440.0,
        7445.0,
        7450.0,
        7455.0,
        7460.0,
        7465.0,
        7470.0,
        7475.0,
        7480.0,
        7485.0,
        7490.0,
        7495.0,
        7500.0,
        7505.0,
        7510.0,
        7515.0,
        7520.0,
        7525.0,
        7530.0,
        7535.0,
        7540.0,
        7545.0,
        7550.0,
        7555.0,
        7560.0,
        7565.0,
        7570.0,
        7575.0,
        7580.0,
        7585.0,
        7590.0,
        7595.0,
        7600.0,
        7605.0,
        7610.0,
        7615.0,
        7620.0,
        7625.0,
        7630.0,
        7635.0,
        7640.0,
        7645.0,
        7650.0,
        7655.0,
        7660.0,
        7665.0,
        7670.0,
        7675.0,
        7680.0,
        7685.0,
        7690.0,
        7695.0,
        7700.0,
        7705.0,
        7710.0,
        7715.0,
        7720.0,
        7725.0,
        7730.0,
        7735.0,
        7740.0,
        7745.0,
        7750.0,
        7755.0,
        7760.0,
        7765.0,
        7770.0,
        7775.0,
        7780.0,
        7785.0,
        7790.0,
        7795.0,
        7800.0,
        7805.0,
        7810.0,
        7815.0,
        7820.0,
        7825.0,
        7830.0,
        7835.0,
        7840.0,
        7845.0,
        7850.0,
        7855.0,
        7860.0,
        7865.0,
        7870.0,
        7875.0,
        7880.0,
        7885.0,
        7890.0,
        7895.0,
        7900.0,
        7905.0,
        7910.0,
        7915.0,
        7920.0,
        7925.0,
        7930.0,
        7935.0,
        7940.0,
        7945.0,
        7950.0,
        7955.0,
        7960.0,
        7965.0,
        7970.0,
        7975.0,
        7980.0,
        7985.0,
        7990.0,
        7995.0,
        8000.0,
        8005.0,
        8010.0,
        8015.0,
        8020.0,
        8025.0,
        8030.0,
        8035.0,
        8040.0,
        8045.0,
        8050.0,
        8055.0,
        8060.0,
        8065.0,
        8070.0,
        8075.0,
        8080.0,
        8085.0,
        8090.0,
        8095.0,
        8100.0,
        8105.0,
        8110.0,
        8115.0,
        8120.0,
        8125.0,
        8130.0,
        8135.0,
        8140.0,
        8145.0,
        8150.0,
        8155.0,
        8160.0,
        8165.0,
        8170.0,
        8175.0,
        8180.0,
        8185.0,
        8190.0,
        8195.0,
        8200.0,
        8205.0,
        8210.0,
        8215.0,
        8220.0,
        8225.0,
        8230.0,
        8235.0,
        8240.0,
        8245.0,
        8250.0,
        8255.0,
        8260.0,
        8265.0,
        8270.0,
        8275.0,
        8280.0,
        8285.0,
        8290.0,
        8295.0,
        8300.0,
        8305.0,
        8310.0,
        8315.0,
        8320.0,
        8325.0,
        8330.0,
        8335.0,
        8340.0,
        8345.0,
        8350.0,
        8355.0,
        8360.0,
        8365.0,
        8370.0,
        8375.0,
        8380.0,
        8385.0,
        8390.0,
        8395.0,
        8400.0,
        8405.0,
        8410.0,
        8415.0,
        8420.0,
        8425.0,
        8430.0,
        8435.0,
        8440.0,
        8445.0,
        8450.0,
        8455.0,
        8460.0,
        8465.0,
        8470.0,
        8475.0,
        8480.0,
        8485.0,
        8490.0,
        8495.0,
        8500.0,
        8505.0,
        8510.0,
        8515.0,
        8520.0,
        8525.0,
        8530.0,
        8535.0,
        8540.0,
        8545.0,
        8550.0,
        8555.0,
        8560.0,
        8565.0,
        8570.0,
        8575.0,
        8580.0,
        8585.0,
        8590.0,
        8595.0,
        8600.0,
        8605.0,
        8610.0,
        8615.0,
        8620.0,
        8625.0,
        8630.0,
        8635.0,
        8640.0,
        8645.0,
        8650.0,
        8655.0,
        8660.0,
        8665.0,
        8670.0,
        8675.0,
        8680.0,
        8685.0,
        8690.0,
        8695.0,
        8700.0,
        8705.0,
        8710.0,
        8715.0,
        8720.0,
        8725.0,
        8730.0,
        8735.0,
        8740.0,
        8745.0,
        8750.0,
        8755.0,
        8760.0,
        8765.0,
        8770.0,
        8775.0,
        8780.0,
        8785.0,
        8790.0,
        8795.0,
        8800.0,
        8805.0,
        8810.0,
        8815.0,
        8820.0,
        8825.0,
        8830.0,
        8835.0,
        8840.0,
        8845.0,
        8850.0,
        8855.0,
        8860.0,
        8865.0,
        8870.0,
        8875.0,
        8880.0,
        8885.0,
        8890.0,
        8895.0,
        8900.0,
        8905.0,
        8910.0,
        8915.0,
        8920.0,
        8925.0,
        8930.0,
        8935.0,
        8940.0,
        8945.0,
        8950.0,
        8955.0,
        8960.0,
        8965.0,
        8970.0,
        8975.0,
        8980.0,
        8985.0,
        8990.0,
        8995.0,
        9000.0,
        9005.0,
        9010.0,
        9015.0,
        9020.0,
        9025.0,
        9030.0,
        9035.0,
        9040.0,
        9045.0,
        9050.0,
        9055.0,
        9060.0,
        9065.0,
        9070.0,
        9075.0,
        9080.0,
        9085.0,
        9090.0,
        9095.0,
        9100.0,
        9105.0,
        9110.0,
        9115.0,
        9120.0,
        9125.0,
        9130.0,
        9135.0,
        9140.0,
        9145.0,
        9150.0,
        9155.0,
        9160.0,
        9165.0,
        9170.0,
        9175.0,
        9180.0,
        9185.0,
        9190.0,
        9195.0,
        9200.0,
        9205.0,
        9210.0,
        9215.0,
        9220.0,
        9225.0,
        9230.0,
        9235.0,
        9240.0,
        9245.0,
        9250.0,
        9255.0,
        9260.0,
        9265.0,
        9270.0,
        9275.0,
        9280.0,
        9285.0,
        9290.0,
        9295.0,
        9300.0,
        9305.0,
        9310.0,
        9315.0,
        9320.0,
        9325.0,
        9330.0,
        9335.0,
        9340.0,
        9345.0,
        9350.0,
        9355.0,
        9360.0,
        9365.0,
        9370.0,
        9375.0,
        9380.0,
        9385.0,
        9390.0,
        9395.0,
        9400.0,
        9405.0,
        9410.0,
        9415.0,
        9420.0,
        9425.0,
        9430.0,
        9435.0,
        9440.0,
        9445.0,
        9450.0,
        9455.0,
        9460.0,
        9465.0,
        9470.0,
        9475.0,
        9480.0,
        9485.0,
        9490.0,
        9495.0,
        9500.0,
        9505.0,
        9510.0,
        9515.0,
        9520.0,
        9525.0,
        9530.0,
        9535.0,
        9540.0,
        9545.0,
        9550.0,
        9555.0,
        9560.0,
        9565.0,
        9570.0,
        9575.0,
        9580.0,
        9585.0,
        9590.0,
        9595.0,
        9600.0,
        9605.0,
        9610.0,
        9615.0,
        9620.0,
        9625.0,
        9630.0,
        9635.0,
        9640.0,
        9645.0,
        9650.0,
        9655.0,
        9660.0,
        9665.0,
        9670.0,
        9675.0,
        9680.0,
        9685.0,
        9690.0,
        9695.0,
        9700.0,
        9705.0,
        9710.0,
        9715.0,
        9720.0,
        9725.0,
        9730.0,
        9735.0,
        9740.0,
        9745.0,
        9750.0,
        9755.0,
        9760.0,
        9765.0,
        9770.0,
        9775.0,
        9780.0,
        9785.0,
        9790.0,
        9795.0,
        9800.0,
        9805.0,
        9810.0,
        9815.0,
        9820.0,
        9825.0,
        9830.0,
        9835.0,
        9840.0,
        9845.0,
        9850.0,
        9855.0,
        9860.0,
        9865.0,
        9870.0,
        9875.0,
        9880.0,
        9885.0,
        9890.0,
        9895.0,
        9900.0,
        9905.0,
        9910.0,
        9915.0,
        9920.0,
        9925.0,
        9930.0,
        9935.0,
        9940.0,
        9945.0,
        9950.0,
        9955.0,
        9960.0,
        9965.0,
        9970.0,
        9975.0,
        9980.0,
        9985.0,
        9990.0,
        9995.0,
        10000.0,
        10005.0,
        10010.0,
        10015.0,
        10020.0,
        10025.0,
        10030.0,
        10035.0,
        10040.0,
        10045.0,
        10050.0,
        10055.0,
        10060.0,
        10065.0,
        10070.0,
        10075.0,
        10080.0,
        10085.0,
        10090.0,
        10095.0,
        10100.0,
        10105.0,
        10110.0,
        10115.0,
        10120.0,
        10125.0,
        10130.0,
        10135.0,
        10140.0,
        10145.0,
        10150.0,
        10155.0,
        10160.0,
        10165.0,
        10170.0,
        10175.0,
        10180.0,
        10185.0,
        10190.0,
        10195.0,
        10200.0,
        10205.0,
        10210.0,
        10215.0,
        10220.0,
        10225.0,
        10230.0,
        10235.0,
        10240.0,
        10245.0,
        10250.0,
        10255.0,
        10260.0,
        10265.0,
        10270.0,
        10275.0,
        10280.0,
        10285.0,
        10290.0,
        10295.0,
        10300.0,
        10305.0,
        10310.0,
        10315.0,
        10320.0,
        10325.0,
        10330.0,
        10335.0,
        10340.0,
        10345.0,
        10350.0,
        10355.0,
        10360.0,
        10365.0,
        10370.0,
        10375.0,
        10380.0,
        10385.0,
        10390.0,
        10395.0,
        10400.0,
        10405.0,
        10410.0,
        10415.0,
        10420.0,
        10425.0,
        10430.0,
        10435.0,
        10440.0,
        10445.0,
        10450.0,
        10455.0,
        10460.0,
        10465.0,
        10470.0,
        10475.0,
        10480.0,
        10485.0,
        10490.0,
        10495.0,
        10500.0
      ],
      "units":"angstrom"
    },
    "values":{
      "value":[
        165.161285,
        111.349205,
        79.046478,
        74.756958,
        62.166412,
        50.098396,
        57.913269,
        59.044575,
        47.568211,
        48.035728,
        41.072407,
        28.267595,
        18.597424,
        14.438452,
        29.207548,
        46.555038,
        54.110184,
        59.635414,
        62.585022,
        59.66164,
        58.28936,
        57.567169,
        58.329048,
        61.216297,
        61.857899,
        61.939323,
        62.277115,
        60.798111,
        58.308208,
        52.355621,
        49.086578,
        53.776215,
        59.372475,
        59.108959,
        57.901424,
        54.624104,
        52.776257,
        49.836311,
        50.826271,
        51.763165,
        52.460949,
        52.395344,
        51.094212,
        49.764641,
        48.745865,
        46.816322,
        45.021603,
        41.802689,
        34.00906,
        30.684731,
        33.139011,
        36.203465,
        39.36824,
        39.305023,
        39.366703,
        38.312168,
        38.184937,
        38.694473,
        39.381359,
        40.190884,
        39.479443,
        38.483181,
        38.428963,
        37.326099,
        36.905479,
        37.194805,
        37.348209,
        37.449684,
        37.592545,
        35.241398,
        32.850014,
        32.375492,
        31.563631,
        30.549185,
        31.322222,
        29.868725,
        27.114714,
        26.614536,
        25.884077,
        22.908768,
        22.944136,
        26.438976,
        27.248632,
        26.858307,
        27.712475,
        27.485788,
        26.849695,
        27.598175,
        27.341141,
        25.793949,
        25.323868,
        24.655092,
        24.606825,
        25.395241,
        25.177509,
        25.178175,
        24.850634,
        24.809273,
        24.72094,
        25.660145,
        25.968061,
        25.026497,
        24.703398,
        24.744144,
        24.349468,
        24.488237,
        25.152618,
        25.111332,
        24.776905,
        24.433863,
        23.992733,
        23.47212,
        23.176748,
        22.417334,
        21.411354,
        21.800968,
        23.026203,
        23.1159,
        22.617071,
        22.374537,
        21.933191,
        22.610188,
        23.244532,
        23.178728,
        22.608349,
        21.911037,
        21.807142,
        19.875553,
        16.902382,
        19.741108,
        21.597736,
        21.100304,
        20.537048,
        20.564196,
        20.916698,
        20.873047,
        20.685774,
        20.114017,
        19.111786,
        18.393158,
        18.180561,
        18.113035,
        18.365973,
        18.568226,
        18.821505,
        18.859293,
        18.080669,
        16.671497,
        16.031107,
        16.226654,
        16.485493,
        16.199606,
        16.114414,
        15.607408,
        14.942908,
        14.870843,
        15.503215,
        15.967972,
        15.891196,
        15.99044,
        15.656035,
        14.936105,
        13.892767,
        13.592073,
        14.323466,
        15.911386,
        15.942954,
        15.386167,
        14.543755,
        13.670807,
        13.433002,
        13.990858,
        14.176946,
        14.939358,
        15.040229,
        14.904222,
        14.575258,
        14.111802,
        13.714343,
        13.463366,
        13.913839,
        14.060836,
        13.673039,
        13.285135,
        13.666348,
        14.013673,
        14.258505,
        14.148934,
        13.832876,
        12.854057,
        12.603593,
        12.735244,
        12.751228,
        13.173559,
        12.970428,
        12.799657,
        13.072703,
        12.936582,
        12.533052,
        12.2368,
        12.161519,
        12.650373,
        12.938037,
        12.306252,
        12.209068,
        11.941451,
        11.78147,
        11.910394,
        12.463341,
        12.916747,
        12.296997,
        11.691164,
        11.204439,
        11.072231,
        10.763356,
        10.785532,
        10.870298,
        10.674755,
        10.55141,
        10.401323,
        11.095918,
        11.306092,
        10.885193,
        10.655616,
        10.760864,
        10.752459,
        10.96609,
        10.63868,
        10.374377,
        10.114093,
        10.096423,
        10.312419,
        10.578617,
        10.734866,
        10.552332,
        10.390738,
        10.5503,
        10.793107,
        10.428848,
        10.449064,
        10.528724,
        10.173965,
        10.390521,
        10.220097,
        10.163816,
        10.388031,
        10.081888,
        9.577448,
        9.259829,
        9.630337,
        10.100805,
        9.713931,
        9.08722,
        9.29846,
        9.47132,
        9.602074,
        10.02326,
        9.734668,
        9.622949,
        9.933301,
        9.850191,
        10.126763,
        10.251278,
        10.113833,
        9.7689,
        9.414059,
        9.357811,
        9.231943,
        8.988895,
        8.842022,
        9.351443,
        9.42461,
        9.412062,
        9.28955,
        8.913117,
        8.968131,
        9.278117,
        9.144213,
        8.89629,
        8.961559,
        9.070989,
        8.861355,
        8.834198,
        9.152386,
        9.214161,
        8.818314,
        7.53736,
        7.533216,
        8.326547,
        8.585611,
        8.379534,
        8.318501,
        8.635831,
        8.842868,
        8.873675,
        8.656787,
        8.648501,
        8.740822,
        8.344269,
        8.069115,
        8.13387,
        8.164954,
        8.088187,
        8.012048,
        7.958072,
        8.103995,
        8.223943,
        8.110993,
        8.071133,
        7.857706,
        7.605227,
        7.64321,
        7.49017,
        7.466203,
        7.411944,
        7.325364,
        7.641213,
        7.561353,
        7.41343,
        7.417416,
        7.523931,
        7.386638,
        7.189419,
        7.168366,
        7.084321,
        7.29398,
        7.386109,
        7.41512,
        7.547864,
        7.320281,
        6.948911,
        6.887943,
        6.91333,
        7.256983,
        7.427143,
        7.130473,
        6.579941,
        6.617135,
        6.973148,
        6.958529,
        7.015694,
        6.790157,
        6.94928,
        7.010148,
        6.943945,
        6.851777,
        6.83954,
        6.646342,
        6.666849,
        6.744809,
        6.630242,
        6.473128,
        6.516027,
        6.663043,
        6.574501,
        6.326395,
        6.562559,
        6.437072,
        6.343264,
        6.423721,
        6.301807,
        6.43392,
        6.573745,
        6.40334,
        6.296983,
        6.292732,
        6.414873,
        6.364155,
        6.198968,
        6.051135,
        5.971939,
        5.814907,
        5.771564,
        5.731503,
        5.683269,
        5.735149,
        5.638408,
        5.401394,
        5.498282,
        5.841066,
        5.941651,
        5.785479,
        5.552856,
        5.398837,
        5.367253,
        5.315893,
        5.482522,
        5.500899,
        5.22354,
        5.554707,
        5.484124,
        5.379871,
        5.279605,
        5.221808,
        5.119831,
        5.342257,
        5.485099,
        5.480998,
        5.612635,
        5.507904,
        5.532061,
        5.328234,
        5.166493,
        5.197739,
        5.34607,
        5.1944,
        5.128516,
        5.317911,
        5.192187,
        4.99524,
        5.206753,
        5.221575,
        5.166111,
        5.050961,
        4.972603,
        5.006505,
        5.058197,
        5.026184,
        4.9508,
        4.895947,
        4.87796,
        4.894646,
        4.917277,
        4.914338,
        4.86971,
        4.783184,
        4.70278,
        4.670805,
        4.658464,
        4.632662,
        4.614202,
        4.623649,
        4.626714,
        4.59179,
        4.552841,
        4.546081,
        4.551141,
        4.543365,
        4.537524,
        4.549705,
        4.56183,
        4.550755,
        4.50722,
        4.435151,
        4.377327,
        4.369135,
        4.377543,
        4.363707,
        4.333958,
        4.304155,
        4.283082,
        4.275353,
        4.275971,
        4.276608,
        4.265217,
        4.233133,
        4.18893,
        4.144489,
        4.107692,
        4.085762,
        4.087293,
        4.111459,
        4.118385,
        4.076693,
        4.028049,
        4.014975,
        4.010396,
        3.982135,
        3.947222,
        3.928568,
        3.923391,
        3.921433,
        3.893388,
        3.889443,
        3.880658,
        3.830814,
        3.814696,
        3.834871,
        3.81863,
        3.818092,
        3.794167,
        3.69653,
        3.659395,
        3.650049,
        3.680582,
        3.648825,
        3.571475,
        3.471413,
        3.408137,
        3.476251,
        3.524038,
        3.507688,
        3.356801,
        3.381783,
        3.431667,
        3.425624,
        3.261467,
        3.136677,
        3.202793,
        3.345595,
        3.312058,
        3.325443,
        3.418818,
        3.375718,
        3.328568,
        3.302985,
        3.290415,
        3.320544,
        3.285413,
        3.220087,
        3.228397,
        3.107885,
        3.005776,
        3.06519,
        3.093637,
        3.138946,
        3.243495,
        3.049475,
        3.232852,
        3.289948,
        2.929734,
        3.046643,
        3.468405,
        3.326405,
        2.860492,
        3.034937,
        3.586085,
        3.776028,
        3.521263,
        2.978046,
        2.839961,
        3.387672,
        3.816152,
        3.745923,
        3.525727,
        3.565331,
        3.21039,
        2.694164,
        3.076944,
        3.578598,
        3.759456,
        3.824715,
        3.782958,
        3.688611,
        3.601552,
        3.551936,
        3.373902,
        2.84555,
        2.501479,
        2.929452,
        3.379952,
        3.536813,
        3.609508,
        3.614762,
        3.512522,
        3.38981,
        3.323628,
        3.393064,
        3.461202,
        3.441312,
        3.417727,
        3.378992,
        3.164324,
        2.659329,
        2.248477,
        2.608026,
        3.001701,
        3.165159,
        3.241049,
        3.240166,
        3.230253,
        3.157909,
        3.096981,
        3.172653,
        3.122188,
        2.877033,
        2.929866,
        3.077777,
        3.087286,
        3.175038,
        3.21332,
        3.116931,
        3.085961,
        3.084708,
        3.059137,
        3.005296,
        2.971486,
        2.95206,
        2.86776,
        2.591692,
        2.149446,
        2.167321,
        2.548773,
        2.735971,
        2.767631,
        2.833624,
        2.862646,
        2.825358,
        2.737658,
        2.628227,
        2.786593,
        2.835952,
        2.84244,
        2.816301,
        2.773066,
        2.766789,
        2.755231,
        2.730326,
        2.686859,
        2.677982,
        2.714231,
        2.721984,
        2.720759,
        2.697517,
        2.693889,
        2.659734,
        2.626695,
        2.605708,
        2.590581,
        2.589172,
        2.604575,
        2.547142,
        2.549258,
        2.523395,
        2.489111,
        2.463656,
        2.458614,
        2.45949,
        2.461924,
        2.482646,
        2.472606,
        2.442727,
        2.425,
        2.393155,
        2.377279,
        2.337607,
        2.255592,
        2.067229,
        1.835712,
        1.85547,
        2.022283,
        2.149607,
        2.23278,
        2.28442,
        2.28214,
        2.283331,
        2.266987,
        2.194873,
        2.142298,
        2.203018,
        2.219077,
        2.209287,
        2.186551,
        2.148588,
        2.134948,
        2.14533,
        2.132454,
        2.112474,
        2.129309,
        2.139076,
        2.130476,
        2.140576,
        2.146483,
        2.086292,
        1.955813,
        1.95227,
        2.002162,
        2.051013,
        2.100254,
        2.125201,
        2.106462,
        2.076426,
        2.060728,
        2.068532,
        2.086284,
        2.077404,
        2.055975,
        2.043013,
        2.030876,
        2.026095,
        2.008183,
        1.995458,
        1.990925,
        1.978252,
        1.944404,
        1.94098,
        1.947758,
        1.926267,
        1.90899,
        1.916422,
        1.918184,
        1.917347,
        1.921688,
        1.912589,
        1.893018,
        1.871629,
        1.852686,
        1.856363,
        1.848923,
        1.837211,
        1.827933,
        1.835683,
        1.828972,
        1.820781,
        1.806281,
        1.802189,
        1.797372,
        1.805057,
        1.808752,
        1.804976,
        1.779521,
        1.76634,
        1.742962,
        1.731358,
        1.751269,
        1.750152,
        1.751833,
        1.745822,
        1.735015,
        1.708242,
        1.699021,
        1.712188,
        1.703783,
        1.70177,
        1.696095,
        1.677686,
        1.663576,
        1.658984,
        1.659386,
        1.667816,
        1.654731,
        1.634315,
        1.625626,
        1.608445,
        1.605326,
        1.623643,
        1.619688,
        1.610691,
        1.611197,
        1.572273,
        1.512239,
        1.393284,
        1.254738,
        1.225882,
        1.317316,
        1.401607,
        1.455734,
        1.48745,
        1.512528,
        1.538677,
        1.534495,
        1.532297,
        1.538958,
        1.502838,
        1.444197,
        1.438424,
        1.477429,
        1.47959,
        1.480588,
        1.518751,
        1.523403,
        1.497363,
        1.477817,
        1.466313,
        1.477004,
        1.450813,
        1.446844,
        1.442851,
        1.448093,
        1.441282,
        1.434377,
        1.435336,
        1.415106,
        1.394601,
        1.408087,
        1.415129,
        1.402486,
        1.383056,
        1.403965,
        1.398243,
        1.381918,
        1.390189,
        1.393225,
        1.381874,
        1.36184,
        1.36236,
        1.368428,
        1.366931,
        1.3864,
        1.387563,
        1.357293,
        1.348269,
        1.356001,
        1.360705,
        1.349444,
        1.338666,
        1.336544,
        1.329757,
        1.305545,
        1.302223,
        1.290555,
        1.27848,
        1.292476,
        1.292758,
        1.289792,
        1.279274,
        1.26676,
        1.254722,
        1.252715,
        1.261785,
        1.270464,
        1.2635,
        1.245175,
        1.249088,
        1.241598,
        1.232848,
        1.242072,
        1.238571,
        1.232047,
        1.216114,
        1.214194,
        1.226471,
        1.220152,
        1.215678,
        1.204389,
        1.191544,
        1.173092,
        1.168905,
        1.178343,
        1.172459,
        1.168884,
        1.168844,
        1.168579,
        1.168677,
        1.178087,
        1.173588,
        1.154484,
        1.138931,
        1.129279,
        1.131922,
        1.151941,
        1.155245,
        1.150904,
        1.136975,
        1.136025,
        1.126757,
        1.120352,
        1.125391,
        1.126865,
        1.118765,
        1.104164,
        1.082854,
        1.0717,
        1.07727,
        1.079791,
        1.083352,
        1.082467,
        1.083436,
        1.085792,
        1.072823,
        1.062137,
        1.057209,
        1.058558,
        1.054334,
        1.062044,
        1.057352,
        1.060031,
        1.064456,
        1.056485,
        1.053587,
        1.04436,
        1.032515,
        1.034675,
        1.03597,
        1.032844,
        1.02984,
        1.012899,
        0.987994,
        0.981951,
        0.996746,
        1.003887,
        1.010247,
        1.009604,
        0.998209,
        0.993478,
        0.988635,
        0.989979,
        0.991597,
        0.981122,
        0.972895,
        0.973047,
        0.960744,
        0.955545,
        0.954615,
        0.948412,
        0.94423,
        0.945838,
        0.94159,
        0.934102,
        0.936722,
        0.934425,
        0.928917,
        0.91915,
        0.906394,
        0.905566,
        0.916524,
        0.918085,
        0.910659,
        0.902915,
        0.893228,
        0.89585,
        0.894621,
        0.903095,
        0.897042,
        0.880633,
        0.875184,
        0.883178,
        0.882282,
        0.881236,
        0.883523,
        0.865646,
        0.866815,
        0.857875,
        0.850924,
        0.856717,
        0.851238,
        0.829622,
        0.834509,
        0.837216,
        0.837754,
        0.841308,
        0.834582,
        0.832877,
        0.828796,
        0.828892,
        0.839239,
        0.841188,
        0.831928,
        0.826848,
        0.828512,
        0.831633,
        0.828402,
        0.829132,
        0.822026,
        0.800219,
        0.775573,
        0.780749,
        0.779997,
        0.754096,
        0.741003,
        0.763398,
        0.792394,
        0.795748,
        0.785024,
        0.779615,
        0.789038,
        0.781602,
        0.774584,
        0.76805,
        0.76298,
        0.7631,
        0.757463,
        0.760725,
        0.758788,
        0.75426,
        0.74707,
        0.743882,
        0.748824,
        0.752244,
        0.750896,
        0.751892,
        0.748235,
        0.739707,
        0.728756,
        0.730946,
        0.73408,
        0.738252,
        0.734728,
        0.727964,
        0.729917,
        0.726932,
        0.725921,
        0.718076,
        0.712473,
        0.713476,
        0.71461,
        0.714784,
        0.71196,
        0.718004,
        0.708291,
        0.701459,
        0.696475,
        0.694189,
        0.70098,
        0.698943,
        0.695557,
        0.693094,
        0.699427,
        0.696196,
        0.693414,
        0.690971,
        0.687767,
        0.683064,
        0.68238,
        0.681796,
        0.675652,
        0.672519,
        0.674022,
        0.675532,
        0.676518,
        0.668314,
        0.661885,
        0.662089,
        0.662425,
        0.662133,
        0.665303,
        0.668569,
        0.664947,
        0.656972,
        0.659105,
        0.654947,
        0.654314,
        0.658172,
        0.653287,
        0.645887,
        0.633716,
        0.607446,
        0.610886,
        0.624774,
        0.626057,
        0.625458,
        0.62659,
        0.624248,
        0.62029,
        0.6201,
        0.620897,
        0.622797,
        0.61729,
        0.616837,
        0.616733,
        0.611737,
        0.607318,
        0.606726,
        0.609158,
        0.607909,
        0.60219,
        0.599658,
        0.602636,
        0.604601,
        0.604382,
        0.603952,
        0.595823,
        0.593715,
        0.592852,
        0.594817,
        0.595555,
        0.59288,
        0.596244,
        0.590765,
        0.585282,
        0.58704,
        0.585071,
        0.579226,
        0.577321,
        0.572987,
        0.566422,
        0.567753,
        0.566837,
        0.567014,
        0.571988,
        0.5765,
        0.570515,
        0.57071,
        0.561509,
        0.559566,
        0.564161,
        0.563226,
        0.561355,
        0.559174,
        0.548491,
        0.528655,
        0.499318,
        0.46067,
        0.453545,
        0.491112,
        0.513967,
        0.525339,
        0.532407,
        0.53931,
        0.544191,
        0.544661,
        0.548733,
        0.54419,
        0.538892,
        0.534838,
        0.537201,
        0.534668,
        0.533722,
        0.525879,
        0.521871,
        0.522887,
        0.528885,
        0.527462,
        0.519628,
        0.513945,
        0.501201,
        0.492577,
        0.501786,
        0.506546,
        0.510681,
        0.511885,
        0.515156,
        0.508542,
        0.499688,
        0.500238,
        0.50334,
        0.503939,
        0.501951,
        0.500824,
        0.500352,
        0.499292,
        0.499023,
        0.500431,
        0.497558,
        0.496241,
        0.494433,
        0.488314,
        0.484689,
        0.486273,
        0.491139,
        0.491169,
        0.491202,
        0.490259,
        0.494322,
        0.495499,
        0.493363,
        0.490877,
        0.48305,
        0.470429,
        0.468942,
        0.472156,
        0.477197,
        0.479862,
        0.477163,
        0.469309,
        0.459383,
        0.451201,
        0.447375,
        0.448235,
        0.452058,
        0.456153,
        0.458309,
        0.457694,
        0.455034,
        0.451997,
        0.450083,
        0.449637,
        0.449716,
        0.448808,
        0.446105,
        0.442121,
        0.438409,
        0.436588,
        0.437055,
        0.438529,
        0.439186,
        0.437599,
        0.433473,
        0.429719,
        0.429311,
        0.43176,
        0.435575,
        0.438863,
        0.438499,
        0.434316,
        0.426773,
        0.421706,
        0.418116,
        0.418572,
        0.421551,
        0.42308,
        0.421018,
        0.416314,
        0.407644,
        0.406948,
        0.411011,
        0.412595,
        0.415202,
        0.416059,
        0.415924,
        0.415495,
        0.411561,
        0.411508,
        0.40858,
        0.407405,
        0.406846,
        0.407414,
        0.408855,
        0.407645,
        0.406391,
        0.403366,
        0.400341,
        0.398348,
        0.396451,
        0.392886,
        0.389282,
        0.388306,
        0.383383,
        0.382788,
        0.384748,
        0.38359,
        0.383259,
        0.387272,
        0.389254,
        0.391257,
        0.390568,
        0.386454,
        0.378366,
        0.374966,
        0.371224,
        0.371364,
        0.373882,
        0.37834,
        0.37642,
        0.375948,
        0.368853,
        0.364199,
        0.364581,
        0.363442,
        0.365387,
        0.36213,
        0.358694,
        0.358284,
        0.35941,
        0.361624,
        0.36676,
        0.36557,
        0.361749,
        0.358097,
        0.354606,
        0.351403,
        0.353008,
        0.354159,
        0.353883,
        0.351152,
        0.350378,
        0.35082,
        0.351844,
        0.351992,
        0.351809,
        0.35023,
        0.349048,
        0.348985,
        0.349659,
        0.349207,
        0.347747,
        0.344541,
        0.340735,
        0.338734,
        0.337854,
        0.33851,
        0.337969,
        0.336292,
        0.336169,
        0.337692,
        0.34035,
        0.343672,
        0.344289,
        0.342004,
        0.338078,
        0.33344,
        0.330363,
        0.32919,
        0.328308,
        0.327686,
        0.327115,
        0.326195,
        0.327514,
        0.330675,
        0.334448,
        0.336902,
        0.336477,
        0.332583,
        0.326779,
        0.322133,
        0.321606,
        0.325958,
        0.332708,
        0.337446,
        0.336649,
        0.330499,
        0.322851,
        0.318542,
        0.319777,
        0.32428,
        0.327192,
        0.324918,
        0.317737,
        0.309434,
        0.304321,
        0.30394,
        0.306375,
        0.308426,
        0.308266,
        0.306482,
        0.305029,
        0.305261,
        0.3067,
        0.307786,
        0.30736,
        0.305609,
        0.3082,
        0.307942,
        0.308151,
        0.308491,
        0.308487,
        0.307813,
        0.306643,
        0.304983,
        0.303808,
        0.303383,
        0.302421,
        0.29988,
        0.296722,
        0.293166,
        0.291194,
        0.291758,
        0.294203,
        0.296824,
        0.29748,
        0.299553,
        0.298846,
        0.297009,
        0.29571,
        0.295143,
        0.29524,
        0.29469,
        0.293772,
        0.294112,
        0.293206,
        0.293007,
        0.291236,
        0.290613,
        0.288377,
        0.288078,
        0.287326,
        0.286026,
        0.285599,
        0.284801,
        0.284278,
        0.283917,
        0.284064,
        0.284972,
        0.284939,
        0.283778,
        0.282615,
        0.28181,
        0.280946,
        0.279479,
        0.278515,
        0.277744,
        0.276834,
        0.277078,
        0.275976,
        0.275354,
        0.275066,
        0.274281,
        0.274205,
        0.273181,
        0.272861,
        0.271393,
        0.270473,
        0.26896,
        0.267778,
        0.266702,
        0.266297,
        0.26648,
        0.267347,
        0.2665,
        0.265732,
        0.26544,
        0.264799,
        0.26476,
        0.263648,
        0.264169,
        0.263872,
        0.263846,
        0.262838,
        0.262094,
        0.261699,
        0.261142,
        0.261709,
        0.261138,
        0.26003,
        0.260896,
        0.259593,
        0.257554,
        0.254401,
        0.25412,
        0.251288,
        0.249191,
        0.247768,
        0.246397,
        0.244546,
        0.247442,
        0.247149,
        0.248319,
        0.249468,
        0.249452,
        0.248958,
        0.247865,
        0.248805,
        0.247155,
        0.244895,
        0.241776,
        0.237195,
        0.232633,
        0.23854,
        0.243298,
        0.243977,
        0.245776,
        0.24422,
        0.244278,
        0.245562,
        0.244478,
        0.2428,
        0.243251,
        0.243778,
        0.243075,
        0.242681,
        0.241866,
        0.239328,
        0.236955,
        0.234067,
        0.231311,
        0.23237,
        0.233456,
        0.233378,
        0.234784,
        0.236001,
        0.235761,
        0.235854,
        0.234146,
        0.232093,
        0.229685,
        0.226894,
        0.225461,
        0.225512,
        0.225376,
        0.226525,
        0.225771,
        0.223962,
        0.221963,
        0.221278,
        0.220762,
        0.224849,
        0.226167,
        0.229013,
        0.230259,
        0.229824,
        0.228187,
        0.224623,
        0.222391,
        0.220938,
        0.22142,
        0.221113,
        0.221519,
        0.22173,
        0.221593,
        0.220628,
        0.219713,
        0.219463,
        0.221386,
        0.221431,
        0.221481,
        0.219764,
        0.218839,
        0.21712,
        0.215562,
        0.215587,
        0.21712,
        0.220517,
        0.221509,
        0.22271,
        0.222875,
        0.22184,
        0.221186,
        0.219428,
        0.217637,
        0.216356,
        0.216288,
        0.217828,
        0.220254,
        0.221383,
        0.220731,
        0.219331,
        0.216215,
        0.213384,
        0.210342,
        0.210005,
        0.209136,
        0.209522,
        0.210892,
        0.211297,
        0.21415,
        0.216368,
        0.219225,
        0.219301,
        0.218981,
        0.218586,
        0.217389,
        0.217109,
        0.215994,
        0.215771,
        0.214221,
        0.212059,
        0.209296,
        0.204136,
        0.200171,
        0.19651,
        0.193183,
        0.193734,
        0.196448,
        0.201795,
        0.206427,
        0.21085,
        0.214301,
        0.215735,
        0.216144,
        0.21445,
        0.212411,
        0.209427,
        0.206576,
        0.204686,
        0.201309,
        0.198529,
        0.195782,
        0.193034,
        0.190257,
        0.188437,
        0.18615,
        0.184102,
        0.183004,
        0.18446,
        0.188568,
        0.193543,
        0.196215,
        0.198667,
        0.199419,
        0.200156,
        0.200645,
        0.202147,
        0.204155,
        0.205006,
        0.206469,
        0.20496,
        0.203449,
        0.201778,
        0.199719,
        0.196686,
        0.193369,
        0.192039,
        0.190913,
        0.18874,
        0.187615,
        0.187376,
        0.184725,
        0.178002,
        0.170427,
        0.169018,
        0.166818,
        0.165669,
        0.166791,
        0.167794,
        0.174528,
        0.178498,
        0.186269,
        0.190839,
        0.192138,
        0.19207,
        0.190399,
        0.186404,
        0.183639,
        0.182175,
        0.180104,
        0.179961,
        0.180408,
        0.181772,
        0.182806,
        0.183183,
        0.182563,
        0.182305,
        0.181866,
        0.180999,
        0.180064,
        0.180289,
        0.178553,
        0.178613,
        0.181567,
        0.182691,
        0.180179,
        0.177838,
        0.178863,
        0.179684,
        0.176874,
        0.174036,
        0.17436,
        0.173106,
        0.171469,
        0.168185,
        0.165442,
        0.162771,
        0.159871,
        0.15663,
        0.155214,
        0.153731,
        0.153416,
        0.155131,
        0.159949,
        0.162791,
        0.165092,
        0.168499,
        0.168945,
        0.170324,
        0.171713,
        0.171854,
        0.171203,
        0.171799,
        0.170502,
        0.168056,
        0.164531,
        0.162288,
        0.159283,
        0.154482,
        0.153335,
        0.152032,
        0.152974,
        0.147901,
        0.145327,
        0.143873,
        0.153297,
        0.146737,
        0.151085,
        0.154957,
        0.154107,
        0.1609,
        0.161862,
        0.168533,
        0.176462,
        0.181969,
        0.176867,
        0.173477,
        0.169604,
        0.168184,
        0.162661,
        0.157519,
        0.155298,
        0.156424,
        0.148049,
        0.155728,
        0.160994,
        0.155515,
        0.15609,
        0.163248,
        0.16424,
        0.161938,
        0.157772,
        0.161281,
        0.15919,
        0.149274,
        0.144295,
        0.150731,
        0.154874,
        0.150838,
        0.143152,
        0.142366,
        0.14348,
        0.142907,
        0.140284,
        0.133917,
        0.13846,
        0.138038,
        0.14841,
        0.14573,
        0.153686,
        0.155267,
        0.153546,
        0.152625,
        0.149681,
        0.149744,
        0.155786,
        0.154363,
        0.155258,
        0.153635,
        0.150527,
        0.151546,
        0.150698,
        0.149811,
        0.147863,
        0.151644,
        0.149292,
        0.151292,
        0.149556,
        0.150899,
        0.153689,
        0.152737,
        0.149755,
        0.148725,
        0.144462,
        0.142219,
        0.13922,
        0.139737,
        0.140986,
        0.138205,
        0.143585,
        0.14489,
        0.14443,
        0.141629,
        0.142385,
        0.144021,
        0.143649,
        0.143535,
        0.144403,
        0.144585,
        0.147478,
        0.146003,
        0.145557,
        0.142434,
        0.139346,
        0.13968,
        0.136504,
        0.137487,
        0.137467,
        0.139774,
        0.142818,
        0.139337,
        0.139945,
        0.139469,
        0.139818,
        0.140264,
        0.140606,
        0.136197,
        0.136838,
        0.134868,
        0.132804,
        0.130287,
        0.128799,
        0.130726,
        0.134457,
        0.135882,
        0.134873,
        0.139228,
        0.137616,
        0.138852,
        0.135466,
        0.131561,
        0.133051,
        0.132674,
        0.13333,
        0.133639,
        0.13335,
        0.133333,
        0.131317,
        0.133086,
        0.129767,
        0.129828,
        0.130598,
        0.130674,
        0.131803,
        0.133201,
        0.129135,
        0.129176,
        0.126639,
        0.124059,
        0.123793,
        0.121709,
        0.118553,
        0.12007,
        0.117146,
        0.116996,
        0.113133,
        0.114131,
        0.115459,
        0.117074,
        0.122186,
        0.121154,
        0.131139,
        0.124264,
        0.124119,
        0.126187,
        0.122221,
        0.117543,
        0.123966,
        0.123038,
        0.122544,
        0.125006,
        0.122793,
        0.120657,
        0.120183,
        0.118657,
        0.116947,
        0.115759,
        0.1158,
        0.117493,
        0.120115,
        0.122662,
        0.124125,
        0.123807,
        0.122242,
        0.120273,
        0.118743,
        0.118256,
        0.118464,
        0.118779,
        0.118616,
        0.117569,
        0.115967,
        0.114321,
        0.113142,
        0.112799,
        0.11309,
        0.113669,
        0.114193,
        0.114403,
        0.114388,
        0.114323,
        0.114385,
        0.11465,
        0.114794,
        0.114397,
        0.113036,
        0.110107,
        0.108579,
        0.107375,
        0.107004,
        0.107766,
        0.109131,
        0.110359,
        0.110712,
        0.109702,
        0.107848,
        0.10592,
        0.104687,
        0.104704,
        0.105674,
        0.107082,
        0.108415,
        0.109256,
        0.109561,
        0.109386,
        0.108781,
        0.107821,
        0.106665,
        0.105491,
        0.104479,
        0.103776,
        0.1034,
        0.103337,
        0.103574,
        0.104063,
        0.10463,
        0.105066,
        0.105162,
        0.104785,
        0.104092,
        0.103314,
        0.102682,
        0.10239,
        0.102477,
        0.102944,
        0.103794
      ],
      "range":1
    }
  }
]
