[
  {
    "model":"Star, type B5(i)",
    "name":"Star, type B5(i)",
    "type":"WB_REF",
    "dataQualityMarker":3,
    "dataSource":"https://www.eso.org/sci/facilities/paranal/decommissioned/isaac/tools/lib.html",
    "manufacturer":"A. Pickles (A.J. Pickles, PASP 110,863, 1998)",
    "version":1,
    "wavelength":{
      "value":[
        1150.0,
        1155.0,
        1160.0,
        1165.0,
        1170.0,
        1175.0,
        1180.0,
        1185.0,
        1190.0,
        1195.0,
        1200.0,
        1205.0,
        1210.0,
        1215.0,
        1220.0,
        1225.0,
        1230.0,
        1235.0,
        1240.0,
        1245.0,
        1250.0,
        1255.0,
        1260.0,
        1265.0,
        1270.0,
        1275.0,
        1280.0,
        1285.0,
        1290.0,
        1295.0,
        1300.0,
        1305.0,
        1310.0,
        1315.0,
        1320.0,
        1325.0,
        1330.0,
        1335.0,
        1340.0,
        1345.0,
        1350.0,
        1355.0,
        1360.0,
        1365.0,
        1370.0,
        1375.0,
        1380.0,
        1385.0,
        1390.0,
        1395.0,
        1400.0,
        1405.0,
        1410.0,
        1415.0,
        1420.0,
        1425.0,
        1430.0,
        1435.0,
        1440.0,
        1445.0,
        1450.0,
        1455.0,
        1460.0,
        1465.0,
        1470.0,
        1475.0,
        1480.0,
        1485.0,
        1490.0,
        1495.0,
        1500.0,
        1505.0,
        1510.0,
        1515.0,
        1520.0,
        1525.0,
        1530.0,
        1535.0,
        1540.0,
        1545.0,
        1550.0,
        1555.0,
        1560.0,
        1565.0,
        1570.0,
        1575.0,
        1580.0,
        1585.0,
        1590.0,
        1595.0,
        1600.0,
        1605.0,
        1610.0,
        1615.0,
        1620.0,
        1625.0,
        1630.0,
        1635.0,
        1640.0,
        1645.0,
        1650.0,
        1655.0,
        1660.0,
        1665.0,
        1670.0,
        1675.0,
        1680.0,
        1685.0,
        1690.0,
        1695.0,
        1700.0,
        1705.0,
        1710.0,
        1715.0,
        1720.0,
        1725.0,
        1730.0,
        1735.0,
        1740.0,
        1745.0,
        1750.0,
        1755.0,
        1760.0,
        1765.0,
        1770.0,
        1775.0,
        1780.0,
        1785.0,
        1790.0,
        1795.0,
        1800.0,
        1805.0,
        1810.0,
        1815.0,
        1820.0,
        1825.0,
        1830.0,
        1835.0,
        1840.0,
        1845.0,
        1850.0,
        1855.0,
        1860.0,
        1865.0,
        1870.0,
        1875.0,
        1880.0,
        1885.0,
        1890.0,
        1895.0,
        1900.0,
        1905.0,
        1910.0,
        1915.0,
        1920.0,
        1925.0,
        1930.0,
        1935.0,
        1940.0,
        1945.0,
        1950.0,
        1955.0,
        1960.0,
        1965.0,
        1970.0,
        1975.0,
        1980.0,
        1985.0,
        1990.0,
        1995.0,
        2000.0,
        2005.0,
        2010.0,
        2015.0,
        2020.0,
        2025.0,
        2030.0,
        2035.0,
        2040.0,
        2045.0,
        2050.0,
        2055.0,
        2060.0,
        2065.0,
        2070.0,
        2075.0,
        2080.0,
        2085.0,
        2090.0,
        2095.0,
        2100.0,
        2105.0,
        2110.0,
        2115.0,
        2120.0,
        2125.0,
        2130.0,
        2135.0,
        2140.0,
        2145.0,
        2150.0,
        2155.0,
        2160.0,
        2165.0,
        2170.0,
        2175.0,
        2180.0,
        2185.0,
        2190.0,
        2195.0,
        2200.0,
        2205.0,
        2210.0,
        2215.0,
        2220.0,
        2225.0,
        2230.0,
        2235.0,
        2240.0,
        2245.0,
        2250.0,
        2255.0,
        2260.0,
        2265.0,
        2270.0,
        2275.0,
        2280.0,
        2285.0,
        2290.0,
        2295.0,
        2300.0,
        2305.0,
        2310.0,
        2315.0,
        2320.0,
        2325.0,
        2330.0,
        2335.0,
        2340.0,
        2345.0,
        2350.0,
        2355.0,
        2360.0,
        2365.0,
        2370.0,
        2375.0,
        2380.0,
        2385.0,
        2390.0,
        2395.0,
        2400.0,
        2405.0,
        2410.0,
        2415.0,
        2420.0,
        2425.0,
        2430.0,
        2435.0,
        2440.0,
        2445.0,
        2450.0,
        2455.0,
        2460.0,
        2465.0,
        2470.0,
        2475.0,
        2480.0,
        2485.0,
        2490.0,
        2495.0,
        2500.0,
        2505.0,
        2510.0,
        2515.0,
        2520.0,
        2525.0,
        2530.0,
        2535.0,
        2540.0,
        2545.0,
        2550.0,
        2555.0,
        2560.0,
        2565.0,
        2570.0,
        2575.0,
        2580.0,
        2585.0,
        2590.0,
        2595.0,
        2600.0,
        2605.0,
        2610.0,
        2615.0,
        2620.0,
        2625.0,
        2630.0,
        2635.0,
        2640.0,
        2645.0,
        2650.0,
        2655.0,
        2660.0,
        2665.0,
        2670.0,
        2675.0,
        2680.0,
        2685.0,
        2690.0,
        2695.0,
        2700.0,
        2705.0,
        2710.0,
        2715.0,
        2720.0,
        2725.0,
        2730.0,
        2735.0,
        2740.0,
        2745.0,
        2750.0,
        2755.0,
        2760.0,
        2765.0,
        2770.0,
        2775.0,
        2780.0,
        2785.0,
        2790.0,
        2795.0,
        2800.0,
        2805.0,
        2810.0,
        2815.0,
        2820.0,
        2825.0,
        2830.0,
        2835.0,
        2840.0,
        2845.0,
        2850.0,
        2855.0,
        2860.0,
        2865.0,
        2870.0,
        2875.0,
        2880.0,
        2885.0,
        2890.0,
        2895.0,
        2900.0,
        2905.0,
        2910.0,
        2915.0,
        2920.0,
        2925.0,
        2930.0,
        2935.0,
        2940.0,
        2945.0,
        2950.0,
        2955.0,
        2960.0,
        2965.0,
        2970.0,
        2975.0,
        2980.0,
        2985.0,
        2990.0,
        2995.0,
        3000.0,
        3005.0,
        3010.0,
        3015.0,
        3020.0,
        3025.0,
        3030.0,
        3035.0,
        3040.0,
        3045.0,
        3050.0,
        3055.0,
        3060.0,
        3065.0,
        3070.0,
        3075.0,
        3080.0,
        3085.0,
        3090.0,
        3095.0,
        3100.0,
        3105.0,
        3110.0,
        3115.0,
        3120.0,
        3125.0,
        3130.0,
        3135.0,
        3140.0,
        3145.0,
        3150.0,
        3155.0,
        3160.0,
        3165.0,
        3170.0,
        3175.0,
        3180.0,
        3185.0,
        3190.0,
        3195.0,
        3200.0,
        3205.0,
        3210.0,
        3215.0,
        3220.0,
        3225.0,
        3230.0,
        3235.0,
        3240.0,
        3245.0,
        3250.0,
        3255.0,
        3260.0,
        3265.0,
        3270.0,
        3275.0,
        3280.0,
        3285.0,
        3290.0,
        3295.0,
        3300.0,
        3305.0,
        3310.0,
        3315.0,
        3320.0,
        3325.0,
        3330.0,
        3335.0,
        3340.0,
        3345.0,
        3350.0,
        3355.0,
        3360.0,
        3365.0,
        3370.0,
        3375.0,
        3380.0,
        3385.0,
        3390.0,
        3395.0,
        3400.0,
        3405.0,
        3410.0,
        3415.0,
        3420.0,
        3425.0,
        3430.0,
        3435.0,
        3440.0,
        3445.0,
        3450.0,
        3455.0,
        3460.0,
        3465.0,
        3470.0,
        3475.0,
        3480.0,
        3485.0,
        3490.0,
        3495.0,
        3500.0,
        3505.0,
        3510.0,
        3515.0,
        3520.0,
        3525.0,
        3530.0,
        3535.0,
        3540.0,
        3545.0,
        3550.0,
        3555.0,
        3560.0,
        3565.0,
        3570.0,
        3575.0,
        3580.0,
        3585.0,
        3590.0,
        3595.0,
        3600.0,
        3605.0,
        3610.0,
        3615.0,
        3620.0,
        3625.0,
        3630.0,
        3635.0,
        3640.0,
        3645.0,
        3650.0,
        3655.0,
        3660.0,
        3665.0,
        3670.0,
        3675.0,
        3680.0,
        3685.0,
        3690.0,
        3695.0,
        3700.0,
        3705.0,
        3710.0,
        3715.0,
        3720.0,
        3725.0,
        3730.0,
        3735.0,
        3740.0,
        3745.0,
        3750.0,
        3755.0,
        3760.0,
        3765.0,
        3770.0,
        3775.0,
        3780.0,
        3785.0,
        3790.0,
        3795.0,
        3800.0,
        3805.0,
        3810.0,
        3815.0,
        3820.0,
        3825.0,
        3830.0,
        3835.0,
        3840.0,
        3845.0,
        3850.0,
        3855.0,
        3860.0,
        3865.0,
        3870.0,
        3875.0,
        3880.0,
        3885.0,
        3890.0,
        3895.0,
        3900.0,
        3905.0,
        3910.0,
        3915.0,
        3920.0,
        3925.0,
        3930.0,
        3935.0,
        3940.0,
        3945.0,
        3950.0,
        3955.0,
        3960.0,
        3965.0,
        3970.0,
        3975.0,
        3980.0,
        3985.0,
        3990.0,
        3995.0,
        4000.0,
        4005.0,
        4010.0,
        4015.0,
        4020.0,
        4025.0,
        4030.0,
        4035.0,
        4040.0,
        4045.0,
        4050.0,
        4055.0,
        4060.0,
        4065.0,
        4070.0,
        4075.0,
        4080.0,
        4085.0,
        4090.0,
        4095.0,
        4100.0,
        4105.0,
        4110.0,
        4115.0,
        4120.0,
        4125.0,
        4130.0,
        4135.0,
        4140.0,
        4145.0,
        4150.0,
        4155.0,
        4160.0,
        4165.0,
        4170.0,
        4175.0,
        4180.0,
        4185.0,
        4190.0,
        4195.0,
        4200.0,
        4205.0,
        4210.0,
        4215.0,
        4220.0,
        4225.0,
        4230.0,
        4235.0,
        4240.0,
        4245.0,
        4250.0,
        4255.0,
        4260.0,
        4265.0,
        4270.0,
        4275.0,
        4280.0,
        4285.0,
        4290.0,
        4295.0,
        4300.0,
        4305.0,
        4310.0,
        4315.0,
        4320.0,
        4325.0,
        4330.0,
        4335.0,
        4340.0,
        4345.0,
        4350.0,
        4355.0,
        4360.0,
        4365.0,
        4370.0,
        4375.0,
        4380.0,
        4385.0,
        4390.0,
        4395.0,
        4400.0,
        4405.0,
        4410.0,
        4415.0,
        4420.0,
        4425.0,
        4430.0,
        4435.0,
        4440.0,
        4445.0,
        4450.0,
        4455.0,
        4460.0,
        4465.0,
        4470.0,
        4475.0,
        4480.0,
        4485.0,
        4490.0,
        4495.0,
        4500.0,
        4505.0,
        4510.0,
        4515.0,
        4520.0,
        4525.0,
        4530.0,
        4535.0,
        4540.0,
        4545.0,
        4550.0,
        4555.0,
        4560.0,
        4565.0,
        4570.0,
        4575.0,
        4580.0,
        4585.0,
        4590.0,
        4595.0,
        4600.0,
        4605.0,
        4610.0,
        4615.0,
        4620.0,
        4625.0,
        4630.0,
        4635.0,
        4640.0,
        4645.0,
        4650.0,
        4655.0,
        4660.0,
        4665.0,
        4670.0,
        4675.0,
        4680.0,
        4685.0,
        4690.0,
        4695.0,
        4700.0,
        4705.0,
        4710.0,
        4715.0,
        4720.0,
        4725.0,
        4730.0,
        4735.0,
        4740.0,
        4745.0,
        4750.0,
        4755.0,
        4760.0,
        4765.0,
        4770.0,
        4775.0,
        4780.0,
        4785.0,
        4790.0,
        4795.0,
        4800.0,
        4805.0,
        4810.0,
        4815.0,
        4820.0,
        4825.0,
        4830.0,
        4835.0,
        4840.0,
        4845.0,
        4850.0,
        4855.0,
        4860.0,
        4865.0,
        4870.0,
        4875.0,
        4880.0,
        4885.0,
        4890.0,
        4895.0,
        4900.0,
        4905.0,
        4910.0,
        4915.0,
        4920.0,
        4925.0,
        4930.0,
        4935.0,
        4940.0,
        4945.0,
        4950.0,
        4955.0,
        4960.0,
        4965.0,
        4970.0,
        4975.0,
        4980.0,
        4985.0,
        4990.0,
        4995.0,
        5000.0,
        5005.0,
        5010.0,
        5015.0,
        5020.0,
        5025.0,
        5030.0,
        5035.0,
        5040.0,
        5045.0,
        5050.0,
        5055.0,
        5060.0,
        5065.0,
        5070.0,
        5075.0,
        5080.0,
        5085.0,
        5090.0,
        5095.0,
        5100.0,
        5105.0,
        5110.0,
        5115.0,
        5120.0,
        5125.0,
        5130.0,
        5135.0,
        5140.0,
        5145.0,
        5150.0,
        5155.0,
        5160.0,
        5165.0,
        5170.0,
        5175.0,
        5180.0,
        5185.0,
        5190.0,
        5195.0,
        5200.0,
        5205.0,
        5210.0,
        5215.0,
        5220.0,
        5225.0,
        5230.0,
        5235.0,
        5240.0,
        5245.0,
        5250.0,
        5255.0,
        5260.0,
        5265.0,
        5270.0,
        5275.0,
        5280.0,
        5285.0,
        5290.0,
        5295.0,
        5300.0,
        5305.0,
        5310.0,
        5315.0,
        5320.0,
        5325.0,
        5330.0,
        5335.0,
        5340.0,
        5345.0,
        5350.0,
        5355.0,
        5360.0,
        5365.0,
        5370.0,
        5375.0,
        5380.0,
        5385.0,
        5390.0,
        5395.0,
        5400.0,
        5405.0,
        5410.0,
        5415.0,
        5420.0,
        5425.0,
        5430.0,
        5435.0,
        5440.0,
        5445.0,
        5450.0,
        5455.0,
        5460.0,
        5465.0,
        5470.0,
        5475.0,
        5480.0,
        5485.0,
        5490.0,
        5495.0,
        5500.0,
        5505.0,
        5510.0,
        5515.0,
        5520.0,
        5525.0,
        5530.0,
        5535.0,
        5540.0,
        5545.0,
        5550.0,
        5555.0,
        5560.0,
        5565.0,
        5570.0,
        5575.0,
        5580.0,
        5585.0,
        5590.0,
        5595.0,
        5600.0,
        5605.0,
        5610.0,
        5615.0,
        5620.0,
        5625.0,
        5630.0,
        5635.0,
        5640.0,
        5645.0,
        5650.0,
        5655.0,
        5660.0,
        5665.0,
        5670.0,
        5675.0,
        5680.0,
        5685.0,
        5690.0,
        5695.0,
        5700.0,
        5705.0,
        5710.0,
        5715.0,
        5720.0,
        5725.0,
        5730.0,
        5735.0,
        5740.0,
        5745.0,
        5750.0,
        5755.0,
        5760.0,
        5765.0,
        5770.0,
        5775.0,
        5780.0,
        5785.0,
        5790.0,
        5795.0,
        5800.0,
        5805.0,
        5810.0,
        5815.0,
        5820.0,
        5825.0,
        5830.0,
        5835.0,
        5840.0,
        5845.0,
        5850.0,
        5855.0,
        5860.0,
        5865.0,
        5870.0,
        5875.0,
        5880.0,
        5885.0,
        5890.0,
        5895.0,
        5900.0,
        5905.0,
        5910.0,
        5915.0,
        5920.0,
        5925.0,
        5930.0,
        5935.0,
        5940.0,
        5945.0,
        5950.0,
        5955.0,
        5960.0,
        5965.0,
        5970.0,
        5975.0,
        5980.0,
        5985.0,
        5990.0,
        5995.0,
        6000.0,
        6005.0,
        6010.0,
        6015.0,
        6020.0,
        6025.0,
        6030.0,
        6035.0,
        6040.0,
        6045.0,
        6050.0,
        6055.0,
        6060.0,
        6065.0,
        6070.0,
        6075.0,
        6080.0,
        6085.0,
        6090.0,
        6095.0,
        6100.0,
        6105.0,
        6110.0,
        6115.0,
        6120.0,
        6125.0,
        6130.0,
        6135.0,
        6140.0,
        6145.0,
        6150.0,
        6155.0,
        6160.0,
        6165.0,
        6170.0,
        6175.0,
        6180.0,
        6185.0,
        6190.0,
        6195.0,
        6200.0,
        6205.0,
        6210.0,
        6215.0,
        6220.0,
        6225.0,
        6230.0,
        6235.0,
        6240.0,
        6245.0,
        6250.0,
        6255.0,
        6260.0,
        6265.0,
        6270.0,
        6275.0,
        6280.0,
        6285.0,
        6290.0,
        6295.0,
        6300.0,
        6305.0,
        6310.0,
        6315.0,
        6320.0,
        6325.0,
        6330.0,
        6335.0,
        6340.0,
        6345.0,
        6350.0,
        6355.0,
        6360.0,
        6365.0,
        6370.0,
        6375.0,
        6380.0,
        6385.0,
        6390.0,
        6395.0,
        6400.0,
        6405.0,
        6410.0,
        6415.0,
        6420.0,
        6425.0,
        6430.0,
        6435.0,
        6440.0,
        6445.0,
        6450.0,
        6455.0,
        6460.0,
        6465.0,
        6470.0,
        6475.0,
        6480.0,
        6485.0,
        6490.0,
        6495.0,
        6500.0,
        6505.0,
        6510.0,
        6515.0,
        6520.0,
        6525.0,
        6530.0,
        6535.0,
        6540.0,
        6545.0,
        6550.0,
        6555.0,
        6560.0,
        6565.0,
        6570.0,
        6575.0,
        6580.0,
        6585.0,
        6590.0,
        6595.0,
        6600.0,
        6605.0,
        6610.0,
        6615.0,
        6620.0,
        6625.0,
        6630.0,
        6635.0,
        6640.0,
        6645.0,
        6650.0,
        6655.0,
        6660.0,
        6665.0,
        6670.0,
        6675.0,
        6680.0,
        6685.0,
        6690.0,
        6695.0,
        6700.0,
        6705.0,
        6710.0,
        6715.0,
        6720.0,
        6725.0,
        6730.0,
        6735.0,
        6740.0,
        6745.0,
        6750.0,
        6755.0,
        6760.0,
        6765.0,
        6770.0,
        6775.0,
        6780.0,
        6785.0,
        6790.0,
        6795.0,
        6800.0,
        6805.0,
        6810.0,
        6815.0,
        6820.0,
        6825.0,
        6830.0,
        6835.0,
        6840.0,
        6845.0,
        6850.0,
        6855.0,
        6860.0,
        6865.0,
        6870.0,
        6875.0,
        6880.0,
        6885.0,
        6890.0,
        6895.0,
        6900.0,
        6905.0,
        6910.0,
        6915.0,
        6920.0,
        6925.0,
        6930.0,
        6935.0,
        6940.0,
        6945.0,
        6950.0,
        6955.0,
        6960.0,
        6965.0,
        6970.0,
        6975.0,
        6980.0,
        6985.0,
        6990.0,
        6995.0,
        7000.0,
        7005.0,
        7010.0,
        7015.0,
        7020.0,
        7025.0,
        7030.0,
        7035.0,
        7040.0,
        7045.0,
        7050.0,
        7055.0,
        7060.0,
        7065.0,
        7070.0,
        7075.0,
        7080.0,
        7085.0,
        7090.0,
        7095.0,
        7100.0,
        7105.0,
        7110.0,
        7115.0,
        7120.0,
        7125.0,
        7130.0,
        7135.0,
        7140.0,
        7145.0,
        7150.0,
        7155.0,
        7160.0,
        7165.0,
        7170.0,
        7175.0,
        7180.0,
        7185.0,
        7190.0,
        7195.0,
        7200.0,
        7205.0,
        7210.0,
        7215.0,
        7220.0,
        7225.0,
        7230.0,
        7235.0,
        7240.0,
        7245.0,
        7250.0,
        7255.0,
        7260.0,
        7265.0,
        7270.0,
        7275.0,
        7280.0,
        7285.0,
        7290.0,
        7295.0,
        7300.0,
        7305.0,
        7310.0,
        7315.0,
        7320.0,
        7325.0,
        7330.0,
        7335.0,
        7340.0,
        7345.0,
        7350.0,
        7355.0,
        7360.0,
        7365.0,
        7370.0,
        7375.0,
        7380.0,
        7385.0,
        7390.0,
        7395.0,
        7400.0,
        7405.0,
        7410.0,
        7415.0,
        7420.0,
        7425.0,
        7430.0,
        7435.0,
        7440.0,
        7445.0,
        7450.0,
        7455.0,
        7460.0,
        7465.0,
        7470.0,
        7475.0,
        7480.0,
        7485.0,
        7490.0,
        7495.0,
        7500.0,
        7505.0,
        7510.0,
        7515.0,
        7520.0,
        7525.0,
        7530.0,
        7535.0,
        7540.0,
        7545.0,
        7550.0,
        7555.0,
        7560.0,
        7565.0,
        7570.0,
        7575.0,
        7580.0,
        7585.0,
        7590.0,
        7595.0,
        7600.0,
        7605.0,
        7610.0,
        7615.0,
        7620.0,
        7625.0,
        7630.0,
        7635.0,
        7640.0,
        7645.0,
        7650.0,
        7655.0,
        7660.0,
        7665.0,
        7670.0,
        7675.0,
        7680.0,
        7685.0,
        7690.0,
        7695.0,
        7700.0,
        7705.0,
        7710.0,
        7715.0,
        7720.0,
        7725.0,
        7730.0,
        7735.0,
        7740.0,
        7745.0,
        7750.0,
        7755.0,
        7760.0,
        7765.0,
        7770.0,
        7775.0,
        7780.0,
        7785.0,
        7790.0,
        7795.0,
        7800.0,
        7805.0,
        7810.0,
        7815.0,
        7820.0,
        7825.0,
        7830.0,
        7835.0,
        7840.0,
        7845.0,
        7850.0,
        7855.0,
        7860.0,
        7865.0,
        7870.0,
        7875.0,
        7880.0,
        7885.0,
        7890.0,
        7895.0,
        7900.0,
        7905.0,
        7910.0,
        7915.0,
        7920.0,
        7925.0,
        7930.0,
        7935.0,
        7940.0,
        7945.0,
        7950.0,
        7955.0,
        7960.0,
        7965.0,
        7970.0,
        7975.0,
        7980.0,
        7985.0,
        7990.0,
        7995.0,
        8000.0,
        8005.0,
        8010.0,
        8015.0,
        8020.0,
        8025.0,
        8030.0,
        8035.0,
        8040.0,
        8045.0,
        8050.0,
        8055.0,
        8060.0,
        8065.0,
        8070.0,
        8075.0,
        8080.0,
        8085.0,
        8090.0,
        8095.0,
        8100.0,
        8105.0,
        8110.0,
        8115.0,
        8120.0,
        8125.0,
        8130.0,
        8135.0,
        8140.0,
        8145.0,
        8150.0,
        8155.0,
        8160.0,
        8165.0,
        8170.0,
        8175.0,
        8180.0,
        8185.0,
        8190.0,
        8195.0,
        8200.0,
        8205.0,
        8210.0,
        8215.0,
        8220.0,
        8225.0,
        8230.0,
        8235.0,
        8240.0,
        8245.0,
        8250.0,
        8255.0,
        8260.0,
        8265.0,
        8270.0,
        8275.0,
        8280.0,
        8285.0,
        8290.0,
        8295.0,
        8300.0,
        8305.0,
        8310.0,
        8315.0,
        8320.0,
        8325.0,
        8330.0,
        8335.0,
        8340.0,
        8345.0,
        8350.0,
        8355.0,
        8360.0,
        8365.0,
        8370.0,
        8375.0,
        8380.0,
        8385.0,
        8390.0,
        8395.0,
        8400.0,
        8405.0,
        8410.0,
        8415.0,
        8420.0,
        8425.0,
        8430.0,
        8435.0,
        8440.0,
        8445.0,
        8450.0,
        8455.0,
        8460.0,
        8465.0,
        8470.0,
        8475.0,
        8480.0,
        8485.0,
        8490.0,
        8495.0,
        8500.0,
        8505.0,
        8510.0,
        8515.0,
        8520.0,
        8525.0,
        8530.0,
        8535.0,
        8540.0,
        8545.0,
        8550.0,
        8555.0,
        8560.0,
        8565.0,
        8570.0,
        8575.0,
        8580.0,
        8585.0,
        8590.0,
        8595.0,
        8600.0,
        8605.0,
        8610.0,
        8615.0,
        8620.0,
        8625.0,
        8630.0,
        8635.0,
        8640.0,
        8645.0,
        8650.0,
        8655.0,
        8660.0,
        8665.0,
        8670.0,
        8675.0,
        8680.0,
        8685.0,
        8690.0,
        8695.0,
        8700.0,
        8705.0,
        8710.0,
        8715.0,
        8720.0,
        8725.0,
        8730.0,
        8735.0,
        8740.0,
        8745.0,
        8750.0,
        8755.0,
        8760.0,
        8765.0,
        8770.0,
        8775.0,
        8780.0,
        8785.0,
        8790.0,
        8795.0,
        8800.0,
        8805.0,
        8810.0,
        8815.0,
        8820.0,
        8825.0,
        8830.0,
        8835.0,
        8840.0,
        8845.0,
        8850.0,
        8855.0,
        8860.0,
        8865.0,
        8870.0,
        8875.0,
        8880.0,
        8885.0,
        8890.0,
        8895.0,
        8900.0,
        8905.0,
        8910.0,
        8915.0,
        8920.0,
        8925.0,
        8930.0,
        8935.0,
        8940.0,
        8945.0,
        8950.0,
        8955.0,
        8960.0,
        8965.0,
        8970.0,
        8975.0,
        8980.0,
        8985.0,
        8990.0,
        8995.0,
        9000.0,
        9005.0,
        9010.0,
        9015.0,
        9020.0,
        9025.0,
        9030.0,
        9035.0,
        9040.0,
        9045.0,
        9050.0,
        9055.0,
        9060.0,
        9065.0,
        9070.0,
        9075.0,
        9080.0,
        9085.0,
        9090.0,
        9095.0,
        9100.0,
        9105.0,
        9110.0,
        9115.0,
        9120.0,
        9125.0,
        9130.0,
        9135.0,
        9140.0,
        9145.0,
        9150.0,
        9155.0,
        9160.0,
        9165.0,
        9170.0,
        9175.0,
        9180.0,
        9185.0,
        9190.0,
        9195.0,
        9200.0,
        9205.0,
        9210.0,
        9215.0,
        9220.0,
        9225.0,
        9230.0,
        9235.0,
        9240.0,
        9245.0,
        9250.0,
        9255.0,
        9260.0,
        9265.0,
        9270.0,
        9275.0,
        9280.0,
        9285.0,
        9290.0,
        9295.0,
        9300.0,
        9305.0,
        9310.0,
        9315.0,
        9320.0,
        9325.0,
        9330.0,
        9335.0,
        9340.0,
        9345.0,
        9350.0,
        9355.0,
        9360.0,
        9365.0,
        9370.0,
        9375.0,
        9380.0,
        9385.0,
        9390.0,
        9395.0,
        9400.0,
        9405.0,
        9410.0,
        9415.0,
        9420.0,
        9425.0,
        9430.0,
        9435.0,
        9440.0,
        9445.0,
        9450.0,
        9455.0,
        9460.0,
        9465.0,
        9470.0,
        9475.0,
        9480.0,
        9485.0,
        9490.0,
        9495.0,
        9500.0,
        9505.0,
        9510.0,
        9515.0,
        9520.0,
        9525.0,
        9530.0,
        9535.0,
        9540.0,
        9545.0,
        9550.0,
        9555.0,
        9560.0,
        9565.0,
        9570.0,
        9575.0,
        9580.0,
        9585.0,
        9590.0,
        9595.0,
        9600.0,
        9605.0,
        9610.0,
        9615.0,
        9620.0,
        9625.0,
        9630.0,
        9635.0,
        9640.0,
        9645.0,
        9650.0,
        9655.0,
        9660.0,
        9665.0,
        9670.0,
        9675.0,
        9680.0,
        9685.0,
        9690.0,
        9695.0,
        9700.0,
        9705.0,
        9710.0,
        9715.0,
        9720.0,
        9725.0,
        9730.0,
        9735.0,
        9740.0,
        9745.0,
        9750.0,
        9755.0,
        9760.0,
        9765.0,
        9770.0,
        9775.0,
        9780.0,
        9785.0,
        9790.0,
        9795.0,
        9800.0,
        9805.0,
        9810.0,
        9815.0,
        9820.0,
        9825.0,
        9830.0,
        9835.0,
        9840.0,
        9845.0,
        9850.0,
        9855.0,
        9860.0,
        9865.0,
        9870.0,
        9875.0,
        9880.0,
        9885.0,
        9890.0,
        9895.0,
        9900.0,
        9905.0,
        9910.0,
        9915.0,
        9920.0,
        9925.0,
        9930.0,
        9935.0,
        9940.0,
        9945.0,
        9950.0,
        9955.0,
        9960.0,
        9965.0,
        9970.0,
        9975.0,
        9980.0,
        9985.0,
        9990.0,
        9995.0,
        10000.0,
        10005.0,
        10010.0,
        10015.0,
        10020.0,
        10025.0,
        10030.0,
        10035.0,
        10040.0,
        10045.0,
        10050.0,
        10055.0,
        10060.0,
        10065.0,
        10070.0,
        10075.0,
        10080.0,
        10085.0,
        10090.0,
        10095.0,
        10100.0,
        10105.0,
        10110.0,
        10115.0,
        10120.0,
        10125.0,
        10130.0,
        10135.0,
        10140.0,
        10145.0,
        10150.0,
        10155.0,
        10160.0,
        10165.0,
        10170.0,
        10175.0,
        10180.0,
        10185.0,
        10190.0,
        10195.0,
        10200.0,
        10205.0,
        10210.0,
        10215.0,
        10220.0,
        10225.0,
        10230.0,
        10235.0,
        10240.0,
        10245.0,
        10250.0,
        10255.0,
        10260.0,
        10265.0,
        10270.0,
        10275.0,
        10280.0,
        10285.0,
        10290.0,
        10295.0,
        10300.0,
        10305.0,
        10310.0,
        10315.0,
        10320.0,
        10325.0,
        10330.0,
        10335.0,
        10340.0,
        10345.0,
        10350.0,
        10355.0,
        10360.0,
        10365.0,
        10370.0,
        10375.0,
        10380.0,
        10385.0,
        10390.0,
        10395.0,
        10400.0,
        10405.0,
        10410.0,
        10415.0,
        10420.0,
        10425.0,
        10430.0,
        10435.0,
        10440.0,
        10445.0,
        10450.0,
        10455.0,
        10460.0,
        10465.0,
        10470.0,
        10475.0,
        10480.0,
        10485.0,
        10490.0,
        10495.0,
        10500.0
      ],
      "units":"angstrom"
    },
    "values":{
      "value":[
        8.453187,
        6.820466,
        6.227903,
        6.314741,
        5.703541,
        4.743167,
        5.545461,
        5.835412,
        4.44276,
        3.42507,
        2.707309,
        1.277817,
        0.88763,
        0.796896,
        1.695169,
        3.131439,
        4.415824,
        5.905135,
        7.478426,
        7.32877,
        6.638159,
        6.976542,
        5.670106,
        5.773029,
        7.129881,
        6.993999,
        7.318699,
        7.182537,
        6.458522,
        5.356989,
        4.642964,
        4.978525,
        6.399639,
        8.033667,
        8.199872,
        7.16827,
        6.412168,
        5.946573,
        7.255865,
        7.486057,
        7.843868,
        7.777391,
        7.351834,
        6.706155,
        6.762109,
        6.73492,
        6.71863,
        6.92294,
        6.30622,
        5.741408,
        6.175116,
        6.660765,
        6.831835,
        6.506279,
        6.249966,
        6.823714,
        7.236362,
        7.162015,
        7.61086,
        7.614293,
        7.792153,
        7.672908,
        7.803586,
        7.441377,
        6.985239,
        7.02246,
        7.066513,
        7.159101,
        7.542347,
        7.014956,
        6.774666,
        6.577842,
        6.54022,
        6.46932,
        6.73583,
        6.257535,
        5.739502,
        5.526872,
        5.636603,
        4.892794,
        5.276331,
        6.208998,
        5.9543,
        5.983721,
        6.00627,
        6.126379,
        6.237036,
        6.442217,
        6.548567,
        6.297031,
        5.896742,
        5.710594,
        5.667091,
        5.98346,
        5.979784,
        5.939276,
        5.942705,
        5.995558,
        6.017573,
        6.101079,
        6.031672,
        5.740652,
        5.694307,
        6.049489,
        5.892515,
        5.770488,
        6.138637,
        6.091805,
        5.780603,
        5.657226,
        5.729993,
        5.539926,
        5.094034,
        4.942769,
        4.638016,
        4.89201,
        5.406663,
        5.536167,
        5.421625,
        5.152807,
        5.126394,
        5.589442,
        5.419081,
        5.402972,
        5.327959,
        5.293413,
        5.684301,
        5.473256,
        4.970935,
        5.558799,
        6.059553,
        5.872593,
        5.627327,
        5.501031,
        5.425435,
        5.546395,
        5.38435,
        5.263122,
        4.945451,
        4.559691,
        4.256236,
        4.166877,
        4.241334,
        4.456493,
        4.905108,
        5.036115,
        4.598895,
        4.005392,
        3.709297,
        3.770338,
        4.123675,
        4.282934,
        4.165008,
        3.834182,
        3.731555,
        3.605623,
        3.723879,
        4.113236,
        4.213595,
        4.269259,
        4.094551,
        3.925403,
        3.610398,
        3.521355,
        3.625107,
        4.065402,
        4.309789,
        4.306828,
        3.889534,
        3.486808,
        3.4921,
        3.555412,
        3.443694,
        3.797916,
        4.048384,
        4.140805,
        4.193077,
        4.128282,
        3.880551,
        3.653858,
        3.783982,
        3.915621,
        3.76154,
        3.483114,
        3.673074,
        3.835754,
        3.915125,
        4.034917,
        3.871928,
        3.630244,
        3.527285,
        3.588001,
        3.545298,
        3.666752,
        3.626292,
        3.570884,
        3.877702,
        3.720905,
        3.569581,
        3.498788,
        3.390326,
        3.401888,
        3.673706,
        3.668223,
        3.515661,
        3.465117,
        3.372951,
        3.262558,
        3.412925,
        3.664236,
        3.630501,
        3.520231,
        3.313549,
        3.263893,
        3.186123,
        2.924172,
        2.891565,
        3.013244,
        3.140844,
        3.158448,
        3.180698,
        3.238302,
        3.143909,
        3.010877,
        3.20451,
        3.304211,
        3.278348,
        3.115928,
        3.319339,
        3.419526,
        3.31751,
        3.112665,
        3.252322,
        3.393535,
        3.217673,
        3.19738,
        3.124184,
        3.118755,
        3.049134,
        3.016743,
        2.870463,
        2.99535,
        3.181012,
        3.06715,
        3.057905,
        3.197117,
        3.145744,
        3.036075,
        2.850536,
        3.023968,
        3.090254,
        3.188559,
        3.109303,
        2.989799,
        2.964475,
        3.124454,
        3.31285,
        3.251503,
        3.114287,
        3.111737,
        3.197435,
        3.322876,
        3.48247,
        3.371446,
        3.171047,
        3.11208,
        3.189204,
        3.285073,
        3.277563,
        3.142159,
        3.227758,
        3.264635,
        3.31849,
        3.279849,
        3.234051,
        3.175274,
        3.224998,
        3.246968,
        3.160023,
        2.993512,
        3.037288,
        3.04986,
        3.325469,
        3.288934,
        3.188812,
        3.357485,
        3.003397,
        2.844652,
        3.213343,
        3.377357,
        3.32043,
        3.185418,
        3.252369,
        3.232628,
        3.33709,
        3.430027,
        3.276313,
        3.254328,
        3.430336,
        3.677916,
        3.687099,
        3.652868,
        3.624023,
        3.516521,
        3.361833,
        3.371063,
        3.532104,
        3.551646,
        3.581931,
        3.500421,
        3.321512,
        3.419938,
        3.39679,
        3.256492,
        3.194524,
        3.225823,
        3.286062,
        3.372931,
        3.463804,
        3.240925,
        3.160749,
        3.05291,
        3.148304,
        3.446646,
        3.432459,
        3.199773,
        3.279889,
        3.215502,
        3.157255,
        3.310457,
        3.06141,
        2.961999,
        3.094702,
        3.424964,
        3.523624,
        3.512173,
        3.287775,
        3.184847,
        3.153243,
        3.136017,
        3.230097,
        3.099386,
        3.112394,
        3.179616,
        3.276893,
        3.261525,
        3.241481,
        3.299707,
        3.289477,
        3.417136,
        3.331457,
        3.284175,
        3.37489,
        3.41737,
        3.330258,
        3.270788,
        3.20038,
        3.190816,
        3.140743,
        3.20622,
        3.151683,
        3.188252,
        3.201869,
        3.133044,
        3.154257,
        3.126286,
        3.21123,
        3.155229,
        3.097813,
        3.125803,
        3.103199,
        3.081987,
        3.077541,
        3.114276,
        3.097948,
        3.101895,
        3.085092,
        3.101366,
        3.074162,
        3.05979,
        2.995285,
        3.015072,
        2.943722,
        2.985589,
        3.025893,
        2.969585,
        2.974394,
        2.97359,
        2.981628,
        3.017673,
        3.03587,
        3.059184,
        3.002041,
        2.964304,
        2.975625,
        2.947289,
        3.031953,
        3.047504,
        3.080348,
        3.163608,
        3.200215,
        3.151258,
        2.924937,
        2.930842,
        2.939361,
        2.973567,
        2.918407,
        2.870018,
        2.876957,
        2.871756,
        2.840899,
        2.921793,
        2.972264,
        2.905453,
        2.822125,
        2.833982,
        2.908847,
        2.982616,
        3.007377,
        2.961125,
        2.909298,
        2.917171,
        2.96192,
        2.998128,
        2.978102,
        2.877708,
        2.769316,
        2.72612,
        2.728119,
        2.741336,
        2.769089,
        2.813863,
        2.837527,
        2.810612,
        2.778931,
        2.78846,
        2.810545,
        2.80978,
        2.798362,
        2.79519,
        2.798356,
        2.799752,
        2.787249,
        2.757089,
        2.742997,
        2.769875,
        2.789849,
        2.758303,
        2.716426,
        2.708899,
        2.708564,
        2.687597,
        2.687337,
        2.73977,
        2.770298,
        2.713511,
        2.647342,
        2.651853,
        2.672294,
        2.645756,
        2.611496,
        2.614847,
        2.623254,
        2.601778,
        2.583811,
        2.602157,
        2.61894,
        2.596104,
        2.565547,
        2.562895,
        2.568729,
        2.558093,
        2.465075,
        2.502225,
        2.4696,
        2.4483,
        2.466394,
        2.442523,
        2.485134,
        2.48392,
        2.421571,
        2.374661,
        2.418643,
        2.436071,
        2.449059,
        2.41786,
        2.3678,
        2.394496,
        2.386459,
        2.37741,
        2.357927,
        2.354431,
        2.287414,
        2.202732,
        2.209349,
        2.360126,
        2.369866,
        2.250499,
        2.18726,
        2.246251,
        2.239283,
        2.250997,
        2.289532,
        2.26226,
        2.223769,
        2.193914,
        2.249708,
        2.276444,
        2.283909,
        2.244447,
        2.304023,
        2.330935,
        2.408708,
        2.502116,
        2.44881,
        2.536856,
        2.526283,
        2.365632,
        2.739749,
        2.657693,
        2.322096,
        2.597725,
        2.809831,
        2.683131,
        2.404552,
        2.703382,
        2.989755,
        2.975942,
        2.879119,
        2.527251,
        2.577373,
        2.874206,
        3.008085,
        2.95638,
        2.886454,
        2.903733,
        2.584145,
        2.274758,
        2.672185,
        2.923054,
        2.916074,
        2.837085,
        2.844282,
        2.794659,
        2.746972,
        2.75964,
        2.701889,
        2.34687,
        2.211658,
        2.626826,
        2.856928,
        2.869117,
        2.809116,
        2.756625,
        2.68254,
        2.64262,
        2.52207,
        2.515983,
        2.709705,
        2.769786,
        2.751583,
        2.658276,
        2.578899,
        2.204646,
        2.009181,
        2.406818,
        2.549078,
        2.590839,
        2.567937,
        2.560639,
        2.536823,
        2.457644,
        2.449212,
        2.497315,
        2.468288,
        2.322953,
        2.387276,
        2.470312,
        2.463747,
        2.453867,
        2.463867,
        2.443798,
        2.423329,
        2.393231,
        2.37851,
        2.33934,
        2.338798,
        2.332438,
        2.303547,
        2.116948,
        1.808646,
        1.977346,
        2.23102,
        2.255951,
        2.216199,
        2.23504,
        2.194088,
        2.217201,
        2.166197,
        2.165802,
        2.234556,
        2.241713,
        2.226644,
        2.201875,
        2.189448,
        2.17119,
        2.148415,
        2.173164,
        2.169692,
        2.181963,
        2.168318,
        2.139355,
        2.137581,
        2.121973,
        2.091875,
        2.072262,
        2.069339,
        2.05989,
        2.084878,
        2.093153,
        2.087901,
        2.072474,
        2.052093,
        2.026961,
        1.993171,
        2.028317,
        2.022545,
        2.027089,
        2.034456,
        2.034136,
        2.046739,
        2.029509,
        2.022681,
        2.000454,
        2.00161,
        1.995726,
        1.945685,
        1.754411,
        1.539398,
        1.723544,
        1.872558,
        1.929157,
        1.956064,
        1.981284,
        1.956987,
        1.95249,
        1.921485,
        1.837219,
        1.843508,
        1.908134,
        1.918269,
        1.909716,
        1.889538,
        1.848678,
        1.776027,
        1.695807,
        1.654179,
        1.687222,
        1.746041,
        1.789962,
        1.815854,
        1.840715,
        1.818047,
        1.782401,
        1.696247,
        1.704992,
        1.727776,
        1.780776,
        1.791781,
        1.796414,
        1.799398,
        1.79442,
        1.807543,
        1.791707,
        1.786387,
        1.759562,
        1.738777,
        1.763664,
        1.756475,
        1.731632,
        1.710393,
        1.717932,
        1.740729,
        1.74923,
        1.73458,
        1.713322,
        1.71984,
        1.695723,
        1.72502,
        1.721333,
        1.716275,
        1.693612,
        1.706664,
        1.717342,
        1.692943,
        1.683147,
        1.68002,
        1.686951,
        1.680596,
        1.69082,
        1.676468,
        1.684787,
        1.691618,
        1.676216,
        1.672907,
        1.684546,
        1.696208,
        1.691959,
        1.666329,
        1.65174,
        1.649669,
        1.664121,
        1.617644,
        1.608466,
        1.631292,
        1.576134,
        1.580777,
        1.601889,
        1.596839,
        1.619978,
        1.61889,
        1.600553,
        1.552608,
        1.545032,
        1.563044,
        1.555866,
        1.541128,
        1.566321,
        1.57095,
        1.53962,
        1.537196,
        1.550419,
        1.54577,
        1.505022,
        1.497306,
        1.509167,
        1.527329,
        1.555742,
        1.560926,
        1.537229,
        1.487206,
        1.332284,
        1.17933,
        1.29584,
        1.408824,
        1.420471,
        1.433142,
        1.440507,
        1.4568,
        1.452921,
        1.455799,
        1.472049,
        1.486147,
        1.440846,
        1.368751,
        1.381233,
        1.46087,
        1.480939,
        1.48015,
        1.477979,
        1.442978,
        1.450736,
        1.45478,
        1.418759,
        1.406719,
        1.415964,
        1.417402,
        1.433918,
        1.417335,
        1.397279,
        1.366106,
        1.356809,
        1.355286,
        1.31147,
        1.350806,
        1.371573,
        1.346604,
        1.343611,
        1.34611,
        1.339895,
        1.333658,
        1.325946,
        1.33801,
        1.345863,
        1.342492,
        1.328686,
        1.344658,
        1.328933,
        1.332703,
        1.328828,
        1.323341,
        1.316047,
        1.305398,
        1.307928,
        1.310876,
        1.302073,
        1.29651,
        1.298654,
        1.302711,
        1.29947,
        1.292565,
        1.277492,
        1.272323,
        1.271157,
        1.274016,
        1.282861,
        1.283774,
        1.284471,
        1.277251,
        1.277565,
        1.268927,
        1.257295,
        1.244259,
        1.241142,
        1.25472,
        1.247859,
        1.234389,
        1.221217,
        1.228698,
        1.22236,
        1.209862,
        1.214047,
        1.203792,
        1.200314,
        1.189959,
        1.172733,
        1.178019,
        1.175322,
        1.181284,
        1.17052,
        1.176579,
        1.182025,
        1.178156,
        1.166144,
        1.157628,
        1.148412,
        1.14459,
        1.15179,
        1.150092,
        1.140493,
        1.13246,
        1.133736,
        1.130282,
        1.131216,
        1.123339,
        1.115949,
        1.112313,
        1.117179,
        1.112074,
        1.10184,
        1.100865,
        1.09489,
        1.098582,
        1.087815,
        1.077114,
        1.076769,
        1.072545,
        1.069567,
        1.068183,
        1.051958,
        1.037816,
        1.036551,
        1.046114,
        1.046653,
        1.047494,
        1.03862,
        1.034068,
        1.032033,
        1.029477,
        1.033516,
        1.040866,
        1.024828,
        1.010977,
        1.02503,
        1.012753,
        1.004976,
        1.000298,
        1.001062,
        1.0041,
        0.997642,
        0.99823,
        1.004769,
        1.004476,
        0.994358,
        0.991963,
        0.996379,
        0.989979,
        0.991123,
        0.988906,
        0.989154,
        0.990425,
        0.986746,
        0.985217,
        0.977514,
        0.976687,
        0.9655,
        0.96142,
        0.953267,
        0.93672,
        0.938236,
        0.939906,
        0.941423,
        0.935783,
        0.927968,
        0.927041,
        0.922227,
        0.919303,
        0.926052,
        0.920605,
        0.907504,
        0.903306,
        0.89048,
        0.898374,
        0.908015,
        0.905286,
        0.903853,
        0.903442,
        0.893479,
        0.882901,
        0.885417,
        0.885273,
        0.89067,
        0.892084,
        0.879686,
        0.870209,
        0.848669,
        0.79913,
        0.82737,
        0.846553,
        0.83823,
        0.843907,
        0.849261,
        0.857552,
        0.862877,
        0.855654,
        0.85923,
        0.850936,
        0.852486,
        0.845874,
        0.838816,
        0.839071,
        0.8438,
        0.84943,
        0.850146,
        0.820621,
        0.769948,
        0.806429,
        0.793542,
        0.723274,
        0.733848,
        0.785613,
        0.823314,
        0.815277,
        0.811603,
        0.806451,
        0.802755,
        0.805669,
        0.807229,
        0.792197,
        0.774954,
        0.774951,
        0.781442,
        0.789,
        0.791149,
        0.786154,
        0.773383,
        0.775919,
        0.779027,
        0.770517,
        0.764939,
        0.763091,
        0.771836,
        0.767762,
        0.769593,
        0.767897,
        0.762706,
        0.760479,
        0.752937,
        0.750225,
        0.762075,
        0.763429,
        0.76218,
        0.757905,
        0.753444,
        0.754976,
        0.75088,
        0.749449,
        0.751725,
        0.75223,
        0.74268,
        0.743984,
        0.74756,
        0.746406,
        0.748017,
        0.744642,
        0.739942,
        0.740168,
        0.733411,
        0.727679,
        0.723366,
        0.724578,
        0.720022,
        0.724434,
        0.724393,
        0.716795,
        0.713333,
        0.711877,
        0.713419,
        0.716731,
        0.716317,
        0.707822,
        0.70663,
        0.710647,
        0.710265,
        0.71247,
        0.714467,
        0.709338,
        0.706699,
        0.707092,
        0.706821,
        0.703486,
        0.706837,
        0.70209,
        0.690987,
        0.681257,
        0.671263,
        0.639967,
        0.647383,
        0.674547,
        0.679104,
        0.678199,
        0.676506,
        0.67788,
        0.677427,
        0.676294,
        0.67933,
        0.680675,
        0.674049,
        0.670711,
        0.651989,
        0.653366,
        0.672319,
        0.672665,
        0.662018,
        0.648543,
        0.648379,
        0.653539,
        0.657179,
        0.661252,
        0.659244,
        0.65402,
        0.652624,
        0.654656,
        0.650873,
        0.655202,
        0.655688,
        0.652402,
        0.651658,
        0.649233,
        0.639977,
        0.636576,
        0.637841,
        0.636437,
        0.632879,
        0.630085,
        0.629794,
        0.626003,
        0.62472,
        0.628345,
        0.630833,
        0.632486,
        0.624997,
        0.625399,
        0.624274,
        0.631087,
        0.629596,
        0.622834,
        0.622524,
        0.62247,
        0.619327,
        0.616618,
        0.60075,
        0.561745,
        0.565927,
        0.600477,
        0.601586,
        0.591343,
        0.603533,
        0.611958,
        0.613966,
        0.614686,
        0.614737,
        0.60652,
        0.603592,
        0.608995,
        0.614494,
        0.607828,
        0.605874,
        0.605555,
        0.602683,
        0.599676,
        0.600142,
        0.597665,
        0.595436,
        0.588495,
        0.558014,
        0.548304,
        0.579167,
        0.591114,
        0.586099,
        0.585584,
        0.58568,
        0.585801,
        0.578063,
        0.57881,
        0.582151,
        0.581257,
        0.578902,
        0.577119,
        0.574919,
        0.572415,
        0.571519,
        0.572999,
        0.572472,
        0.569594,
        0.570341,
        0.567987,
        0.566287,
        0.564843,
        0.566405,
        0.563812,
        0.561464,
        0.563484,
        0.559501,
        0.558843,
        0.559087,
        0.55616,
        0.554711,
        0.543921,
        0.542756,
        0.541507,
        0.540279,
        0.539197,
        0.537929,
        0.536532,
        0.535335,
        0.534196,
        0.533051,
        0.531869,
        0.530713,
        0.5296,
        0.528475,
        0.527344,
        0.526193,
        0.525038,
        0.524066,
        0.52311,
        0.522077,
        0.520982,
        0.51994,
        0.518745,
        0.517469,
        0.516164,
        0.515035,
        0.513846,
        0.523327,
        0.522643,
        0.514615,
        0.508354,
        0.509124,
        0.509553,
        0.511229,
        0.517708,
        0.518248,
        0.515459,
        0.508515,
        0.50887,
        0.509283,
        0.510264,
        0.510232,
        0.507194,
        0.505251,
        0.496745,
        0.479275,
        0.491294,
        0.504514,
        0.505126,
        0.505608,
        0.504987,
        0.503951,
        0.499604,
        0.499328,
        0.502468,
        0.503424,
        0.501301,
        0.50026,
        0.502986,
        0.50299,
        0.502713,
        0.500523,
        0.499181,
        0.497729,
        0.496533,
        0.490085,
        0.478426,
        0.470357,
        0.466994,
        0.45765,
        0.456922,
        0.45997,
        0.459485,
        0.467994,
        0.485595,
        0.492626,
        0.487587,
        0.482561,
        0.472082,
        0.460426,
        0.458808,
        0.461671,
        0.463088,
        0.467145,
        0.467382,
        0.462559,
        0.462069,
        0.450865,
        0.451928,
        0.451749,
        0.445531,
        0.450939,
        0.454465,
        0.450912,
        0.45042,
        0.448357,
        0.4522,
        0.451324,
        0.446021,
        0.445605,
        0.445887,
        0.443384,
        0.437925,
        0.439647,
        0.43804,
        0.432131,
        0.427673,
        0.431516,
        0.432485,
        0.427496,
        0.428371,
        0.426689,
        0.425,
        0.426701,
        0.419918,
        0.419596,
        0.424769,
        0.425297,
        0.424992,
        0.423666,
        0.423434,
        0.419291,
        0.421459,
        0.421415,
        0.418923,
        0.415332,
        0.413234,
        0.416008,
        0.416119,
        0.414018,
        0.412005,
        0.411672,
        0.411101,
        0.409248,
        0.410797,
        0.410635,
        0.407588,
        0.407759,
        0.406116,
        0.403517,
        0.404104,
        0.399988,
        0.400509,
        0.399404,
        0.398595,
        0.397764,
        0.396923,
        0.396182,
        0.395467,
        0.394683,
        0.39395,
        0.393189,
        0.392391,
        0.391634,
        0.390783,
        0.389983,
        0.389184,
        0.388393,
        0.387607,
        0.386827,
        0.386052,
        0.385281,
        0.384515,
        0.383752,
        0.382994,
        0.382243,
        0.381463,
        0.380657,
        0.379918,
        0.379178,
        0.378459,
        0.377637,
        0.376847,
        0.376152,
        0.375853,
        0.376427,
        0.376515,
        0.375721,
        0.376046,
        0.3756,
        0.373268,
        0.372492,
        0.371292,
        0.373323,
        0.371087,
        0.368037,
        0.35588,
        0.334133,
        0.349387,
        0.365299,
        0.364656,
        0.364358,
        0.365524,
        0.365946,
        0.362423,
        0.361433,
        0.360334,
        0.361025,
        0.359831,
        0.358074,
        0.355638,
        0.355907,
        0.357419,
        0.355741,
        0.353236,
        0.349755,
        0.352017,
        0.350297,
        0.347511,
        0.349444,
        0.348724,
        0.346718,
        0.345311,
        0.346588,
        0.348494,
        0.347119,
        0.345027,
        0.343857,
        0.342683,
        0.342942,
        0.345546,
        0.341797,
        0.338004,
        0.339169,
        0.340747,
        0.33626,
        0.337455,
        0.337203,
        0.334786,
        0.33719,
        0.336745,
        0.334414,
        0.332901,
        0.333682,
        0.334167,
        0.329782,
        0.331097,
        0.329648,
        0.330145,
        0.330862,
        0.326741,
        0.327827,
        0.327102,
        0.326789,
        0.326913,
        0.321305,
        0.325162,
        0.325389,
        0.323243,
        0.321431,
        0.323195,
        0.322975,
        0.322155,
        0.324443,
        0.321076,
        0.318671,
        0.321848,
        0.321572,
        0.32063,
        0.316208,
        0.317055,
        0.314684,
        0.311544,
        0.306358,
        0.306749,
        0.299527,
        0.304428,
        0.309262,
        0.304461,
        0.307261,
        0.306646,
        0.308198,
        0.307374,
        0.312184,
        0.313774,
        0.312666,
        0.305579,
        0.297722,
        0.28412,
        0.295891,
        0.305947,
        0.305963,
        0.310716,
        0.304115,
        0.302389,
        0.304242,
        0.303292,
        0.295433,
        0.295162,
        0.296414,
        0.296431,
        0.294321,
        0.29564,
        0.292765,
        0.294219,
        0.293614,
        0.289387,
        0.290988,
        0.293501,
        0.292588,
        0.290094,
        0.289185,
        0.290668,
        0.290872,
        0.288297,
        0.28713,
        0.288133,
        0.285369,
        0.285475,
        0.291128,
        0.286236,
        0.28291,
        0.286713,
        0.29123,
        0.286275,
        0.276892,
        0.284509,
        0.293401,
        0.287944,
        0.280973,
        0.270876,
        0.272571,
        0.280151,
        0.290138,
        0.286563,
        0.275359,
        0.27114,
        0.280255,
        0.287053,
        0.289042,
        0.291931,
        0.284904,
        0.269823,
        0.258562,
        0.271987,
        0.281243,
        0.286591,
        0.285572,
        0.283285,
        0.281174,
        0.271349,
        0.255172,
        0.254451,
        0.274126,
        0.284983,
        0.285668,
        0.286511,
        0.284606,
        0.280824,
        0.276349,
        0.272248,
        0.26018,
        0.244475,
        0.256617,
        0.276424,
        0.283518,
        0.286055,
        0.288353,
        0.288261,
        0.287618,
        0.289292,
        0.288333,
        0.282903,
        0.276173,
        0.266831,
        0.244992,
        0.246178,
        0.264051,
        0.275224,
        0.272845,
        0.281393,
        0.287594,
        0.28828,
        0.287332,
        0.287553,
        0.287897,
        0.284785,
        0.284699,
        0.280148,
        0.274359,
        0.267717,
        0.26015,
        0.240286,
        0.240634,
        0.261159,
        0.271181,
        0.272968,
        0.272232,
        0.271172,
        0.272841,
        0.273953,
        0.275469,
        0.276835,
        0.277472,
        0.273721,
        0.274337,
        0.273243,
        0.271225,
        0.27289,
        0.270558,
        0.269391,
        0.266764,
        0.258183,
        0.2514,
        0.236381,
        0.224543,
        0.242937,
        0.255203,
        0.261227,
        0.264319,
        0.267791,
        0.266129,
        0.26775,
        0.267077,
        0.268939,
        0.268182,
        0.267054,
        0.263752,
        0.263283,
        0.262808,
        0.262554,
        0.26074,
        0.258285,
        0.258471,
        0.25815,
        0.253289,
        0.252014,
        0.252638,
        0.250309,
        0.247979,
        0.234533,
        0.240044,
        0.23905,
        0.233121,
        0.22594,
        0.206862,
        0.214329,
        0.231446,
        0.246176,
        0.254922,
        0.259128,
        0.25719,
        0.256407,
        0.253164,
        0.25344,
        0.242608,
        0.239268,
        0.243714,
        0.242605,
        0.235992,
        0.239801,
        0.244304,
        0.242574,
        0.237623,
        0.242383,
        0.24339,
        0.240803,
        0.242746,
        0.237078,
        0.230225,
        0.23344,
        0.240135,
        0.231173,
        0.219969,
        0.231691,
        0.23631,
        0.232279,
        0.226288,
        0.233471,
        0.235913,
        0.234906,
        0.236562,
        0.235187,
        0.230882,
        0.225803,
        0.221947,
        0.219681,
        0.213351,
        0.204767,
        0.209701,
        0.217995,
        0.222574,
        0.223683,
        0.225029,
        0.222913,
        0.22178,
        0.224979,
        0.226962,
        0.224132,
        0.228255,
        0.226239,
        0.222919,
        0.218352,
        0.216936,
        0.211193,
        0.20563,
        0.201776,
        0.201435,
        0.206451,
        0.206932,
        0.202637,
        0.196582,
        0.211698,
        0.206382,
        0.206764,
        0.211954,
        0.209136,
        0.213762,
        0.21459,
        0.22136,
        0.229467,
        0.23696,
        0.231377,
        0.227996,
        0.219877,
        0.214464,
        0.209011,
        0.201465,
        0.195525,
        0.20174,
        0.193417,
        0.198369,
        0.207117,
        0.203772,
        0.198934,
        0.204804,
        0.21093,
        0.208999,
        0.203133,
        0.202135,
        0.206586,
        0.196474,
        0.190439,
        0.20183,
        0.211032,
        0.207435,
        0.198129,
        0.195934,
        0.193471,
        0.193679,
        0.188657,
        0.177665,
        0.176934,
        0.18013,
        0.191673,
        0.194765,
        0.194483,
        0.203729,
        0.202278,
        0.199987,
        0.197254,
        0.197533,
        0.201342,
        0.196541,
        0.197285,
        0.196394,
        0.187183,
        0.190217,
        0.193937,
        0.191925,
        0.190222,
        0.193687,
        0.196213,
        0.19573,
        0.194984,
        0.194029,
        0.194755,
        0.196082,
        0.193578,
        0.193168,
        0.186863,
        0.185231,
        0.184476,
        0.187811,
        0.188629,
        0.190336,
        0.194247,
        0.190066,
        0.188288,
        0.187954,
        0.182841,
        0.185702,
        0.184991,
        0.187456,
        0.186065,
        0.187537,
        0.194401,
        0.190539,
        0.189518,
        0.186382,
        0.18501,
        0.182143,
        0.18278,
        0.182111,
        0.177552,
        0.178243,
        0.178716,
        0.181936,
        0.181524,
        0.18537,
        0.188849,
        0.185787,
        0.184767,
        0.17651,
        0.174995,
        0.176859,
        0.178842,
        0.178386,
        0.174841,
        0.17687,
        0.183036,
        0.179064,
        0.179684,
        0.181239,
        0.185518,
        0.181983,
        0.178455,
        0.177118,
        0.180038,
        0.181299,
        0.176711,
        0.177693,
        0.17479,
        0.176551,
        0.18155,
        0.172988,
        0.170434,
        0.170473,
        0.176646,
        0.16746,
        0.170751,
        0.171557,
        0.173246,
        0.169208,
        0.169003,
        0.164169,
        0.161056,
        0.160272,
        0.161189,
        0.160992,
        0.157788,
        0.161787,
        0.151308,
        0.159961,
        0.160214,
        0.158987,
        0.161668,
        0.16569,
        0.169482,
        0.168384,
        0.164614,
        0.166584,
        0.161155,
        0.160507,
        0.164104,
        0.165072,
        0.166775,
        0.166769,
        0.159957,
        0.158084,
        0.163003,
        0.169355,
        0.161042,
        0.162093,
        0.163111,
        0.163578,
        0.163583,
        0.163368,
        0.163173,
        0.163117,
        0.162826,
        0.161802,
        0.159548,
        0.155828,
        0.15145,
        0.147486,
        0.145005,
        0.144789,
        0.146465,
        0.149374,
        0.152853,
        0.15626,
        0.159023,
        0.16059,
        0.160406,
        0.158228,
        0.155046,
        0.152161,
        0.150874,
        0.152008,
        0.154485,
        0.15675,
        0.157248,
        0.152968,
        0.150884,
        0.148809,
        0.147579,
        0.147785,
        0.149034,
        0.150691,
        0.152121,
        0.152812,
        0.152764,
        0.152099,
        0.150939,
        0.149451,
        0.14798,
        0.146914,
        0.146641,
        0.147365,
        0.148558,
        0.149505,
        0.149496,
        0.148064,
        0.145737,
        0.143287,
        0.141488,
        0.140895,
        0.141184,
        0.141813,
        0.142241,
        0.142081,
        0.141571,
        0.141103,
        0.141073,
        0.141744,
        0.142863,
        0.144045,
        0.144909,
        0.145173,
        0.144962,
        0.144505,
        0.14403
      ],
      "range":1
    }
  }
]
