[
  {
    "model":"Star, type B0(i)",
    "name":"Star, type B0(i)",
    "type":"WB_REF",
    "dataQualityMarker":3,
    "dataSource":"https://www.eso.org/sci/facilities/paranal/decommissioned/isaac/tools/lib.html",
    "manufacturer":"A. Pickles (A.J. Pickles, PASP 110,863, 1998)",
    "version":1,
    "wavelength":{
      "value":[
        1150.0,
        1155.0,
        1160.0,
        1165.0,
        1170.0,
        1175.0,
        1180.0,
        1185.0,
        1190.0,
        1195.0,
        1200.0,
        1205.0,
        1210.0,
        1215.0,
        1220.0,
        1225.0,
        1230.0,
        1235.0,
        1240.0,
        1245.0,
        1250.0,
        1255.0,
        1260.0,
        1265.0,
        1270.0,
        1275.0,
        1280.0,
        1285.0,
        1290.0,
        1295.0,
        1300.0,
        1305.0,
        1310.0,
        1315.0,
        1320.0,
        1325.0,
        1330.0,
        1335.0,
        1340.0,
        1345.0,
        1350.0,
        1355.0,
        1360.0,
        1365.0,
        1370.0,
        1375.0,
        1380.0,
        1385.0,
        1390.0,
        1395.0,
        1400.0,
        1405.0,
        1410.0,
        1415.0,
        1420.0,
        1425.0,
        1430.0,
        1435.0,
        1440.0,
        1445.0,
        1450.0,
        1455.0,
        1460.0,
        1465.0,
        1470.0,
        1475.0,
        1480.0,
        1485.0,
        1490.0,
        1495.0,
        1500.0,
        1505.0,
        1510.0,
        1515.0,
        1520.0,
        1525.0,
        1530.0,
        1535.0,
        1540.0,
        1545.0,
        1550.0,
        1555.0,
        1560.0,
        1565.0,
        1570.0,
        1575.0,
        1580.0,
        1585.0,
        1590.0,
        1595.0,
        1600.0,
        1605.0,
        1610.0,
        1615.0,
        1620.0,
        1625.0,
        1630.0,
        1635.0,
        1640.0,
        1645.0,
        1650.0,
        1655.0,
        1660.0,
        1665.0,
        1670.0,
        1675.0,
        1680.0,
        1685.0,
        1690.0,
        1695.0,
        1700.0,
        1705.0,
        1710.0,
        1715.0,
        1720.0,
        1725.0,
        1730.0,
        1735.0,
        1740.0,
        1745.0,
        1750.0,
        1755.0,
        1760.0,
        1765.0,
        1770.0,
        1775.0,
        1780.0,
        1785.0,
        1790.0,
        1795.0,
        1800.0,
        1805.0,
        1810.0,
        1815.0,
        1820.0,
        1825.0,
        1830.0,
        1835.0,
        1840.0,
        1845.0,
        1850.0,
        1855.0,
        1860.0,
        1865.0,
        1870.0,
        1875.0,
        1880.0,
        1885.0,
        1890.0,
        1895.0,
        1900.0,
        1905.0,
        1910.0,
        1915.0,
        1920.0,
        1925.0,
        1930.0,
        1935.0,
        1940.0,
        1945.0,
        1950.0,
        1955.0,
        1960.0,
        1965.0,
        1970.0,
        1975.0,
        1980.0,
        1985.0,
        1990.0,
        1995.0,
        2000.0,
        2005.0,
        2010.0,
        2015.0,
        2020.0,
        2025.0,
        2030.0,
        2035.0,
        2040.0,
        2045.0,
        2050.0,
        2055.0,
        2060.0,
        2065.0,
        2070.0,
        2075.0,
        2080.0,
        2085.0,
        2090.0,
        2095.0,
        2100.0,
        2105.0,
        2110.0,
        2115.0,
        2120.0,
        2125.0,
        2130.0,
        2135.0,
        2140.0,
        2145.0,
        2150.0,
        2155.0,
        2160.0,
        2165.0,
        2170.0,
        2175.0,
        2180.0,
        2185.0,
        2190.0,
        2195.0,
        2200.0,
        2205.0,
        2210.0,
        2215.0,
        2220.0,
        2225.0,
        2230.0,
        2235.0,
        2240.0,
        2245.0,
        2250.0,
        2255.0,
        2260.0,
        2265.0,
        2270.0,
        2275.0,
        2280.0,
        2285.0,
        2290.0,
        2295.0,
        2300.0,
        2305.0,
        2310.0,
        2315.0,
        2320.0,
        2325.0,
        2330.0,
        2335.0,
        2340.0,
        2345.0,
        2350.0,
        2355.0,
        2360.0,
        2365.0,
        2370.0,
        2375.0,
        2380.0,
        2385.0,
        2390.0,
        2395.0,
        2400.0,
        2405.0,
        2410.0,
        2415.0,
        2420.0,
        2425.0,
        2430.0,
        2435.0,
        2440.0,
        2445.0,
        2450.0,
        2455.0,
        2460.0,
        2465.0,
        2470.0,
        2475.0,
        2480.0,
        2485.0,
        2490.0,
        2495.0,
        2500.0,
        2505.0,
        2510.0,
        2515.0,
        2520.0,
        2525.0,
        2530.0,
        2535.0,
        2540.0,
        2545.0,
        2550.0,
        2555.0,
        2560.0,
        2565.0,
        2570.0,
        2575.0,
        2580.0,
        2585.0,
        2590.0,
        2595.0,
        2600.0,
        2605.0,
        2610.0,
        2615.0,
        2620.0,
        2625.0,
        2630.0,
        2635.0,
        2640.0,
        2645.0,
        2650.0,
        2655.0,
        2660.0,
        2665.0,
        2670.0,
        2675.0,
        2680.0,
        2685.0,
        2690.0,
        2695.0,
        2700.0,
        2705.0,
        2710.0,
        2715.0,
        2720.0,
        2725.0,
        2730.0,
        2735.0,
        2740.0,
        2745.0,
        2750.0,
        2755.0,
        2760.0,
        2765.0,
        2770.0,
        2775.0,
        2780.0,
        2785.0,
        2790.0,
        2795.0,
        2800.0,
        2805.0,
        2810.0,
        2815.0,
        2820.0,
        2825.0,
        2830.0,
        2835.0,
        2840.0,
        2845.0,
        2850.0,
        2855.0,
        2860.0,
        2865.0,
        2870.0,
        2875.0,
        2880.0,
        2885.0,
        2890.0,
        2895.0,
        2900.0,
        2905.0,
        2910.0,
        2915.0,
        2920.0,
        2925.0,
        2930.0,
        2935.0,
        2940.0,
        2945.0,
        2950.0,
        2955.0,
        2960.0,
        2965.0,
        2970.0,
        2975.0,
        2980.0,
        2985.0,
        2990.0,
        2995.0,
        3000.0,
        3005.0,
        3010.0,
        3015.0,
        3020.0,
        3025.0,
        3030.0,
        3035.0,
        3040.0,
        3045.0,
        3050.0,
        3055.0,
        3060.0,
        3065.0,
        3070.0,
        3075.0,
        3080.0,
        3085.0,
        3090.0,
        3095.0,
        3100.0,
        3105.0,
        3110.0,
        3115.0,
        3120.0,
        3125.0,
        3130.0,
        3135.0,
        3140.0,
        3145.0,
        3150.0,
        3155.0,
        3160.0,
        3165.0,
        3170.0,
        3175.0,
        3180.0,
        3185.0,
        3190.0,
        3195.0,
        3200.0,
        3205.0,
        3210.0,
        3215.0,
        3220.0,
        3225.0,
        3230.0,
        3235.0,
        3240.0,
        3245.0,
        3250.0,
        3255.0,
        3260.0,
        3265.0,
        3270.0,
        3275.0,
        3280.0,
        3285.0,
        3290.0,
        3295.0,
        3300.0,
        3305.0,
        3310.0,
        3315.0,
        3320.0,
        3325.0,
        3330.0,
        3335.0,
        3340.0,
        3345.0,
        3350.0,
        3355.0,
        3360.0,
        3365.0,
        3370.0,
        3375.0,
        3380.0,
        3385.0,
        3390.0,
        3395.0,
        3400.0,
        3405.0,
        3410.0,
        3415.0,
        3420.0,
        3425.0,
        3430.0,
        3435.0,
        3440.0,
        3445.0,
        3450.0,
        3455.0,
        3460.0,
        3465.0,
        3470.0,
        3475.0,
        3480.0,
        3485.0,
        3490.0,
        3495.0,
        3500.0,
        3505.0,
        3510.0,
        3515.0,
        3520.0,
        3525.0,
        3530.0,
        3535.0,
        3540.0,
        3545.0,
        3550.0,
        3555.0,
        3560.0,
        3565.0,
        3570.0,
        3575.0,
        3580.0,
        3585.0,
        3590.0,
        3595.0,
        3600.0,
        3605.0,
        3610.0,
        3615.0,
        3620.0,
        3625.0,
        3630.0,
        3635.0,
        3640.0,
        3645.0,
        3650.0,
        3655.0,
        3660.0,
        3665.0,
        3670.0,
        3675.0,
        3680.0,
        3685.0,
        3690.0,
        3695.0,
        3700.0,
        3705.0,
        3710.0,
        3715.0,
        3720.0,
        3725.0,
        3730.0,
        3735.0,
        3740.0,
        3745.0,
        3750.0,
        3755.0,
        3760.0,
        3765.0,
        3770.0,
        3775.0,
        3780.0,
        3785.0,
        3790.0,
        3795.0,
        3800.0,
        3805.0,
        3810.0,
        3815.0,
        3820.0,
        3825.0,
        3830.0,
        3835.0,
        3840.0,
        3845.0,
        3850.0,
        3855.0,
        3860.0,
        3865.0,
        3870.0,
        3875.0,
        3880.0,
        3885.0,
        3890.0,
        3895.0,
        3900.0,
        3905.0,
        3910.0,
        3915.0,
        3920.0,
        3925.0,
        3930.0,
        3935.0,
        3940.0,
        3945.0,
        3950.0,
        3955.0,
        3960.0,
        3965.0,
        3970.0,
        3975.0,
        3980.0,
        3985.0,
        3990.0,
        3995.0,
        4000.0,
        4005.0,
        4010.0,
        4015.0,
        4020.0,
        4025.0,
        4030.0,
        4035.0,
        4040.0,
        4045.0,
        4050.0,
        4055.0,
        4060.0,
        4065.0,
        4070.0,
        4075.0,
        4080.0,
        4085.0,
        4090.0,
        4095.0,
        4100.0,
        4105.0,
        4110.0,
        4115.0,
        4120.0,
        4125.0,
        4130.0,
        4135.0,
        4140.0,
        4145.0,
        4150.0,
        4155.0,
        4160.0,
        4165.0,
        4170.0,
        4175.0,
        4180.0,
        4185.0,
        4190.0,
        4195.0,
        4200.0,
        4205.0,
        4210.0,
        4215.0,
        4220.0,
        4225.0,
        4230.0,
        4235.0,
        4240.0,
        4245.0,
        4250.0,
        4255.0,
        4260.0,
        4265.0,
        4270.0,
        4275.0,
        4280.0,
        4285.0,
        4290.0,
        4295.0,
        4300.0,
        4305.0,
        4310.0,
        4315.0,
        4320.0,
        4325.0,
        4330.0,
        4335.0,
        4340.0,
        4345.0,
        4350.0,
        4355.0,
        4360.0,
        4365.0,
        4370.0,
        4375.0,
        4380.0,
        4385.0,
        4390.0,
        4395.0,
        4400.0,
        4405.0,
        4410.0,
        4415.0,
        4420.0,
        4425.0,
        4430.0,
        4435.0,
        4440.0,
        4445.0,
        4450.0,
        4455.0,
        4460.0,
        4465.0,
        4470.0,
        4475.0,
        4480.0,
        4485.0,
        4490.0,
        4495.0,
        4500.0,
        4505.0,
        4510.0,
        4515.0,
        4520.0,
        4525.0,
        4530.0,
        4535.0,
        4540.0,
        4545.0,
        4550.0,
        4555.0,
        4560.0,
        4565.0,
        4570.0,
        4575.0,
        4580.0,
        4585.0,
        4590.0,
        4595.0,
        4600.0,
        4605.0,
        4610.0,
        4615.0,
        4620.0,
        4625.0,
        4630.0,
        4635.0,
        4640.0,
        4645.0,
        4650.0,
        4655.0,
        4660.0,
        4665.0,
        4670.0,
        4675.0,
        4680.0,
        4685.0,
        4690.0,
        4695.0,
        4700.0,
        4705.0,
        4710.0,
        4715.0,
        4720.0,
        4725.0,
        4730.0,
        4735.0,
        4740.0,
        4745.0,
        4750.0,
        4755.0,
        4760.0,
        4765.0,
        4770.0,
        4775.0,
        4780.0,
        4785.0,
        4790.0,
        4795.0,
        4800.0,
        4805.0,
        4810.0,
        4815.0,
        4820.0,
        4825.0,
        4830.0,
        4835.0,
        4840.0,
        4845.0,
        4850.0,
        4855.0,
        4860.0,
        4865.0,
        4870.0,
        4875.0,
        4880.0,
        4885.0,
        4890.0,
        4895.0,
        4900.0,
        4905.0,
        4910.0,
        4915.0,
        4920.0,
        4925.0,
        4930.0,
        4935.0,
        4940.0,
        4945.0,
        4950.0,
        4955.0,
        4960.0,
        4965.0,
        4970.0,
        4975.0,
        4980.0,
        4985.0,
        4990.0,
        4995.0,
        5000.0,
        5005.0,
        5010.0,
        5015.0,
        5020.0,
        5025.0,
        5030.0,
        5035.0,
        5040.0,
        5045.0,
        5050.0,
        5055.0,
        5060.0,
        5065.0,
        5070.0,
        5075.0,
        5080.0,
        5085.0,
        5090.0,
        5095.0,
        5100.0,
        5105.0,
        5110.0,
        5115.0,
        5120.0,
        5125.0,
        5130.0,
        5135.0,
        5140.0,
        5145.0,
        5150.0,
        5155.0,
        5160.0,
        5165.0,
        5170.0,
        5175.0,
        5180.0,
        5185.0,
        5190.0,
        5195.0,
        5200.0,
        5205.0,
        5210.0,
        5215.0,
        5220.0,
        5225.0,
        5230.0,
        5235.0,
        5240.0,
        5245.0,
        5250.0,
        5255.0,
        5260.0,
        5265.0,
        5270.0,
        5275.0,
        5280.0,
        5285.0,
        5290.0,
        5295.0,
        5300.0,
        5305.0,
        5310.0,
        5315.0,
        5320.0,
        5325.0,
        5330.0,
        5335.0,
        5340.0,
        5345.0,
        5350.0,
        5355.0,
        5360.0,
        5365.0,
        5370.0,
        5375.0,
        5380.0,
        5385.0,
        5390.0,
        5395.0,
        5400.0,
        5405.0,
        5410.0,
        5415.0,
        5420.0,
        5425.0,
        5430.0,
        5435.0,
        5440.0,
        5445.0,
        5450.0,
        5455.0,
        5460.0,
        5465.0,
        5470.0,
        5475.0,
        5480.0,
        5485.0,
        5490.0,
        5495.0,
        5500.0,
        5505.0,
        5510.0,
        5515.0,
        5520.0,
        5525.0,
        5530.0,
        5535.0,
        5540.0,
        5545.0,
        5550.0,
        5555.0,
        5560.0,
        5565.0,
        5570.0,
        5575.0,
        5580.0,
        5585.0,
        5590.0,
        5595.0,
        5600.0,
        5605.0,
        5610.0,
        5615.0,
        5620.0,
        5625.0,
        5630.0,
        5635.0,
        5640.0,
        5645.0,
        5650.0,
        5655.0,
        5660.0,
        5665.0,
        5670.0,
        5675.0,
        5680.0,
        5685.0,
        5690.0,
        5695.0,
        5700.0,
        5705.0,
        5710.0,
        5715.0,
        5720.0,
        5725.0,
        5730.0,
        5735.0,
        5740.0,
        5745.0,
        5750.0,
        5755.0,
        5760.0,
        5765.0,
        5770.0,
        5775.0,
        5780.0,
        5785.0,
        5790.0,
        5795.0,
        5800.0,
        5805.0,
        5810.0,
        5815.0,
        5820.0,
        5825.0,
        5830.0,
        5835.0,
        5840.0,
        5845.0,
        5850.0,
        5855.0,
        5860.0,
        5865.0,
        5870.0,
        5875.0,
        5880.0,
        5885.0,
        5890.0,
        5895.0,
        5900.0,
        5905.0,
        5910.0,
        5915.0,
        5920.0,
        5925.0,
        5930.0,
        5935.0,
        5940.0,
        5945.0,
        5950.0,
        5955.0,
        5960.0,
        5965.0,
        5970.0,
        5975.0,
        5980.0,
        5985.0,
        5990.0,
        5995.0,
        6000.0,
        6005.0,
        6010.0,
        6015.0,
        6020.0,
        6025.0,
        6030.0,
        6035.0,
        6040.0,
        6045.0,
        6050.0,
        6055.0,
        6060.0,
        6065.0,
        6070.0,
        6075.0,
        6080.0,
        6085.0,
        6090.0,
        6095.0,
        6100.0,
        6105.0,
        6110.0,
        6115.0,
        6120.0,
        6125.0,
        6130.0,
        6135.0,
        6140.0,
        6145.0,
        6150.0,
        6155.0,
        6160.0,
        6165.0,
        6170.0,
        6175.0,
        6180.0,
        6185.0,
        6190.0,
        6195.0,
        6200.0,
        6205.0,
        6210.0,
        6215.0,
        6220.0,
        6225.0,
        6230.0,
        6235.0,
        6240.0,
        6245.0,
        6250.0,
        6255.0,
        6260.0,
        6265.0,
        6270.0,
        6275.0,
        6280.0,
        6285.0,
        6290.0,
        6295.0,
        6300.0,
        6305.0,
        6310.0,
        6315.0,
        6320.0,
        6325.0,
        6330.0,
        6335.0,
        6340.0,
        6345.0,
        6350.0,
        6355.0,
        6360.0,
        6365.0,
        6370.0,
        6375.0,
        6380.0,
        6385.0,
        6390.0,
        6395.0,
        6400.0,
        6405.0,
        6410.0,
        6415.0,
        6420.0,
        6425.0,
        6430.0,
        6435.0,
        6440.0,
        6445.0,
        6450.0,
        6455.0,
        6460.0,
        6465.0,
        6470.0,
        6475.0,
        6480.0,
        6485.0,
        6490.0,
        6495.0,
        6500.0,
        6505.0,
        6510.0,
        6515.0,
        6520.0,
        6525.0,
        6530.0,
        6535.0,
        6540.0,
        6545.0,
        6550.0,
        6555.0,
        6560.0,
        6565.0,
        6570.0,
        6575.0,
        6580.0,
        6585.0,
        6590.0,
        6595.0,
        6600.0,
        6605.0,
        6610.0,
        6615.0,
        6620.0,
        6625.0,
        6630.0,
        6635.0,
        6640.0,
        6645.0,
        6650.0,
        6655.0,
        6660.0,
        6665.0,
        6670.0,
        6675.0,
        6680.0,
        6685.0,
        6690.0,
        6695.0,
        6700.0,
        6705.0,
        6710.0,
        6715.0,
        6720.0,
        6725.0,
        6730.0,
        6735.0,
        6740.0,
        6745.0,
        6750.0,
        6755.0,
        6760.0,
        6765.0,
        6770.0,
        6775.0,
        6780.0,
        6785.0,
        6790.0,
        6795.0,
        6800.0,
        6805.0,
        6810.0,
        6815.0,
        6820.0,
        6825.0,
        6830.0,
        6835.0,
        6840.0,
        6845.0,
        6850.0,
        6855.0,
        6860.0,
        6865.0,
        6870.0,
        6875.0,
        6880.0,
        6885.0,
        6890.0,
        6895.0,
        6900.0,
        6905.0,
        6910.0,
        6915.0,
        6920.0,
        6925.0,
        6930.0,
        6935.0,
        6940.0,
        6945.0,
        6950.0,
        6955.0,
        6960.0,
        6965.0,
        6970.0,
        6975.0,
        6980.0,
        6985.0,
        6990.0,
        6995.0,
        7000.0,
        7005.0,
        7010.0,
        7015.0,
        7020.0,
        7025.0,
        7030.0,
        7035.0,
        7040.0,
        7045.0,
        7050.0,
        7055.0,
        7060.0,
        7065.0,
        7070.0,
        7075.0,
        7080.0,
        7085.0,
        7090.0,
        7095.0,
        7100.0,
        7105.0,
        7110.0,
        7115.0,
        7120.0,
        7125.0,
        7130.0,
        7135.0,
        7140.0,
        7145.0,
        7150.0,
        7155.0,
        7160.0,
        7165.0,
        7170.0,
        7175.0,
        7180.0,
        7185.0,
        7190.0,
        7195.0,
        7200.0,
        7205.0,
        7210.0,
        7215.0,
        7220.0,
        7225.0,
        7230.0,
        7235.0,
        7240.0,
        7245.0,
        7250.0,
        7255.0,
        7260.0,
        7265.0,
        7270.0,
        7275.0,
        7280.0,
        7285.0,
        7290.0,
        7295.0,
        7300.0,
        7305.0,
        7310.0,
        7315.0,
        7320.0,
        7325.0,
        7330.0,
        7335.0,
        7340.0,
        7345.0,
        7350.0,
        7355.0,
        7360.0,
        7365.0,
        7370.0,
        7375.0,
        7380.0,
        7385.0,
        7390.0,
        7395.0,
        7400.0,
        7405.0,
        7410.0,
        7415.0,
        7420.0,
        7425.0,
        7430.0,
        7435.0,
        7440.0,
        7445.0,
        7450.0,
        7455.0,
        7460.0,
        7465.0,
        7470.0,
        7475.0,
        7480.0,
        7485.0,
        7490.0,
        7495.0,
        7500.0,
        7505.0,
        7510.0,
        7515.0,
        7520.0,
        7525.0,
        7530.0,
        7535.0,
        7540.0,
        7545.0,
        7550.0,
        7555.0,
        7560.0,
        7565.0,
        7570.0,
        7575.0,
        7580.0,
        7585.0,
        7590.0,
        7595.0,
        7600.0,
        7605.0,
        7610.0,
        7615.0,
        7620.0,
        7625.0,
        7630.0,
        7635.0,
        7640.0,
        7645.0,
        7650.0,
        7655.0,
        7660.0,
        7665.0,
        7670.0,
        7675.0,
        7680.0,
        7685.0,
        7690.0,
        7695.0,
        7700.0,
        7705.0,
        7710.0,
        7715.0,
        7720.0,
        7725.0,
        7730.0,
        7735.0,
        7740.0,
        7745.0,
        7750.0,
        7755.0,
        7760.0,
        7765.0,
        7770.0,
        7775.0,
        7780.0,
        7785.0,
        7790.0,
        7795.0,
        7800.0,
        7805.0,
        7810.0,
        7815.0,
        7820.0,
        7825.0,
        7830.0,
        7835.0,
        7840.0,
        7845.0,
        7850.0,
        7855.0,
        7860.0,
        7865.0,
        7870.0,
        7875.0,
        7880.0,
        7885.0,
        7890.0,
        7895.0,
        7900.0,
        7905.0,
        7910.0,
        7915.0,
        7920.0,
        7925.0,
        7930.0,
        7935.0,
        7940.0,
        7945.0,
        7950.0,
        7955.0,
        7960.0,
        7965.0,
        7970.0,
        7975.0,
        7980.0,
        7985.0,
        7990.0,
        7995.0,
        8000.0,
        8005.0,
        8010.0,
        8015.0,
        8020.0,
        8025.0,
        8030.0,
        8035.0,
        8040.0,
        8045.0,
        8050.0,
        8055.0,
        8060.0,
        8065.0,
        8070.0,
        8075.0,
        8080.0,
        8085.0,
        8090.0,
        8095.0,
        8100.0,
        8105.0,
        8110.0,
        8115.0,
        8120.0,
        8125.0,
        8130.0,
        8135.0,
        8140.0,
        8145.0,
        8150.0,
        8155.0,
        8160.0,
        8165.0,
        8170.0,
        8175.0,
        8180.0,
        8185.0,
        8190.0,
        8195.0,
        8200.0,
        8205.0,
        8210.0,
        8215.0,
        8220.0,
        8225.0,
        8230.0,
        8235.0,
        8240.0,
        8245.0,
        8250.0,
        8255.0,
        8260.0,
        8265.0,
        8270.0,
        8275.0,
        8280.0,
        8285.0,
        8290.0,
        8295.0,
        8300.0,
        8305.0,
        8310.0,
        8315.0,
        8320.0,
        8325.0,
        8330.0,
        8335.0,
        8340.0,
        8345.0,
        8350.0,
        8355.0,
        8360.0,
        8365.0,
        8370.0,
        8375.0,
        8380.0,
        8385.0,
        8390.0,
        8395.0,
        8400.0,
        8405.0,
        8410.0,
        8415.0,
        8420.0,
        8425.0,
        8430.0,
        8435.0,
        8440.0,
        8445.0,
        8450.0,
        8455.0,
        8460.0,
        8465.0,
        8470.0,
        8475.0,
        8480.0,
        8485.0,
        8490.0,
        8495.0,
        8500.0,
        8505.0,
        8510.0,
        8515.0,
        8520.0,
        8525.0,
        8530.0,
        8535.0,
        8540.0,
        8545.0,
        8550.0,
        8555.0,
        8560.0,
        8565.0,
        8570.0,
        8575.0,
        8580.0,
        8585.0,
        8590.0,
        8595.0,
        8600.0,
        8605.0,
        8610.0,
        8615.0,
        8620.0,
        8625.0,
        8630.0,
        8635.0,
        8640.0,
        8645.0,
        8650.0,
        8655.0,
        8660.0,
        8665.0,
        8670.0,
        8675.0,
        8680.0,
        8685.0,
        8690.0,
        8695.0,
        8700.0,
        8705.0,
        8710.0,
        8715.0,
        8720.0,
        8725.0,
        8730.0,
        8735.0,
        8740.0,
        8745.0,
        8750.0,
        8755.0,
        8760.0,
        8765.0,
        8770.0,
        8775.0,
        8780.0,
        8785.0,
        8790.0,
        8795.0,
        8800.0,
        8805.0,
        8810.0,
        8815.0,
        8820.0,
        8825.0,
        8830.0,
        8835.0,
        8840.0,
        8845.0,
        8850.0,
        8855.0,
        8860.0,
        8865.0,
        8870.0,
        8875.0,
        8880.0,
        8885.0,
        8890.0,
        8895.0,
        8900.0,
        8905.0,
        8910.0,
        8915.0,
        8920.0,
        8925.0,
        8930.0,
        8935.0,
        8940.0,
        8945.0,
        8950.0,
        8955.0,
        8960.0,
        8965.0,
        8970.0,
        8975.0,
        8980.0,
        8985.0,
        8990.0,
        8995.0,
        9000.0,
        9005.0,
        9010.0,
        9015.0,
        9020.0,
        9025.0,
        9030.0,
        9035.0,
        9040.0,
        9045.0,
        9050.0,
        9055.0,
        9060.0,
        9065.0,
        9070.0,
        9075.0,
        9080.0,
        9085.0,
        9090.0,
        9095.0,
        9100.0,
        9105.0,
        9110.0,
        9115.0,
        9120.0,
        9125.0,
        9130.0,
        9135.0,
        9140.0,
        9145.0,
        9150.0,
        9155.0,
        9160.0,
        9165.0,
        9170.0,
        9175.0,
        9180.0,
        9185.0,
        9190.0,
        9195.0,
        9200.0,
        9205.0,
        9210.0,
        9215.0,
        9220.0,
        9225.0,
        9230.0,
        9235.0,
        9240.0,
        9245.0,
        9250.0,
        9255.0,
        9260.0,
        9265.0,
        9270.0,
        9275.0,
        9280.0,
        9285.0,
        9290.0,
        9295.0,
        9300.0,
        9305.0,
        9310.0,
        9315.0,
        9320.0,
        9325.0,
        9330.0,
        9335.0,
        9340.0,
        9345.0,
        9350.0,
        9355.0,
        9360.0,
        9365.0,
        9370.0,
        9375.0,
        9380.0,
        9385.0,
        9390.0,
        9395.0,
        9400.0,
        9405.0,
        9410.0,
        9415.0,
        9420.0,
        9425.0,
        9430.0,
        9435.0,
        9440.0,
        9445.0,
        9450.0,
        9455.0,
        9460.0,
        9465.0,
        9470.0,
        9475.0,
        9480.0,
        9485.0,
        9490.0,
        9495.0,
        9500.0,
        9505.0,
        9510.0,
        9515.0,
        9520.0,
        9525.0,
        9530.0,
        9535.0,
        9540.0,
        9545.0,
        9550.0,
        9555.0,
        9560.0,
        9565.0,
        9570.0,
        9575.0,
        9580.0,
        9585.0,
        9590.0,
        9595.0,
        9600.0,
        9605.0,
        9610.0,
        9615.0,
        9620.0,
        9625.0,
        9630.0,
        9635.0,
        9640.0,
        9645.0,
        9650.0,
        9655.0,
        9660.0,
        9665.0,
        9670.0,
        9675.0,
        9680.0,
        9685.0,
        9690.0,
        9695.0,
        9700.0,
        9705.0,
        9710.0,
        9715.0,
        9720.0,
        9725.0,
        9730.0,
        9735.0,
        9740.0,
        9745.0,
        9750.0,
        9755.0,
        9760.0,
        9765.0,
        9770.0,
        9775.0,
        9780.0,
        9785.0,
        9790.0,
        9795.0,
        9800.0,
        9805.0,
        9810.0,
        9815.0,
        9820.0,
        9825.0,
        9830.0,
        9835.0,
        9840.0,
        9845.0,
        9850.0,
        9855.0,
        9860.0,
        9865.0,
        9870.0,
        9875.0,
        9880.0,
        9885.0,
        9890.0,
        9895.0,
        9900.0,
        9905.0,
        9910.0,
        9915.0,
        9920.0,
        9925.0,
        9930.0,
        9935.0,
        9940.0,
        9945.0,
        9950.0,
        9955.0,
        9960.0,
        9965.0,
        9970.0,
        9975.0,
        9980.0,
        9985.0,
        9990.0,
        9995.0,
        10000.0,
        10005.0,
        10010.0,
        10015.0,
        10020.0,
        10025.0,
        10030.0,
        10035.0,
        10040.0,
        10045.0,
        10050.0,
        10055.0,
        10060.0,
        10065.0,
        10070.0,
        10075.0,
        10080.0,
        10085.0,
        10090.0,
        10095.0,
        10100.0,
        10105.0,
        10110.0,
        10115.0,
        10120.0,
        10125.0,
        10130.0,
        10135.0,
        10140.0,
        10145.0,
        10150.0,
        10155.0,
        10160.0,
        10165.0,
        10170.0,
        10175.0,
        10180.0,
        10185.0,
        10190.0,
        10195.0,
        10200.0,
        10205.0,
        10210.0,
        10215.0,
        10220.0,
        10225.0,
        10230.0,
        10235.0,
        10240.0,
        10245.0,
        10250.0,
        10255.0,
        10260.0,
        10265.0,
        10270.0,
        10275.0,
        10280.0,
        10285.0,
        10290.0,
        10295.0,
        10300.0,
        10305.0,
        10310.0,
        10315.0,
        10320.0,
        10325.0,
        10330.0,
        10335.0,
        10340.0,
        10345.0,
        10350.0,
        10355.0,
        10360.0,
        10365.0,
        10370.0,
        10375.0,
        10380.0,
        10385.0,
        10390.0,
        10395.0,
        10400.0,
        10405.0,
        10410.0,
        10415.0,
        10420.0,
        10425.0,
        10430.0,
        10435.0,
        10440.0,
        10445.0,
        10450.0,
        10455.0,
        10460.0,
        10465.0,
        10470.0,
        10475.0,
        10480.0,
        10485.0,
        10490.0,
        10495.0,
        10500.0
      ],
      "units":"angstrom"
    },
    "values":{
      "value":[
        83.991211,
        58.341976,
        43.706703,
        39.075466,
        30.460142,
        28.460478,
        32.9487,
        32.454659,
        26.525326,
        24.047913,
        22.182455,
        18.142353,
        10.79134,
        7.417881,
        16.18437,
        24.913786,
        26.980165,
        31.844057,
        40.926273,
        40.057293,
        35.84251,
        35.299782,
        37.266758,
        40.648403,
        41.640537,
        41.284897,
        41.36734,
        40.43993,
        38.928764,
        34.775234,
        32.609489,
        36.622925,
        40.193348,
        40.442902,
        39.279583,
        38.039871,
        36.12944,
        33.394222,
        34.692959,
        35.74688,
        36.855816,
        36.848591,
        35.894787,
        36.019718,
        35.400425,
        34.026737,
        30.718807,
        24.371696,
        21.509176,
        22.982014,
        26.524004,
        30.074591,
        30.741201,
        29.008007,
        27.430361,
        25.95455,
        26.877003,
        28.68092,
        28.763025,
        28.633932,
        28.314594,
        26.855072,
        26.903009,
        27.814262,
        28.249901,
        28.510239,
        28.131914,
        28.700014,
        28.869814,
        26.757053,
        24.584356,
        25.620134,
        26.420876,
        25.650492,
        25.511909,
        21.497114,
        18.499964,
        15.293584,
        10.943223,
        10.738264,
        18.11491,
        21.846426,
        19.168955,
        17.697443,
        19.046017,
        20.009108,
        20.36821,
        21.41853,
        21.025904,
        19.713657,
        18.222679,
        16.509319,
        15.357357,
        15.334128,
        15.749368,
        16.278303,
        16.348309,
        17.461649,
        18.156507,
        19.481413,
        18.880507,
        17.006527,
        16.637274,
        17.332258,
        17.317175,
        19.205544,
        20.993013,
        20.13183,
        18.833366,
        18.083588,
        17.621319,
        17.526703,
        17.157167,
        16.268343,
        15.050303,
        16.087692,
        18.036402,
        19.004408,
        18.352493,
        18.100721,
        17.87985,
        18.876987,
        19.583643,
        19.155426,
        18.817421,
        18.527529,
        18.594889,
        17.45018,
        15.700681,
        17.133331,
        17.836798,
        17.368868,
        17.055376,
        17.757805,
        17.975607,
        17.64489,
        17.780716,
        17.672281,
        16.287937,
        15.501573,
        14.873184,
        14.838931,
        15.420743,
        15.779114,
        15.561238,
        15.400633,
        14.831485,
        13.656369,
        13.299153,
        13.767753,
        14.071351,
        13.878003,
        13.541056,
        12.937424,
        12.514433,
        12.439047,
        13.172738,
        13.498255,
        13.423195,
        13.400893,
        12.741068,
        12.202139,
        11.474635,
        11.028347,
        11.740742,
        12.772577,
        12.884361,
        12.53809,
        11.718955,
        11.002927,
        11.086151,
        11.397476,
        11.577798,
        11.769288,
        11.971156,
        12.269783,
        12.198345,
        11.93413,
        11.494199,
        11.378174,
        11.312434,
        11.23495,
        10.791256,
        10.469042,
        10.386005,
        10.660854,
        11.018745,
        10.726145,
        10.74175,
        9.984419,
        9.514001,
        9.582352,
        9.884217,
        10.154771,
        9.937338,
        9.836423,
        10.361991,
        10.316433,
        9.830153,
        9.7248,
        9.460282,
        9.401035,
        9.692337,
        9.582251,
        9.218072,
        8.786125,
        8.959036,
        9.283171,
        9.192223,
        9.384987,
        9.543755,
        9.178756,
        8.843973,
        8.880187,
        8.620966,
        8.768286,
        8.78376,
        8.543283,
        8.330256,
        8.460037,
        9.04123,
        9.068233,
        8.931007,
        8.863086,
        8.88707,
        8.853436,
        8.839423,
        8.57697,
        8.562578,
        8.614207,
        8.425666,
        8.340227,
        8.731196,
        9.006403,
        8.931766,
        8.976527,
        9.19428,
        9.412384,
        9.267853,
        9.088095,
        9.107154,
        9.145591,
        9.294605,
        9.12103,
        9.047461,
        9.279632,
        9.180378,
        8.948218,
        8.498903,
        8.574991,
        8.851083,
        8.935912,
        8.878848,
        8.70478,
        8.925096,
        8.918494,
        9.230927,
        9.47774,
        9.441823,
        9.352126,
        9.168669,
        9.410546,
        9.710077,
        9.517234,
        9.204398,
        8.926952,
        8.80502,
        8.854306,
        8.906132,
        9.009701,
        9.309333,
        9.277555,
        9.087378,
        8.936749,
        8.702408,
        8.595993,
        8.860003,
        9.167855,
        9.024759,
        8.846588,
        9.201798,
        8.914364,
        8.836687,
        8.795597,
        8.958926,
        9.019089,
        8.26182,
        7.676525,
        7.682712,
        8.348817,
        8.677408,
        8.622532,
        8.730873,
        8.825856,
        8.894806,
        8.923891,
        9.003876,
        9.031891,
        9.110029,
        8.897839,
        8.86926,
        8.866414,
        8.760268,
        8.535884,
        8.527098,
        8.566699,
        8.413662,
        8.371382,
        8.576406,
        8.294156,
        8.219975,
        8.538577,
        8.339112,
        8.29732,
        8.177495,
        8.053123,
        8.131171,
        8.142927,
        8.094041,
        8.080187,
        8.301506,
        8.117505,
        7.968515,
        8.245002,
        8.09972,
        8.065144,
        8.144164,
        8.043444,
        7.793729,
        7.477939,
        7.025463,
        6.988256,
        7.266552,
        7.657355,
        8.208179,
        8.156998,
        7.52939,
        7.341627,
        7.635674,
        7.753885,
        7.749755,
        7.515635,
        7.487709,
        7.499716,
        7.557413,
        7.569136,
        7.578549,
        7.373263,
        7.281291,
        7.39134,
        7.383855,
        7.224257,
        7.189029,
        7.513344,
        7.573295,
        7.284534,
        7.102052,
        7.140976,
        7.099023,
        7.177653,
        7.112934,
        7.127072,
        7.108953,
        7.006405,
        6.951292,
        6.943677,
        7.040808,
        6.798617,
        6.66173,
        6.60716,
        6.592566,
        6.500528,
        6.552042,
        6.620212,
        6.645498,
        6.703362,
        6.510348,
        6.286079,
        6.393615,
        6.456138,
        6.369274,
        6.389812,
        6.243346,
        6.093087,
        6.136297,
        6.051019,
        6.124623,
        6.140869,
        6.108706,
        6.237288,
        6.19417,
        6.344122,
        6.411517,
        6.470278,
        6.225576,
        6.160236,
        6.346509,
        6.121843,
        6.232697,
        6.31373,
        6.588082,
        6.481061,
        5.943335,
        6.252533,
        6.334218,
        6.219466,
        6.085032,
        6.069029,
        6.030931,
        6.145948,
        6.038697,
        6.128222,
        6.156649,
        6.028508,
        5.85785,
        5.777456,
        5.785494,
        5.842176,
        5.890514,
        5.881178,
        5.812674,
        5.701077,
        5.584894,
        5.498359,
        5.436187,
        5.3843,
        5.332995,
        5.281811,
        5.262888,
        5.29368,
        5.300287,
        5.220912,
        5.133519,
        5.121613,
        5.151102,
        5.16844,
        5.15988,
        5.127996,
        5.100863,
        5.100404,
        5.098454,
        5.071576,
        5.065368,
        5.1141,
        5.137718,
        5.064087,
        4.967095,
        4.930605,
        4.932366,
        4.929243,
        4.900676,
        4.841495,
        4.785507,
        4.762452,
        4.746817,
        4.709932,
        4.665764,
        4.631039,
        4.590883,
        4.532766,
        4.485112,
        4.473978,
        4.474972,
        4.459296,
        4.43095,
        4.401775,
        4.382171,
        4.377268,
        4.372572,
        4.355721,
        4.342492,
        4.347295,
        4.206489,
        4.184497,
        4.127238,
        4.110792,
        4.131583,
        4.169173,
        4.116663,
        4.07448,
        4.028982,
        4.048099,
        4.058836,
        4.056543,
        4.040579,
        4.033162,
        4.014059,
        3.931056,
        3.95714,
        3.961186,
        3.930813,
        3.914643,
        3.788541,
        3.843451,
        3.829932,
        3.800066,
        3.756657,
        3.723473,
        3.80314,
        3.773479,
        3.774057,
        3.83989,
        3.822666,
        3.721899,
        3.702334,
        3.689055,
        3.65244,
        3.684241,
        3.609218,
        3.501901,
        3.481097,
        3.430816,
        3.491454,
        3.567271,
        3.56442,
        3.563608,
        3.530563,
        3.394459,
        3.651127,
        3.611125,
        3.311299,
        3.505579,
        3.674727,
        3.500397,
        3.274069,
        3.521977,
        3.785457,
        3.813995,
        3.702639,
        3.371881,
        3.33238,
        3.623745,
        3.820701,
        3.722243,
        3.598572,
        3.715136,
        3.466755,
        3.080601,
        3.404709,
        3.663825,
        3.674111,
        3.624934,
        3.595353,
        3.589853,
        3.55725,
        3.550603,
        3.420497,
        3.137027,
        2.987067,
        3.341944,
        3.546871,
        3.572665,
        3.531567,
        3.518345,
        3.396551,
        3.331566,
        3.273467,
        3.293277,
        3.387661,
        3.347561,
        3.321512,
        3.298058,
        3.178529,
        2.839965,
        2.635243,
        3.015003,
        3.163583,
        3.196695,
        3.231355,
        3.156948,
        3.123779,
        3.080456,
        3.04745,
        3.075954,
        2.99739,
        2.864796,
        2.994575,
        3.041397,
        2.992532,
        3.011298,
        3.043561,
        3.023485,
        2.959635,
        2.889145,
        2.739165,
        2.727864,
        2.768324,
        2.722537,
        2.668288,
        2.548212,
        2.301575,
        2.47289,
        2.68726,
        2.628256,
        2.608124,
        2.713038,
        2.735974,
        2.72245,
        2.662035,
        2.648167,
        2.704111,
        2.685269,
        2.655181,
        2.658079,
        2.626352,
        2.59382,
        2.58104,
        2.535429,
        2.53295,
        2.562813,
        2.575822,
        2.595487,
        2.582174,
        2.536296,
        2.532994,
        2.530293,
        2.490763,
        2.49176,
        2.508039,
        2.495138,
        2.466378,
        2.421117,
        2.422694,
        2.400561,
        2.384946,
        2.333797,
        2.342592,
        2.343555,
        2.371948,
        2.38471,
        2.38191,
        2.370681,
        2.367161,
        2.321203,
        2.298087,
        2.359084,
        2.311473,
        2.138608,
        1.893682,
        1.956856,
        2.091884,
        2.254616,
        2.302825,
        2.276582,
        2.24907,
        2.249898,
        2.244073,
        2.155753,
        2.148325,
        2.218387,
        2.230262,
        2.207865,
        2.154986,
        2.04368,
        2.020675,
        2.001877,
        1.969359,
        2.008896,
        2.064371,
        2.086018,
        2.097351,
        2.13064,
        2.124426,
        2.040494,
        1.896127,
        1.981184,
        2.064311,
        2.104792,
        2.115897,
        2.092575,
        2.079363,
        2.083913,
        2.064219,
        2.074564,
        2.076063,
        2.080494,
        2.049374,
        2.051121,
        2.047559,
        2.012884,
        1.953868,
        1.980461,
        2.01904,
        1.932682,
        1.925248,
        1.930833,
        1.971982,
        1.944026,
        1.901461,
        1.887887,
        1.918642,
        1.904137,
        1.897478,
        1.929255,
        1.933079,
        1.933017,
        1.88843,
        1.84407,
        1.787035,
        1.742986,
        1.697199,
        1.830822,
        1.872181,
        1.900635,
        1.899409,
        1.853559,
        1.860101,
        1.89881,
        1.895241,
        1.858884,
        1.81673,
        1.816902,
        1.798217,
        1.771389,
        1.787355,
        1.766693,
        1.783783,
        1.798982,
        1.790512,
        1.779341,
        1.773027,
        1.74227,
        1.724447,
        1.714683,
        1.741215,
        1.727299,
        1.732903,
        1.734018,
        1.740915,
        1.729185,
        1.692114,
        1.707245,
        1.69289,
        1.659161,
        1.662944,
        1.682334,
        1.678061,
        1.707123,
        1.692524,
        1.665016,
        1.638327,
        1.51284,
        1.379514,
        1.484517,
        1.55991,
        1.564177,
        1.575309,
        1.586608,
        1.593041,
        1.597581,
        1.604887,
        1.606919,
        1.583144,
        1.573143,
        1.492221,
        1.493372,
        1.575376,
        1.598357,
        1.586318,
        1.569291,
        1.576081,
        1.571661,
        1.537736,
        1.528882,
        1.536986,
        1.533229,
        1.537537,
        1.552698,
        1.550924,
        1.540207,
        1.521736,
        1.485805,
        1.46774,
        1.428502,
        1.451899,
        1.462717,
        1.467293,
        1.465017,
        1.467668,
        1.42489,
        1.42432,
        1.438346,
        1.428948,
        1.428226,
        1.445209,
        1.439518,
        1.433318,
        1.421076,
        1.413112,
        1.410433,
        1.418847,
        1.41126,
        1.38987,
        1.389416,
        1.385316,
        1.379823,
        1.370873,
        1.379976,
        1.363613,
        1.36217,
        1.36324,
        1.323219,
        1.322875,
        1.331195,
        1.333335,
        1.34159,
        1.331634,
        1.336369,
        1.32887,
        1.322982,
        1.312086,
        1.296765,
        1.303725,
        1.29104,
        1.271022,
        1.275048,
        1.26999,
        1.268165,
        1.272974,
        1.257448,
        1.249458,
        1.24672,
        1.24241,
        1.231679,
        1.216457,
        1.209217,
        1.212514,
        1.219171,
        1.217473,
        1.220661,
        1.218215,
        1.211362,
        1.19014,
        1.189535,
        1.190948,
        1.196526,
        1.192786,
        1.184317,
        1.180802,
        1.179686,
        1.168744,
        1.171237,
        1.158677,
        1.153507,
        1.144207,
        1.140191,
        1.145223,
        1.136454,
        1.133851,
        1.127236,
        1.124126,
        1.12712,
        1.111564,
        1.108899,
        1.108723,
        1.108378,
        1.109415,
        1.089528,
        1.079592,
        1.070121,
        1.065616,
        1.064027,
        1.071842,
        1.067931,
        1.049288,
        1.058089,
        1.055497,
        1.042082,
        1.026295,
        1.032524,
        1.051204,
        1.03677,
        1.026456,
        1.02856,
        1.026361,
        1.01136,
        1.013328,
        1.002733,
        0.992628,
        1.003872,
        1.011384,
        0.997303,
        0.991585,
        0.997305,
        0.992045,
        1.000234,
        0.998138,
        0.982967,
        0.978389,
        0.973537,
        0.971793,
        0.971373,
        0.967718,
        0.952933,
        0.955313,
        0.956124,
        0.950433,
        0.95901,
        0.961053,
        0.94633,
        0.937758,
        0.936136,
        0.927443,
        0.915618,
        0.914695,
        0.910186,
        0.907819,
        0.91301,
        0.913871,
        0.895805,
        0.891503,
        0.894037,
        0.896849,
        0.889238,
        0.876181,
        0.886218,
        0.888555,
        0.879743,
        0.85236,
        0.854147,
        0.869816,
        0.871592,
        0.863536,
        0.85275,
        0.84306,
        0.821995,
        0.778043,
        0.802352,
        0.829856,
        0.812712,
        0.818107,
        0.835488,
        0.830737,
        0.829036,
        0.840079,
        0.834683,
        0.836247,
        0.834065,
        0.823929,
        0.807329,
        0.806076,
        0.814935,
        0.820958,
        0.813275,
        0.77918,
        0.726257,
        0.760471,
        0.736892,
        0.675643,
        0.705813,
        0.762006,
        0.81099,
        0.797849,
        0.798042,
        0.787113,
        0.784694,
        0.78657,
        0.78785,
        0.774935,
        0.765425,
        0.766903,
        0.772856,
        0.770968,
        0.763448,
        0.755963,
        0.753984,
        0.755267,
        0.748019,
        0.743352,
        0.749035,
        0.750537,
        0.742588,
        0.735079,
        0.737198,
        0.737755,
        0.737112,
        0.739269,
        0.725751,
        0.727294,
        0.731466,
        0.726355,
        0.721353,
        0.724046,
        0.718618,
        0.716113,
        0.711146,
        0.706452,
        0.710579,
        0.710137,
        0.70603,
        0.704713,
        0.704826,
        0.703552,
        0.701751,
        0.70008,
        0.696211,
        0.692654,
        0.688991,
        0.687219,
        0.684793,
        0.686198,
        0.685644,
        0.680237,
        0.672916,
        0.66603,
        0.662456,
        0.668007,
        0.666538,
        0.666962,
        0.666152,
        0.66379,
        0.660831,
        0.663163,
        0.662545,
        0.660625,
        0.659425,
        0.655148,
        0.654137,
        0.655845,
        0.654775,
        0.654336,
        0.652066,
        0.644673,
        0.634148,
        0.629828,
        0.619219,
        0.589328,
        0.590231,
        0.61935,
        0.627249,
        0.624678,
        0.623615,
        0.621757,
        0.619676,
        0.619538,
        0.622039,
        0.623013,
        0.624393,
        0.624507,
        0.620428,
        0.616459,
        0.614491,
        0.613124,
        0.610053,
        0.608116,
        0.602873,
        0.598265,
        0.602223,
        0.603675,
        0.601893,
        0.599568,
        0.598291,
        0.596361,
        0.593064,
        0.593869,
        0.596156,
        0.594921,
        0.592615,
        0.591829,
        0.586009,
        0.585028,
        0.584382,
        0.580554,
        0.577366,
        0.576348,
        0.573746,
        0.573943,
        0.571296,
        0.56727,
        0.569078,
        0.575298,
        0.57622,
        0.574215,
        0.566734,
        0.569971,
        0.56802,
        0.562076,
        0.559693,
        0.563662,
        0.559979,
        0.5532,
        0.542518,
        0.527249,
        0.516992,
        0.538776,
        0.550957,
        0.550775,
        0.553156,
        0.553026,
        0.552892,
        0.554369,
        0.555534,
        0.548545,
        0.545383,
        0.547689,
        0.546933,
        0.541921,
        0.541186,
        0.536947,
        0.534802,
        0.53522,
        0.530652,
        0.530196,
        0.529105,
        0.52319,
        0.496038,
        0.480634,
        0.510841,
        0.525442,
        0.522119,
        0.520989,
        0.521375,
        0.519348,
        0.516647,
        0.515924,
        0.513895,
        0.511097,
        0.510474,
        0.508254,
        0.506111,
        0.505967,
        0.505239,
        0.503199,
        0.506372,
        0.503462,
        0.501305,
        0.498651,
        0.496357,
        0.497714,
        0.49693,
        0.497328,
        0.499876,
        0.498583,
        0.495993,
        0.491746,
        0.489241,
        0.485454,
        0.484371,
        0.48135,
        0.480096,
        0.478813,
        0.477639,
        0.476484,
        0.475334,
        0.474201,
        0.473069,
        0.472042,
        0.470952,
        0.469891,
        0.468788,
        0.467698,
        0.466612,
        0.465529,
        0.464438,
        0.463401,
        0.46243,
        0.461599,
        0.460783,
        0.459951,
        0.459082,
        0.458221,
        0.457322,
        0.456414,
        0.455539,
        0.454585,
        0.461502,
        0.457901,
        0.456762,
        0.452033,
        0.450186,
        0.450125,
        0.450093,
        0.452742,
        0.449572,
        0.448063,
        0.443391,
        0.443038,
        0.447543,
        0.447013,
        0.446715,
        0.444594,
        0.438399,
        0.430189,
        0.40906,
        0.420306,
        0.440495,
        0.441244,
        0.439171,
        0.437651,
        0.438296,
        0.438076,
        0.437816,
        0.438099,
        0.438776,
        0.439244,
        0.439531,
        0.438864,
        0.435972,
        0.434126,
        0.433394,
        0.433338,
        0.433911,
        0.432755,
        0.425335,
        0.409858,
        0.395951,
        0.392328,
        0.386158,
        0.386495,
        0.392859,
        0.391919,
        0.393026,
        0.413332,
        0.425431,
        0.426625,
        0.423048,
        0.418453,
        0.40622,
        0.402399,
        0.398304,
        0.39921,
        0.39584,
        0.403064,
        0.394689,
        0.391939,
        0.377523,
        0.371229,
        0.383096,
        0.381441,
        0.384775,
        0.390027,
        0.382962,
        0.386007,
        0.384372,
        0.385167,
        0.390013,
        0.387225,
        0.385878,
        0.386017,
        0.383198,
        0.381899,
        0.382184,
        0.378803,
        0.37598,
        0.374512,
        0.374507,
        0.373936,
        0.371345,
        0.369469,
        0.367072,
        0.367755,
        0.367593,
        0.368184,
        0.368157,
        0.364456,
        0.362413,
        0.361001,
        0.36096,
        0.360209,
        0.358267,
        0.358875,
        0.358512,
        0.358299,
        0.35863,
        0.35739,
        0.355555,
        0.35338,
        0.3526,
        0.351057,
        0.349864,
        0.348686,
        0.348169,
        0.348125,
        0.34658,
        0.347293,
        0.345393,
        0.345948,
        0.344053,
        0.343865,
        0.342351,
        0.341733,
        0.340993,
        0.340267,
        0.339527,
        0.338801,
        0.338105,
        0.337381,
        0.336704,
        0.335992,
        0.335315,
        0.334589,
        0.333875,
        0.33313,
        0.332384,
        0.331633,
        0.33088,
        0.330124,
        0.329366,
        0.328608,
        0.327851,
        0.327097,
        0.326347,
        0.325601,
        0.32486,
        0.324125,
        0.323398,
        0.322642,
        0.321834,
        0.32104,
        0.320215,
        0.319396,
        0.318629,
        0.317828,
        0.317012,
        0.316173,
        0.315339,
        0.314435,
        0.313522,
        0.313569,
        0.313942,
        0.312803,
        0.312655,
        0.311593,
        0.30943,
        0.309441,
        0.308805,
        0.308543,
        0.30767,
        0.306665,
        0.306526,
        0.304594,
        0.304397,
        0.304273,
        0.30242,
        0.301111,
        0.301376,
        0.301612,
        0.300635,
        0.299371,
        0.298802,
        0.299534,
        0.298981,
        0.297996,
        0.297188,
        0.296212,
        0.295076,
        0.293335,
        0.294057,
        0.294348,
        0.290977,
        0.290978,
        0.291349,
        0.290516,
        0.290246,
        0.289539,
        0.28856,
        0.286602,
        0.287981,
        0.288825,
        0.287663,
        0.286459,
        0.285537,
        0.282772,
        0.280796,
        0.282221,
        0.281685,
        0.281498,
        0.281086,
        0.281336,
        0.280087,
        0.276841,
        0.276895,
        0.275903,
        0.275244,
        0.275202,
        0.273973,
        0.273999,
        0.273939,
        0.273504,
        0.273922,
        0.273255,
        0.274067,
        0.272874,
        0.271967,
        0.272643,
        0.272374,
        0.272226,
        0.272006,
        0.271637,
        0.270815,
        0.270376,
        0.27396,
        0.271596,
        0.269754,
        0.270026,
        0.269322,
        0.267141,
        0.261723,
        0.261358,
        0.259592,
        0.254855,
        0.249603,
        0.250151,
        0.241241,
        0.248008,
        0.254376,
        0.247542,
        0.253701,
        0.255531,
        0.254344,
        0.253529,
        0.260448,
        0.265599,
        0.26284,
        0.258008,
        0.24752,
        0.227579,
        0.236849,
        0.252766,
        0.254817,
        0.257295,
        0.254135,
        0.247395,
        0.251125,
        0.251128,
        0.243441,
        0.241158,
        0.243162,
        0.24053,
        0.240285,
        0.243394,
        0.240302,
        0.241641,
        0.243935,
        0.237723,
        0.239178,
        0.242457,
        0.241026,
        0.238913,
        0.239726,
        0.241113,
        0.238925,
        0.237845,
        0.236807,
        0.238089,
        0.236612,
        0.237441,
        0.237428,
        0.236663,
        0.236236,
        0.234994,
        0.23492,
        0.23363,
        0.232143,
        0.23181,
        0.23353,
        0.232459,
        0.23021,
        0.228566,
        0.228417,
        0.230008,
        0.231816,
        0.230361,
        0.226342,
        0.226616,
        0.227776,
        0.228692,
        0.229216,
        0.229247,
        0.226227,
        0.221501,
        0.218413,
        0.220886,
        0.223564,
        0.225299,
        0.22542,
        0.223703,
        0.221914,
        0.22006,
        0.215871,
        0.213095,
        0.217894,
        0.22139,
        0.221423,
        0.222026,
        0.220207,
        0.217562,
        0.215072,
        0.213325,
        0.209473,
        0.204574,
        0.207822,
        0.213673,
        0.217429,
        0.216916,
        0.216951,
        0.216716,
        0.215925,
        0.215284,
        0.214122,
        0.211843,
        0.208943,
        0.205367,
        0.198626,
        0.197694,
        0.204405,
        0.209647,
        0.211248,
        0.211127,
        0.213183,
        0.214254,
        0.213205,
        0.213398,
        0.213036,
        0.209873,
        0.21019,
        0.208146,
        0.205182,
        0.202223,
        0.197877,
        0.190012,
        0.188671,
        0.1961,
        0.201463,
        0.201763,
        0.200411,
        0.200116,
        0.200772,
        0.203542,
        0.203753,
        0.203283,
        0.20392,
        0.203436,
        0.202457,
        0.203136,
        0.200211,
        0.200158,
        0.199311,
        0.198274,
        0.195493,
        0.191409,
        0.187747,
        0.182089,
        0.175612,
        0.180873,
        0.188113,
        0.192126,
        0.193012,
        0.194647,
        0.195171,
        0.195402,
        0.195529,
        0.195682,
        0.194914,
        0.193697,
        0.19407,
        0.192274,
        0.19285,
        0.194194,
        0.192569,
        0.191687,
        0.18837,
        0.189589,
        0.18399,
        0.184541,
        0.183574,
        0.184061,
        0.179943,
        0.167705,
        0.169611,
        0.173869,
        0.176076,
        0.177215,
        0.17347,
        0.176936,
        0.181857,
        0.187353,
        0.192207,
        0.194266,
        0.192655,
        0.190871,
        0.187214,
        0.184642,
        0.179899,
        0.177676,
        0.17676,
        0.17854,
        0.177963,
        0.179279,
        0.180337,
        0.181633,
        0.182676,
        0.184232,
        0.187327,
        0.186079,
        0.18607,
        0.18278,
        0.178845,
        0.17875,
        0.182192,
        0.178055,
        0.170749,
        0.173457,
        0.176629,
        0.177011,
        0.173579,
        0.175554,
        0.18008,
        0.180062,
        0.179621,
        0.179885,
        0.178091,
        0.174904,
        0.171558,
        0.17044,
        0.168415,
        0.165054,
        0.167408,
        0.172565,
        0.175195,
        0.175175,
        0.178304,
        0.177226,
        0.178084,
        0.178789,
        0.176324,
        0.172034,
        0.172679,
        0.172495,
        0.169948,
        0.165196,
        0.162988,
        0.159681,
        0.154191,
        0.14803,
        0.149376,
        0.153516,
        0.152087,
        0.147043,
        0.140747,
        0.152253,
        0.146675,
        0.145107,
        0.153692,
        0.15171,
        0.15762,
        0.158079,
        0.163879,
        0.174769,
        0.181346,
        0.175246,
        0.169306,
        0.165915,
        0.163253,
        0.161123,
        0.155557,
        0.144903,
        0.154074,
        0.143967,
        0.140566,
        0.152794,
        0.150574,
        0.145038,
        0.150132,
        0.157633,
        0.160083,
        0.158606,
        0.156778,
        0.164772,
        0.152571,
        0.142939,
        0.151177,
        0.161838,
        0.157896,
        0.144185,
        0.142414,
        0.138081,
        0.142167,
        0.143435,
        0.136206,
        0.138413,
        0.138827,
        0.143716,
        0.145532,
        0.144629,
        0.153148,
        0.149025,
        0.143011,
        0.136697,
        0.135,
        0.141015,
        0.141261,
        0.141344,
        0.142549,
        0.141753,
        0.134136,
        0.138617,
        0.137372,
        0.133943,
        0.136329,
        0.136826,
        0.140818,
        0.14029,
        0.136049,
        0.135922,
        0.136805,
        0.135941,
        0.134307,
        0.135187,
        0.138001,
        0.136789,
        0.137213,
        0.135798,
        0.132511,
        0.133397,
        0.130805,
        0.132796,
        0.130375,
        0.13146,
        0.131608,
        0.130996,
        0.13063,
        0.130585,
        0.129904,
        0.132172,
        0.131279,
        0.130906,
        0.129896,
        0.131065,
        0.127755,
        0.128484,
        0.13199,
        0.130296,
        0.129711,
        0.129928,
        0.126477,
        0.128153,
        0.130596,
        0.131206,
        0.131848,
        0.134302,
        0.13572,
        0.134984,
        0.132501,
        0.130619,
        0.127387,
        0.127172,
        0.12662,
        0.127044,
        0.127554,
        0.130093,
        0.131332,
        0.129336,
        0.129542,
        0.12801,
        0.126712,
        0.127675,
        0.128518,
        0.127393,
        0.126051,
        0.12503,
        0.126556,
        0.124552,
        0.125424,
        0.123059,
        0.12606,
        0.123985,
        0.125528,
        0.128298,
        0.126648,
        0.12456,
        0.123366,
        0.119442,
        0.11714,
        0.118549,
        0.115481,
        0.114814,
        0.117152,
        0.117385,
        0.113316,
        0.10939,
        0.109915,
        0.112466,
        0.113475,
        0.113179,
        0.116125,
        0.116861,
        0.118719,
        0.118864,
        0.120131,
        0.117923,
        0.115992,
        0.11964,
        0.111064,
        0.115537,
        0.11548,
        0.115357,
        0.113275,
        0.117078,
        0.116711,
        0.112719,
        0.112702,
        0.112046,
        0.110687,
        0.109095,
        0.107876,
        0.107634,
        0.108716,
        0.110433,
        0.111838,
        0.111984,
        0.110291,
        0.107642,
        0.105287,
        0.104477,
        0.106054,
        0.10923,
        0.112813,
        0.115606,
        0.116675,
        0.11612,
        0.1143,
        0.111574,
        0.108329,
        0.105062,
        0.102296,
        0.100555,
        0.100171,
        0.100702,
        0.101514,
        0.101972,
        0.101975,
        0.101452,
        0.100928,
        0.100648,
        0.100779,
        0.101149,
        0.101507,
        0.101603,
        0.101257,
        0.100592,
        0.099802,
        0.099082,
        0.098591,
        0.098353,
        0.098353,
        0.098579,
        0.09899,
        0.099425,
        0.099699,
        0.099622,
        0.099083,
        0.098268,
        0.097437,
        0.096853,
        0.0967,
        0.096857,
        0.097126,
        0.097308,
        0.097259,
        0.097049,
        0.096802,
        0.09664,
        0.096642,
        0.096714,
        0.096715,
        0.096508,
        0.095999,
        0.095281,
        0.094492,
        0.093771
      ],
      "range":1
    }
  }
]
