[
  {
    "model":"Star, type M1(iii)",
    "name":"Star, type M1(iii)",
    "type":"WB_REF",
    "dataQualityMarker":3,
    "dataSource":"https://www.eso.org/sci/facilities/paranal/decommissioned/isaac/tools/lib.html",
    "manufacturer":"A. Pickles (A.J. Pickles, PASP 110,863, 1998)",
    "version":1,
    "wavelength":{
      "value":[
        1150.0,
        1155.0,
        1160.0,
        1165.0,
        1170.0,
        1175.0,
        1180.0,
        1185.0,
        1190.0,
        1195.0,
        1200.0,
        1205.0,
        1210.0,
        1215.0,
        1220.0,
        1225.0,
        1230.0,
        1235.0,
        1240.0,
        1245.0,
        1250.0,
        1255.0,
        1260.0,
        1265.0,
        1270.0,
        1275.0,
        1280.0,
        1285.0,
        1290.0,
        1295.0,
        1300.0,
        1305.0,
        1310.0,
        1315.0,
        1320.0,
        1325.0,
        1330.0,
        1335.0,
        1340.0,
        1345.0,
        1350.0,
        1355.0,
        1360.0,
        1365.0,
        1370.0,
        1375.0,
        1380.0,
        1385.0,
        1390.0,
        1395.0,
        1400.0,
        1405.0,
        1410.0,
        1415.0,
        1420.0,
        1425.0,
        1430.0,
        1435.0,
        1440.0,
        1445.0,
        1450.0,
        1455.0,
        1460.0,
        1465.0,
        1470.0,
        1475.0,
        1480.0,
        1485.0,
        1490.0,
        1495.0,
        1500.0,
        1505.0,
        1510.0,
        1515.0,
        1520.0,
        1525.0,
        1530.0,
        1535.0,
        1540.0,
        1545.0,
        1550.0,
        1555.0,
        1560.0,
        1565.0,
        1570.0,
        1575.0,
        1580.0,
        1585.0,
        1590.0,
        1595.0,
        1600.0,
        1605.0,
        1610.0,
        1615.0,
        1620.0,
        1625.0,
        1630.0,
        1635.0,
        1640.0,
        1645.0,
        1650.0,
        1655.0,
        1660.0,
        1665.0,
        1670.0,
        1675.0,
        1680.0,
        1685.0,
        1690.0,
        1695.0,
        1700.0,
        1705.0,
        1710.0,
        1715.0,
        1720.0,
        1725.0,
        1730.0,
        1735.0,
        1740.0,
        1745.0,
        1750.0,
        1755.0,
        1760.0,
        1765.0,
        1770.0,
        1775.0,
        1780.0,
        1785.0,
        1790.0,
        1795.0,
        1800.0,
        1805.0,
        1810.0,
        1815.0,
        1820.0,
        1825.0,
        1830.0,
        1835.0,
        1840.0,
        1845.0,
        1850.0,
        1855.0,
        1860.0,
        1865.0,
        1870.0,
        1875.0,
        1880.0,
        1885.0,
        1890.0,
        1895.0,
        1900.0,
        1905.0,
        1910.0,
        1915.0,
        1920.0,
        1925.0,
        1930.0,
        1935.0,
        1940.0,
        1945.0,
        1950.0,
        1955.0,
        1960.0,
        1965.0,
        1970.0,
        1975.0,
        1980.0,
        1985.0,
        1990.0,
        1995.0,
        2000.0,
        2005.0,
        2010.0,
        2015.0,
        2020.0,
        2025.0,
        2030.0,
        2035.0,
        2040.0,
        2045.0,
        2050.0,
        2055.0,
        2060.0,
        2065.0,
        2070.0,
        2075.0,
        2080.0,
        2085.0,
        2090.0,
        2095.0,
        2100.0,
        2105.0,
        2110.0,
        2115.0,
        2120.0,
        2125.0,
        2130.0,
        2135.0,
        2140.0,
        2145.0,
        2150.0,
        2155.0,
        2160.0,
        2165.0,
        2170.0,
        2175.0,
        2180.0,
        2185.0,
        2190.0,
        2195.0,
        2200.0,
        2205.0,
        2210.0,
        2215.0,
        2220.0,
        2225.0,
        2230.0,
        2235.0,
        2240.0,
        2245.0,
        2250.0,
        2255.0,
        2260.0,
        2265.0,
        2270.0,
        2275.0,
        2280.0,
        2285.0,
        2290.0,
        2295.0,
        2300.0,
        2305.0,
        2310.0,
        2315.0,
        2320.0,
        2325.0,
        2330.0,
        2335.0,
        2340.0,
        2345.0,
        2350.0,
        2355.0,
        2360.0,
        2365.0,
        2370.0,
        2375.0,
        2380.0,
        2385.0,
        2390.0,
        2395.0,
        2400.0,
        2405.0,
        2410.0,
        2415.0,
        2420.0,
        2425.0,
        2430.0,
        2435.0,
        2440.0,
        2445.0,
        2450.0,
        2455.0,
        2460.0,
        2465.0,
        2470.0,
        2475.0,
        2480.0,
        2485.0,
        2490.0,
        2495.0,
        2500.0,
        2505.0,
        2510.0,
        2515.0,
        2520.0,
        2525.0,
        2530.0,
        2535.0,
        2540.0,
        2545.0,
        2550.0,
        2555.0,
        2560.0,
        2565.0,
        2570.0,
        2575.0,
        2580.0,
        2585.0,
        2590.0,
        2595.0,
        2600.0,
        2605.0,
        2610.0,
        2615.0,
        2620.0,
        2625.0,
        2630.0,
        2635.0,
        2640.0,
        2645.0,
        2650.0,
        2655.0,
        2660.0,
        2665.0,
        2670.0,
        2675.0,
        2680.0,
        2685.0,
        2690.0,
        2695.0,
        2700.0,
        2705.0,
        2710.0,
        2715.0,
        2720.0,
        2725.0,
        2730.0,
        2735.0,
        2740.0,
        2745.0,
        2750.0,
        2755.0,
        2760.0,
        2765.0,
        2770.0,
        2775.0,
        2780.0,
        2785.0,
        2790.0,
        2795.0,
        2800.0,
        2805.0,
        2810.0,
        2815.0,
        2820.0,
        2825.0,
        2830.0,
        2835.0,
        2840.0,
        2845.0,
        2850.0,
        2855.0,
        2860.0,
        2865.0,
        2870.0,
        2875.0,
        2880.0,
        2885.0,
        2890.0,
        2895.0,
        2900.0,
        2905.0,
        2910.0,
        2915.0,
        2920.0,
        2925.0,
        2930.0,
        2935.0,
        2940.0,
        2945.0,
        2950.0,
        2955.0,
        2960.0,
        2965.0,
        2970.0,
        2975.0,
        2980.0,
        2985.0,
        2990.0,
        2995.0,
        3000.0,
        3005.0,
        3010.0,
        3015.0,
        3020.0,
        3025.0,
        3030.0,
        3035.0,
        3040.0,
        3045.0,
        3050.0,
        3055.0,
        3060.0,
        3065.0,
        3070.0,
        3075.0,
        3080.0,
        3085.0,
        3090.0,
        3095.0,
        3100.0,
        3105.0,
        3110.0,
        3115.0,
        3120.0,
        3125.0,
        3130.0,
        3135.0,
        3140.0,
        3145.0,
        3150.0,
        3155.0,
        3160.0,
        3165.0,
        3170.0,
        3175.0,
        3180.0,
        3185.0,
        3190.0,
        3195.0,
        3200.0,
        3205.0,
        3210.0,
        3215.0,
        3220.0,
        3225.0,
        3230.0,
        3235.0,
        3240.0,
        3245.0,
        3250.0,
        3255.0,
        3260.0,
        3265.0,
        3270.0,
        3275.0,
        3280.0,
        3285.0,
        3290.0,
        3295.0,
        3300.0,
        3305.0,
        3310.0,
        3315.0,
        3320.0,
        3325.0,
        3330.0,
        3335.0,
        3340.0,
        3345.0,
        3350.0,
        3355.0,
        3360.0,
        3365.0,
        3370.0,
        3375.0,
        3380.0,
        3385.0,
        3390.0,
        3395.0,
        3400.0,
        3405.0,
        3410.0,
        3415.0,
        3420.0,
        3425.0,
        3430.0,
        3435.0,
        3440.0,
        3445.0,
        3450.0,
        3455.0,
        3460.0,
        3465.0,
        3470.0,
        3475.0,
        3480.0,
        3485.0,
        3490.0,
        3495.0,
        3500.0,
        3505.0,
        3510.0,
        3515.0,
        3520.0,
        3525.0,
        3530.0,
        3535.0,
        3540.0,
        3545.0,
        3550.0,
        3555.0,
        3560.0,
        3565.0,
        3570.0,
        3575.0,
        3580.0,
        3585.0,
        3590.0,
        3595.0,
        3600.0,
        3605.0,
        3610.0,
        3615.0,
        3620.0,
        3625.0,
        3630.0,
        3635.0,
        3640.0,
        3645.0,
        3650.0,
        3655.0,
        3660.0,
        3665.0,
        3670.0,
        3675.0,
        3680.0,
        3685.0,
        3690.0,
        3695.0,
        3700.0,
        3705.0,
        3710.0,
        3715.0,
        3720.0,
        3725.0,
        3730.0,
        3735.0,
        3740.0,
        3745.0,
        3750.0,
        3755.0,
        3760.0,
        3765.0,
        3770.0,
        3775.0,
        3780.0,
        3785.0,
        3790.0,
        3795.0,
        3800.0,
        3805.0,
        3810.0,
        3815.0,
        3820.0,
        3825.0,
        3830.0,
        3835.0,
        3840.0,
        3845.0,
        3850.0,
        3855.0,
        3860.0,
        3865.0,
        3870.0,
        3875.0,
        3880.0,
        3885.0,
        3890.0,
        3895.0,
        3900.0,
        3905.0,
        3910.0,
        3915.0,
        3920.0,
        3925.0,
        3930.0,
        3935.0,
        3940.0,
        3945.0,
        3950.0,
        3955.0,
        3960.0,
        3965.0,
        3970.0,
        3975.0,
        3980.0,
        3985.0,
        3990.0,
        3995.0,
        4000.0,
        4005.0,
        4010.0,
        4015.0,
        4020.0,
        4025.0,
        4030.0,
        4035.0,
        4040.0,
        4045.0,
        4050.0,
        4055.0,
        4060.0,
        4065.0,
        4070.0,
        4075.0,
        4080.0,
        4085.0,
        4090.0,
        4095.0,
        4100.0,
        4105.0,
        4110.0,
        4115.0,
        4120.0,
        4125.0,
        4130.0,
        4135.0,
        4140.0,
        4145.0,
        4150.0,
        4155.0,
        4160.0,
        4165.0,
        4170.0,
        4175.0,
        4180.0,
        4185.0,
        4190.0,
        4195.0,
        4200.0,
        4205.0,
        4210.0,
        4215.0,
        4220.0,
        4225.0,
        4230.0,
        4235.0,
        4240.0,
        4245.0,
        4250.0,
        4255.0,
        4260.0,
        4265.0,
        4270.0,
        4275.0,
        4280.0,
        4285.0,
        4290.0,
        4295.0,
        4300.0,
        4305.0,
        4310.0,
        4315.0,
        4320.0,
        4325.0,
        4330.0,
        4335.0,
        4340.0,
        4345.0,
        4350.0,
        4355.0,
        4360.0,
        4365.0,
        4370.0,
        4375.0,
        4380.0,
        4385.0,
        4390.0,
        4395.0,
        4400.0,
        4405.0,
        4410.0,
        4415.0,
        4420.0,
        4425.0,
        4430.0,
        4435.0,
        4440.0,
        4445.0,
        4450.0,
        4455.0,
        4460.0,
        4465.0,
        4470.0,
        4475.0,
        4480.0,
        4485.0,
        4490.0,
        4495.0,
        4500.0,
        4505.0,
        4510.0,
        4515.0,
        4520.0,
        4525.0,
        4530.0,
        4535.0,
        4540.0,
        4545.0,
        4550.0,
        4555.0,
        4560.0,
        4565.0,
        4570.0,
        4575.0,
        4580.0,
        4585.0,
        4590.0,
        4595.0,
        4600.0,
        4605.0,
        4610.0,
        4615.0,
        4620.0,
        4625.0,
        4630.0,
        4635.0,
        4640.0,
        4645.0,
        4650.0,
        4655.0,
        4660.0,
        4665.0,
        4670.0,
        4675.0,
        4680.0,
        4685.0,
        4690.0,
        4695.0,
        4700.0,
        4705.0,
        4710.0,
        4715.0,
        4720.0,
        4725.0,
        4730.0,
        4735.0,
        4740.0,
        4745.0,
        4750.0,
        4755.0,
        4760.0,
        4765.0,
        4770.0,
        4775.0,
        4780.0,
        4785.0,
        4790.0,
        4795.0,
        4800.0,
        4805.0,
        4810.0,
        4815.0,
        4820.0,
        4825.0,
        4830.0,
        4835.0,
        4840.0,
        4845.0,
        4850.0,
        4855.0,
        4860.0,
        4865.0,
        4870.0,
        4875.0,
        4880.0,
        4885.0,
        4890.0,
        4895.0,
        4900.0,
        4905.0,
        4910.0,
        4915.0,
        4920.0,
        4925.0,
        4930.0,
        4935.0,
        4940.0,
        4945.0,
        4950.0,
        4955.0,
        4960.0,
        4965.0,
        4970.0,
        4975.0,
        4980.0,
        4985.0,
        4990.0,
        4995.0,
        5000.0,
        5005.0,
        5010.0,
        5015.0,
        5020.0,
        5025.0,
        5030.0,
        5035.0,
        5040.0,
        5045.0,
        5050.0,
        5055.0,
        5060.0,
        5065.0,
        5070.0,
        5075.0,
        5080.0,
        5085.0,
        5090.0,
        5095.0,
        5100.0,
        5105.0,
        5110.0,
        5115.0,
        5120.0,
        5125.0,
        5130.0,
        5135.0,
        5140.0,
        5145.0,
        5150.0,
        5155.0,
        5160.0,
        5165.0,
        5170.0,
        5175.0,
        5180.0,
        5185.0,
        5190.0,
        5195.0,
        5200.0,
        5205.0,
        5210.0,
        5215.0,
        5220.0,
        5225.0,
        5230.0,
        5235.0,
        5240.0,
        5245.0,
        5250.0,
        5255.0,
        5260.0,
        5265.0,
        5270.0,
        5275.0,
        5280.0,
        5285.0,
        5290.0,
        5295.0,
        5300.0,
        5305.0,
        5310.0,
        5315.0,
        5320.0,
        5325.0,
        5330.0,
        5335.0,
        5340.0,
        5345.0,
        5350.0,
        5355.0,
        5360.0,
        5365.0,
        5370.0,
        5375.0,
        5380.0,
        5385.0,
        5390.0,
        5395.0,
        5400.0,
        5405.0,
        5410.0,
        5415.0,
        5420.0,
        5425.0,
        5430.0,
        5435.0,
        5440.0,
        5445.0,
        5450.0,
        5455.0,
        5460.0,
        5465.0,
        5470.0,
        5475.0,
        5480.0,
        5485.0,
        5490.0,
        5495.0,
        5500.0,
        5505.0,
        5510.0,
        5515.0,
        5520.0,
        5525.0,
        5530.0,
        5535.0,
        5540.0,
        5545.0,
        5550.0,
        5555.0,
        5560.0,
        5565.0,
        5570.0,
        5575.0,
        5580.0,
        5585.0,
        5590.0,
        5595.0,
        5600.0,
        5605.0,
        5610.0,
        5615.0,
        5620.0,
        5625.0,
        5630.0,
        5635.0,
        5640.0,
        5645.0,
        5650.0,
        5655.0,
        5660.0,
        5665.0,
        5670.0,
        5675.0,
        5680.0,
        5685.0,
        5690.0,
        5695.0,
        5700.0,
        5705.0,
        5710.0,
        5715.0,
        5720.0,
        5725.0,
        5730.0,
        5735.0,
        5740.0,
        5745.0,
        5750.0,
        5755.0,
        5760.0,
        5765.0,
        5770.0,
        5775.0,
        5780.0,
        5785.0,
        5790.0,
        5795.0,
        5800.0,
        5805.0,
        5810.0,
        5815.0,
        5820.0,
        5825.0,
        5830.0,
        5835.0,
        5840.0,
        5845.0,
        5850.0,
        5855.0,
        5860.0,
        5865.0,
        5870.0,
        5875.0,
        5880.0,
        5885.0,
        5890.0,
        5895.0,
        5900.0,
        5905.0,
        5910.0,
        5915.0,
        5920.0,
        5925.0,
        5930.0,
        5935.0,
        5940.0,
        5945.0,
        5950.0,
        5955.0,
        5960.0,
        5965.0,
        5970.0,
        5975.0,
        5980.0,
        5985.0,
        5990.0,
        5995.0,
        6000.0,
        6005.0,
        6010.0,
        6015.0,
        6020.0,
        6025.0,
        6030.0,
        6035.0,
        6040.0,
        6045.0,
        6050.0,
        6055.0,
        6060.0,
        6065.0,
        6070.0,
        6075.0,
        6080.0,
        6085.0,
        6090.0,
        6095.0,
        6100.0,
        6105.0,
        6110.0,
        6115.0,
        6120.0,
        6125.0,
        6130.0,
        6135.0,
        6140.0,
        6145.0,
        6150.0,
        6155.0,
        6160.0,
        6165.0,
        6170.0,
        6175.0,
        6180.0,
        6185.0,
        6190.0,
        6195.0,
        6200.0,
        6205.0,
        6210.0,
        6215.0,
        6220.0,
        6225.0,
        6230.0,
        6235.0,
        6240.0,
        6245.0,
        6250.0,
        6255.0,
        6260.0,
        6265.0,
        6270.0,
        6275.0,
        6280.0,
        6285.0,
        6290.0,
        6295.0,
        6300.0,
        6305.0,
        6310.0,
        6315.0,
        6320.0,
        6325.0,
        6330.0,
        6335.0,
        6340.0,
        6345.0,
        6350.0,
        6355.0,
        6360.0,
        6365.0,
        6370.0,
        6375.0,
        6380.0,
        6385.0,
        6390.0,
        6395.0,
        6400.0,
        6405.0,
        6410.0,
        6415.0,
        6420.0,
        6425.0,
        6430.0,
        6435.0,
        6440.0,
        6445.0,
        6450.0,
        6455.0,
        6460.0,
        6465.0,
        6470.0,
        6475.0,
        6480.0,
        6485.0,
        6490.0,
        6495.0,
        6500.0,
        6505.0,
        6510.0,
        6515.0,
        6520.0,
        6525.0,
        6530.0,
        6535.0,
        6540.0,
        6545.0,
        6550.0,
        6555.0,
        6560.0,
        6565.0,
        6570.0,
        6575.0,
        6580.0,
        6585.0,
        6590.0,
        6595.0,
        6600.0,
        6605.0,
        6610.0,
        6615.0,
        6620.0,
        6625.0,
        6630.0,
        6635.0,
        6640.0,
        6645.0,
        6650.0,
        6655.0,
        6660.0,
        6665.0,
        6670.0,
        6675.0,
        6680.0,
        6685.0,
        6690.0,
        6695.0,
        6700.0,
        6705.0,
        6710.0,
        6715.0,
        6720.0,
        6725.0,
        6730.0,
        6735.0,
        6740.0,
        6745.0,
        6750.0,
        6755.0,
        6760.0,
        6765.0,
        6770.0,
        6775.0,
        6780.0,
        6785.0,
        6790.0,
        6795.0,
        6800.0,
        6805.0,
        6810.0,
        6815.0,
        6820.0,
        6825.0,
        6830.0,
        6835.0,
        6840.0,
        6845.0,
        6850.0,
        6855.0,
        6860.0,
        6865.0,
        6870.0,
        6875.0,
        6880.0,
        6885.0,
        6890.0,
        6895.0,
        6900.0,
        6905.0,
        6910.0,
        6915.0,
        6920.0,
        6925.0,
        6930.0,
        6935.0,
        6940.0,
        6945.0,
        6950.0,
        6955.0,
        6960.0,
        6965.0,
        6970.0,
        6975.0,
        6980.0,
        6985.0,
        6990.0,
        6995.0,
        7000.0,
        7005.0,
        7010.0,
        7015.0,
        7020.0,
        7025.0,
        7030.0,
        7035.0,
        7040.0,
        7045.0,
        7050.0,
        7055.0,
        7060.0,
        7065.0,
        7070.0,
        7075.0,
        7080.0,
        7085.0,
        7090.0,
        7095.0,
        7100.0,
        7105.0,
        7110.0,
        7115.0,
        7120.0,
        7125.0,
        7130.0,
        7135.0,
        7140.0,
        7145.0,
        7150.0,
        7155.0,
        7160.0,
        7165.0,
        7170.0,
        7175.0,
        7180.0,
        7185.0,
        7190.0,
        7195.0,
        7200.0,
        7205.0,
        7210.0,
        7215.0,
        7220.0,
        7225.0,
        7230.0,
        7235.0,
        7240.0,
        7245.0,
        7250.0,
        7255.0,
        7260.0,
        7265.0,
        7270.0,
        7275.0,
        7280.0,
        7285.0,
        7290.0,
        7295.0,
        7300.0,
        7305.0,
        7310.0,
        7315.0,
        7320.0,
        7325.0,
        7330.0,
        7335.0,
        7340.0,
        7345.0,
        7350.0,
        7355.0,
        7360.0,
        7365.0,
        7370.0,
        7375.0,
        7380.0,
        7385.0,
        7390.0,
        7395.0,
        7400.0,
        7405.0,
        7410.0,
        7415.0,
        7420.0,
        7425.0,
        7430.0,
        7435.0,
        7440.0,
        7445.0,
        7450.0,
        7455.0,
        7460.0,
        7465.0,
        7470.0,
        7475.0,
        7480.0,
        7485.0,
        7490.0,
        7495.0,
        7500.0,
        7505.0,
        7510.0,
        7515.0,
        7520.0,
        7525.0,
        7530.0,
        7535.0,
        7540.0,
        7545.0,
        7550.0,
        7555.0,
        7560.0,
        7565.0,
        7570.0,
        7575.0,
        7580.0,
        7585.0,
        7590.0,
        7595.0,
        7600.0,
        7605.0,
        7610.0,
        7615.0,
        7620.0,
        7625.0,
        7630.0,
        7635.0,
        7640.0,
        7645.0,
        7650.0,
        7655.0,
        7660.0,
        7665.0,
        7670.0,
        7675.0,
        7680.0,
        7685.0,
        7690.0,
        7695.0,
        7700.0,
        7705.0,
        7710.0,
        7715.0,
        7720.0,
        7725.0,
        7730.0,
        7735.0,
        7740.0,
        7745.0,
        7750.0,
        7755.0,
        7760.0,
        7765.0,
        7770.0,
        7775.0,
        7780.0,
        7785.0,
        7790.0,
        7795.0,
        7800.0,
        7805.0,
        7810.0,
        7815.0,
        7820.0,
        7825.0,
        7830.0,
        7835.0,
        7840.0,
        7845.0,
        7850.0,
        7855.0,
        7860.0,
        7865.0,
        7870.0,
        7875.0,
        7880.0,
        7885.0,
        7890.0,
        7895.0,
        7900.0,
        7905.0,
        7910.0,
        7915.0,
        7920.0,
        7925.0,
        7930.0,
        7935.0,
        7940.0,
        7945.0,
        7950.0,
        7955.0,
        7960.0,
        7965.0,
        7970.0,
        7975.0,
        7980.0,
        7985.0,
        7990.0,
        7995.0,
        8000.0,
        8005.0,
        8010.0,
        8015.0,
        8020.0,
        8025.0,
        8030.0,
        8035.0,
        8040.0,
        8045.0,
        8050.0,
        8055.0,
        8060.0,
        8065.0,
        8070.0,
        8075.0,
        8080.0,
        8085.0,
        8090.0,
        8095.0,
        8100.0,
        8105.0,
        8110.0,
        8115.0,
        8120.0,
        8125.0,
        8130.0,
        8135.0,
        8140.0,
        8145.0,
        8150.0,
        8155.0,
        8160.0,
        8165.0,
        8170.0,
        8175.0,
        8180.0,
        8185.0,
        8190.0,
        8195.0,
        8200.0,
        8205.0,
        8210.0,
        8215.0,
        8220.0,
        8225.0,
        8230.0,
        8235.0,
        8240.0,
        8245.0,
        8250.0,
        8255.0,
        8260.0,
        8265.0,
        8270.0,
        8275.0,
        8280.0,
        8285.0,
        8290.0,
        8295.0,
        8300.0,
        8305.0,
        8310.0,
        8315.0,
        8320.0,
        8325.0,
        8330.0,
        8335.0,
        8340.0,
        8345.0,
        8350.0,
        8355.0,
        8360.0,
        8365.0,
        8370.0,
        8375.0,
        8380.0,
        8385.0,
        8390.0,
        8395.0,
        8400.0,
        8405.0,
        8410.0,
        8415.0,
        8420.0,
        8425.0,
        8430.0,
        8435.0,
        8440.0,
        8445.0,
        8450.0,
        8455.0,
        8460.0,
        8465.0,
        8470.0,
        8475.0,
        8480.0,
        8485.0,
        8490.0,
        8495.0,
        8500.0,
        8505.0,
        8510.0,
        8515.0,
        8520.0,
        8525.0,
        8530.0,
        8535.0,
        8540.0,
        8545.0,
        8550.0,
        8555.0,
        8560.0,
        8565.0,
        8570.0,
        8575.0,
        8580.0,
        8585.0,
        8590.0,
        8595.0,
        8600.0,
        8605.0,
        8610.0,
        8615.0,
        8620.0,
        8625.0,
        8630.0,
        8635.0,
        8640.0,
        8645.0,
        8650.0,
        8655.0,
        8660.0,
        8665.0,
        8670.0,
        8675.0,
        8680.0,
        8685.0,
        8690.0,
        8695.0,
        8700.0,
        8705.0,
        8710.0,
        8715.0,
        8720.0,
        8725.0,
        8730.0,
        8735.0,
        8740.0,
        8745.0,
        8750.0,
        8755.0,
        8760.0,
        8765.0,
        8770.0,
        8775.0,
        8780.0,
        8785.0,
        8790.0,
        8795.0,
        8800.0,
        8805.0,
        8810.0,
        8815.0,
        8820.0,
        8825.0,
        8830.0,
        8835.0,
        8840.0,
        8845.0,
        8850.0,
        8855.0,
        8860.0,
        8865.0,
        8870.0,
        8875.0,
        8880.0,
        8885.0,
        8890.0,
        8895.0,
        8900.0,
        8905.0,
        8910.0,
        8915.0,
        8920.0,
        8925.0,
        8930.0,
        8935.0,
        8940.0,
        8945.0,
        8950.0,
        8955.0,
        8960.0,
        8965.0,
        8970.0,
        8975.0,
        8980.0,
        8985.0,
        8990.0,
        8995.0,
        9000.0,
        9005.0,
        9010.0,
        9015.0,
        9020.0,
        9025.0,
        9030.0,
        9035.0,
        9040.0,
        9045.0,
        9050.0,
        9055.0,
        9060.0,
        9065.0,
        9070.0,
        9075.0,
        9080.0,
        9085.0,
        9090.0,
        9095.0,
        9100.0,
        9105.0,
        9110.0,
        9115.0,
        9120.0,
        9125.0,
        9130.0,
        9135.0,
        9140.0,
        9145.0,
        9150.0,
        9155.0,
        9160.0,
        9165.0,
        9170.0,
        9175.0,
        9180.0,
        9185.0,
        9190.0,
        9195.0,
        9200.0,
        9205.0,
        9210.0,
        9215.0,
        9220.0,
        9225.0,
        9230.0,
        9235.0,
        9240.0,
        9245.0,
        9250.0,
        9255.0,
        9260.0,
        9265.0,
        9270.0,
        9275.0,
        9280.0,
        9285.0,
        9290.0,
        9295.0,
        9300.0,
        9305.0,
        9310.0,
        9315.0,
        9320.0,
        9325.0,
        9330.0,
        9335.0,
        9340.0,
        9345.0,
        9350.0,
        9355.0,
        9360.0,
        9365.0,
        9370.0,
        9375.0,
        9380.0,
        9385.0,
        9390.0,
        9395.0,
        9400.0,
        9405.0,
        9410.0,
        9415.0,
        9420.0,
        9425.0,
        9430.0,
        9435.0,
        9440.0,
        9445.0,
        9450.0,
        9455.0,
        9460.0,
        9465.0,
        9470.0,
        9475.0,
        9480.0,
        9485.0,
        9490.0,
        9495.0,
        9500.0,
        9505.0,
        9510.0,
        9515.0,
        9520.0,
        9525.0,
        9530.0,
        9535.0,
        9540.0,
        9545.0,
        9550.0,
        9555.0,
        9560.0,
        9565.0,
        9570.0,
        9575.0,
        9580.0,
        9585.0,
        9590.0,
        9595.0,
        9600.0,
        9605.0,
        9610.0,
        9615.0,
        9620.0,
        9625.0,
        9630.0,
        9635.0,
        9640.0,
        9645.0,
        9650.0,
        9655.0,
        9660.0,
        9665.0,
        9670.0,
        9675.0,
        9680.0,
        9685.0,
        9690.0,
        9695.0,
        9700.0,
        9705.0,
        9710.0,
        9715.0,
        9720.0,
        9725.0,
        9730.0,
        9735.0,
        9740.0,
        9745.0,
        9750.0,
        9755.0,
        9760.0,
        9765.0,
        9770.0,
        9775.0,
        9780.0,
        9785.0,
        9790.0,
        9795.0,
        9800.0,
        9805.0,
        9810.0,
        9815.0,
        9820.0,
        9825.0,
        9830.0,
        9835.0,
        9840.0,
        9845.0,
        9850.0,
        9855.0,
        9860.0,
        9865.0,
        9870.0,
        9875.0,
        9880.0,
        9885.0,
        9890.0,
        9895.0,
        9900.0,
        9905.0,
        9910.0,
        9915.0,
        9920.0,
        9925.0,
        9930.0,
        9935.0,
        9940.0,
        9945.0,
        9950.0,
        9955.0,
        9960.0,
        9965.0,
        9970.0,
        9975.0,
        9980.0,
        9985.0,
        9990.0,
        9995.0,
        10000.0,
        10005.0,
        10010.0,
        10015.0,
        10020.0,
        10025.0,
        10030.0,
        10035.0,
        10040.0,
        10045.0,
        10050.0,
        10055.0,
        10060.0,
        10065.0,
        10070.0,
        10075.0,
        10080.0,
        10085.0,
        10090.0,
        10095.0,
        10100.0,
        10105.0,
        10110.0,
        10115.0,
        10120.0,
        10125.0,
        10130.0,
        10135.0,
        10140.0,
        10145.0,
        10150.0,
        10155.0,
        10160.0,
        10165.0,
        10170.0,
        10175.0,
        10180.0,
        10185.0,
        10190.0,
        10195.0,
        10200.0,
        10205.0,
        10210.0,
        10215.0,
        10220.0,
        10225.0,
        10230.0,
        10235.0,
        10240.0,
        10245.0,
        10250.0,
        10255.0,
        10260.0,
        10265.0,
        10270.0,
        10275.0,
        10280.0,
        10285.0,
        10290.0,
        10295.0,
        10300.0,
        10305.0,
        10310.0,
        10315.0,
        10320.0,
        10325.0,
        10330.0,
        10335.0,
        10340.0,
        10345.0,
        10350.0,
        10355.0,
        10360.0,
        10365.0,
        10370.0,
        10375.0,
        10380.0,
        10385.0,
        10390.0,
        10395.0,
        10400.0,
        10405.0,
        10410.0,
        10415.0,
        10420.0,
        10425.0,
        10430.0,
        10435.0,
        10440.0,
        10445.0,
        10450.0,
        10455.0,
        10460.0,
        10465.0,
        10470.0,
        10475.0,
        10480.0,
        10485.0,
        10490.0,
        10495.0,
        10500.0
      ],
      "units":"angstrom"
    },
    "values":{
      "value":[
        0.0,
        0.0,
        0.0,
        0.0,
        0.0,
        0.0,
        0.0,
        0.0,
        0.0,
        0.0,
        0.0,
        0.0,
        0.0,
        0.0,
        0.0,
        0.0,
        0.0,
        0.0,
        0.0,
        0.0,
        0.0,
        0.0,
        0.0,
        0.0,
        0.0,
        0.0,
        0.0,
        0.0,
        0.0,
        0.0,
        0.0,
        0.0,
        0.0,
        0.0,
        0.0,
        0.0,
        0.0,
        0.0,
        0.0,
        0.0,
        0.0,
        0.0,
        0.0,
        0.0,
        0.0,
        0.0,
        0.0,
        0.0,
        0.0,
        0.0,
        0.0,
        0.0,
        0.0,
        0.0,
        0.0,
        0.0,
        0.0,
        0.0,
        0.0,
        0.0,
        0.0,
        0.0,
        0.0,
        0.0,
        0.0,
        0.0,
        0.0,
        0.0,
        0.0,
        0.0,
        0.0,
        0.0,
        0.0,
        0.0,
        0.0,
        0.0,
        0.0,
        0.0,
        0.0,
        0.0,
        0.0,
        0.0,
        0.0,
        0.0,
        0.0,
        0.0,
        0.0,
        0.0,
        0.0,
        0.0,
        0.0,
        0.0,
        0.0,
        0.0,
        0.0,
        0.0,
        0.0,
        0.0,
        0.0,
        0.0,
        0.0,
        0.0,
        0.0,
        0.0,
        0.0,
        0.0,
        0.0,
        0.0,
        0.0,
        0.0,
        0.0,
        0.0,
        0.0,
        0.0,
        0.0,
        0.0,
        0.0,
        0.0,
        0.0,
        0.0,
        0.0,
        0.0,
        0.0,
        0.0,
        0.0,
        0.0,
        0.0,
        0.0,
        0.0,
        0.0,
        0.0,
        0.0,
        0.0,
        0.0,
        0.0,
        0.0,
        0.0,
        0.0,
        0.0,
        0.0,
        0.0,
        0.0,
        0.0,
        0.0,
        0.0,
        0.0,
        0.0,
        0.0,
        0.0,
        0.0,
        0.0,
        0.0,
        0.0,
        0.0,
        0.0,
        0.0,
        0.0,
        0.0,
        0.0,
        0.0,
        0.0,
        0.0,
        0.0,
        0.0,
        0.0,
        0.0,
        0.0,
        0.0,
        0.0,
        0.0,
        0.0,
        0.0,
        0.0,
        1e-06,
        1e-06,
        1e-06,
        1e-06,
        1e-06,
        2e-06,
        2e-06,
        2e-06,
        3e-06,
        3e-06,
        4e-06,
        5e-06,
        5e-06,
        6e-06,
        7e-06,
        8e-06,
        9e-06,
        1e-05,
        1.1e-05,
        1.2e-05,
        1.3e-05,
        1.4e-05,
        1.5e-05,
        1.6e-05,
        1.7e-05,
        1.8e-05,
        1.9e-05,
        2e-05,
        2.1e-05,
        2.1e-05,
        2.2e-05,
        2.3e-05,
        2.4e-05,
        2.5e-05,
        2.6e-05,
        2.7e-05,
        2.8e-05,
        3e-05,
        3.2e-05,
        3.4e-05,
        3.6e-05,
        3.9e-05,
        4.2e-05,
        4.5e-05,
        4.9e-05,
        5.3e-05,
        5.8e-05,
        6.3e-05,
        6.9e-05,
        7.5e-05,
        8.1e-05,
        8.7e-05,
        9.3e-05,
        9.9e-05,
        0.000104,
        0.000109,
        0.000114,
        0.000117,
        0.00012,
        0.000122,
        0.000123,
        0.000123,
        0.000121,
        0.000118,
        0.000113,
        0.000107,
        9.8e-05,
        8.8e-05,
        7.7e-05,
        6.5e-05,
        5.3e-05,
        4.3e-05,
        3.4e-05,
        2.9e-05,
        2.8e-05,
        3.2e-05,
        4.1e-05,
        5.7e-05,
        8e-05,
        0.000112,
        0.000151,
        0.000186,
        0.000197,
        0.000161,
        0.000165,
        0.000258,
        0.000226,
        0.000126,
        0.000133,
        0.000156,
        0.000127,
        9.7e-05,
        7.4e-05,
        4.8e-05,
        3.2e-05,
        4.9e-05,
        0.00011,
        0.000152,
        0.000138,
        0.000157,
        0.000181,
        0.000101,
        9.2e-05,
        0.000212,
        0.000218,
        0.000115,
        9.6e-05,
        0.000451,
        0.000831,
        0.00078,
        0.000682,
        0.000695,
        0.000653,
        0.00072,
        0.001,
        0.000962,
        0.000642,
        0.000637,
        0.000873,
        0.001127,
        0.001359,
        0.001258,
        0.000846,
        0.001844,
        0.003479,
        0.002934,
        0.001543,
        0.001193,
        0.001055,
        0.001388,
        0.000911,
        0.00053,
        0.000763,
        0.001361,
        0.001621,
        0.001299,
        0.001117,
        0.002314,
        0.002112,
        0.001748,
        0.001411,
        0.000956,
        0.000837,
        0.00137,
        0.001412,
        0.000931,
        0.001014,
        0.001335,
        0.000738,
        0.000811,
        0.000889,
        0.000934,
        0.001032,
        0.001115,
        0.000986,
        0.000638,
        0.000249,
        0.000385,
        0.000891,
        0.001165,
        0.001443,
        0.001841,
        0.00175,
        0.001414,
        0.001315,
        0.001026,
        0.00049,
        0.000151,
        0.000213,
        0.000567,
        0.00101,
        0.001325,
        0.00141,
        0.001629,
        0.002202,
        0.003045,
        0.003708,
        0.003818,
        0.003387,
        0.003369,
        0.004864,
        0.005221,
        0.003532,
        0.003521,
        0.004298,
        0.00372,
        0.003888,
        0.00514,
        0.006272,
        0.00592,
        0.004735,
        0.005065,
        0.00564,
        0.004655,
        0.005017,
        0.006632,
        0.006385,
        0.005777,
        0.006285,
        0.006652,
        0.006231,
        0.005428,
        0.006092,
        0.007961,
        0.008397,
        0.007848,
        0.007342,
        0.007066,
        0.007535,
        0.008854,
        0.009299,
        0.00908,
        0.010091,
        0.011057,
        0.010636,
        0.009394,
        0.009645,
        0.01331,
        0.016225,
        0.017658,
        0.024212,
        0.027895,
        0.020535,
        0.019435,
        0.023967,
        0.017002,
        0.014489,
        0.023329,
        0.019097,
        0.010973,
        0.019182,
        0.032335,
        0.03669,
        0.02629,
        0.017891,
        0.020614,
        0.019668,
        0.018465,
        0.026992,
        0.029362,
        0.018643,
        0.014012,
        0.016769,
        0.017765,
        0.01337,
        0.014496,
        0.036742,
        0.0485,
        0.034857,
        0.032483,
        0.040031,
        0.039336,
        0.037724,
        0.039573,
        0.043022,
        0.054123,
        0.068273,
        0.059646,
        0.033615,
        0.020784,
        0.020144,
        0.023707,
        0.029845,
        0.032045,
        0.026045,
        0.023552,
        0.029683,
        0.038588,
        0.036913,
        0.022202,
        0.013417,
        0.019598,
        0.036639,
        0.043449,
        0.036785,
        0.032141,
        0.032919,
        0.036073,
        0.035523,
        0.032074,
        0.031985,
        0.040897,
        0.05492,
        0.056225,
        0.0446,
        0.031923,
        0.031824,
        0.040934,
        0.043139,
        0.046748,
        0.053697,
        0.044248,
        0.03323,
        0.042779,
        0.052846,
        0.052394,
        0.047732,
        0.04764,
        0.053382,
        0.055291,
        0.046202,
        0.037176,
        0.041205,
        0.061758,
        0.080691,
        0.095914,
        0.104152,
        0.089165,
        0.068807,
        0.065258,
        0.055943,
        0.0368,
        0.026049,
        0.027251,
        0.034505,
        0.033356,
        0.030706,
        0.045865,
        0.05329,
        0.047082,
        0.050744,
        0.059001,
        0.057968,
        0.053818,
        0.058696,
        0.074073,
        0.076873,
        0.075831,
        0.119494,
        0.150888,
        0.108284,
        0.087427,
        0.101006,
        0.073069,
        0.052991,
        0.086168,
        0.133532,
        0.145282,
        0.097338,
        0.059408,
        0.065052,
        0.066453,
        0.055038,
        0.039614,
        0.038103,
        0.047512,
        0.042102,
        0.045761,
        0.060711,
        0.059967,
        0.066712,
        0.113377,
        0.167108,
        0.18409,
        0.138006,
        0.087244,
        0.080357,
        0.097896,
        0.112016,
        0.100267,
        0.073252,
        0.050583,
        0.042265,
        0.044126,
        0.050648,
        0.070719,
        0.091491,
        0.082622,
        0.065584,
        0.063229,
        0.064013,
        0.066073,
        0.070896,
        0.058562,
        0.0501,
        0.09253,
        0.124919,
        0.096838,
        0.08985,
        0.118837,
        0.111476,
        0.08027,
        0.05543,
        0.038348,
        0.031003,
        0.0381,
        0.068778,
        0.098656,
        0.082836,
        0.051007,
        0.03858,
        0.045583,
        0.075952,
        0.120765,
        0.14197,
        0.14148,
        0.168483,
        0.198523,
        0.189819,
        0.18549,
        0.209812,
        0.241716,
        0.220754,
        0.154118,
        0.162858,
        0.223477,
        0.250179,
        0.240441,
        0.207807,
        0.1762,
        0.194935,
        0.24925,
        0.225254,
        0.200208,
        0.287538,
        0.351822,
        0.312422,
        0.269904,
        0.264514,
        0.269588,
        0.260728,
        0.257566,
        0.292833,
        0.303316,
        0.256941,
        0.216408,
        0.206008,
        0.223094,
        0.263257,
        0.287961,
        0.248147,
        0.19692,
        0.196747,
        0.252554,
        0.307838,
        0.300733,
        0.261031,
        0.240859,
        0.269425,
        0.288734,
        0.235286,
        0.161217,
        0.116102,
        0.130732,
        0.199396,
        0.274117,
        0.295334,
        0.264477,
        0.233346,
        0.275874,
        0.331872,
        0.264447,
        0.227034,
        0.298699,
        0.295947,
        0.249812,
        0.265339,
        0.261098,
        0.246676,
        0.324126,
        0.380738,
        0.310972,
        0.309789,
        0.411975,
        0.447211,
        0.464395,
        0.512981,
        0.50542,
        0.488889,
        0.539043,
        0.555758,
        0.513232,
        0.47689,
        0.410331,
        0.335207,
        0.400033,
        0.47935,
        0.398936,
        0.353846,
        0.454797,
        0.580936,
        0.606575,
        0.49173,
        0.402045,
        0.41359,
        0.474165,
        0.518803,
        0.494101,
        0.403084,
        0.329057,
        0.354526,
        0.460771,
        0.59288,
        0.683716,
        0.701897,
        0.652219,
        0.60792,
        0.607208,
        0.623478,
        0.618767,
        0.58545,
        0.545027,
        0.487046,
        0.419066,
        0.459111,
        0.598337,
        0.626317,
        0.584555,
        0.610107,
        0.656281,
        0.664847,
        0.631937,
        0.6031,
        0.60818,
        0.618081,
        0.597554,
        0.549794,
        0.560619,
        0.628618,
        0.662263,
        0.683511,
        0.725629,
        0.719288,
        0.662479,
        0.608021,
        0.590601,
        0.594739,
        0.557589,
        0.576611,
        0.724048,
        0.750699,
        0.665679,
        0.669961,
        0.681194,
        0.663368,
        0.738089,
        0.795543,
        0.683828,
        0.598173,
        0.618863,
        0.66163,
        0.706052,
        0.719673,
        0.673207,
        0.64004,
        0.662462,
        0.703621,
        0.734432,
        0.769117,
        0.741115,
        0.607693,
        0.540572,
        0.572721,
        0.587985,
        0.598834,
        0.64661,
        0.710288,
        0.724634,
        0.623269,
        0.533202,
        0.55466,
        0.692169,
        0.79039,
        0.668336,
        0.595593,
        0.70188,
        0.722101,
        0.670695,
        0.688938,
        0.713708,
        0.709557,
        0.686875,
        0.702162,
        0.746844,
        0.677899,
        0.631943,
        0.769923,
        0.873432,
        0.874242,
        0.849829,
        0.805872,
        0.752279,
        0.810294,
        0.877181,
        0.827933,
        0.832116,
        0.900218,
        0.837169,
        0.68094,
        0.582281,
        0.563383,
        0.604882,
        0.67689,
        0.671896,
        0.624647,
        0.643098,
        0.662372,
        0.595895,
        0.519942,
        0.493246,
        0.52585,
        0.600363,
        0.654655,
        0.670821,
        0.642005,
        0.610163,
        0.597571,
        0.604584,
        0.771754,
        0.907598,
        0.774075,
        0.683413,
        0.717382,
        0.685342,
        0.652366,
        0.660174,
        0.671871,
        0.676793,
        0.691378,
        0.764194,
        0.841349,
        0.759969,
        0.665487,
        0.713674,
        0.75895,
        0.709471,
        0.617219,
        0.577597,
        0.658279,
        0.756318,
        0.706012,
        0.536287,
        0.449997,
        0.460887,
        0.528851,
        0.628149,
        0.685263,
        0.62601,
        0.506863,
        0.597466,
        0.79162,
        0.853283,
        0.788431,
        0.78154,
        0.9506,
        0.980375,
        0.766367,
        0.736179,
        0.885759,
        0.906686,
        0.72768,
        0.623029,
        0.881894,
        1.070025,
        0.969491,
        0.931161,
        0.970656,
        1.003547,
        1.069026,
        1.087643,
        1.013633,
        0.895159,
        0.798114,
        0.836219,
        0.958891,
        0.996685,
        0.958497,
        0.942392,
        1.064133,
        1.123044,
        1.016267,
        0.91427,
        0.934242,
        1.011567,
        1.027256,
        0.973808,
        0.955459,
        0.969356,
        0.957864,
        0.997866,
        1.091717,
        1.110392,
        1.034013,
        0.927873,
        1.011454,
        1.172705,
        1.008653,
        0.807537,
        0.82203,
        0.896432,
        0.918292,
        0.883957,
        0.850623,
        0.870367,
        0.940754,
        1.011747,
        1.028129,
        0.958538,
        0.870797,
        0.888088,
        0.963719,
        1.029405,
        1.04035,
        1.040267,
        1.07774,
        1.104682,
        1.081948,
        1.065592,
        1.055458,
        1.049592,
        1.009885,
        0.967554,
        0.995148,
        0.99388,
        0.919264,
        0.921836,
        0.971834,
        0.946687,
        0.921249,
        0.94104,
        1.011503,
        1.022874,
        0.924825,
        0.909821,
        0.948355,
        0.955671,
        1.036792,
        1.140332,
        1.086324,
        0.973113,
        0.961827,
        1.029145,
        1.101879,
        1.081396,
        1.045392,
        1.075957,
        1.107388,
        1.103247,
        1.080939,
        1.07375,
        1.119228,
        1.131528,
        1.103356,
        1.096502,
        1.129727,
        1.171529,
        1.223341,
        1.237432,
        1.180368,
        1.116384,
        1.127512,
        1.175627,
        1.157812,
        1.041045,
        1.000237,
        1.089314,
        1.187534,
        1.231414,
        1.201278,
        1.130414,
        1.084167,
        1.124039,
        1.173104,
        1.193696,
        1.19023,
        1.189601,
        1.18519,
        1.16519,
        1.119671,
        1.035767,
        1.013328,
        1.052496,
        1.020004,
        0.985211,
        0.993455,
        0.943017,
        0.919721,
        0.938433,
        0.934784,
        0.910762,
        0.916509,
        0.922735,
        0.882981,
        0.89857,
        0.969876,
        0.999885,
        0.971143,
        0.911241,
        0.923254,
        0.984253,
        0.994642,
        1.000703,
        1.013866,
        1.027342,
        1.063128,
        1.105808,
        1.080919,
        1.031861,
        1.044219,
        1.054205,
        1.043725,
        1.068224,
        1.114041,
        1.132528,
        1.113368,
        1.10756,
        1.187421,
        1.219389,
        1.148944,
        1.140815,
        1.205961,
        1.281408,
        1.299974,
        1.262144,
        1.201262,
        1.175433,
        1.232155,
        1.260626,
        1.234848,
        1.234802,
        1.247551,
        1.246542,
        1.262378,
        1.28701,
        1.26168,
        1.266073,
        1.281993,
        1.249811,
        1.175757,
        1.036005,
        0.925959,
        0.880623,
        0.913516,
        0.943068,
        0.835326,
        0.791683,
        0.897004,
        0.964294,
        0.949234,
        0.868611,
        0.782551,
        0.732693,
        0.704267,
        0.704145,
        0.751515,
        0.803576,
        0.853917,
        0.851021,
        0.791993,
        0.777836,
        0.862374,
        0.914235,
        0.898465,
        0.934762,
        1.01635,
        1.022573,
        1.006065,
        1.048732,
        1.087589,
        1.108433,
        1.129152,
        1.118275,
        1.08713,
        1.115942,
        1.174871,
        1.208244,
        1.188678,
        1.156777,
        1.172949,
        1.205247,
        1.201139,
        1.232535,
        1.289158,
        1.321326,
        1.292359,
        1.212667,
        1.222788,
        1.297213,
        1.307043,
        1.305701,
        1.340217,
        1.298485,
        1.247988,
        1.277208,
        1.330958,
        1.333299,
        1.294616,
        1.281041,
        1.364416,
        1.382082,
        1.32547,
        1.322392,
        1.369771,
        1.412195,
        1.363032,
        1.237211,
        1.165006,
        1.221561,
        1.328238,
        1.365193,
        1.363365,
        1.387239,
        1.405784,
        1.409536,
        1.453024,
        1.483001,
        1.441672,
        1.355861,
        1.275346,
        1.245503,
        1.279641,
        1.304055,
        1.30346,
        1.333215,
        1.389099,
        1.324206,
        1.200249,
        1.255192,
        1.332554,
        1.326107,
        1.351648,
        1.330607,
        1.200553,
        1.163031,
        1.24835,
        1.302945,
        1.291019,
        1.240423,
        1.208956,
        1.185753,
        1.14692,
        1.140953,
        1.143363,
        1.123927,
        1.132111,
        1.158782,
        1.173,
        1.162065,
        1.128416,
        1.115406,
        1.106496,
        1.093394,
        1.107235,
        1.128768,
        1.131047,
        1.137302,
        1.155926,
        1.130078,
        1.116431,
        1.162616,
        1.215953,
        1.260963,
        1.290563,
        1.250108,
        1.150549,
        1.129147,
        1.156415,
        1.12183,
        1.130765,
        1.239643,
        1.295609,
        1.280436,
        1.24912,
        1.233267,
        1.250059,
        1.263752,
        1.276147,
        1.254778,
        1.229977,
        1.235271,
        1.290924,
        1.34988,
        1.378033,
        1.375747,
        1.356287,
        1.37236,
        1.407279,
        1.43275,
        1.390607,
        1.312735,
        1.318797,
        1.370387,
        1.383714,
        1.385993,
        1.379479,
        1.369453,
        1.375812,
        1.429738,
        1.479877,
        1.503114,
        1.495543,
        1.465732,
        1.418648,
        1.389259,
        1.411356,
        1.468192,
        1.518639,
        1.524443,
        1.494206,
        1.45783,
        1.425328,
        1.446591,
        1.481215,
        1.512575,
        1.528714,
        1.534752,
        1.543554,
        1.515648,
        1.421691,
        1.297528,
        1.211642,
        1.286376,
        1.3998,
        1.425653,
        1.314444,
        1.194869,
        1.176047,
        1.199802,
        1.233429,
        1.274622,
        1.312549,
        1.283746,
        1.143991,
        0.995609,
        0.96161,
        0.994172,
        1.016973,
        1.080896,
        1.221771,
        1.272978,
        1.2038,
        1.143426,
        1.156216,
        1.224143,
        1.214171,
        1.162225,
        1.186294,
        1.210138,
        1.198427,
        1.192944,
        1.244655,
        1.338592,
        1.368315,
        1.343607,
        1.314187,
        1.302885,
        1.31532,
        1.298425,
        1.310412,
        1.375135,
        1.42685,
        1.438034,
        1.431942,
        1.415046,
        1.405312,
        1.403424,
        1.431907,
        1.457511,
        1.476206,
        1.487689,
        1.50055,
        1.51143,
        1.527506,
        1.546358,
        1.565245,
        1.572015,
        1.564584,
        1.535314,
        1.488428,
        1.460828,
        1.464457,
        1.49641,
        1.543538,
        1.583833,
        1.606583,
        1.626629,
        1.654422,
        1.659266,
        1.663326,
        1.652387,
        1.643393,
        1.647462,
        1.667911,
        1.67049,
        1.657117,
        1.634958,
        1.62483,
        1.631086,
        1.627838,
        1.613591,
        1.618933,
        1.620737,
        1.630131,
        1.651621,
        1.671738,
        1.683272,
        1.692161,
        1.713242,
        1.711579,
        1.700712,
        1.699209,
        1.685853,
        1.658505,
        1.641276,
        1.638872,
        1.641415,
        1.651883,
        1.673074,
        1.689571,
        1.710792,
        1.723457,
        1.716649,
        1.706709,
        1.676251,
        1.624993,
        1.579564,
        1.551322,
        1.543567,
        1.559993,
        1.585855,
        1.600693,
        1.611409,
        1.59838,
        1.563958,
        1.539159,
        1.532454,
        1.543448,
        1.553735,
        1.555657,
        1.55116,
        1.554205,
        1.576743,
        1.587416,
        1.597168,
        1.596732,
        1.586495,
        1.569351,
        1.566033,
        1.56533,
        1.559957,
        1.562488,
        1.56996,
        1.570878,
        1.577911,
        1.583663,
        1.579685,
        1.555394,
        1.541349,
        1.561781,
        1.570466,
        1.564434,
        1.556323,
        1.554079,
        1.547907,
        1.543308,
        1.552025,
        1.571082,
        1.587815,
        1.602437,
        1.607975,
        1.611666,
        1.602395,
        1.585519,
        1.556025,
        1.52017,
        1.511423,
        1.510941,
        1.51374,
        1.530518,
        1.554538,
        1.576187,
        1.5803,
        1.586287,
        1.587082,
        1.584331,
        1.584871,
        1.561801,
        1.551248,
        1.540511,
        1.525108,
        1.521807,
        1.534414,
        1.550136,
        1.553246,
        1.552713,
        1.534146,
        1.527995,
        1.542245,
        1.558387,
        1.572752,
        1.597976,
        1.623417,
        1.62793,
        1.621544,
        1.612797,
        1.608453,
        1.593335,
        1.597976,
        1.631409,
        1.657624,
        1.673133,
        1.648038,
        1.578681,
        1.533118,
        1.537596,
        1.537511,
        1.541038,
        1.572821,
        1.631798,
        1.665084,
        1.661836,
        1.639192,
        1.631981,
        1.629421,
        1.626665,
        1.614331,
        1.593958,
        1.594231,
        1.598569,
        1.595677,
        1.57906,
        1.576816,
        1.596966,
        1.61182,
        1.625835,
        1.63278,
        1.638636,
        1.646694,
        1.652673,
        1.635559,
        1.630366,
        1.621419,
        1.61979,
        1.612982,
        1.606845,
        1.607447,
        1.593854,
        1.596387,
        1.610068,
        1.630517,
        1.645259,
        1.649194,
        1.637766,
        1.624807,
        1.625112,
        1.636732,
        1.647238,
        1.644295,
        1.631428,
        1.647054,
        1.668026,
        1.684672,
        1.6773,
        1.66953,
        1.658157,
        1.650111,
        1.639003,
        1.620551,
        1.592633,
        1.583326,
        1.596046,
        1.599979,
        1.590276,
        1.586218,
        1.588537,
        1.591677,
        1.600131,
        1.618125,
        1.640181,
        1.642925,
        1.627263,
        1.611257,
        1.568686,
        1.508168,
        1.45299,
        1.451377,
        1.484908,
        1.531823,
        1.593459,
        1.616524,
        1.627275,
        1.628343,
        1.609813,
        1.609527,
        1.571559,
        1.569891,
        1.581351,
        1.580423,
        1.576891,
        1.580954,
        1.573694,
        1.57914,
        1.600744,
        1.601325,
        1.585383,
        1.555234,
        1.453348,
        1.426986,
        1.469893,
        1.491912,
        1.489506,
        1.522587,
        1.549089,
        1.544805,
        1.486964,
        1.364443,
        1.329899,
        1.382977,
        1.451142,
        1.529123,
        1.564923,
        1.576289,
        1.59141,
        1.60435,
        1.616213,
        1.621187,
        1.618294,
        1.617963,
        1.616241,
        1.604282,
        1.602088,
        1.603036,
        1.61841,
        1.635101,
        1.646251,
        1.650035,
        1.634251,
        1.601003,
        1.535632,
        1.402852,
        1.365936,
        1.390403,
        1.436021,
        1.497804,
        1.521698,
        1.543147,
        1.604874,
        1.60673,
        1.646819,
        1.653425,
        1.662046,
        1.671661,
        1.673109,
        1.663521,
        1.661938,
        1.670258,
        1.670445,
        1.664409,
        1.652701,
        1.639113,
        1.625664,
        1.620381,
        1.633981,
        1.651116,
        1.661467,
        1.660959,
        1.655131,
        1.63439,
        1.595928,
        1.6144,
        1.63131,
        1.615499,
        1.629986,
        1.663479,
        1.669393,
        1.684155,
        1.702324,
        1.706787,
        1.691455,
        1.658938,
        1.630049,
        1.623971,
        1.614877,
        1.618372,
        1.63789,
        1.646293,
        1.653884,
        1.660439,
        1.663654,
        1.656351,
        1.635275,
        1.641722,
        1.631021,
        1.602112,
        1.599375,
        1.601731,
        1.609301,
        1.621123,
        1.634749,
        1.646509,
        1.653948,
        1.655222,
        1.651217,
        1.6435,
        1.634851,
        1.629465,
        1.62823,
        1.630379,
        1.614204,
        1.620051,
        1.62401,
        1.626149,
        1.629176,
        1.633656,
        1.638111,
        1.64079,
        1.64153,
        1.64226,
        1.644995,
        1.649689,
        1.653615,
        1.653712,
        1.648822,
        1.639298,
        1.627012,
        1.612232,
        1.595059,
        1.577608,
        1.562995,
        1.556651,
        1.560138,
        1.570761,
        1.582787,
        1.589223,
        1.58749,
        1.578835,
        1.567039,
        1.555967,
        1.547247,
        1.540033,
        1.53318,
        1.527024,
        1.523567,
        1.524977,
        1.531569,
        1.540545,
        1.548761,
        1.555299,
        1.561303,
        1.568903,
        1.577452,
        1.583191,
        1.581694,
        1.57098,
        1.552898,
        1.53236,
        1.5151,
        1.505581,
        1.50504,
        1.51136,
        1.52057,
        1.528042,
        1.53004,
        1.52556,
        1.517956,
        1.51167,
        1.509473,
        1.511234,
        1.515394,
        1.520114,
        1.524625,
        1.530934,
        1.540922,
        1.552994,
        1.561978,
        1.564157,
        1.559653,
        1.552625,
        1.549016,
        1.552314,
        1.560876,
        1.569391,
        1.573527,
        1.572944,
        1.571029,
        1.571561,
        1.575086,
        1.578698,
        1.578471,
        1.571875,
        1.558598,
        1.539628,
        1.51733,
        1.494441,
        1.474496,
        1.46225,
        1.462513,
        1.476565,
        1.499063,
        1.52292,
        1.542791,
        1.556556,
        1.564155,
        1.566351,
        1.56365,
        1.555031,
        1.541189,
        1.526906,
        1.519971,
        1.525342,
        1.5413,
        1.560821,
        1.575561,
        1.580586,
        1.576583,
        1.56798,
        1.558314,
        1.547578,
        1.533215,
        1.513118,
        1.488316,
        1.46402,
        1.44563,
        1.435315,
        1.431909,
        1.433349,
        1.439296,
        1.450295,
        1.468174,
        1.493201,
        1.521426,
        1.544961,
        1.555854,
        1.552395,
        1.538748,
        1.522033,
        1.508261,
        1.499283,
        1.492496,
        1.483423,
        1.47061,
        1.457232,
        1.449077,
        1.450896,
        1.46334,
        1.482162,
        1.50186,
        1.518927,
        1.532777,
        1.544363,
        1.553772,
        1.559866,
        1.56005,
        1.552557,
        1.538859,
        1.523983,
        1.51414,
        1.51229,
        1.516723,
        1.522354,
        1.524076,
        1.520077,
        1.513028,
        1.508693,
        1.511191,
        1.519777,
        1.529542,
        1.534874,
        1.533422,
        1.52715,
        1.52042,
        1.517113,
        1.518412,
        1.522889,
        1.528314,
        1.533581,
        1.538849,
        1.544022,
        1.548131,
        1.549996,
        1.549626,
        1.548913,
        1.550305,
        1.554258,
        1.558401,
        1.559056,
        1.554185,
        1.548102,
        1.54937,
        1.551028,
        1.552674,
        1.553904,
        1.554315,
        1.553511,
        1.551402,
        1.548289,
        1.544501,
        1.540366,
        1.536208,
        1.532333,
        1.529016,
        1.52643,
        1.524727,
        1.524057,
        1.524573,
        1.526424,
        1.529724,
        1.534007,
        1.538375,
        1.541975,
        1.54397,
        1.543521,
        1.539792,
        1.532575,
        1.523066,
        1.512648,
        1.502707,
        1.494626,
        1.489771,
        1.489258,
        1.492731,
        1.499085,
        1.507207,
        1.515985,
        1.524305,
        1.53106,
        1.535558,
        1.538044,
        1.538902,
        1.538564,
        1.537472,
        1.536067,
        1.534771,
        1.533701,
        1.532757,
        1.531835,
        1.530832,
        1.529642,
        1.528173,
        1.526394,
        1.524334,
        1.522031,
        1.519526,
        1.51686,
        1.514071,
        1.511208,
        1.508453,
        1.506106,
        1.513801,
        1.514103,
        1.515328,
        1.517381,
        1.520068,
        1.523192,
        1.526554,
        1.529958,
        1.53323,
        1.536207,
        1.538758,
        1.540856,
        1.542499,
        1.543669,
        1.544334,
        1.544466,
        1.544033,
        1.543015,
        1.541427,
        1.539301,
        1.536677,
        1.533653,
        1.530346,
        1.526907,
        1.523497,
        1.520276,
        1.517403,
        1.515049,
        1.513414,
        1.512703,
        1.51309,
        1.514611,
        1.517086,
        1.519882,
        1.522303,
        1.523652,
        1.523234,
        1.520833,
        1.517225,
        1.513309,
        1.510008,
        1.508332,
        1.50878,
        1.510826,
        1.513821,
        1.517119,
        1.520074,
        1.522264,
        1.523733,
        1.524581,
        1.524904,
        1.524777,
        1.52428,
        1.523533,
        1.522656,
        1.521773,
        1.521005,
        1.520394,
        1.519791,
        1.519022
      ],
      "range":1
    }
  }
]
