[
  {
    "model":"Star, type F0(i)",
    "name":"Star, type F0(i)",
    "type":"WB_REF",
    "dataQualityMarker":3,
    "dataSource":"https://www.eso.org/sci/facilities/paranal/decommissioned/isaac/tools/lib.html",
    "manufacturer":"A. Pickles (A.J. Pickles, PASP 110,863, 1998)",
    "version":1,
    "wavelength":{
      "value":[
        1150.0,
        1155.0,
        1160.0,
        1165.0,
        1170.0,
        1175.0,
        1180.0,
        1185.0,
        1190.0,
        1195.0,
        1200.0,
        1205.0,
        1210.0,
        1215.0,
        1220.0,
        1225.0,
        1230.0,
        1235.0,
        1240.0,
        1245.0,
        1250.0,
        1255.0,
        1260.0,
        1265.0,
        1270.0,
        1275.0,
        1280.0,
        1285.0,
        1290.0,
        1295.0,
        1300.0,
        1305.0,
        1310.0,
        1315.0,
        1320.0,
        1325.0,
        1330.0,
        1335.0,
        1340.0,
        1345.0,
        1350.0,
        1355.0,
        1360.0,
        1365.0,
        1370.0,
        1375.0,
        1380.0,
        1385.0,
        1390.0,
        1395.0,
        1400.0,
        1405.0,
        1410.0,
        1415.0,
        1420.0,
        1425.0,
        1430.0,
        1435.0,
        1440.0,
        1445.0,
        1450.0,
        1455.0,
        1460.0,
        1465.0,
        1470.0,
        1475.0,
        1480.0,
        1485.0,
        1490.0,
        1495.0,
        1500.0,
        1505.0,
        1510.0,
        1515.0,
        1520.0,
        1525.0,
        1530.0,
        1535.0,
        1540.0,
        1545.0,
        1550.0,
        1555.0,
        1560.0,
        1565.0,
        1570.0,
        1575.0,
        1580.0,
        1585.0,
        1590.0,
        1595.0,
        1600.0,
        1605.0,
        1610.0,
        1615.0,
        1620.0,
        1625.0,
        1630.0,
        1635.0,
        1640.0,
        1645.0,
        1650.0,
        1655.0,
        1660.0,
        1665.0,
        1670.0,
        1675.0,
        1680.0,
        1685.0,
        1690.0,
        1695.0,
        1700.0,
        1705.0,
        1710.0,
        1715.0,
        1720.0,
        1725.0,
        1730.0,
        1735.0,
        1740.0,
        1745.0,
        1750.0,
        1755.0,
        1760.0,
        1765.0,
        1770.0,
        1775.0,
        1780.0,
        1785.0,
        1790.0,
        1795.0,
        1800.0,
        1805.0,
        1810.0,
        1815.0,
        1820.0,
        1825.0,
        1830.0,
        1835.0,
        1840.0,
        1845.0,
        1850.0,
        1855.0,
        1860.0,
        1865.0,
        1870.0,
        1875.0,
        1880.0,
        1885.0,
        1890.0,
        1895.0,
        1900.0,
        1905.0,
        1910.0,
        1915.0,
        1920.0,
        1925.0,
        1930.0,
        1935.0,
        1940.0,
        1945.0,
        1950.0,
        1955.0,
        1960.0,
        1965.0,
        1970.0,
        1975.0,
        1980.0,
        1985.0,
        1990.0,
        1995.0,
        2000.0,
        2005.0,
        2010.0,
        2015.0,
        2020.0,
        2025.0,
        2030.0,
        2035.0,
        2040.0,
        2045.0,
        2050.0,
        2055.0,
        2060.0,
        2065.0,
        2070.0,
        2075.0,
        2080.0,
        2085.0,
        2090.0,
        2095.0,
        2100.0,
        2105.0,
        2110.0,
        2115.0,
        2120.0,
        2125.0,
        2130.0,
        2135.0,
        2140.0,
        2145.0,
        2150.0,
        2155.0,
        2160.0,
        2165.0,
        2170.0,
        2175.0,
        2180.0,
        2185.0,
        2190.0,
        2195.0,
        2200.0,
        2205.0,
        2210.0,
        2215.0,
        2220.0,
        2225.0,
        2230.0,
        2235.0,
        2240.0,
        2245.0,
        2250.0,
        2255.0,
        2260.0,
        2265.0,
        2270.0,
        2275.0,
        2280.0,
        2285.0,
        2290.0,
        2295.0,
        2300.0,
        2305.0,
        2310.0,
        2315.0,
        2320.0,
        2325.0,
        2330.0,
        2335.0,
        2340.0,
        2345.0,
        2350.0,
        2355.0,
        2360.0,
        2365.0,
        2370.0,
        2375.0,
        2380.0,
        2385.0,
        2390.0,
        2395.0,
        2400.0,
        2405.0,
        2410.0,
        2415.0,
        2420.0,
        2425.0,
        2430.0,
        2435.0,
        2440.0,
        2445.0,
        2450.0,
        2455.0,
        2460.0,
        2465.0,
        2470.0,
        2475.0,
        2480.0,
        2485.0,
        2490.0,
        2495.0,
        2500.0,
        2505.0,
        2510.0,
        2515.0,
        2520.0,
        2525.0,
        2530.0,
        2535.0,
        2540.0,
        2545.0,
        2550.0,
        2555.0,
        2560.0,
        2565.0,
        2570.0,
        2575.0,
        2580.0,
        2585.0,
        2590.0,
        2595.0,
        2600.0,
        2605.0,
        2610.0,
        2615.0,
        2620.0,
        2625.0,
        2630.0,
        2635.0,
        2640.0,
        2645.0,
        2650.0,
        2655.0,
        2660.0,
        2665.0,
        2670.0,
        2675.0,
        2680.0,
        2685.0,
        2690.0,
        2695.0,
        2700.0,
        2705.0,
        2710.0,
        2715.0,
        2720.0,
        2725.0,
        2730.0,
        2735.0,
        2740.0,
        2745.0,
        2750.0,
        2755.0,
        2760.0,
        2765.0,
        2770.0,
        2775.0,
        2780.0,
        2785.0,
        2790.0,
        2795.0,
        2800.0,
        2805.0,
        2810.0,
        2815.0,
        2820.0,
        2825.0,
        2830.0,
        2835.0,
        2840.0,
        2845.0,
        2850.0,
        2855.0,
        2860.0,
        2865.0,
        2870.0,
        2875.0,
        2880.0,
        2885.0,
        2890.0,
        2895.0,
        2900.0,
        2905.0,
        2910.0,
        2915.0,
        2920.0,
        2925.0,
        2930.0,
        2935.0,
        2940.0,
        2945.0,
        2950.0,
        2955.0,
        2960.0,
        2965.0,
        2970.0,
        2975.0,
        2980.0,
        2985.0,
        2990.0,
        2995.0,
        3000.0,
        3005.0,
        3010.0,
        3015.0,
        3020.0,
        3025.0,
        3030.0,
        3035.0,
        3040.0,
        3045.0,
        3050.0,
        3055.0,
        3060.0,
        3065.0,
        3070.0,
        3075.0,
        3080.0,
        3085.0,
        3090.0,
        3095.0,
        3100.0,
        3105.0,
        3110.0,
        3115.0,
        3120.0,
        3125.0,
        3130.0,
        3135.0,
        3140.0,
        3145.0,
        3150.0,
        3155.0,
        3160.0,
        3165.0,
        3170.0,
        3175.0,
        3180.0,
        3185.0,
        3190.0,
        3195.0,
        3200.0,
        3205.0,
        3210.0,
        3215.0,
        3220.0,
        3225.0,
        3230.0,
        3235.0,
        3240.0,
        3245.0,
        3250.0,
        3255.0,
        3260.0,
        3265.0,
        3270.0,
        3275.0,
        3280.0,
        3285.0,
        3290.0,
        3295.0,
        3300.0,
        3305.0,
        3310.0,
        3315.0,
        3320.0,
        3325.0,
        3330.0,
        3335.0,
        3340.0,
        3345.0,
        3350.0,
        3355.0,
        3360.0,
        3365.0,
        3370.0,
        3375.0,
        3380.0,
        3385.0,
        3390.0,
        3395.0,
        3400.0,
        3405.0,
        3410.0,
        3415.0,
        3420.0,
        3425.0,
        3430.0,
        3435.0,
        3440.0,
        3445.0,
        3450.0,
        3455.0,
        3460.0,
        3465.0,
        3470.0,
        3475.0,
        3480.0,
        3485.0,
        3490.0,
        3495.0,
        3500.0,
        3505.0,
        3510.0,
        3515.0,
        3520.0,
        3525.0,
        3530.0,
        3535.0,
        3540.0,
        3545.0,
        3550.0,
        3555.0,
        3560.0,
        3565.0,
        3570.0,
        3575.0,
        3580.0,
        3585.0,
        3590.0,
        3595.0,
        3600.0,
        3605.0,
        3610.0,
        3615.0,
        3620.0,
        3625.0,
        3630.0,
        3635.0,
        3640.0,
        3645.0,
        3650.0,
        3655.0,
        3660.0,
        3665.0,
        3670.0,
        3675.0,
        3680.0,
        3685.0,
        3690.0,
        3695.0,
        3700.0,
        3705.0,
        3710.0,
        3715.0,
        3720.0,
        3725.0,
        3730.0,
        3735.0,
        3740.0,
        3745.0,
        3750.0,
        3755.0,
        3760.0,
        3765.0,
        3770.0,
        3775.0,
        3780.0,
        3785.0,
        3790.0,
        3795.0,
        3800.0,
        3805.0,
        3810.0,
        3815.0,
        3820.0,
        3825.0,
        3830.0,
        3835.0,
        3840.0,
        3845.0,
        3850.0,
        3855.0,
        3860.0,
        3865.0,
        3870.0,
        3875.0,
        3880.0,
        3885.0,
        3890.0,
        3895.0,
        3900.0,
        3905.0,
        3910.0,
        3915.0,
        3920.0,
        3925.0,
        3930.0,
        3935.0,
        3940.0,
        3945.0,
        3950.0,
        3955.0,
        3960.0,
        3965.0,
        3970.0,
        3975.0,
        3980.0,
        3985.0,
        3990.0,
        3995.0,
        4000.0,
        4005.0,
        4010.0,
        4015.0,
        4020.0,
        4025.0,
        4030.0,
        4035.0,
        4040.0,
        4045.0,
        4050.0,
        4055.0,
        4060.0,
        4065.0,
        4070.0,
        4075.0,
        4080.0,
        4085.0,
        4090.0,
        4095.0,
        4100.0,
        4105.0,
        4110.0,
        4115.0,
        4120.0,
        4125.0,
        4130.0,
        4135.0,
        4140.0,
        4145.0,
        4150.0,
        4155.0,
        4160.0,
        4165.0,
        4170.0,
        4175.0,
        4180.0,
        4185.0,
        4190.0,
        4195.0,
        4200.0,
        4205.0,
        4210.0,
        4215.0,
        4220.0,
        4225.0,
        4230.0,
        4235.0,
        4240.0,
        4245.0,
        4250.0,
        4255.0,
        4260.0,
        4265.0,
        4270.0,
        4275.0,
        4280.0,
        4285.0,
        4290.0,
        4295.0,
        4300.0,
        4305.0,
        4310.0,
        4315.0,
        4320.0,
        4325.0,
        4330.0,
        4335.0,
        4340.0,
        4345.0,
        4350.0,
        4355.0,
        4360.0,
        4365.0,
        4370.0,
        4375.0,
        4380.0,
        4385.0,
        4390.0,
        4395.0,
        4400.0,
        4405.0,
        4410.0,
        4415.0,
        4420.0,
        4425.0,
        4430.0,
        4435.0,
        4440.0,
        4445.0,
        4450.0,
        4455.0,
        4460.0,
        4465.0,
        4470.0,
        4475.0,
        4480.0,
        4485.0,
        4490.0,
        4495.0,
        4500.0,
        4505.0,
        4510.0,
        4515.0,
        4520.0,
        4525.0,
        4530.0,
        4535.0,
        4540.0,
        4545.0,
        4550.0,
        4555.0,
        4560.0,
        4565.0,
        4570.0,
        4575.0,
        4580.0,
        4585.0,
        4590.0,
        4595.0,
        4600.0,
        4605.0,
        4610.0,
        4615.0,
        4620.0,
        4625.0,
        4630.0,
        4635.0,
        4640.0,
        4645.0,
        4650.0,
        4655.0,
        4660.0,
        4665.0,
        4670.0,
        4675.0,
        4680.0,
        4685.0,
        4690.0,
        4695.0,
        4700.0,
        4705.0,
        4710.0,
        4715.0,
        4720.0,
        4725.0,
        4730.0,
        4735.0,
        4740.0,
        4745.0,
        4750.0,
        4755.0,
        4760.0,
        4765.0,
        4770.0,
        4775.0,
        4780.0,
        4785.0,
        4790.0,
        4795.0,
        4800.0,
        4805.0,
        4810.0,
        4815.0,
        4820.0,
        4825.0,
        4830.0,
        4835.0,
        4840.0,
        4845.0,
        4850.0,
        4855.0,
        4860.0,
        4865.0,
        4870.0,
        4875.0,
        4880.0,
        4885.0,
        4890.0,
        4895.0,
        4900.0,
        4905.0,
        4910.0,
        4915.0,
        4920.0,
        4925.0,
        4930.0,
        4935.0,
        4940.0,
        4945.0,
        4950.0,
        4955.0,
        4960.0,
        4965.0,
        4970.0,
        4975.0,
        4980.0,
        4985.0,
        4990.0,
        4995.0,
        5000.0,
        5005.0,
        5010.0,
        5015.0,
        5020.0,
        5025.0,
        5030.0,
        5035.0,
        5040.0,
        5045.0,
        5050.0,
        5055.0,
        5060.0,
        5065.0,
        5070.0,
        5075.0,
        5080.0,
        5085.0,
        5090.0,
        5095.0,
        5100.0,
        5105.0,
        5110.0,
        5115.0,
        5120.0,
        5125.0,
        5130.0,
        5135.0,
        5140.0,
        5145.0,
        5150.0,
        5155.0,
        5160.0,
        5165.0,
        5170.0,
        5175.0,
        5180.0,
        5185.0,
        5190.0,
        5195.0,
        5200.0,
        5205.0,
        5210.0,
        5215.0,
        5220.0,
        5225.0,
        5230.0,
        5235.0,
        5240.0,
        5245.0,
        5250.0,
        5255.0,
        5260.0,
        5265.0,
        5270.0,
        5275.0,
        5280.0,
        5285.0,
        5290.0,
        5295.0,
        5300.0,
        5305.0,
        5310.0,
        5315.0,
        5320.0,
        5325.0,
        5330.0,
        5335.0,
        5340.0,
        5345.0,
        5350.0,
        5355.0,
        5360.0,
        5365.0,
        5370.0,
        5375.0,
        5380.0,
        5385.0,
        5390.0,
        5395.0,
        5400.0,
        5405.0,
        5410.0,
        5415.0,
        5420.0,
        5425.0,
        5430.0,
        5435.0,
        5440.0,
        5445.0,
        5450.0,
        5455.0,
        5460.0,
        5465.0,
        5470.0,
        5475.0,
        5480.0,
        5485.0,
        5490.0,
        5495.0,
        5500.0,
        5505.0,
        5510.0,
        5515.0,
        5520.0,
        5525.0,
        5530.0,
        5535.0,
        5540.0,
        5545.0,
        5550.0,
        5555.0,
        5560.0,
        5565.0,
        5570.0,
        5575.0,
        5580.0,
        5585.0,
        5590.0,
        5595.0,
        5600.0,
        5605.0,
        5610.0,
        5615.0,
        5620.0,
        5625.0,
        5630.0,
        5635.0,
        5640.0,
        5645.0,
        5650.0,
        5655.0,
        5660.0,
        5665.0,
        5670.0,
        5675.0,
        5680.0,
        5685.0,
        5690.0,
        5695.0,
        5700.0,
        5705.0,
        5710.0,
        5715.0,
        5720.0,
        5725.0,
        5730.0,
        5735.0,
        5740.0,
        5745.0,
        5750.0,
        5755.0,
        5760.0,
        5765.0,
        5770.0,
        5775.0,
        5780.0,
        5785.0,
        5790.0,
        5795.0,
        5800.0,
        5805.0,
        5810.0,
        5815.0,
        5820.0,
        5825.0,
        5830.0,
        5835.0,
        5840.0,
        5845.0,
        5850.0,
        5855.0,
        5860.0,
        5865.0,
        5870.0,
        5875.0,
        5880.0,
        5885.0,
        5890.0,
        5895.0,
        5900.0,
        5905.0,
        5910.0,
        5915.0,
        5920.0,
        5925.0,
        5930.0,
        5935.0,
        5940.0,
        5945.0,
        5950.0,
        5955.0,
        5960.0,
        5965.0,
        5970.0,
        5975.0,
        5980.0,
        5985.0,
        5990.0,
        5995.0,
        6000.0,
        6005.0,
        6010.0,
        6015.0,
        6020.0,
        6025.0,
        6030.0,
        6035.0,
        6040.0,
        6045.0,
        6050.0,
        6055.0,
        6060.0,
        6065.0,
        6070.0,
        6075.0,
        6080.0,
        6085.0,
        6090.0,
        6095.0,
        6100.0,
        6105.0,
        6110.0,
        6115.0,
        6120.0,
        6125.0,
        6130.0,
        6135.0,
        6140.0,
        6145.0,
        6150.0,
        6155.0,
        6160.0,
        6165.0,
        6170.0,
        6175.0,
        6180.0,
        6185.0,
        6190.0,
        6195.0,
        6200.0,
        6205.0,
        6210.0,
        6215.0,
        6220.0,
        6225.0,
        6230.0,
        6235.0,
        6240.0,
        6245.0,
        6250.0,
        6255.0,
        6260.0,
        6265.0,
        6270.0,
        6275.0,
        6280.0,
        6285.0,
        6290.0,
        6295.0,
        6300.0,
        6305.0,
        6310.0,
        6315.0,
        6320.0,
        6325.0,
        6330.0,
        6335.0,
        6340.0,
        6345.0,
        6350.0,
        6355.0,
        6360.0,
        6365.0,
        6370.0,
        6375.0,
        6380.0,
        6385.0,
        6390.0,
        6395.0,
        6400.0,
        6405.0,
        6410.0,
        6415.0,
        6420.0,
        6425.0,
        6430.0,
        6435.0,
        6440.0,
        6445.0,
        6450.0,
        6455.0,
        6460.0,
        6465.0,
        6470.0,
        6475.0,
        6480.0,
        6485.0,
        6490.0,
        6495.0,
        6500.0,
        6505.0,
        6510.0,
        6515.0,
        6520.0,
        6525.0,
        6530.0,
        6535.0,
        6540.0,
        6545.0,
        6550.0,
        6555.0,
        6560.0,
        6565.0,
        6570.0,
        6575.0,
        6580.0,
        6585.0,
        6590.0,
        6595.0,
        6600.0,
        6605.0,
        6610.0,
        6615.0,
        6620.0,
        6625.0,
        6630.0,
        6635.0,
        6640.0,
        6645.0,
        6650.0,
        6655.0,
        6660.0,
        6665.0,
        6670.0,
        6675.0,
        6680.0,
        6685.0,
        6690.0,
        6695.0,
        6700.0,
        6705.0,
        6710.0,
        6715.0,
        6720.0,
        6725.0,
        6730.0,
        6735.0,
        6740.0,
        6745.0,
        6750.0,
        6755.0,
        6760.0,
        6765.0,
        6770.0,
        6775.0,
        6780.0,
        6785.0,
        6790.0,
        6795.0,
        6800.0,
        6805.0,
        6810.0,
        6815.0,
        6820.0,
        6825.0,
        6830.0,
        6835.0,
        6840.0,
        6845.0,
        6850.0,
        6855.0,
        6860.0,
        6865.0,
        6870.0,
        6875.0,
        6880.0,
        6885.0,
        6890.0,
        6895.0,
        6900.0,
        6905.0,
        6910.0,
        6915.0,
        6920.0,
        6925.0,
        6930.0,
        6935.0,
        6940.0,
        6945.0,
        6950.0,
        6955.0,
        6960.0,
        6965.0,
        6970.0,
        6975.0,
        6980.0,
        6985.0,
        6990.0,
        6995.0,
        7000.0,
        7005.0,
        7010.0,
        7015.0,
        7020.0,
        7025.0,
        7030.0,
        7035.0,
        7040.0,
        7045.0,
        7050.0,
        7055.0,
        7060.0,
        7065.0,
        7070.0,
        7075.0,
        7080.0,
        7085.0,
        7090.0,
        7095.0,
        7100.0,
        7105.0,
        7110.0,
        7115.0,
        7120.0,
        7125.0,
        7130.0,
        7135.0,
        7140.0,
        7145.0,
        7150.0,
        7155.0,
        7160.0,
        7165.0,
        7170.0,
        7175.0,
        7180.0,
        7185.0,
        7190.0,
        7195.0,
        7200.0,
        7205.0,
        7210.0,
        7215.0,
        7220.0,
        7225.0,
        7230.0,
        7235.0,
        7240.0,
        7245.0,
        7250.0,
        7255.0,
        7260.0,
        7265.0,
        7270.0,
        7275.0,
        7280.0,
        7285.0,
        7290.0,
        7295.0,
        7300.0,
        7305.0,
        7310.0,
        7315.0,
        7320.0,
        7325.0,
        7330.0,
        7335.0,
        7340.0,
        7345.0,
        7350.0,
        7355.0,
        7360.0,
        7365.0,
        7370.0,
        7375.0,
        7380.0,
        7385.0,
        7390.0,
        7395.0,
        7400.0,
        7405.0,
        7410.0,
        7415.0,
        7420.0,
        7425.0,
        7430.0,
        7435.0,
        7440.0,
        7445.0,
        7450.0,
        7455.0,
        7460.0,
        7465.0,
        7470.0,
        7475.0,
        7480.0,
        7485.0,
        7490.0,
        7495.0,
        7500.0,
        7505.0,
        7510.0,
        7515.0,
        7520.0,
        7525.0,
        7530.0,
        7535.0,
        7540.0,
        7545.0,
        7550.0,
        7555.0,
        7560.0,
        7565.0,
        7570.0,
        7575.0,
        7580.0,
        7585.0,
        7590.0,
        7595.0,
        7600.0,
        7605.0,
        7610.0,
        7615.0,
        7620.0,
        7625.0,
        7630.0,
        7635.0,
        7640.0,
        7645.0,
        7650.0,
        7655.0,
        7660.0,
        7665.0,
        7670.0,
        7675.0,
        7680.0,
        7685.0,
        7690.0,
        7695.0,
        7700.0,
        7705.0,
        7710.0,
        7715.0,
        7720.0,
        7725.0,
        7730.0,
        7735.0,
        7740.0,
        7745.0,
        7750.0,
        7755.0,
        7760.0,
        7765.0,
        7770.0,
        7775.0,
        7780.0,
        7785.0,
        7790.0,
        7795.0,
        7800.0,
        7805.0,
        7810.0,
        7815.0,
        7820.0,
        7825.0,
        7830.0,
        7835.0,
        7840.0,
        7845.0,
        7850.0,
        7855.0,
        7860.0,
        7865.0,
        7870.0,
        7875.0,
        7880.0,
        7885.0,
        7890.0,
        7895.0,
        7900.0,
        7905.0,
        7910.0,
        7915.0,
        7920.0,
        7925.0,
        7930.0,
        7935.0,
        7940.0,
        7945.0,
        7950.0,
        7955.0,
        7960.0,
        7965.0,
        7970.0,
        7975.0,
        7980.0,
        7985.0,
        7990.0,
        7995.0,
        8000.0,
        8005.0,
        8010.0,
        8015.0,
        8020.0,
        8025.0,
        8030.0,
        8035.0,
        8040.0,
        8045.0,
        8050.0,
        8055.0,
        8060.0,
        8065.0,
        8070.0,
        8075.0,
        8080.0,
        8085.0,
        8090.0,
        8095.0,
        8100.0,
        8105.0,
        8110.0,
        8115.0,
        8120.0,
        8125.0,
        8130.0,
        8135.0,
        8140.0,
        8145.0,
        8150.0,
        8155.0,
        8160.0,
        8165.0,
        8170.0,
        8175.0,
        8180.0,
        8185.0,
        8190.0,
        8195.0,
        8200.0,
        8205.0,
        8210.0,
        8215.0,
        8220.0,
        8225.0,
        8230.0,
        8235.0,
        8240.0,
        8245.0,
        8250.0,
        8255.0,
        8260.0,
        8265.0,
        8270.0,
        8275.0,
        8280.0,
        8285.0,
        8290.0,
        8295.0,
        8300.0,
        8305.0,
        8310.0,
        8315.0,
        8320.0,
        8325.0,
        8330.0,
        8335.0,
        8340.0,
        8345.0,
        8350.0,
        8355.0,
        8360.0,
        8365.0,
        8370.0,
        8375.0,
        8380.0,
        8385.0,
        8390.0,
        8395.0,
        8400.0,
        8405.0,
        8410.0,
        8415.0,
        8420.0,
        8425.0,
        8430.0,
        8435.0,
        8440.0,
        8445.0,
        8450.0,
        8455.0,
        8460.0,
        8465.0,
        8470.0,
        8475.0,
        8480.0,
        8485.0,
        8490.0,
        8495.0,
        8500.0,
        8505.0,
        8510.0,
        8515.0,
        8520.0,
        8525.0,
        8530.0,
        8535.0,
        8540.0,
        8545.0,
        8550.0,
        8555.0,
        8560.0,
        8565.0,
        8570.0,
        8575.0,
        8580.0,
        8585.0,
        8590.0,
        8595.0,
        8600.0,
        8605.0,
        8610.0,
        8615.0,
        8620.0,
        8625.0,
        8630.0,
        8635.0,
        8640.0,
        8645.0,
        8650.0,
        8655.0,
        8660.0,
        8665.0,
        8670.0,
        8675.0,
        8680.0,
        8685.0,
        8690.0,
        8695.0,
        8700.0,
        8705.0,
        8710.0,
        8715.0,
        8720.0,
        8725.0,
        8730.0,
        8735.0,
        8740.0,
        8745.0,
        8750.0,
        8755.0,
        8760.0,
        8765.0,
        8770.0,
        8775.0,
        8780.0,
        8785.0,
        8790.0,
        8795.0,
        8800.0,
        8805.0,
        8810.0,
        8815.0,
        8820.0,
        8825.0,
        8830.0,
        8835.0,
        8840.0,
        8845.0,
        8850.0,
        8855.0,
        8860.0,
        8865.0,
        8870.0,
        8875.0,
        8880.0,
        8885.0,
        8890.0,
        8895.0,
        8900.0,
        8905.0,
        8910.0,
        8915.0,
        8920.0,
        8925.0,
        8930.0,
        8935.0,
        8940.0,
        8945.0,
        8950.0,
        8955.0,
        8960.0,
        8965.0,
        8970.0,
        8975.0,
        8980.0,
        8985.0,
        8990.0,
        8995.0,
        9000.0,
        9005.0,
        9010.0,
        9015.0,
        9020.0,
        9025.0,
        9030.0,
        9035.0,
        9040.0,
        9045.0,
        9050.0,
        9055.0,
        9060.0,
        9065.0,
        9070.0,
        9075.0,
        9080.0,
        9085.0,
        9090.0,
        9095.0,
        9100.0,
        9105.0,
        9110.0,
        9115.0,
        9120.0,
        9125.0,
        9130.0,
        9135.0,
        9140.0,
        9145.0,
        9150.0,
        9155.0,
        9160.0,
        9165.0,
        9170.0,
        9175.0,
        9180.0,
        9185.0,
        9190.0,
        9195.0,
        9200.0,
        9205.0,
        9210.0,
        9215.0,
        9220.0,
        9225.0,
        9230.0,
        9235.0,
        9240.0,
        9245.0,
        9250.0,
        9255.0,
        9260.0,
        9265.0,
        9270.0,
        9275.0,
        9280.0,
        9285.0,
        9290.0,
        9295.0,
        9300.0,
        9305.0,
        9310.0,
        9315.0,
        9320.0,
        9325.0,
        9330.0,
        9335.0,
        9340.0,
        9345.0,
        9350.0,
        9355.0,
        9360.0,
        9365.0,
        9370.0,
        9375.0,
        9380.0,
        9385.0,
        9390.0,
        9395.0,
        9400.0,
        9405.0,
        9410.0,
        9415.0,
        9420.0,
        9425.0,
        9430.0,
        9435.0,
        9440.0,
        9445.0,
        9450.0,
        9455.0,
        9460.0,
        9465.0,
        9470.0,
        9475.0,
        9480.0,
        9485.0,
        9490.0,
        9495.0,
        9500.0,
        9505.0,
        9510.0,
        9515.0,
        9520.0,
        9525.0,
        9530.0,
        9535.0,
        9540.0,
        9545.0,
        9550.0,
        9555.0,
        9560.0,
        9565.0,
        9570.0,
        9575.0,
        9580.0,
        9585.0,
        9590.0,
        9595.0,
        9600.0,
        9605.0,
        9610.0,
        9615.0,
        9620.0,
        9625.0,
        9630.0,
        9635.0,
        9640.0,
        9645.0,
        9650.0,
        9655.0,
        9660.0,
        9665.0,
        9670.0,
        9675.0,
        9680.0,
        9685.0,
        9690.0,
        9695.0,
        9700.0,
        9705.0,
        9710.0,
        9715.0,
        9720.0,
        9725.0,
        9730.0,
        9735.0,
        9740.0,
        9745.0,
        9750.0,
        9755.0,
        9760.0,
        9765.0,
        9770.0,
        9775.0,
        9780.0,
        9785.0,
        9790.0,
        9795.0,
        9800.0,
        9805.0,
        9810.0,
        9815.0,
        9820.0,
        9825.0,
        9830.0,
        9835.0,
        9840.0,
        9845.0,
        9850.0,
        9855.0,
        9860.0,
        9865.0,
        9870.0,
        9875.0,
        9880.0,
        9885.0,
        9890.0,
        9895.0,
        9900.0,
        9905.0,
        9910.0,
        9915.0,
        9920.0,
        9925.0,
        9930.0,
        9935.0,
        9940.0,
        9945.0,
        9950.0,
        9955.0,
        9960.0,
        9965.0,
        9970.0,
        9975.0,
        9980.0,
        9985.0,
        9990.0,
        9995.0,
        10000.0,
        10005.0,
        10010.0,
        10015.0,
        10020.0,
        10025.0,
        10030.0,
        10035.0,
        10040.0,
        10045.0,
        10050.0,
        10055.0,
        10060.0,
        10065.0,
        10070.0,
        10075.0,
        10080.0,
        10085.0,
        10090.0,
        10095.0,
        10100.0,
        10105.0,
        10110.0,
        10115.0,
        10120.0,
        10125.0,
        10130.0,
        10135.0,
        10140.0,
        10145.0,
        10150.0,
        10155.0,
        10160.0,
        10165.0,
        10170.0,
        10175.0,
        10180.0,
        10185.0,
        10190.0,
        10195.0,
        10200.0,
        10205.0,
        10210.0,
        10215.0,
        10220.0,
        10225.0,
        10230.0,
        10235.0,
        10240.0,
        10245.0,
        10250.0,
        10255.0,
        10260.0,
        10265.0,
        10270.0,
        10275.0,
        10280.0,
        10285.0,
        10290.0,
        10295.0,
        10300.0,
        10305.0,
        10310.0,
        10315.0,
        10320.0,
        10325.0,
        10330.0,
        10335.0,
        10340.0,
        10345.0,
        10350.0,
        10355.0,
        10360.0,
        10365.0,
        10370.0,
        10375.0,
        10380.0,
        10385.0,
        10390.0,
        10395.0,
        10400.0,
        10405.0,
        10410.0,
        10415.0,
        10420.0,
        10425.0,
        10430.0,
        10435.0,
        10440.0,
        10445.0,
        10450.0,
        10455.0,
        10460.0,
        10465.0,
        10470.0,
        10475.0,
        10480.0,
        10485.0,
        10490.0,
        10495.0,
        10500.0
      ],
      "units":"angstrom"
    },
    "values":{
      "value":[
        0.013157,
        0.011669,
        0.010857,
        0.001061,
        0.003137,
        0.003434,
        0.0,
        0.000587,
        0.0,
        0.0,
        0.000601,
        0.004533,
        0.024812,
        0.047403,
        0.031512,
        0.007147,
        0.000996,
        0.001591,
        0.003228,
        0.001455,
        0.001528,
        0.002101,
        0.001964,
        0.002202,
        0.003161,
        0.003907,
        0.003662,
        0.003198,
        0.003144,
        0.002951,
        0.001689,
        0.001048,
        0.001455,
        0.002162,
        0.002851,
        0.001953,
        0.003056,
        0.003749,
        0.003904,
        0.004835,
        0.004677,
        0.004852,
        0.004844,
        0.003977,
        0.003504,
        0.004107,
        0.00395,
        0.00523,
        0.006617,
        0.00614,
        0.004448,
        0.004929,
        0.004551,
        0.003924,
        0.005418,
        0.006529,
        0.00604,
        0.00454,
        0.006221,
        0.007613,
        0.008005,
        0.008365,
        0.008978,
        0.008055,
        0.007746,
        0.008554,
        0.008979,
        0.009154,
        0.010025,
        0.01068,
        0.012195,
        0.012629,
        0.010556,
        0.010729,
        0.012727,
        0.011748,
        0.011785,
        0.014929,
        0.020583,
        0.023605,
        0.020642,
        0.018702,
        0.017072,
        0.018163,
        0.017819,
        0.019983,
        0.024697,
        0.027721,
        0.031046,
        0.033769,
        0.031899,
        0.029449,
        0.024885,
        0.026694,
        0.026592,
        0.026791,
        0.026263,
        0.022686,
        0.022691,
        0.025193,
        0.027946,
        0.023089,
        0.020895,
        0.028853,
        0.024244,
        0.021539,
        0.029718,
        0.033532,
        0.03316,
        0.03618,
        0.041003,
        0.041772,
        0.044681,
        0.046532,
        0.044882,
        0.047382,
        0.055513,
        0.056778,
        0.060532,
        0.062707,
        0.067097,
        0.07889,
        0.074,
        0.066867,
        0.072002,
        0.078158,
        0.08469,
        0.080764,
        0.083315,
        0.101659,
        0.11064,
        0.099813,
        0.092943,
        0.099162,
        0.095945,
        0.092346,
        0.081791,
        0.078854,
        0.079171,
        0.072874,
        0.07631,
        0.077383,
        0.076993,
        0.076719,
        0.084209,
        0.091815,
        0.09362,
        0.099595,
        0.098928,
        0.096547,
        0.08745,
        0.083136,
        0.080616,
        0.083018,
        0.090659,
        0.092835,
        0.091224,
        0.093444,
        0.102946,
        0.112979,
        0.116751,
        0.115423,
        0.107516,
        0.112662,
        0.108841,
        0.120993,
        0.116498,
        0.124897,
        0.114459,
        0.09736,
        0.099972,
        0.099481,
        0.083737,
        0.09153,
        0.089195,
        0.089611,
        0.090364,
        0.098253,
        0.09765,
        0.089558,
        0.10332,
        0.109785,
        0.09161,
        0.087067,
        0.09437,
        0.097573,
        0.110987,
        0.122915,
        0.118903,
        0.10674,
        0.097941,
        0.09614,
        0.098565,
        0.096222,
        0.09017,
        0.09784,
        0.109612,
        0.078662,
        0.059622,
        0.064105,
        0.075431,
        0.088071,
        0.093847,
        0.083053,
        0.077718,
        0.072414,
        0.070889,
        0.077827,
        0.087796,
        0.096444,
        0.101528,
        0.095543,
        0.085539,
        0.07576,
        0.071631,
        0.072388,
        0.073087,
        0.075091,
        0.084247,
        0.075413,
        0.068669,
        0.065771,
        0.0675,
        0.068663,
        0.072216,
        0.077013,
        0.080956,
        0.084939,
        0.100164,
        0.101521,
        0.090712,
        0.077739,
        0.088433,
        0.097638,
        0.087255,
        0.085784,
        0.083423,
        0.077659,
        0.071947,
        0.068272,
        0.065635,
        0.072858,
        0.077185,
        0.070866,
        0.068335,
        0.076248,
        0.079919,
        0.070523,
        0.059769,
        0.064565,
        0.069422,
        0.06371,
        0.060993,
        0.064285,
        0.079042,
        0.103524,
        0.111152,
        0.101238,
        0.1,
        0.110827,
        0.114342,
        0.115624,
        0.122188,
        0.117299,
        0.104283,
        0.102504,
        0.10115,
        0.09906,
        0.108468,
        0.110761,
        0.130328,
        0.140154,
        0.13325,
        0.123188,
        0.116387,
        0.100501,
        0.094492,
        0.099141,
        0.097886,
        0.093036,
        0.097654,
        0.111635,
        0.123887,
        0.122567,
        0.137146,
        0.142045,
        0.110679,
        0.100893,
        0.113404,
        0.121789,
        0.119583,
        0.118402,
        0.115211,
        0.107453,
        0.117062,
        0.125765,
        0.119464,
        0.136154,
        0.177599,
        0.211357,
        0.233633,
        0.235449,
        0.22242,
        0.188164,
        0.168108,
        0.175509,
        0.184258,
        0.187111,
        0.173639,
        0.158911,
        0.166661,
        0.178917,
        0.170503,
        0.155154,
        0.157763,
        0.159099,
        0.168031,
        0.187216,
        0.186959,
        0.149532,
        0.130867,
        0.129198,
        0.138693,
        0.151602,
        0.16053,
        0.173784,
        0.184179,
        0.169242,
        0.154621,
        0.121267,
        0.083018,
        0.087215,
        0.133256,
        0.18226,
        0.221869,
        0.234716,
        0.228541,
        0.209696,
        0.205358,
        0.195993,
        0.195855,
        0.184545,
        0.187318,
        0.204867,
        0.196595,
        0.19257,
        0.19507,
        0.216567,
        0.222885,
        0.219193,
        0.230871,
        0.260719,
        0.278242,
        0.281271,
        0.29047,
        0.267498,
        0.244586,
        0.246241,
        0.254966,
        0.267717,
        0.258304,
        0.266727,
        0.298346,
        0.301239,
        0.286251,
        0.289794,
        0.301947,
        0.290072,
        0.303139,
        0.335705,
        0.343122,
        0.322892,
        0.345897,
        0.352212,
        0.342015,
        0.339801,
        0.329494,
        0.325414,
        0.324051,
        0.328153,
        0.321352,
        0.323568,
        0.317824,
        0.314223,
        0.32328,
        0.326347,
        0.329573,
        0.355741,
        0.368971,
        0.359385,
        0.337819,
        0.330887,
        0.338427,
        0.338987,
        0.314796,
        0.314109,
        0.325941,
        0.333555,
        0.352794,
        0.365741,
        0.370303,
        0.379224,
        0.354196,
        0.330474,
        0.346399,
        0.386441,
        0.368783,
        0.337258,
        0.342677,
        0.357579,
        0.417596,
        0.415288,
        0.414912,
        0.415388,
        0.403604,
        0.37205,
        0.347661,
        0.355117,
        0.375626,
        0.387278,
        0.399168,
        0.422082,
        0.442543,
        0.444439,
        0.425359,
        0.392537,
        0.378056,
        0.405614,
        0.44051,
        0.446013,
        0.435668,
        0.430266,
        0.429295,
        0.428371,
        0.4289,
        0.431584,
        0.428505,
        0.414075,
        0.400641,
        0.400723,
        0.409596,
        0.418037,
        0.41606,
        0.399507,
        0.38829,
        0.399984,
        0.418751,
        0.42647,
        0.429295,
        0.436095,
        0.442327,
        0.441911,
        0.436017,
        0.429425,
        0.434081,
        0.455402,
        0.465521,
        0.442093,
        0.418139,
        0.425853,
        0.438763,
        0.428692,
        0.419317,
        0.434607,
        0.447839,
        0.432733,
        0.415464,
        0.42325,
        0.435039,
        0.427419,
        0.415819,
        0.41926,
        0.432282,
        0.444378,
        0.449319,
        0.445275,
        0.443719,
        0.454444,
        0.467206,
        0.471102,
        0.472616,
        0.477464,
        0.470877,
        0.442521,
        0.420258,
        0.428806,
        0.442106,
        0.433696,
        0.426302,
        0.443214,
        0.460814,
        0.454402,
        0.441885,
        0.444498,
        0.454181,
        0.459432,
        0.46427,
        0.473297,
        0.477905,
        0.471795,
        0.471119,
        0.489829,
        0.510635,
        0.51529,
        0.512958,
        0.517622,
        0.535135,
        0.567573,
        0.610057,
        0.653599,
        0.679752,
        0.721975,
        0.752793,
        0.836512,
        0.854373,
        0.903001,
        0.923761,
        0.937043,
        1.069678,
        0.927111,
        0.835566,
        1.079295,
        1.175373,
        1.047562,
        0.92191,
        1.194538,
        1.521233,
        1.543409,
        1.340418,
        1.045993,
        1.059331,
        1.380031,
        1.637646,
        1.667533,
        1.603344,
        1.379403,
        1.083615,
        0.937693,
        1.158472,
        1.485657,
        1.704901,
        1.761881,
        1.767139,
        1.815075,
        1.797149,
        1.683125,
        1.451074,
        1.0746,
        0.962657,
        1.237054,
        1.526153,
        1.67773,
        1.739162,
        1.735718,
        1.695928,
        1.39802,
        0.92861,
        0.970523,
        1.3673,
        1.575963,
        1.665569,
        1.644725,
        1.381977,
        0.858795,
        0.670916,
        1.088828,
        1.524147,
        1.730241,
        1.794138,
        1.791988,
        1.778795,
        1.788512,
        1.830577,
        1.875001,
        1.87776,
        1.810885,
        1.758043,
        1.815836,
        1.866441,
        1.827987,
        1.785245,
        1.779376,
        1.796637,
        1.794676,
        1.757803,
        1.686475,
        1.677168,
        1.701653,
        1.620526,
        1.288634,
        0.984945,
        1.147368,
        1.457424,
        1.63714,
        1.685268,
        1.657395,
        1.650335,
        1.740064,
        1.785395,
        1.767926,
        1.741116,
        1.709771,
        1.712371,
        1.719116,
        1.646001,
        1.579951,
        1.594889,
        1.645366,
        1.69805,
        1.666215,
        1.627961,
        1.645926,
        1.683383,
        1.6892,
        1.667667,
        1.60874,
        1.615294,
        1.623671,
        1.648685,
        1.623361,
        1.60795,
        1.634338,
        1.645665,
        1.655907,
        1.614426,
        1.633419,
        1.650788,
        1.600867,
        1.55172,
        1.519389,
        1.476472,
        1.502358,
        1.527081,
        1.512496,
        1.516326,
        1.49017,
        1.370913,
        1.063823,
        0.847457,
        1.054035,
        1.322939,
        1.500776,
        1.584146,
        1.599507,
        1.568766,
        1.580485,
        1.564265,
        1.5172,
        1.519369,
        1.481632,
        1.493462,
        1.530774,
        1.524263,
        1.46763,
        1.470108,
        1.506927,
        1.525199,
        1.530883,
        1.511469,
        1.51035,
        1.53199,
        1.512702,
        1.485379,
        1.461924,
        1.472552,
        1.511381,
        1.49811,
        1.495419,
        1.485,
        1.517168,
        1.554338,
        1.567905,
        1.560671,
        1.517139,
        1.474914,
        1.447754,
        1.43613,
        1.486209,
        1.501121,
        1.454388,
        1.400268,
        1.409649,
        1.45156,
        1.48958,
        1.494388,
        1.46316,
        1.413928,
        1.402282,
        1.430524,
        1.46653,
        1.492681,
        1.518162,
        1.520418,
        1.47827,
        1.462158,
        1.464823,
        1.455843,
        1.474705,
        1.500201,
        1.497166,
        1.485539,
        1.469867,
        1.463449,
        1.42059,
        1.422975,
        1.466081,
        1.494257,
        1.500559,
        1.481571,
        1.461121,
        1.438768,
        1.431676,
        1.439881,
        1.457764,
        1.466791,
        1.442154,
        1.412365,
        1.420825,
        1.435902,
        1.443801,
        1.435347,
        1.409386,
        1.375563,
        1.363312,
        1.381825,
        1.389921,
        1.388225,
        1.387114,
        1.398225,
        1.394441,
        1.378665,
        1.363881,
        1.362221,
        1.371547,
        1.364325,
        1.348373,
        1.339671,
        1.328527,
        1.316438,
        1.27992,
        1.171798,
        0.948238,
        0.765941,
        0.851216,
        1.044564,
        1.158526,
        1.202746,
        1.223035,
        1.242777,
        1.277818,
        1.299633,
        1.314084,
        1.306507,
        1.284124,
        1.246935,
        1.267199,
        1.30606,
        1.310887,
        1.315492,
        1.332516,
        1.332195,
        1.312963,
        1.307693,
        1.305171,
        1.306086,
        1.290362,
        1.257209,
        1.256403,
        1.268395,
        1.271291,
        1.240488,
        1.222563,
        1.216379,
        1.193396,
        1.190216,
        1.225738,
        1.249164,
        1.239335,
        1.219982,
        1.225673,
        1.235899,
        1.249368,
        1.257065,
        1.24224,
        1.220211,
        1.20862,
        1.207304,
        1.222438,
        1.231733,
        1.214269,
        1.201593,
        1.206982,
        1.210282,
        1.222182,
        1.205688,
        1.178542,
        1.166023,
        1.165822,
        1.166814,
        1.164482,
        1.161041,
        1.17076,
        1.166096,
        1.103016,
        1.066542,
        1.118582,
        1.156264,
        1.12752,
        1.103653,
        1.103834,
        1.116544,
        1.116558,
        1.12486,
        1.145423,
        1.154149,
        1.105126,
        1.07698,
        1.081002,
        1.117408,
        1.134962,
        1.131246,
        1.126334,
        1.094871,
        1.048506,
        1.028783,
        1.036704,
        1.065545,
        1.105025,
        1.137788,
        1.131375,
        1.112469,
        1.098971,
        1.091738,
        1.078743,
        1.07318,
        1.059745,
        1.051371,
        1.049455,
        1.056442,
        1.077402,
        1.094245,
        1.099801,
        1.085556,
        1.062278,
        1.054317,
        1.060782,
        1.060229,
        1.072638,
        1.078349,
        1.058407,
        1.033086,
        1.021855,
        1.027952,
        1.030046,
        1.027993,
        1.024921,
        1.027933,
        1.046058,
        1.058137,
        1.044958,
        1.034952,
        1.034922,
        1.044415,
        1.048366,
        1.042594,
        1.021549,
        1.016484,
        1.030157,
        1.031418,
        1.027709,
        1.013903,
        1.005759,
        1.013225,
        1.032443,
        1.028187,
        0.996395,
        0.97736,
        0.988209,
        1.008819,
        1.01435,
        1.017373,
        1.019419,
        1.015659,
        1.00021,
        0.987886,
        0.995577,
        1.000813,
        0.984954,
        0.972324,
        0.972384,
        0.979921,
        0.99215,
        0.995687,
        0.978652,
        0.974143,
        0.978476,
        0.984253,
        0.976999,
        0.969281,
        0.974276,
        0.97365,
        0.947755,
        0.926593,
        0.933757,
        0.947493,
        0.951482,
        0.944581,
        0.936143,
        0.937534,
        0.943355,
        0.945427,
        0.934598,
        0.928156,
        0.939594,
        0.948994,
        0.94563,
        0.942231,
        0.937174,
        0.933398,
        0.929102,
        0.923951,
        0.925534,
        0.930618,
        0.931523,
        0.923828,
        0.91243,
        0.89633,
        0.896277,
        0.900727,
        0.901607,
        0.906222,
        0.907573,
        0.908293,
        0.909578,
        0.911241,
        0.912252,
        0.913205,
        0.913732,
        0.913048,
        0.903018,
        0.893275,
        0.885346,
        0.890111,
        0.89778,
        0.902161,
        0.901858,
        0.889482,
        0.847259,
        0.789424,
        0.795481,
        0.840714,
        0.869472,
        0.876025,
        0.876645,
        0.877545,
        0.867717,
        0.864047,
        0.866592,
        0.868505,
        0.860551,
        0.853083,
        0.848622,
        0.851915,
        0.85247,
        0.847259,
        0.842048,
        0.835637,
        0.832397,
        0.831209,
        0.832216,
        0.830158,
        0.826665,
        0.82359,
        0.820761,
        0.820374,
        0.824525,
        0.823878,
        0.824375,
        0.817735,
        0.815742,
        0.817451,
        0.819821,
        0.820093,
        0.818107,
        0.81787,
        0.813518,
        0.810017,
        0.808705,
        0.811305,
        0.80907,
        0.80368,
        0.80223,
        0.803595,
        0.800562,
        0.798243,
        0.79897,
        0.795587,
        0.782893,
        0.770391,
        0.767768,
        0.767219,
        0.767821,
        0.764896,
        0.770077,
        0.77094,
        0.770803,
        0.77424,
        0.77695,
        0.779103,
        0.78134,
        0.780206,
        0.777655,
        0.776173,
        0.773847,
        0.776571,
        0.774518,
        0.765448,
        0.753362,
        0.74107,
        0.736873,
        0.741062,
        0.76148,
        0.765259,
        0.762941,
        0.755909,
        0.739526,
        0.711961,
        0.720108,
        0.741315,
        0.745743,
        0.740087,
        0.738641,
        0.739887,
        0.733414,
        0.734813,
        0.74449,
        0.74514,
        0.742806,
        0.739004,
        0.72082,
        0.718573,
        0.734073,
        0.73416,
        0.723485,
        0.7085,
        0.714807,
        0.725887,
        0.728952,
        0.730893,
        0.72896,
        0.727868,
        0.725503,
        0.719292,
        0.710823,
        0.711537,
        0.717169,
        0.710059,
        0.708135,
        0.709086,
        0.710443,
        0.706335,
        0.686222,
        0.686663,
        0.700166,
        0.707664,
        0.707766,
        0.700574,
        0.693452,
        0.684642,
        0.677819,
        0.692798,
        0.704952,
        0.704352,
        0.691898,
        0.692567,
        0.69843,
        0.69524,
        0.690118,
        0.685431,
        0.675644,
        0.644069,
        0.571528,
        0.487058,
        0.510442,
        0.600214,
        0.651665,
        0.671646,
        0.671244,
        0.671267,
        0.676443,
        0.679375,
        0.678098,
        0.675711,
        0.677174,
        0.681354,
        0.67965,
        0.675619,
        0.672687,
        0.672596,
        0.66913,
        0.668792,
        0.669423,
        0.66624,
        0.664953,
        0.663766,
        0.658699,
        0.656501,
        0.661303,
        0.662295,
        0.661369,
        0.660053,
        0.658945,
        0.658228,
        0.652451,
        0.648382,
        0.651112,
        0.654236,
        0.652847,
        0.64775,
        0.643954,
        0.641845,
        0.641154,
        0.643708,
        0.646887,
        0.644885,
        0.643603,
        0.640791,
        0.640115,
        0.637799,
        0.635645,
        0.648074,
        0.645939,
        0.646495,
        0.64701,
        0.645549,
        0.641332,
        0.638661,
        0.637816,
        0.637293,
        0.636545,
        0.635599,
        0.634703,
        0.633859,
        0.633007,
        0.632101,
        0.631255,
        0.630443,
        0.629615,
        0.628726,
        0.627839,
        0.62696,
        0.626076,
        0.625181,
        0.624328,
        0.623508,
        0.622699,
        0.621985,
        0.621304,
        0.620715,
        0.620183,
        0.619413,
        0.6185,
        0.617827,
        0.617534,
        0.616395,
        0.611827,
        0.608497,
        0.607599,
        0.604052,
        0.599673,
        0.595061,
        0.59686,
        0.60376,
        0.602913,
        0.601576,
        0.600852,
        0.604307,
        0.603307,
        0.600053,
        0.601733,
        0.602427,
        0.59873,
        0.596606,
        0.59436,
        0.595761,
        0.594643,
        0.592477,
        0.592038,
        0.589617,
        0.590451,
        0.590101,
        0.586309,
        0.581377,
        0.57693,
        0.580622,
        0.585751,
        0.587573,
        0.589522,
        0.589743,
        0.585625,
        0.581849,
        0.585142,
        0.583936,
        0.572873,
        0.560668,
        0.552645,
        0.548821,
        0.53753,
        0.535512,
        0.539092,
        0.541837,
        0.549553,
        0.564527,
        0.5692,
        0.566411,
        0.559445,
        0.558014,
        0.548911,
        0.549075,
        0.546925,
        0.549031,
        0.550144,
        0.556552,
        0.551422,
        0.551935,
        0.543812,
        0.542564,
        0.542478,
        0.533952,
        0.542138,
        0.544746,
        0.535092,
        0.529837,
        0.535252,
        0.539764,
        0.5451,
        0.545477,
        0.548423,
        0.553875,
        0.550279,
        0.544894,
        0.54159,
        0.542159,
        0.541437,
        0.539825,
        0.540782,
        0.540297,
        0.533877,
        0.531144,
        0.533459,
        0.535338,
        0.533482,
        0.528831,
        0.524561,
        0.521903,
        0.524293,
        0.529627,
        0.528626,
        0.522388,
        0.515871,
        0.518337,
        0.52129,
        0.519457,
        0.515304,
        0.51424,
        0.518625,
        0.519081,
        0.520588,
        0.5215,
        0.518996,
        0.517629,
        0.513883,
        0.510248,
        0.508574,
        0.513303,
        0.511862,
        0.509194,
        0.509627,
        0.513685,
        0.512618,
        0.510217,
        0.509191,
        0.508635,
        0.507921,
        0.507042,
        0.506145,
        0.505219,
        0.504431,
        0.503656,
        0.502847,
        0.502024,
        0.501278,
        0.500521,
        0.499752,
        0.498986,
        0.498221,
        0.497459,
        0.496698,
        0.49594,
        0.495183,
        0.494427,
        0.493672,
        0.492919,
        0.492166,
        0.49142,
        0.490676,
        0.489912,
        0.489184,
        0.488453,
        0.487699,
        0.486966,
        0.486294,
        0.486268,
        0.487312,
        0.487393,
        0.486575,
        0.485806,
        0.48593,
        0.485794,
        0.482421,
        0.480478,
        0.480654,
        0.480068,
        0.476877,
        0.453725,
        0.419725,
        0.440836,
        0.464172,
        0.476284,
        0.477332,
        0.472333,
        0.471698,
        0.472644,
        0.474528,
        0.47468,
        0.472145,
        0.468219,
        0.466446,
        0.466557,
        0.466347,
        0.463346,
        0.462476,
        0.462101,
        0.462588,
        0.463742,
        0.456851,
        0.452029,
        0.456913,
        0.457872,
        0.449515,
        0.446212,
        0.451526,
        0.454448,
        0.453635,
        0.450344,
        0.448881,
        0.447724,
        0.449135,
        0.450186,
        0.445957,
        0.443282,
        0.445072,
        0.446594,
        0.446422,
        0.445724,
        0.445801,
        0.446203,
        0.44606,
        0.443941,
        0.440485,
        0.43682,
        0.438149,
        0.438964,
        0.438671,
        0.437005,
        0.435898,
        0.43576,
        0.436119,
        0.434363,
        0.431706,
        0.430568,
        0.431653,
        0.432397,
        0.43245,
        0.432626,
        0.432116,
        0.432715,
        0.429324,
        0.428053,
        0.427321,
        0.427352,
        0.429275,
        0.429719,
        0.42736,
        0.426383,
        0.425519,
        0.423509,
        0.418165,
        0.416108,
        0.414,
        0.410911,
        0.40916,
        0.405571,
        0.399319,
        0.402716,
        0.402688,
        0.3967,
        0.391115,
        0.38952,
        0.389461,
        0.391921,
        0.407791,
        0.417952,
        0.408554,
        0.394981,
        0.377433,
        0.36741,
        0.387012,
        0.40557,
        0.403165,
        0.400371,
        0.397345,
        0.402591,
        0.408359,
        0.409532,
        0.40199,
        0.396629,
        0.395225,
        0.394619,
        0.3977,
        0.399605,
        0.397693,
        0.397162,
        0.395028,
        0.394035,
        0.394144,
        0.394378,
        0.38437,
        0.387609,
        0.391306,
        0.398557,
        0.399214,
        0.39028,
        0.40679,
        0.411138,
        0.392384,
        0.39465,
        0.404203,
        0.399716,
        0.391803,
        0.403455,
        0.415674,
        0.408319,
        0.384674,
        0.388467,
        0.410973,
        0.420959,
        0.39715,
        0.368139,
        0.36966,
        0.388493,
        0.420373,
        0.422523,
        0.385201,
        0.361585,
        0.387872,
        0.418985,
        0.435567,
        0.429524,
        0.393816,
        0.3433,
        0.339728,
        0.368817,
        0.396,
        0.418417,
        0.423972,
        0.421398,
        0.410729,
        0.362408,
        0.293825,
        0.292296,
        0.345255,
        0.398904,
        0.413929,
        0.408819,
        0.408735,
        0.40955,
        0.40488,
        0.389259,
        0.354034,
        0.329129,
        0.353587,
        0.381564,
        0.39989,
        0.410653,
        0.416069,
        0.416387,
        0.42221,
        0.424718,
        0.421146,
        0.41612,
        0.408133,
        0.366417,
        0.296278,
        0.291774,
        0.340426,
        0.379229,
        0.375666,
        0.381444,
        0.412593,
        0.401852,
        0.400834,
        0.40014,
        0.400399,
        0.400642,
        0.40087,
        0.393813,
        0.390435,
        0.378899,
        0.358988,
        0.32204,
        0.334402,
        0.368545,
        0.382155,
        0.38821,
        0.389751,
        0.388856,
        0.388519,
        0.386922,
        0.38307,
        0.38848,
        0.383437,
        0.382698,
        0.385091,
        0.383353,
        0.379472,
        0.38106,
        0.381123,
        0.380163,
        0.37609,
        0.369507,
        0.355797,
        0.324977,
        0.308252,
        0.343987,
        0.364967,
        0.372719,
        0.379348,
        0.382175,
        0.385348,
        0.385795,
        0.387338,
        0.375411,
        0.371724,
        0.382343,
        0.370862,
        0.364042,
        0.377936,
        0.38121,
        0.379503,
        0.371792,
        0.372534,
        0.37344,
        0.36513,
        0.365734,
        0.36512,
        0.363139,
        0.352086,
        0.334378,
        0.350311,
        0.346163,
        0.334243,
        0.318203,
        0.289355,
        0.308912,
        0.340429,
        0.361212,
        0.379532,
        0.385918,
        0.384206,
        0.383013,
        0.378062,
        0.354268,
        0.348107,
        0.3579,
        0.349583,
        0.342875,
        0.344373,
        0.3352,
        0.335183,
        0.350007,
        0.357886,
        0.355047,
        0.357165,
        0.363214,
        0.365642,
        0.354324,
        0.348613,
        0.359232,
        0.366713,
        0.3547,
        0.341252,
        0.351552,
        0.360422,
        0.355719,
        0.341844,
        0.347986,
        0.356894,
        0.360292,
        0.355642,
        0.361388,
        0.357881,
        0.34055,
        0.319206,
        0.311951,
        0.305268,
        0.282533,
        0.302885,
        0.322436,
        0.326365,
        0.338601,
        0.350475,
        0.341042,
        0.332714,
        0.354977,
        0.368576,
        0.359876,
        0.362787,
        0.363098,
        0.35403,
        0.342558,
        0.3405,
        0.332014,
        0.315971,
        0.300967,
        0.303133,
        0.305399,
        0.287708,
        0.280261,
        0.270038,
        0.311077,
        0.292599,
        0.299427,
        0.319965,
        0.297456,
        0.314008,
        0.310183,
        0.330879,
        0.354633,
        0.378575,
        0.368457,
        0.349659,
        0.340546,
        0.34299,
        0.341495,
        0.327913,
        0.303453,
        0.331771,
        0.289401,
        0.302421,
        0.330268,
        0.311509,
        0.299485,
        0.313901,
        0.327239,
        0.320471,
        0.310194,
        0.320338,
        0.336043,
        0.306724,
        0.289039,
        0.320345,
        0.345202,
        0.324895,
        0.294109,
        0.291143,
        0.30435,
        0.311294,
        0.293539,
        0.251465,
        0.260134,
        0.269042,
        0.296184,
        0.292551,
        0.304931,
        0.327318,
        0.31067,
        0.305908,
        0.294294,
        0.297439,
        0.306113,
        0.303599,
        0.311776,
        0.306921,
        0.293813,
        0.294754,
        0.305168,
        0.302626,
        0.299153,
        0.301449,
        0.297572,
        0.295055,
        0.286825,
        0.287727,
        0.306164,
        0.316481,
        0.307575,
        0.311028,
        0.314578,
        0.316669,
        0.310041,
        0.305479,
        0.312073,
        0.302621,
        0.302194,
        0.297494,
        0.29513,
        0.284939,
        0.289025,
        0.29299,
        0.286489,
        0.281878,
        0.287643,
        0.290969,
        0.292901,
        0.292606,
        0.292814,
        0.290331,
        0.28319,
        0.290616,
        0.284869,
        0.287956,
        0.292069,
        0.290892,
        0.288141,
        0.281865,
        0.288952,
        0.286148,
        0.288463,
        0.286754,
        0.288309,
        0.285894,
        0.282473,
        0.295588,
        0.284208,
        0.284279,
        0.28259,
        0.279903,
        0.278448,
        0.269629,
        0.286306,
        0.284308,
        0.283983,
        0.282047,
        0.281803,
        0.279479,
        0.277368,
        0.274675,
        0.270574,
        0.277618,
        0.280624,
        0.276264,
        0.277388,
        0.280323,
        0.276436,
        0.276976,
        0.261058,
        0.270697,
        0.270569,
        0.267416,
        0.267647,
        0.268667,
        0.267062,
        0.272033,
        0.265213,
        0.266012,
        0.267206,
        0.258653,
        0.241445,
        0.236154,
        0.219608,
        0.234507,
        0.250819,
        0.24348,
        0.262107,
        0.254853,
        0.264246,
        0.258248,
        0.259635,
        0.262989,
        0.259952,
        0.259865,
        0.261255,
        0.263125,
        0.264402,
        0.258447,
        0.26184,
        0.261743,
        0.261439,
        0.260261,
        0.259184,
        0.258283,
        0.257555,
        0.256975,
        0.256521,
        0.256168,
        0.255893,
        0.255672,
        0.255483,
        0.255301,
        0.255102,
        0.254868,
        0.254594,
        0.25428,
        0.253928,
        0.253538,
        0.253109,
        0.252643,
        0.252139,
        0.251598,
        0.25102,
        0.250408,
        0.249769,
        0.249113,
        0.248451,
        0.247793,
        0.247147,
        0.246525,
        0.245936,
        0.245391,
        0.244898,
        0.243864,
        0.243529,
        0.243216,
        0.24292,
        0.242636,
        0.24236,
        0.242088,
        0.241813,
        0.241532,
        0.241239,
        0.240931,
        0.240609,
        0.240274,
        0.239929,
        0.239575,
        0.239214,
        0.238848,
        0.238478,
        0.238107,
        0.237737,
        0.237368,
        0.237003,
        0.23664,
        0.23628,
        0.235926,
        0.235575,
        0.23523,
        0.234891,
        0.234557,
        0.234229,
        0.233909,
        0.233595,
        0.233287,
        0.232983,
        0.232684,
        0.232388,
        0.232096,
        0.231805,
        0.231516,
        0.231227
      ],
      "range":1
    }
  }
]
