[
  {
    "model":"Star, type F5(i)",
    "name":"Star, type F5(i)",
    "type":"WB_REF",
    "dataQualityMarker":3,
    "dataSource":"https://www.eso.org/sci/facilities/paranal/decommissioned/isaac/tools/lib.html",
    "manufacturer":"A. Pickles (A.J. Pickles, PASP 110,863, 1998)",
    "version":1,
    "wavelength":{
      "value":[
        1150.0,
        1155.0,
        1160.0,
        1165.0,
        1170.0,
        1175.0,
        1180.0,
        1185.0,
        1190.0,
        1195.0,
        1200.0,
        1205.0,
        1210.0,
        1215.0,
        1220.0,
        1225.0,
        1230.0,
        1235.0,
        1240.0,
        1245.0,
        1250.0,
        1255.0,
        1260.0,
        1265.0,
        1270.0,
        1275.0,
        1280.0,
        1285.0,
        1290.0,
        1295.0,
        1300.0,
        1305.0,
        1310.0,
        1315.0,
        1320.0,
        1325.0,
        1330.0,
        1335.0,
        1340.0,
        1345.0,
        1350.0,
        1355.0,
        1360.0,
        1365.0,
        1370.0,
        1375.0,
        1380.0,
        1385.0,
        1390.0,
        1395.0,
        1400.0,
        1405.0,
        1410.0,
        1415.0,
        1420.0,
        1425.0,
        1430.0,
        1435.0,
        1440.0,
        1445.0,
        1450.0,
        1455.0,
        1460.0,
        1465.0,
        1470.0,
        1475.0,
        1480.0,
        1485.0,
        1490.0,
        1495.0,
        1500.0,
        1505.0,
        1510.0,
        1515.0,
        1520.0,
        1525.0,
        1530.0,
        1535.0,
        1540.0,
        1545.0,
        1550.0,
        1555.0,
        1560.0,
        1565.0,
        1570.0,
        1575.0,
        1580.0,
        1585.0,
        1590.0,
        1595.0,
        1600.0,
        1605.0,
        1610.0,
        1615.0,
        1620.0,
        1625.0,
        1630.0,
        1635.0,
        1640.0,
        1645.0,
        1650.0,
        1655.0,
        1660.0,
        1665.0,
        1670.0,
        1675.0,
        1680.0,
        1685.0,
        1690.0,
        1695.0,
        1700.0,
        1705.0,
        1710.0,
        1715.0,
        1720.0,
        1725.0,
        1730.0,
        1735.0,
        1740.0,
        1745.0,
        1750.0,
        1755.0,
        1760.0,
        1765.0,
        1770.0,
        1775.0,
        1780.0,
        1785.0,
        1790.0,
        1795.0,
        1800.0,
        1805.0,
        1810.0,
        1815.0,
        1820.0,
        1825.0,
        1830.0,
        1835.0,
        1840.0,
        1845.0,
        1850.0,
        1855.0,
        1860.0,
        1865.0,
        1870.0,
        1875.0,
        1880.0,
        1885.0,
        1890.0,
        1895.0,
        1900.0,
        1905.0,
        1910.0,
        1915.0,
        1920.0,
        1925.0,
        1930.0,
        1935.0,
        1940.0,
        1945.0,
        1950.0,
        1955.0,
        1960.0,
        1965.0,
        1970.0,
        1975.0,
        1980.0,
        1985.0,
        1990.0,
        1995.0,
        2000.0,
        2005.0,
        2010.0,
        2015.0,
        2020.0,
        2025.0,
        2030.0,
        2035.0,
        2040.0,
        2045.0,
        2050.0,
        2055.0,
        2060.0,
        2065.0,
        2070.0,
        2075.0,
        2080.0,
        2085.0,
        2090.0,
        2095.0,
        2100.0,
        2105.0,
        2110.0,
        2115.0,
        2120.0,
        2125.0,
        2130.0,
        2135.0,
        2140.0,
        2145.0,
        2150.0,
        2155.0,
        2160.0,
        2165.0,
        2170.0,
        2175.0,
        2180.0,
        2185.0,
        2190.0,
        2195.0,
        2200.0,
        2205.0,
        2210.0,
        2215.0,
        2220.0,
        2225.0,
        2230.0,
        2235.0,
        2240.0,
        2245.0,
        2250.0,
        2255.0,
        2260.0,
        2265.0,
        2270.0,
        2275.0,
        2280.0,
        2285.0,
        2290.0,
        2295.0,
        2300.0,
        2305.0,
        2310.0,
        2315.0,
        2320.0,
        2325.0,
        2330.0,
        2335.0,
        2340.0,
        2345.0,
        2350.0,
        2355.0,
        2360.0,
        2365.0,
        2370.0,
        2375.0,
        2380.0,
        2385.0,
        2390.0,
        2395.0,
        2400.0,
        2405.0,
        2410.0,
        2415.0,
        2420.0,
        2425.0,
        2430.0,
        2435.0,
        2440.0,
        2445.0,
        2450.0,
        2455.0,
        2460.0,
        2465.0,
        2470.0,
        2475.0,
        2480.0,
        2485.0,
        2490.0,
        2495.0,
        2500.0,
        2505.0,
        2510.0,
        2515.0,
        2520.0,
        2525.0,
        2530.0,
        2535.0,
        2540.0,
        2545.0,
        2550.0,
        2555.0,
        2560.0,
        2565.0,
        2570.0,
        2575.0,
        2580.0,
        2585.0,
        2590.0,
        2595.0,
        2600.0,
        2605.0,
        2610.0,
        2615.0,
        2620.0,
        2625.0,
        2630.0,
        2635.0,
        2640.0,
        2645.0,
        2650.0,
        2655.0,
        2660.0,
        2665.0,
        2670.0,
        2675.0,
        2680.0,
        2685.0,
        2690.0,
        2695.0,
        2700.0,
        2705.0,
        2710.0,
        2715.0,
        2720.0,
        2725.0,
        2730.0,
        2735.0,
        2740.0,
        2745.0,
        2750.0,
        2755.0,
        2760.0,
        2765.0,
        2770.0,
        2775.0,
        2780.0,
        2785.0,
        2790.0,
        2795.0,
        2800.0,
        2805.0,
        2810.0,
        2815.0,
        2820.0,
        2825.0,
        2830.0,
        2835.0,
        2840.0,
        2845.0,
        2850.0,
        2855.0,
        2860.0,
        2865.0,
        2870.0,
        2875.0,
        2880.0,
        2885.0,
        2890.0,
        2895.0,
        2900.0,
        2905.0,
        2910.0,
        2915.0,
        2920.0,
        2925.0,
        2930.0,
        2935.0,
        2940.0,
        2945.0,
        2950.0,
        2955.0,
        2960.0,
        2965.0,
        2970.0,
        2975.0,
        2980.0,
        2985.0,
        2990.0,
        2995.0,
        3000.0,
        3005.0,
        3010.0,
        3015.0,
        3020.0,
        3025.0,
        3030.0,
        3035.0,
        3040.0,
        3045.0,
        3050.0,
        3055.0,
        3060.0,
        3065.0,
        3070.0,
        3075.0,
        3080.0,
        3085.0,
        3090.0,
        3095.0,
        3100.0,
        3105.0,
        3110.0,
        3115.0,
        3120.0,
        3125.0,
        3130.0,
        3135.0,
        3140.0,
        3145.0,
        3150.0,
        3155.0,
        3160.0,
        3165.0,
        3170.0,
        3175.0,
        3180.0,
        3185.0,
        3190.0,
        3195.0,
        3200.0,
        3205.0,
        3210.0,
        3215.0,
        3220.0,
        3225.0,
        3230.0,
        3235.0,
        3240.0,
        3245.0,
        3250.0,
        3255.0,
        3260.0,
        3265.0,
        3270.0,
        3275.0,
        3280.0,
        3285.0,
        3290.0,
        3295.0,
        3300.0,
        3305.0,
        3310.0,
        3315.0,
        3320.0,
        3325.0,
        3330.0,
        3335.0,
        3340.0,
        3345.0,
        3350.0,
        3355.0,
        3360.0,
        3365.0,
        3370.0,
        3375.0,
        3380.0,
        3385.0,
        3390.0,
        3395.0,
        3400.0,
        3405.0,
        3410.0,
        3415.0,
        3420.0,
        3425.0,
        3430.0,
        3435.0,
        3440.0,
        3445.0,
        3450.0,
        3455.0,
        3460.0,
        3465.0,
        3470.0,
        3475.0,
        3480.0,
        3485.0,
        3490.0,
        3495.0,
        3500.0,
        3505.0,
        3510.0,
        3515.0,
        3520.0,
        3525.0,
        3530.0,
        3535.0,
        3540.0,
        3545.0,
        3550.0,
        3555.0,
        3560.0,
        3565.0,
        3570.0,
        3575.0,
        3580.0,
        3585.0,
        3590.0,
        3595.0,
        3600.0,
        3605.0,
        3610.0,
        3615.0,
        3620.0,
        3625.0,
        3630.0,
        3635.0,
        3640.0,
        3645.0,
        3650.0,
        3655.0,
        3660.0,
        3665.0,
        3670.0,
        3675.0,
        3680.0,
        3685.0,
        3690.0,
        3695.0,
        3700.0,
        3705.0,
        3710.0,
        3715.0,
        3720.0,
        3725.0,
        3730.0,
        3735.0,
        3740.0,
        3745.0,
        3750.0,
        3755.0,
        3760.0,
        3765.0,
        3770.0,
        3775.0,
        3780.0,
        3785.0,
        3790.0,
        3795.0,
        3800.0,
        3805.0,
        3810.0,
        3815.0,
        3820.0,
        3825.0,
        3830.0,
        3835.0,
        3840.0,
        3845.0,
        3850.0,
        3855.0,
        3860.0,
        3865.0,
        3870.0,
        3875.0,
        3880.0,
        3885.0,
        3890.0,
        3895.0,
        3900.0,
        3905.0,
        3910.0,
        3915.0,
        3920.0,
        3925.0,
        3930.0,
        3935.0,
        3940.0,
        3945.0,
        3950.0,
        3955.0,
        3960.0,
        3965.0,
        3970.0,
        3975.0,
        3980.0,
        3985.0,
        3990.0,
        3995.0,
        4000.0,
        4005.0,
        4010.0,
        4015.0,
        4020.0,
        4025.0,
        4030.0,
        4035.0,
        4040.0,
        4045.0,
        4050.0,
        4055.0,
        4060.0,
        4065.0,
        4070.0,
        4075.0,
        4080.0,
        4085.0,
        4090.0,
        4095.0,
        4100.0,
        4105.0,
        4110.0,
        4115.0,
        4120.0,
        4125.0,
        4130.0,
        4135.0,
        4140.0,
        4145.0,
        4150.0,
        4155.0,
        4160.0,
        4165.0,
        4170.0,
        4175.0,
        4180.0,
        4185.0,
        4190.0,
        4195.0,
        4200.0,
        4205.0,
        4210.0,
        4215.0,
        4220.0,
        4225.0,
        4230.0,
        4235.0,
        4240.0,
        4245.0,
        4250.0,
        4255.0,
        4260.0,
        4265.0,
        4270.0,
        4275.0,
        4280.0,
        4285.0,
        4290.0,
        4295.0,
        4300.0,
        4305.0,
        4310.0,
        4315.0,
        4320.0,
        4325.0,
        4330.0,
        4335.0,
        4340.0,
        4345.0,
        4350.0,
        4355.0,
        4360.0,
        4365.0,
        4370.0,
        4375.0,
        4380.0,
        4385.0,
        4390.0,
        4395.0,
        4400.0,
        4405.0,
        4410.0,
        4415.0,
        4420.0,
        4425.0,
        4430.0,
        4435.0,
        4440.0,
        4445.0,
        4450.0,
        4455.0,
        4460.0,
        4465.0,
        4470.0,
        4475.0,
        4480.0,
        4485.0,
        4490.0,
        4495.0,
        4500.0,
        4505.0,
        4510.0,
        4515.0,
        4520.0,
        4525.0,
        4530.0,
        4535.0,
        4540.0,
        4545.0,
        4550.0,
        4555.0,
        4560.0,
        4565.0,
        4570.0,
        4575.0,
        4580.0,
        4585.0,
        4590.0,
        4595.0,
        4600.0,
        4605.0,
        4610.0,
        4615.0,
        4620.0,
        4625.0,
        4630.0,
        4635.0,
        4640.0,
        4645.0,
        4650.0,
        4655.0,
        4660.0,
        4665.0,
        4670.0,
        4675.0,
        4680.0,
        4685.0,
        4690.0,
        4695.0,
        4700.0,
        4705.0,
        4710.0,
        4715.0,
        4720.0,
        4725.0,
        4730.0,
        4735.0,
        4740.0,
        4745.0,
        4750.0,
        4755.0,
        4760.0,
        4765.0,
        4770.0,
        4775.0,
        4780.0,
        4785.0,
        4790.0,
        4795.0,
        4800.0,
        4805.0,
        4810.0,
        4815.0,
        4820.0,
        4825.0,
        4830.0,
        4835.0,
        4840.0,
        4845.0,
        4850.0,
        4855.0,
        4860.0,
        4865.0,
        4870.0,
        4875.0,
        4880.0,
        4885.0,
        4890.0,
        4895.0,
        4900.0,
        4905.0,
        4910.0,
        4915.0,
        4920.0,
        4925.0,
        4930.0,
        4935.0,
        4940.0,
        4945.0,
        4950.0,
        4955.0,
        4960.0,
        4965.0,
        4970.0,
        4975.0,
        4980.0,
        4985.0,
        4990.0,
        4995.0,
        5000.0,
        5005.0,
        5010.0,
        5015.0,
        5020.0,
        5025.0,
        5030.0,
        5035.0,
        5040.0,
        5045.0,
        5050.0,
        5055.0,
        5060.0,
        5065.0,
        5070.0,
        5075.0,
        5080.0,
        5085.0,
        5090.0,
        5095.0,
        5100.0,
        5105.0,
        5110.0,
        5115.0,
        5120.0,
        5125.0,
        5130.0,
        5135.0,
        5140.0,
        5145.0,
        5150.0,
        5155.0,
        5160.0,
        5165.0,
        5170.0,
        5175.0,
        5180.0,
        5185.0,
        5190.0,
        5195.0,
        5200.0,
        5205.0,
        5210.0,
        5215.0,
        5220.0,
        5225.0,
        5230.0,
        5235.0,
        5240.0,
        5245.0,
        5250.0,
        5255.0,
        5260.0,
        5265.0,
        5270.0,
        5275.0,
        5280.0,
        5285.0,
        5290.0,
        5295.0,
        5300.0,
        5305.0,
        5310.0,
        5315.0,
        5320.0,
        5325.0,
        5330.0,
        5335.0,
        5340.0,
        5345.0,
        5350.0,
        5355.0,
        5360.0,
        5365.0,
        5370.0,
        5375.0,
        5380.0,
        5385.0,
        5390.0,
        5395.0,
        5400.0,
        5405.0,
        5410.0,
        5415.0,
        5420.0,
        5425.0,
        5430.0,
        5435.0,
        5440.0,
        5445.0,
        5450.0,
        5455.0,
        5460.0,
        5465.0,
        5470.0,
        5475.0,
        5480.0,
        5485.0,
        5490.0,
        5495.0,
        5500.0,
        5505.0,
        5510.0,
        5515.0,
        5520.0,
        5525.0,
        5530.0,
        5535.0,
        5540.0,
        5545.0,
        5550.0,
        5555.0,
        5560.0,
        5565.0,
        5570.0,
        5575.0,
        5580.0,
        5585.0,
        5590.0,
        5595.0,
        5600.0,
        5605.0,
        5610.0,
        5615.0,
        5620.0,
        5625.0,
        5630.0,
        5635.0,
        5640.0,
        5645.0,
        5650.0,
        5655.0,
        5660.0,
        5665.0,
        5670.0,
        5675.0,
        5680.0,
        5685.0,
        5690.0,
        5695.0,
        5700.0,
        5705.0,
        5710.0,
        5715.0,
        5720.0,
        5725.0,
        5730.0,
        5735.0,
        5740.0,
        5745.0,
        5750.0,
        5755.0,
        5760.0,
        5765.0,
        5770.0,
        5775.0,
        5780.0,
        5785.0,
        5790.0,
        5795.0,
        5800.0,
        5805.0,
        5810.0,
        5815.0,
        5820.0,
        5825.0,
        5830.0,
        5835.0,
        5840.0,
        5845.0,
        5850.0,
        5855.0,
        5860.0,
        5865.0,
        5870.0,
        5875.0,
        5880.0,
        5885.0,
        5890.0,
        5895.0,
        5900.0,
        5905.0,
        5910.0,
        5915.0,
        5920.0,
        5925.0,
        5930.0,
        5935.0,
        5940.0,
        5945.0,
        5950.0,
        5955.0,
        5960.0,
        5965.0,
        5970.0,
        5975.0,
        5980.0,
        5985.0,
        5990.0,
        5995.0,
        6000.0,
        6005.0,
        6010.0,
        6015.0,
        6020.0,
        6025.0,
        6030.0,
        6035.0,
        6040.0,
        6045.0,
        6050.0,
        6055.0,
        6060.0,
        6065.0,
        6070.0,
        6075.0,
        6080.0,
        6085.0,
        6090.0,
        6095.0,
        6100.0,
        6105.0,
        6110.0,
        6115.0,
        6120.0,
        6125.0,
        6130.0,
        6135.0,
        6140.0,
        6145.0,
        6150.0,
        6155.0,
        6160.0,
        6165.0,
        6170.0,
        6175.0,
        6180.0,
        6185.0,
        6190.0,
        6195.0,
        6200.0,
        6205.0,
        6210.0,
        6215.0,
        6220.0,
        6225.0,
        6230.0,
        6235.0,
        6240.0,
        6245.0,
        6250.0,
        6255.0,
        6260.0,
        6265.0,
        6270.0,
        6275.0,
        6280.0,
        6285.0,
        6290.0,
        6295.0,
        6300.0,
        6305.0,
        6310.0,
        6315.0,
        6320.0,
        6325.0,
        6330.0,
        6335.0,
        6340.0,
        6345.0,
        6350.0,
        6355.0,
        6360.0,
        6365.0,
        6370.0,
        6375.0,
        6380.0,
        6385.0,
        6390.0,
        6395.0,
        6400.0,
        6405.0,
        6410.0,
        6415.0,
        6420.0,
        6425.0,
        6430.0,
        6435.0,
        6440.0,
        6445.0,
        6450.0,
        6455.0,
        6460.0,
        6465.0,
        6470.0,
        6475.0,
        6480.0,
        6485.0,
        6490.0,
        6495.0,
        6500.0,
        6505.0,
        6510.0,
        6515.0,
        6520.0,
        6525.0,
        6530.0,
        6535.0,
        6540.0,
        6545.0,
        6550.0,
        6555.0,
        6560.0,
        6565.0,
        6570.0,
        6575.0,
        6580.0,
        6585.0,
        6590.0,
        6595.0,
        6600.0,
        6605.0,
        6610.0,
        6615.0,
        6620.0,
        6625.0,
        6630.0,
        6635.0,
        6640.0,
        6645.0,
        6650.0,
        6655.0,
        6660.0,
        6665.0,
        6670.0,
        6675.0,
        6680.0,
        6685.0,
        6690.0,
        6695.0,
        6700.0,
        6705.0,
        6710.0,
        6715.0,
        6720.0,
        6725.0,
        6730.0,
        6735.0,
        6740.0,
        6745.0,
        6750.0,
        6755.0,
        6760.0,
        6765.0,
        6770.0,
        6775.0,
        6780.0,
        6785.0,
        6790.0,
        6795.0,
        6800.0,
        6805.0,
        6810.0,
        6815.0,
        6820.0,
        6825.0,
        6830.0,
        6835.0,
        6840.0,
        6845.0,
        6850.0,
        6855.0,
        6860.0,
        6865.0,
        6870.0,
        6875.0,
        6880.0,
        6885.0,
        6890.0,
        6895.0,
        6900.0,
        6905.0,
        6910.0,
        6915.0,
        6920.0,
        6925.0,
        6930.0,
        6935.0,
        6940.0,
        6945.0,
        6950.0,
        6955.0,
        6960.0,
        6965.0,
        6970.0,
        6975.0,
        6980.0,
        6985.0,
        6990.0,
        6995.0,
        7000.0,
        7005.0,
        7010.0,
        7015.0,
        7020.0,
        7025.0,
        7030.0,
        7035.0,
        7040.0,
        7045.0,
        7050.0,
        7055.0,
        7060.0,
        7065.0,
        7070.0,
        7075.0,
        7080.0,
        7085.0,
        7090.0,
        7095.0,
        7100.0,
        7105.0,
        7110.0,
        7115.0,
        7120.0,
        7125.0,
        7130.0,
        7135.0,
        7140.0,
        7145.0,
        7150.0,
        7155.0,
        7160.0,
        7165.0,
        7170.0,
        7175.0,
        7180.0,
        7185.0,
        7190.0,
        7195.0,
        7200.0,
        7205.0,
        7210.0,
        7215.0,
        7220.0,
        7225.0,
        7230.0,
        7235.0,
        7240.0,
        7245.0,
        7250.0,
        7255.0,
        7260.0,
        7265.0,
        7270.0,
        7275.0,
        7280.0,
        7285.0,
        7290.0,
        7295.0,
        7300.0,
        7305.0,
        7310.0,
        7315.0,
        7320.0,
        7325.0,
        7330.0,
        7335.0,
        7340.0,
        7345.0,
        7350.0,
        7355.0,
        7360.0,
        7365.0,
        7370.0,
        7375.0,
        7380.0,
        7385.0,
        7390.0,
        7395.0,
        7400.0,
        7405.0,
        7410.0,
        7415.0,
        7420.0,
        7425.0,
        7430.0,
        7435.0,
        7440.0,
        7445.0,
        7450.0,
        7455.0,
        7460.0,
        7465.0,
        7470.0,
        7475.0,
        7480.0,
        7485.0,
        7490.0,
        7495.0,
        7500.0,
        7505.0,
        7510.0,
        7515.0,
        7520.0,
        7525.0,
        7530.0,
        7535.0,
        7540.0,
        7545.0,
        7550.0,
        7555.0,
        7560.0,
        7565.0,
        7570.0,
        7575.0,
        7580.0,
        7585.0,
        7590.0,
        7595.0,
        7600.0,
        7605.0,
        7610.0,
        7615.0,
        7620.0,
        7625.0,
        7630.0,
        7635.0,
        7640.0,
        7645.0,
        7650.0,
        7655.0,
        7660.0,
        7665.0,
        7670.0,
        7675.0,
        7680.0,
        7685.0,
        7690.0,
        7695.0,
        7700.0,
        7705.0,
        7710.0,
        7715.0,
        7720.0,
        7725.0,
        7730.0,
        7735.0,
        7740.0,
        7745.0,
        7750.0,
        7755.0,
        7760.0,
        7765.0,
        7770.0,
        7775.0,
        7780.0,
        7785.0,
        7790.0,
        7795.0,
        7800.0,
        7805.0,
        7810.0,
        7815.0,
        7820.0,
        7825.0,
        7830.0,
        7835.0,
        7840.0,
        7845.0,
        7850.0,
        7855.0,
        7860.0,
        7865.0,
        7870.0,
        7875.0,
        7880.0,
        7885.0,
        7890.0,
        7895.0,
        7900.0,
        7905.0,
        7910.0,
        7915.0,
        7920.0,
        7925.0,
        7930.0,
        7935.0,
        7940.0,
        7945.0,
        7950.0,
        7955.0,
        7960.0,
        7965.0,
        7970.0,
        7975.0,
        7980.0,
        7985.0,
        7990.0,
        7995.0,
        8000.0,
        8005.0,
        8010.0,
        8015.0,
        8020.0,
        8025.0,
        8030.0,
        8035.0,
        8040.0,
        8045.0,
        8050.0,
        8055.0,
        8060.0,
        8065.0,
        8070.0,
        8075.0,
        8080.0,
        8085.0,
        8090.0,
        8095.0,
        8100.0,
        8105.0,
        8110.0,
        8115.0,
        8120.0,
        8125.0,
        8130.0,
        8135.0,
        8140.0,
        8145.0,
        8150.0,
        8155.0,
        8160.0,
        8165.0,
        8170.0,
        8175.0,
        8180.0,
        8185.0,
        8190.0,
        8195.0,
        8200.0,
        8205.0,
        8210.0,
        8215.0,
        8220.0,
        8225.0,
        8230.0,
        8235.0,
        8240.0,
        8245.0,
        8250.0,
        8255.0,
        8260.0,
        8265.0,
        8270.0,
        8275.0,
        8280.0,
        8285.0,
        8290.0,
        8295.0,
        8300.0,
        8305.0,
        8310.0,
        8315.0,
        8320.0,
        8325.0,
        8330.0,
        8335.0,
        8340.0,
        8345.0,
        8350.0,
        8355.0,
        8360.0,
        8365.0,
        8370.0,
        8375.0,
        8380.0,
        8385.0,
        8390.0,
        8395.0,
        8400.0,
        8405.0,
        8410.0,
        8415.0,
        8420.0,
        8425.0,
        8430.0,
        8435.0,
        8440.0,
        8445.0,
        8450.0,
        8455.0,
        8460.0,
        8465.0,
        8470.0,
        8475.0,
        8480.0,
        8485.0,
        8490.0,
        8495.0,
        8500.0,
        8505.0,
        8510.0,
        8515.0,
        8520.0,
        8525.0,
        8530.0,
        8535.0,
        8540.0,
        8545.0,
        8550.0,
        8555.0,
        8560.0,
        8565.0,
        8570.0,
        8575.0,
        8580.0,
        8585.0,
        8590.0,
        8595.0,
        8600.0,
        8605.0,
        8610.0,
        8615.0,
        8620.0,
        8625.0,
        8630.0,
        8635.0,
        8640.0,
        8645.0,
        8650.0,
        8655.0,
        8660.0,
        8665.0,
        8670.0,
        8675.0,
        8680.0,
        8685.0,
        8690.0,
        8695.0,
        8700.0,
        8705.0,
        8710.0,
        8715.0,
        8720.0,
        8725.0,
        8730.0,
        8735.0,
        8740.0,
        8745.0,
        8750.0,
        8755.0,
        8760.0,
        8765.0,
        8770.0,
        8775.0,
        8780.0,
        8785.0,
        8790.0,
        8795.0,
        8800.0,
        8805.0,
        8810.0,
        8815.0,
        8820.0,
        8825.0,
        8830.0,
        8835.0,
        8840.0,
        8845.0,
        8850.0,
        8855.0,
        8860.0,
        8865.0,
        8870.0,
        8875.0,
        8880.0,
        8885.0,
        8890.0,
        8895.0,
        8900.0,
        8905.0,
        8910.0,
        8915.0,
        8920.0,
        8925.0,
        8930.0,
        8935.0,
        8940.0,
        8945.0,
        8950.0,
        8955.0,
        8960.0,
        8965.0,
        8970.0,
        8975.0,
        8980.0,
        8985.0,
        8990.0,
        8995.0,
        9000.0,
        9005.0,
        9010.0,
        9015.0,
        9020.0,
        9025.0,
        9030.0,
        9035.0,
        9040.0,
        9045.0,
        9050.0,
        9055.0,
        9060.0,
        9065.0,
        9070.0,
        9075.0,
        9080.0,
        9085.0,
        9090.0,
        9095.0,
        9100.0,
        9105.0,
        9110.0,
        9115.0,
        9120.0,
        9125.0,
        9130.0,
        9135.0,
        9140.0,
        9145.0,
        9150.0,
        9155.0,
        9160.0,
        9165.0,
        9170.0,
        9175.0,
        9180.0,
        9185.0,
        9190.0,
        9195.0,
        9200.0,
        9205.0,
        9210.0,
        9215.0,
        9220.0,
        9225.0,
        9230.0,
        9235.0,
        9240.0,
        9245.0,
        9250.0,
        9255.0,
        9260.0,
        9265.0,
        9270.0,
        9275.0,
        9280.0,
        9285.0,
        9290.0,
        9295.0,
        9300.0,
        9305.0,
        9310.0,
        9315.0,
        9320.0,
        9325.0,
        9330.0,
        9335.0,
        9340.0,
        9345.0,
        9350.0,
        9355.0,
        9360.0,
        9365.0,
        9370.0,
        9375.0,
        9380.0,
        9385.0,
        9390.0,
        9395.0,
        9400.0,
        9405.0,
        9410.0,
        9415.0,
        9420.0,
        9425.0,
        9430.0,
        9435.0,
        9440.0,
        9445.0,
        9450.0,
        9455.0,
        9460.0,
        9465.0,
        9470.0,
        9475.0,
        9480.0,
        9485.0,
        9490.0,
        9495.0,
        9500.0,
        9505.0,
        9510.0,
        9515.0,
        9520.0,
        9525.0,
        9530.0,
        9535.0,
        9540.0,
        9545.0,
        9550.0,
        9555.0,
        9560.0,
        9565.0,
        9570.0,
        9575.0,
        9580.0,
        9585.0,
        9590.0,
        9595.0,
        9600.0,
        9605.0,
        9610.0,
        9615.0,
        9620.0,
        9625.0,
        9630.0,
        9635.0,
        9640.0,
        9645.0,
        9650.0,
        9655.0,
        9660.0,
        9665.0,
        9670.0,
        9675.0,
        9680.0,
        9685.0,
        9690.0,
        9695.0,
        9700.0,
        9705.0,
        9710.0,
        9715.0,
        9720.0,
        9725.0,
        9730.0,
        9735.0,
        9740.0,
        9745.0,
        9750.0,
        9755.0,
        9760.0,
        9765.0,
        9770.0,
        9775.0,
        9780.0,
        9785.0,
        9790.0,
        9795.0,
        9800.0,
        9805.0,
        9810.0,
        9815.0,
        9820.0,
        9825.0,
        9830.0,
        9835.0,
        9840.0,
        9845.0,
        9850.0,
        9855.0,
        9860.0,
        9865.0,
        9870.0,
        9875.0,
        9880.0,
        9885.0,
        9890.0,
        9895.0,
        9900.0,
        9905.0,
        9910.0,
        9915.0,
        9920.0,
        9925.0,
        9930.0,
        9935.0,
        9940.0,
        9945.0,
        9950.0,
        9955.0,
        9960.0,
        9965.0,
        9970.0,
        9975.0,
        9980.0,
        9985.0,
        9990.0,
        9995.0,
        10000.0,
        10005.0,
        10010.0,
        10015.0,
        10020.0,
        10025.0,
        10030.0,
        10035.0,
        10040.0,
        10045.0,
        10050.0,
        10055.0,
        10060.0,
        10065.0,
        10070.0,
        10075.0,
        10080.0,
        10085.0,
        10090.0,
        10095.0,
        10100.0,
        10105.0,
        10110.0,
        10115.0,
        10120.0,
        10125.0,
        10130.0,
        10135.0,
        10140.0,
        10145.0,
        10150.0,
        10155.0,
        10160.0,
        10165.0,
        10170.0,
        10175.0,
        10180.0,
        10185.0,
        10190.0,
        10195.0,
        10200.0,
        10205.0,
        10210.0,
        10215.0,
        10220.0,
        10225.0,
        10230.0,
        10235.0,
        10240.0,
        10245.0,
        10250.0,
        10255.0,
        10260.0,
        10265.0,
        10270.0,
        10275.0,
        10280.0,
        10285.0,
        10290.0,
        10295.0,
        10300.0,
        10305.0,
        10310.0,
        10315.0,
        10320.0,
        10325.0,
        10330.0,
        10335.0,
        10340.0,
        10345.0,
        10350.0,
        10355.0,
        10360.0,
        10365.0,
        10370.0,
        10375.0,
        10380.0,
        10385.0,
        10390.0,
        10395.0,
        10400.0,
        10405.0,
        10410.0,
        10415.0,
        10420.0,
        10425.0,
        10430.0,
        10435.0,
        10440.0,
        10445.0,
        10450.0,
        10455.0,
        10460.0,
        10465.0,
        10470.0,
        10475.0,
        10480.0,
        10485.0,
        10490.0,
        10495.0,
        10500.0
      ],
      "units":"angstrom"
    },
    "values":{
      "value":[
        0.009566,
        0.004826,
        0.001545,
        0.001066,
        0.001378,
        0.000907,
        0.000917,
        0.0,
        0.00051,
        0.000953,
        0.000715,
        0.000958,
        0.001268,
        0.001151,
        0.000744,
        0.000751,
        0.000562,
        0.000338,
        0.00035,
        0.000502,
        0.000479,
        0.000387,
        0.000325,
        0.000367,
        0.000329,
        0.000246,
        0.00031,
        0.000204,
        0.000168,
        0.000433,
        0.000498,
        0.000333,
        0.000298,
        0.000275,
        0.000228,
        0.000235,
        0.000282,
        0.000351,
        0.000405,
        0.000305,
        0.000329,
        0.00023,
        0.000223,
        0.00026,
        0.000415,
        0.000417,
        0.000301,
        0.000144,
        9.1e-05,
        0.000129,
        0.000161,
        0.000133,
        0.000147,
        0.000212,
        0.00021,
        0.000226,
        0.000264,
        0.00029,
        0.000399,
        0.00057,
        0.000498,
        0.000375,
        0.000213,
        0.000362,
        0.000325,
        0.000471,
        0.000561,
        0.000476,
        0.000687,
        0.000588,
        0.000567,
        0.000605,
        0.000408,
        0.000479,
        0.000673,
        0.000846,
        0.000658,
        0.000676,
        0.000752,
        0.000703,
        0.000782,
        0.000755,
        0.000545,
        0.000614,
        0.000809,
        0.000861,
        0.00079,
        0.000907,
        0.000935,
        0.000869,
        0.00077,
        0.000819,
        0.000911,
        0.00089,
        0.000923,
        0.000861,
        0.000867,
        0.000857,
        0.00081,
        0.000801,
        0.00065,
        0.000656,
        0.001049,
        0.000993,
        0.000976,
        0.001162,
        0.001224,
        0.001478,
        0.001908,
        0.002364,
        0.002775,
        0.003258,
        0.003721,
        0.004332,
        0.004714,
        0.005298,
        0.005063,
        0.005032,
        0.005377,
        0.00664,
        0.007785,
        0.007893,
        0.007545,
        0.008607,
        0.010738,
        0.012521,
        0.011326,
        0.009643,
        0.014732,
        0.017059,
        0.015232,
        0.014287,
        0.017564,
        0.017559,
        0.016997,
        0.015301,
        0.014769,
        0.01483,
        0.012973,
        0.011725,
        0.011783,
        0.012468,
        0.013235,
        0.015834,
        0.018183,
        0.020808,
        0.027119,
        0.02833,
        0.028927,
        0.023391,
        0.01951,
        0.019904,
        0.025818,
        0.035214,
        0.034718,
        0.022964,
        0.017168,
        0.027435,
        0.042151,
        0.045649,
        0.041177,
        0.0272,
        0.023659,
        0.025346,
        0.02762,
        0.027374,
        0.027619,
        0.027394,
        0.025204,
        0.022078,
        0.021962,
        0.023999,
        0.030421,
        0.032926,
        0.033435,
        0.034856,
        0.029623,
        0.032067,
        0.035258,
        0.033128,
        0.035006,
        0.043698,
        0.033724,
        0.036193,
        0.036479,
        0.039979,
        0.044696,
        0.044884,
        0.045292,
        0.041263,
        0.040564,
        0.050908,
        0.049602,
        0.041404,
        0.043732,
        0.051464,
        0.050171,
        0.041472,
        0.038082,
        0.042423,
        0.044731,
        0.048353,
        0.050237,
        0.047481,
        0.043998,
        0.042793,
        0.04105,
        0.036598,
        0.050744,
        0.066056,
        0.066474,
        0.065511,
        0.057311,
        0.046828,
        0.036658,
        0.041323,
        0.047288,
        0.049,
        0.051843,
        0.053314,
        0.053279,
        0.05151,
        0.047948,
        0.050094,
        0.052285,
        0.051749,
        0.049388,
        0.05853,
        0.06373,
        0.063593,
        0.059901,
        0.050067,
        0.05369,
        0.060392,
        0.057165,
        0.057501,
        0.055375,
        0.042705,
        0.032682,
        0.037505,
        0.028674,
        0.029607,
        0.036711,
        0.034369,
        0.035164,
        0.043518,
        0.047393,
        0.039757,
        0.03102,
        0.030926,
        0.030717,
        0.020659,
        0.024601,
        0.027929,
        0.038236,
        0.059399,
        0.070044,
        0.065487,
        0.066202,
        0.073006,
        0.071259,
        0.068784,
        0.073561,
        0.067601,
        0.059754,
        0.062221,
        0.064572,
        0.063024,
        0.060931,
        0.061477,
        0.069312,
        0.077606,
        0.079244,
        0.077848,
        0.066896,
        0.057712,
        0.052734,
        0.055809,
        0.055406,
        0.056284,
        0.06116,
        0.067298,
        0.070937,
        0.078526,
        0.079372,
        0.079061,
        0.065961,
        0.062048,
        0.069205,
        0.071428,
        0.06308,
        0.054493,
        0.055973,
        0.052491,
        0.057007,
        0.060803,
        0.063476,
        0.070573,
        0.100396,
        0.144667,
        0.16515,
        0.170054,
        0.165186,
        0.14863,
        0.134486,
        0.132742,
        0.139775,
        0.136182,
        0.121515,
        0.115021,
        0.119272,
        0.134211,
        0.13651,
        0.125578,
        0.116737,
        0.115422,
        0.119289,
        0.127751,
        0.117348,
        0.088839,
        0.074128,
        0.073061,
        0.080797,
        0.090661,
        0.100735,
        0.108616,
        0.110913,
        0.098006,
        0.079755,
        0.057041,
        0.033389,
        0.028953,
        0.044168,
        0.076574,
        0.116928,
        0.149527,
        0.16225,
        0.163158,
        0.158913,
        0.149152,
        0.145912,
        0.136885,
        0.149482,
        0.173278,
        0.173502,
        0.169656,
        0.168817,
        0.169273,
        0.186704,
        0.183728,
        0.186454,
        0.214913,
        0.230406,
        0.231957,
        0.235349,
        0.219719,
        0.203138,
        0.206818,
        0.224179,
        0.225656,
        0.218923,
        0.214924,
        0.235506,
        0.258387,
        0.247373,
        0.239324,
        0.267565,
        0.252664,
        0.242603,
        0.264228,
        0.282575,
        0.26561,
        0.264305,
        0.285364,
        0.280889,
        0.27132,
        0.271803,
        0.267214,
        0.264083,
        0.266764,
        0.273998,
        0.285037,
        0.275001,
        0.262649,
        0.28765,
        0.304898,
        0.308495,
        0.315644,
        0.330424,
        0.314977,
        0.284259,
        0.294987,
        0.307046,
        0.317786,
        0.307215,
        0.302267,
        0.311194,
        0.312503,
        0.321693,
        0.335108,
        0.329775,
        0.333335,
        0.323361,
        0.309969,
        0.314453,
        0.340706,
        0.343906,
        0.312207,
        0.318328,
        0.325658,
        0.316112,
        0.317349,
        0.319167,
        0.321501,
        0.324282,
        0.327447,
        0.330929,
        0.334661,
        0.338578,
        0.342614,
        0.346703,
        0.350785,
        0.354827,
        0.3588,
        0.362678,
        0.366433,
        0.370037,
        0.373462,
        0.376682,
        0.379668,
        0.382393,
        0.384838,
        0.387018,
        0.388956,
        0.390675,
        0.392198,
        0.393548,
        0.394749,
        0.395824,
        0.396796,
        0.397689,
        0.398525,
        0.399331,
        0.400134,
        0.400959,
        0.401835,
        0.402786,
        0.403841,
        0.405024,
        0.406364,
        0.407886,
        0.409601,
        0.411457,
        0.413385,
        0.415318,
        0.417186,
        0.418923,
        0.420459,
        0.421726,
        0.422656,
        0.423182,
        0.42326,
        0.422959,
        0.422371,
        0.42159,
        0.42071,
        0.419823,
        0.419024,
        0.418405,
        0.41806,
        0.418083,
        0.41854,
        0.479454,
        0.48917,
        0.482058,
        0.485612,
        0.502559,
        0.511678,
        0.526776,
        0.528556,
        0.524684,
        0.518494,
        0.519145,
        0.498032,
        0.475826,
        0.482041,
        0.483845,
        0.463199,
        0.483968,
        0.520687,
        0.590059,
        0.561354,
        0.540345,
        0.55868,
        0.571768,
        0.598156,
        0.552675,
        0.575267,
        0.586283,
        0.572105,
        0.593233,
        0.655197,
        0.671717,
        0.647436,
        0.656244,
        0.676085,
        0.684,
        0.706443,
        0.792056,
        0.832221,
        0.866746,
        0.785841,
        0.82646,
        0.960123,
        0.912783,
        0.936166,
        0.927356,
        0.836973,
        1.025036,
        0.929479,
        0.850807,
        1.060119,
        1.04288,
        1.052219,
        0.978244,
        1.175279,
        1.445515,
        1.377985,
        1.193856,
        1.01064,
        1.134603,
        1.412516,
        1.499637,
        1.409939,
        1.414266,
        1.238805,
        1.02451,
        0.88135,
        1.131182,
        1.371999,
        1.464395,
        1.521034,
        1.579261,
        1.6698,
        1.63131,
        1.506454,
        1.383492,
        1.092594,
        1.014714,
        1.189398,
        1.316855,
        1.391902,
        1.456872,
        1.317695,
        1.214641,
        0.976822,
        0.502157,
        0.439327,
        0.851682,
        1.137133,
        1.240666,
        1.258423,
        1.052831,
        0.602284,
        0.52667,
        0.98926,
        1.332934,
        1.474177,
        1.550827,
        1.533803,
        1.533423,
        1.574289,
        1.649819,
        1.703518,
        1.710997,
        1.627991,
        1.54377,
        1.613866,
        1.671479,
        1.611994,
        1.604666,
        1.584972,
        1.604686,
        1.572349,
        1.529941,
        1.416071,
        1.457436,
        1.538148,
        1.56953,
        1.393506,
        1.116481,
        1.234628,
        1.446896,
        1.553706,
        1.492636,
        1.439617,
        1.416341,
        1.572143,
        1.633212,
        1.5855,
        1.553863,
        1.531866,
        1.574444,
        1.62326,
        1.482543,
        1.338805,
        1.379031,
        1.444851,
        1.529141,
        1.528496,
        1.440934,
        1.439739,
        1.545096,
        1.570726,
        1.539184,
        1.43134,
        1.508921,
        1.467286,
        1.515022,
        1.496977,
        1.477637,
        1.523582,
        1.539597,
        1.607269,
        1.497415,
        1.504608,
        1.541143,
        1.456004,
        1.375958,
        1.356841,
        1.250506,
        1.319773,
        1.411481,
        1.415254,
        1.478759,
        1.445092,
        1.405266,
        1.221099,
        0.988497,
        1.214514,
        1.378108,
        1.495244,
        1.588674,
        1.623957,
        1.526283,
        1.524235,
        1.529615,
        1.395394,
        1.451286,
        1.402795,
        1.396692,
        1.451036,
        1.41746,
        1.334607,
        1.366351,
        1.409271,
        1.391101,
        1.428794,
        1.430712,
        1.36345,
        1.429383,
        1.393201,
        1.366763,
        1.371935,
        1.396835,
        1.515062,
        1.470157,
        1.470287,
        1.43033,
        1.461946,
        1.532107,
        1.572688,
        1.582331,
        1.513708,
        1.431721,
        1.381514,
        1.357519,
        1.434401,
        1.457571,
        1.411854,
        1.336981,
        1.350925,
        1.414923,
        1.454414,
        1.473541,
        1.455019,
        1.375082,
        1.36047,
        1.393297,
        1.44764,
        1.46651,
        1.507764,
        1.533643,
        1.477595,
        1.481808,
        1.514916,
        1.470934,
        1.480213,
        1.529737,
        1.501641,
        1.498726,
        1.49222,
        1.495306,
        1.396685,
        1.405555,
        1.511475,
        1.507847,
        1.525201,
        1.514507,
        1.497414,
        1.455413,
        1.422484,
        1.425471,
        1.46509,
        1.492484,
        1.467901,
        1.397752,
        1.404839,
        1.449629,
        1.485727,
        1.483397,
        1.441789,
        1.379787,
        1.343225,
        1.418345,
        1.450834,
        1.429108,
        1.406504,
        1.41432,
        1.419169,
        1.400698,
        1.387319,
        1.414707,
        1.433664,
        1.396214,
        1.361458,
        1.371741,
        1.368352,
        1.361256,
        1.33316,
        1.260133,
        1.115955,
        0.938107,
        0.941444,
        1.071187,
        1.144442,
        1.203499,
        1.225175,
        1.223848,
        1.257223,
        1.296601,
        1.322745,
        1.31175,
        1.30402,
        1.240091,
        1.23701,
        1.304392,
        1.315925,
        1.31322,
        1.346328,
        1.360875,
        1.328274,
        1.318252,
        1.324076,
        1.323578,
        1.321496,
        1.272903,
        1.230989,
        1.236804,
        1.262326,
        1.231247,
        1.191601,
        1.178431,
        1.15396,
        1.150645,
        1.206134,
        1.235073,
        1.230234,
        1.210865,
        1.220147,
        1.229121,
        1.252381,
        1.278091,
        1.267155,
        1.232658,
        1.207949,
        1.197248,
        1.205014,
        1.236213,
        1.229607,
        1.212215,
        1.217746,
        1.222291,
        1.220873,
        1.205792,
        1.177274,
        1.153607,
        1.161833,
        1.167979,
        1.160895,
        1.160109,
        1.152121,
        1.15103,
        1.099346,
        1.069146,
        1.118414,
        1.152877,
        1.115248,
        1.074217,
        1.065989,
        1.078594,
        1.075957,
        1.103033,
        1.13169,
        1.145261,
        1.101886,
        1.068426,
        1.060017,
        1.111048,
        1.135723,
        1.122408,
        1.113377,
        1.087761,
        1.00645,
        0.971365,
        0.989469,
        1.03873,
        1.07651,
        1.121346,
        1.129934,
        1.109961,
        1.102479,
        1.095877,
        1.080596,
        1.076657,
        1.051696,
        1.030159,
        1.035875,
        1.048406,
        1.072618,
        1.090959,
        1.116666,
        1.11013,
        1.064559,
        1.044112,
        1.065248,
        1.066199,
        1.071727,
        1.080907,
        1.055482,
        1.029433,
        1.011718,
        1.00867,
        1.027919,
        1.034934,
        1.031406,
        1.026725,
        1.035144,
        1.056973,
        1.045335,
        1.038492,
        1.039615,
        1.046378,
        1.048445,
        1.040381,
        1.024945,
        1.011536,
        1.02697,
        1.03765,
        1.031775,
        1.019211,
        1.003493,
        1.000292,
        1.027793,
        1.0337,
        1.004612,
        0.982342,
        0.991552,
        1.009226,
        1.012617,
        1.020339,
        1.027793,
        1.021737,
        1.008168,
        0.995635,
        0.998617,
        1.001248,
        0.984385,
        0.968756,
        0.961963,
        0.966254,
        0.979309,
        0.997439,
        0.982777,
        0.974891,
        0.975272,
        0.982323,
        0.985571,
        0.976481,
        0.974396,
        0.975646,
        0.948157,
        0.917147,
        0.910421,
        0.92305,
        0.952279,
        0.958655,
        0.936099,
        0.932851,
        0.937739,
        0.945311,
        0.927669,
        0.913802,
        0.926324,
        0.946042,
        0.95764,
        0.956098,
        0.950948,
        0.945713,
        0.938009,
        0.932411,
        0.93302,
        0.937219,
        0.934915,
        0.930551,
        0.915332,
        0.887072,
        0.877265,
        0.889133,
        0.896319,
        0.898712,
        0.903949,
        0.904836,
        0.908669,
        0.919128,
        0.926723,
        0.924625,
        0.927702,
        0.938737,
        0.932649,
        0.915833,
        0.900145,
        0.90014,
        0.916551,
        0.93676,
        0.939144,
        0.930549,
        0.879977,
        0.798237,
        0.79001,
        0.840625,
        0.904307,
        0.919071,
        0.920027,
        0.920787,
        0.914663,
        0.909562,
        0.909368,
        0.912859,
        0.901515,
        0.890119,
        0.89475,
        0.906106,
        0.903988,
        0.898557,
        0.890837,
        0.881402,
        0.879565,
        0.87029,
        0.8833,
        0.883613,
        0.874155,
        0.873033,
        0.870942,
        0.863174,
        0.855185,
        0.865262,
        0.873215,
        0.867615,
        0.866155,
        0.871469,
        0.867622,
        0.874147,
        0.865543,
        0.872638,
        0.869826,
        0.858766,
        0.851648,
        0.861835,
        0.858814,
        0.846529,
        0.84547,
        0.850282,
        0.84507,
        0.841746,
        0.840427,
        0.843536,
        0.822518,
        0.795323,
        0.808583,
        0.818769,
        0.828815,
        0.812348,
        0.806887,
        0.811254,
        0.823079,
        0.834763,
        0.837731,
        0.83071,
        0.836687,
        0.842158,
        0.842123,
        0.839644,
        0.828678,
        0.826057,
        0.832773,
        0.811379,
        0.800729,
        0.797167,
        0.781559,
        0.795425,
        0.80236,
        0.811282,
        0.813245,
        0.810534,
        0.800504,
        0.76227,
        0.777367,
        0.804083,
        0.808395,
        0.790464,
        0.794917,
        0.795833,
        0.786713,
        0.783767,
        0.800645,
        0.802501,
        0.792665,
        0.789893,
        0.778577,
        0.784266,
        0.796793,
        0.788522,
        0.779507,
        0.768559,
        0.781884,
        0.784447,
        0.780534,
        0.779602,
        0.774964,
        0.776774,
        0.774999,
        0.765481,
        0.758286,
        0.760243,
        0.774579,
        0.762354,
        0.761714,
        0.765254,
        0.769012,
        0.760043,
        0.735684,
        0.737372,
        0.747391,
        0.754091,
        0.755169,
        0.746735,
        0.736372,
        0.711388,
        0.67268,
        0.718041,
        0.753999,
        0.753525,
        0.729499,
        0.735498,
        0.739997,
        0.737036,
        0.736154,
        0.731908,
        0.71962,
        0.699847,
        0.654173,
        0.552451,
        0.54465,
        0.652938,
        0.697519,
        0.715809,
        0.71767,
        0.713655,
        0.716186,
        0.728393,
        0.724537,
        0.727254,
        0.733701,
        0.738964,
        0.735241,
        0.726377,
        0.71892,
        0.719153,
        0.717425,
        0.723796,
        0.720221,
        0.715591,
        0.714256,
        0.714704,
        0.705594,
        0.701985,
        0.71754,
        0.717721,
        0.712086,
        0.712061,
        0.707874,
        0.703986,
        0.693192,
        0.696717,
        0.705645,
        0.704905,
        0.704089,
        0.699101,
        0.695918,
        0.690027,
        0.690166,
        0.696271,
        0.695551,
        0.691463,
        0.693149,
        0.692052,
        0.688411,
        0.689252,
        0.686196,
        0.688309,
        0.689089,
        0.690017,
        0.687235,
        0.682063,
        0.678835,
        0.675948,
        0.675775,
        0.676888,
        0.675827,
        0.674797,
        0.673784,
        0.672625,
        0.67163,
        0.670696,
        0.669763,
        0.668833,
        0.667919,
        0.666917,
        0.665824,
        0.664819,
        0.66381,
        0.662775,
        0.661978,
        0.661451,
        0.660591,
        0.659751,
        0.658979,
        0.658625,
        0.658391,
        0.657705,
        0.657088,
        0.656548,
        0.655823,
        0.655872,
        0.648948,
        0.643346,
        0.647721,
        0.643988,
        0.638844,
        0.626226,
        0.626529,
        0.638676,
        0.637132,
        0.634901,
        0.632364,
        0.635726,
        0.636635,
        0.6351,
        0.637293,
        0.634809,
        0.634946,
        0.634435,
        0.629841,
        0.627602,
        0.630746,
        0.631124,
        0.62912,
        0.626446,
        0.624616,
        0.625111,
        0.626701,
        0.619506,
        0.614292,
        0.615921,
        0.625039,
        0.628286,
        0.630633,
        0.627826,
        0.619942,
        0.622332,
        0.633469,
        0.626867,
        0.611942,
        0.60709,
        0.600933,
        0.589566,
        0.571709,
        0.576908,
        0.586966,
        0.585502,
        0.587187,
        0.607023,
        0.616146,
        0.608586,
        0.603752,
        0.607319,
        0.600893,
        0.599998,
        0.600154,
        0.601262,
        0.599437,
        0.599213,
        0.592589,
        0.595548,
        0.581132,
        0.583881,
        0.582667,
        0.56764,
        0.579395,
        0.584268,
        0.574173,
        0.571056,
        0.582022,
        0.583065,
        0.583763,
        0.583608,
        0.587822,
        0.592838,
        0.588403,
        0.581705,
        0.572656,
        0.577438,
        0.579916,
        0.578761,
        0.57832,
        0.576235,
        0.564448,
        0.559467,
        0.565539,
        0.570021,
        0.565071,
        0.550718,
        0.548355,
        0.55412,
        0.557846,
        0.564265,
        0.564935,
        0.563153,
        0.553274,
        0.554023,
        0.563428,
        0.561273,
        0.555284,
        0.562079,
        0.560435,
        0.555685,
        0.55716,
        0.555946,
        0.547181,
        0.551556,
        0.551032,
        0.540769,
        0.537379,
        0.548027,
        0.543565,
        0.542826,
        0.539849,
        0.550995,
        0.549224,
        0.546094,
        0.545417,
        0.544196,
        0.543229,
        0.542254,
        0.540917,
        0.539586,
        0.53865,
        0.5376,
        0.536543,
        0.535454,
        0.53481,
        0.534107,
        0.533332,
        0.532562,
        0.53179,
        0.531017,
        0.530244,
        0.529469,
        0.528694,
        0.527918,
        0.52714,
        0.526361,
        0.525579,
        0.524801,
        0.523903,
        0.522968,
        0.522216,
        0.521657,
        0.52091,
        0.52004,
        0.519219,
        0.519057,
        0.519864,
        0.519957,
        0.519292,
        0.51809,
        0.520594,
        0.519773,
        0.513922,
        0.508694,
        0.513059,
        0.514105,
        0.511313,
        0.492432,
        0.468886,
        0.490676,
        0.506367,
        0.510538,
        0.509963,
        0.505515,
        0.507566,
        0.507359,
        0.507832,
        0.509996,
        0.507525,
        0.501376,
        0.495724,
        0.498108,
        0.498004,
        0.495567,
        0.493724,
        0.496754,
        0.495717,
        0.497523,
        0.493888,
        0.491264,
        0.494312,
        0.497435,
        0.491119,
        0.491447,
        0.497251,
        0.492183,
        0.48994,
        0.483819,
        0.483469,
        0.483364,
        0.477823,
        0.477916,
        0.475303,
        0.478786,
        0.484426,
        0.484996,
        0.483758,
        0.48485,
        0.485669,
        0.484504,
        0.483702,
        0.481419,
        0.47833,
        0.472174,
        0.478288,
        0.476707,
        0.475834,
        0.477013,
        0.474305,
        0.475003,
        0.473801,
        0.473836,
        0.468705,
        0.46859,
        0.472371,
        0.470407,
        0.472044,
        0.471815,
        0.472262,
        0.469788,
        0.465647,
        0.46791,
        0.468214,
        0.467495,
        0.471293,
        0.469568,
        0.469026,
        0.471311,
        0.469837,
        0.469419,
        0.465147,
        0.467337,
        0.459963,
        0.458941,
        0.458386,
        0.453646,
        0.447133,
        0.456423,
        0.458106,
        0.445621,
        0.439539,
        0.446928,
        0.440442,
        0.442387,
        0.457125,
        0.464026,
        0.454652,
        0.447486,
        0.439644,
        0.426728,
        0.438709,
        0.454781,
        0.451938,
        0.448358,
        0.447851,
        0.452049,
        0.458352,
        0.455794,
        0.450129,
        0.44625,
        0.44674,
        0.442968,
        0.443594,
        0.448144,
        0.444791,
        0.442481,
        0.442435,
        0.437497,
        0.434086,
        0.428736,
        0.421875,
        0.428477,
        0.439607,
        0.443392,
        0.442849,
        0.439264,
        0.441136,
        0.441044,
        0.435672,
        0.439448,
        0.437121,
        0.427545,
        0.429736,
        0.438347,
        0.440435,
        0.431833,
        0.424386,
        0.432506,
        0.437804,
        0.435148,
        0.423383,
        0.41428,
        0.419452,
        0.427514,
        0.436739,
        0.434094,
        0.411931,
        0.409352,
        0.427717,
        0.435847,
        0.440117,
        0.436718,
        0.400809,
        0.352639,
        0.383913,
        0.414953,
        0.419948,
        0.424146,
        0.424292,
        0.414747,
        0.386572,
        0.320305,
        0.286774,
        0.360049,
        0.40105,
        0.414287,
        0.421,
        0.418202,
        0.418324,
        0.415855,
        0.407705,
        0.401935,
        0.385943,
        0.374941,
        0.395718,
        0.404297,
        0.405561,
        0.414659,
        0.416953,
        0.417323,
        0.419502,
        0.420907,
        0.417204,
        0.402884,
        0.386978,
        0.324897,
        0.292691,
        0.349901,
        0.382371,
        0.390438,
        0.39417,
        0.401234,
        0.409566,
        0.415439,
        0.421802,
        0.42178,
        0.421497,
        0.425833,
        0.421514,
        0.415069,
        0.41067,
        0.403559,
        0.393032,
        0.369306,
        0.373112,
        0.396484,
        0.40348,
        0.405411,
        0.408148,
        0.41137,
        0.406331,
        0.406139,
        0.398438,
        0.405664,
        0.399854,
        0.398937,
        0.406505,
        0.40517,
        0.398114,
        0.403166,
        0.40632,
        0.397872,
        0.401125,
        0.39379,
        0.387714,
        0.368769,
        0.357698,
        0.373993,
        0.389695,
        0.394129,
        0.396848,
        0.403009,
        0.403679,
        0.40482,
        0.402959,
        0.398029,
        0.395621,
        0.401923,
        0.392175,
        0.385382,
        0.402078,
        0.404034,
        0.397921,
        0.392206,
        0.397774,
        0.403089,
        0.392098,
        0.38825,
        0.387883,
        0.387615,
        0.379511,
        0.360126,
        0.378877,
        0.366705,
        0.364245,
        0.353833,
        0.331102,
        0.342982,
        0.36701,
        0.382675,
        0.398765,
        0.398513,
        0.404359,
        0.401871,
        0.399155,
        0.376706,
        0.371171,
        0.381554,
        0.377515,
        0.367417,
        0.37213,
        0.35971,
        0.36386,
        0.371756,
        0.384437,
        0.381791,
        0.381258,
        0.384411,
        0.394793,
        0.38395,
        0.377594,
        0.383704,
        0.38902,
        0.378564,
        0.366663,
        0.370157,
        0.376577,
        0.375933,
        0.365312,
        0.371776,
        0.375426,
        0.379491,
        0.377356,
        0.376463,
        0.375365,
        0.363674,
        0.347635,
        0.341947,
        0.335644,
        0.317255,
        0.333552,
        0.347239,
        0.350373,
        0.360662,
        0.362413,
        0.361515,
        0.36813,
        0.377619,
        0.382077,
        0.378865,
        0.380735,
        0.381285,
        0.376461,
        0.365546,
        0.363322,
        0.355295,
        0.341879,
        0.326334,
        0.333352,
        0.335633,
        0.324304,
        0.316544,
        0.295787,
        0.343455,
        0.325334,
        0.327615,
        0.350689,
        0.330802,
        0.349818,
        0.346911,
        0.360008,
        0.385117,
        0.390607,
        0.389506,
        0.373461,
        0.362395,
        0.366493,
        0.368161,
        0.356388,
        0.328953,
        0.346355,
        0.315581,
        0.324525,
        0.3504,
        0.341931,
        0.321942,
        0.343913,
        0.35398,
        0.369594,
        0.336366,
        0.346768,
        0.359927,
        0.334162,
        0.315787,
        0.330486,
        0.358829,
        0.349551,
        0.316552,
        0.311728,
        0.335619,
        0.335136,
        0.322327,
        0.289551,
        0.299389,
        0.311491,
        0.321023,
        0.31903,
        0.322103,
        0.34611,
        0.335367,
        0.330851,
        0.322663,
        0.320118,
        0.331006,
        0.330022,
        0.33597,
        0.338274,
        0.325119,
        0.320722,
        0.331335,
        0.327462,
        0.324779,
        0.328687,
        0.33184,
        0.330436,
        0.316153,
        0.326707,
        0.332393,
        0.340127,
        0.331358,
        0.33787,
        0.334765,
        0.340327,
        0.332742,
        0.33431,
        0.334298,
        0.325937,
        0.329372,
        0.328963,
        0.327707,
        0.321781,
        0.323204,
        0.322291,
        0.318819,
        0.320061,
        0.319147,
        0.320926,
        0.324023,
        0.322287,
        0.320897,
        0.313454,
        0.318603,
        0.323468,
        0.315099,
        0.317102,
        0.321472,
        0.318009,
        0.31966,
        0.317653,
        0.317348,
        0.317056,
        0.319625,
        0.314778,
        0.314921,
        0.312288,
        0.314496,
        0.303097,
        0.317171,
        0.31482,
        0.313209,
        0.311666,
        0.309091,
        0.313939,
        0.308169,
        0.310749,
        0.310106,
        0.313503,
        0.305871,
        0.307206,
        0.307784,
        0.308609,
        0.313888,
        0.316234,
        0.30212,
        0.304955,
        0.308653,
        0.306308,
        0.304735,
        0.302108,
        0.305555,
        0.305021,
        0.304573,
        0.307809,
        0.302423,
        0.305423,
        0.299841,
        0.291024,
        0.302621,
        0.294721,
        0.289006,
        0.28654,
        0.279736,
        0.277616,
        0.26811,
        0.272671,
        0.283165,
        0.282387,
        0.279014,
        0.28131,
        0.290387,
        0.287657,
        0.28441,
        0.291186,
        0.273845,
        0.287476,
        0.285712,
        0.282177,
        0.286266,
        0.28542,
        0.28486,
        0.281674,
        0.282792,
        0.282503,
        0.282461,
        0.282716,
        0.28323,
        0.283944,
        0.2848,
        0.285738,
        0.286699,
        0.287625,
        0.288456,
        0.289134,
        0.289599,
        0.289809,
        0.289783,
        0.28956,
        0.289175,
        0.288664,
        0.288066,
        0.287416,
        0.28675,
        0.286106,
        0.28552,
        0.28502,
        0.284601,
        0.284249,
        0.283949,
        0.283687,
        0.28345,
        0.283222,
        0.282991,
        0.282742,
        0.282461,
        0.281613,
        0.281285,
        0.28094,
        0.280584,
        0.28022,
        0.279851,
        0.279482,
        0.279115,
        0.278755,
        0.278406,
        0.278071,
        0.277747,
        0.277435,
        0.277131,
        0.276834,
        0.276543,
        0.276254,
        0.275968,
        0.27568,
        0.275391,
        0.275099,
        0.274803,
        0.274503,
        0.274202,
        0.273898,
        0.273593,
        0.273287,
        0.27298,
        0.272673,
        0.272366,
        0.27206,
        0.271755,
        0.271451,
        0.271147,
        0.270844,
        0.270541,
        0.270238,
        0.269936,
        0.269634,
        0.269332
      ],
      "range":1
    }
  }
]
