[
  {
    "model":"Star, type B8(i)",
    "name":"Star, type B8(i)",
    "type":"WB_REF",
    "dataQualityMarker":3,
    "dataSource":"https://www.eso.org/sci/facilities/paranal/decommissioned/isaac/tools/lib.html",
    "manufacturer":"A. Pickles (A.J. Pickles, PASP 110,863, 1998)",
    "version":1,
    "wavelength":{
      "value":[
        1150.0,
        1155.0,
        1160.0,
        1165.0,
        1170.0,
        1175.0,
        1180.0,
        1185.0,
        1190.0,
        1195.0,
        1200.0,
        1205.0,
        1210.0,
        1215.0,
        1220.0,
        1225.0,
        1230.0,
        1235.0,
        1240.0,
        1245.0,
        1250.0,
        1255.0,
        1260.0,
        1265.0,
        1270.0,
        1275.0,
        1280.0,
        1285.0,
        1290.0,
        1295.0,
        1300.0,
        1305.0,
        1310.0,
        1315.0,
        1320.0,
        1325.0,
        1330.0,
        1335.0,
        1340.0,
        1345.0,
        1350.0,
        1355.0,
        1360.0,
        1365.0,
        1370.0,
        1375.0,
        1380.0,
        1385.0,
        1390.0,
        1395.0,
        1400.0,
        1405.0,
        1410.0,
        1415.0,
        1420.0,
        1425.0,
        1430.0,
        1435.0,
        1440.0,
        1445.0,
        1450.0,
        1455.0,
        1460.0,
        1465.0,
        1470.0,
        1475.0,
        1480.0,
        1485.0,
        1490.0,
        1495.0,
        1500.0,
        1505.0,
        1510.0,
        1515.0,
        1520.0,
        1525.0,
        1530.0,
        1535.0,
        1540.0,
        1545.0,
        1550.0,
        1555.0,
        1560.0,
        1565.0,
        1570.0,
        1575.0,
        1580.0,
        1585.0,
        1590.0,
        1595.0,
        1600.0,
        1605.0,
        1610.0,
        1615.0,
        1620.0,
        1625.0,
        1630.0,
        1635.0,
        1640.0,
        1645.0,
        1650.0,
        1655.0,
        1660.0,
        1665.0,
        1670.0,
        1675.0,
        1680.0,
        1685.0,
        1690.0,
        1695.0,
        1700.0,
        1705.0,
        1710.0,
        1715.0,
        1720.0,
        1725.0,
        1730.0,
        1735.0,
        1740.0,
        1745.0,
        1750.0,
        1755.0,
        1760.0,
        1765.0,
        1770.0,
        1775.0,
        1780.0,
        1785.0,
        1790.0,
        1795.0,
        1800.0,
        1805.0,
        1810.0,
        1815.0,
        1820.0,
        1825.0,
        1830.0,
        1835.0,
        1840.0,
        1845.0,
        1850.0,
        1855.0,
        1860.0,
        1865.0,
        1870.0,
        1875.0,
        1880.0,
        1885.0,
        1890.0,
        1895.0,
        1900.0,
        1905.0,
        1910.0,
        1915.0,
        1920.0,
        1925.0,
        1930.0,
        1935.0,
        1940.0,
        1945.0,
        1950.0,
        1955.0,
        1960.0,
        1965.0,
        1970.0,
        1975.0,
        1980.0,
        1985.0,
        1990.0,
        1995.0,
        2000.0,
        2005.0,
        2010.0,
        2015.0,
        2020.0,
        2025.0,
        2030.0,
        2035.0,
        2040.0,
        2045.0,
        2050.0,
        2055.0,
        2060.0,
        2065.0,
        2070.0,
        2075.0,
        2080.0,
        2085.0,
        2090.0,
        2095.0,
        2100.0,
        2105.0,
        2110.0,
        2115.0,
        2120.0,
        2125.0,
        2130.0,
        2135.0,
        2140.0,
        2145.0,
        2150.0,
        2155.0,
        2160.0,
        2165.0,
        2170.0,
        2175.0,
        2180.0,
        2185.0,
        2190.0,
        2195.0,
        2200.0,
        2205.0,
        2210.0,
        2215.0,
        2220.0,
        2225.0,
        2230.0,
        2235.0,
        2240.0,
        2245.0,
        2250.0,
        2255.0,
        2260.0,
        2265.0,
        2270.0,
        2275.0,
        2280.0,
        2285.0,
        2290.0,
        2295.0,
        2300.0,
        2305.0,
        2310.0,
        2315.0,
        2320.0,
        2325.0,
        2330.0,
        2335.0,
        2340.0,
        2345.0,
        2350.0,
        2355.0,
        2360.0,
        2365.0,
        2370.0,
        2375.0,
        2380.0,
        2385.0,
        2390.0,
        2395.0,
        2400.0,
        2405.0,
        2410.0,
        2415.0,
        2420.0,
        2425.0,
        2430.0,
        2435.0,
        2440.0,
        2445.0,
        2450.0,
        2455.0,
        2460.0,
        2465.0,
        2470.0,
        2475.0,
        2480.0,
        2485.0,
        2490.0,
        2495.0,
        2500.0,
        2505.0,
        2510.0,
        2515.0,
        2520.0,
        2525.0,
        2530.0,
        2535.0,
        2540.0,
        2545.0,
        2550.0,
        2555.0,
        2560.0,
        2565.0,
        2570.0,
        2575.0,
        2580.0,
        2585.0,
        2590.0,
        2595.0,
        2600.0,
        2605.0,
        2610.0,
        2615.0,
        2620.0,
        2625.0,
        2630.0,
        2635.0,
        2640.0,
        2645.0,
        2650.0,
        2655.0,
        2660.0,
        2665.0,
        2670.0,
        2675.0,
        2680.0,
        2685.0,
        2690.0,
        2695.0,
        2700.0,
        2705.0,
        2710.0,
        2715.0,
        2720.0,
        2725.0,
        2730.0,
        2735.0,
        2740.0,
        2745.0,
        2750.0,
        2755.0,
        2760.0,
        2765.0,
        2770.0,
        2775.0,
        2780.0,
        2785.0,
        2790.0,
        2795.0,
        2800.0,
        2805.0,
        2810.0,
        2815.0,
        2820.0,
        2825.0,
        2830.0,
        2835.0,
        2840.0,
        2845.0,
        2850.0,
        2855.0,
        2860.0,
        2865.0,
        2870.0,
        2875.0,
        2880.0,
        2885.0,
        2890.0,
        2895.0,
        2900.0,
        2905.0,
        2910.0,
        2915.0,
        2920.0,
        2925.0,
        2930.0,
        2935.0,
        2940.0,
        2945.0,
        2950.0,
        2955.0,
        2960.0,
        2965.0,
        2970.0,
        2975.0,
        2980.0,
        2985.0,
        2990.0,
        2995.0,
        3000.0,
        3005.0,
        3010.0,
        3015.0,
        3020.0,
        3025.0,
        3030.0,
        3035.0,
        3040.0,
        3045.0,
        3050.0,
        3055.0,
        3060.0,
        3065.0,
        3070.0,
        3075.0,
        3080.0,
        3085.0,
        3090.0,
        3095.0,
        3100.0,
        3105.0,
        3110.0,
        3115.0,
        3120.0,
        3125.0,
        3130.0,
        3135.0,
        3140.0,
        3145.0,
        3150.0,
        3155.0,
        3160.0,
        3165.0,
        3170.0,
        3175.0,
        3180.0,
        3185.0,
        3190.0,
        3195.0,
        3200.0,
        3205.0,
        3210.0,
        3215.0,
        3220.0,
        3225.0,
        3230.0,
        3235.0,
        3240.0,
        3245.0,
        3250.0,
        3255.0,
        3260.0,
        3265.0,
        3270.0,
        3275.0,
        3280.0,
        3285.0,
        3290.0,
        3295.0,
        3300.0,
        3305.0,
        3310.0,
        3315.0,
        3320.0,
        3325.0,
        3330.0,
        3335.0,
        3340.0,
        3345.0,
        3350.0,
        3355.0,
        3360.0,
        3365.0,
        3370.0,
        3375.0,
        3380.0,
        3385.0,
        3390.0,
        3395.0,
        3400.0,
        3405.0,
        3410.0,
        3415.0,
        3420.0,
        3425.0,
        3430.0,
        3435.0,
        3440.0,
        3445.0,
        3450.0,
        3455.0,
        3460.0,
        3465.0,
        3470.0,
        3475.0,
        3480.0,
        3485.0,
        3490.0,
        3495.0,
        3500.0,
        3505.0,
        3510.0,
        3515.0,
        3520.0,
        3525.0,
        3530.0,
        3535.0,
        3540.0,
        3545.0,
        3550.0,
        3555.0,
        3560.0,
        3565.0,
        3570.0,
        3575.0,
        3580.0,
        3585.0,
        3590.0,
        3595.0,
        3600.0,
        3605.0,
        3610.0,
        3615.0,
        3620.0,
        3625.0,
        3630.0,
        3635.0,
        3640.0,
        3645.0,
        3650.0,
        3655.0,
        3660.0,
        3665.0,
        3670.0,
        3675.0,
        3680.0,
        3685.0,
        3690.0,
        3695.0,
        3700.0,
        3705.0,
        3710.0,
        3715.0,
        3720.0,
        3725.0,
        3730.0,
        3735.0,
        3740.0,
        3745.0,
        3750.0,
        3755.0,
        3760.0,
        3765.0,
        3770.0,
        3775.0,
        3780.0,
        3785.0,
        3790.0,
        3795.0,
        3800.0,
        3805.0,
        3810.0,
        3815.0,
        3820.0,
        3825.0,
        3830.0,
        3835.0,
        3840.0,
        3845.0,
        3850.0,
        3855.0,
        3860.0,
        3865.0,
        3870.0,
        3875.0,
        3880.0,
        3885.0,
        3890.0,
        3895.0,
        3900.0,
        3905.0,
        3910.0,
        3915.0,
        3920.0,
        3925.0,
        3930.0,
        3935.0,
        3940.0,
        3945.0,
        3950.0,
        3955.0,
        3960.0,
        3965.0,
        3970.0,
        3975.0,
        3980.0,
        3985.0,
        3990.0,
        3995.0,
        4000.0,
        4005.0,
        4010.0,
        4015.0,
        4020.0,
        4025.0,
        4030.0,
        4035.0,
        4040.0,
        4045.0,
        4050.0,
        4055.0,
        4060.0,
        4065.0,
        4070.0,
        4075.0,
        4080.0,
        4085.0,
        4090.0,
        4095.0,
        4100.0,
        4105.0,
        4110.0,
        4115.0,
        4120.0,
        4125.0,
        4130.0,
        4135.0,
        4140.0,
        4145.0,
        4150.0,
        4155.0,
        4160.0,
        4165.0,
        4170.0,
        4175.0,
        4180.0,
        4185.0,
        4190.0,
        4195.0,
        4200.0,
        4205.0,
        4210.0,
        4215.0,
        4220.0,
        4225.0,
        4230.0,
        4235.0,
        4240.0,
        4245.0,
        4250.0,
        4255.0,
        4260.0,
        4265.0,
        4270.0,
        4275.0,
        4280.0,
        4285.0,
        4290.0,
        4295.0,
        4300.0,
        4305.0,
        4310.0,
        4315.0,
        4320.0,
        4325.0,
        4330.0,
        4335.0,
        4340.0,
        4345.0,
        4350.0,
        4355.0,
        4360.0,
        4365.0,
        4370.0,
        4375.0,
        4380.0,
        4385.0,
        4390.0,
        4395.0,
        4400.0,
        4405.0,
        4410.0,
        4415.0,
        4420.0,
        4425.0,
        4430.0,
        4435.0,
        4440.0,
        4445.0,
        4450.0,
        4455.0,
        4460.0,
        4465.0,
        4470.0,
        4475.0,
        4480.0,
        4485.0,
        4490.0,
        4495.0,
        4500.0,
        4505.0,
        4510.0,
        4515.0,
        4520.0,
        4525.0,
        4530.0,
        4535.0,
        4540.0,
        4545.0,
        4550.0,
        4555.0,
        4560.0,
        4565.0,
        4570.0,
        4575.0,
        4580.0,
        4585.0,
        4590.0,
        4595.0,
        4600.0,
        4605.0,
        4610.0,
        4615.0,
        4620.0,
        4625.0,
        4630.0,
        4635.0,
        4640.0,
        4645.0,
        4650.0,
        4655.0,
        4660.0,
        4665.0,
        4670.0,
        4675.0,
        4680.0,
        4685.0,
        4690.0,
        4695.0,
        4700.0,
        4705.0,
        4710.0,
        4715.0,
        4720.0,
        4725.0,
        4730.0,
        4735.0,
        4740.0,
        4745.0,
        4750.0,
        4755.0,
        4760.0,
        4765.0,
        4770.0,
        4775.0,
        4780.0,
        4785.0,
        4790.0,
        4795.0,
        4800.0,
        4805.0,
        4810.0,
        4815.0,
        4820.0,
        4825.0,
        4830.0,
        4835.0,
        4840.0,
        4845.0,
        4850.0,
        4855.0,
        4860.0,
        4865.0,
        4870.0,
        4875.0,
        4880.0,
        4885.0,
        4890.0,
        4895.0,
        4900.0,
        4905.0,
        4910.0,
        4915.0,
        4920.0,
        4925.0,
        4930.0,
        4935.0,
        4940.0,
        4945.0,
        4950.0,
        4955.0,
        4960.0,
        4965.0,
        4970.0,
        4975.0,
        4980.0,
        4985.0,
        4990.0,
        4995.0,
        5000.0,
        5005.0,
        5010.0,
        5015.0,
        5020.0,
        5025.0,
        5030.0,
        5035.0,
        5040.0,
        5045.0,
        5050.0,
        5055.0,
        5060.0,
        5065.0,
        5070.0,
        5075.0,
        5080.0,
        5085.0,
        5090.0,
        5095.0,
        5100.0,
        5105.0,
        5110.0,
        5115.0,
        5120.0,
        5125.0,
        5130.0,
        5135.0,
        5140.0,
        5145.0,
        5150.0,
        5155.0,
        5160.0,
        5165.0,
        5170.0,
        5175.0,
        5180.0,
        5185.0,
        5190.0,
        5195.0,
        5200.0,
        5205.0,
        5210.0,
        5215.0,
        5220.0,
        5225.0,
        5230.0,
        5235.0,
        5240.0,
        5245.0,
        5250.0,
        5255.0,
        5260.0,
        5265.0,
        5270.0,
        5275.0,
        5280.0,
        5285.0,
        5290.0,
        5295.0,
        5300.0,
        5305.0,
        5310.0,
        5315.0,
        5320.0,
        5325.0,
        5330.0,
        5335.0,
        5340.0,
        5345.0,
        5350.0,
        5355.0,
        5360.0,
        5365.0,
        5370.0,
        5375.0,
        5380.0,
        5385.0,
        5390.0,
        5395.0,
        5400.0,
        5405.0,
        5410.0,
        5415.0,
        5420.0,
        5425.0,
        5430.0,
        5435.0,
        5440.0,
        5445.0,
        5450.0,
        5455.0,
        5460.0,
        5465.0,
        5470.0,
        5475.0,
        5480.0,
        5485.0,
        5490.0,
        5495.0,
        5500.0,
        5505.0,
        5510.0,
        5515.0,
        5520.0,
        5525.0,
        5530.0,
        5535.0,
        5540.0,
        5545.0,
        5550.0,
        5555.0,
        5560.0,
        5565.0,
        5570.0,
        5575.0,
        5580.0,
        5585.0,
        5590.0,
        5595.0,
        5600.0,
        5605.0,
        5610.0,
        5615.0,
        5620.0,
        5625.0,
        5630.0,
        5635.0,
        5640.0,
        5645.0,
        5650.0,
        5655.0,
        5660.0,
        5665.0,
        5670.0,
        5675.0,
        5680.0,
        5685.0,
        5690.0,
        5695.0,
        5700.0,
        5705.0,
        5710.0,
        5715.0,
        5720.0,
        5725.0,
        5730.0,
        5735.0,
        5740.0,
        5745.0,
        5750.0,
        5755.0,
        5760.0,
        5765.0,
        5770.0,
        5775.0,
        5780.0,
        5785.0,
        5790.0,
        5795.0,
        5800.0,
        5805.0,
        5810.0,
        5815.0,
        5820.0,
        5825.0,
        5830.0,
        5835.0,
        5840.0,
        5845.0,
        5850.0,
        5855.0,
        5860.0,
        5865.0,
        5870.0,
        5875.0,
        5880.0,
        5885.0,
        5890.0,
        5895.0,
        5900.0,
        5905.0,
        5910.0,
        5915.0,
        5920.0,
        5925.0,
        5930.0,
        5935.0,
        5940.0,
        5945.0,
        5950.0,
        5955.0,
        5960.0,
        5965.0,
        5970.0,
        5975.0,
        5980.0,
        5985.0,
        5990.0,
        5995.0,
        6000.0,
        6005.0,
        6010.0,
        6015.0,
        6020.0,
        6025.0,
        6030.0,
        6035.0,
        6040.0,
        6045.0,
        6050.0,
        6055.0,
        6060.0,
        6065.0,
        6070.0,
        6075.0,
        6080.0,
        6085.0,
        6090.0,
        6095.0,
        6100.0,
        6105.0,
        6110.0,
        6115.0,
        6120.0,
        6125.0,
        6130.0,
        6135.0,
        6140.0,
        6145.0,
        6150.0,
        6155.0,
        6160.0,
        6165.0,
        6170.0,
        6175.0,
        6180.0,
        6185.0,
        6190.0,
        6195.0,
        6200.0,
        6205.0,
        6210.0,
        6215.0,
        6220.0,
        6225.0,
        6230.0,
        6235.0,
        6240.0,
        6245.0,
        6250.0,
        6255.0,
        6260.0,
        6265.0,
        6270.0,
        6275.0,
        6280.0,
        6285.0,
        6290.0,
        6295.0,
        6300.0,
        6305.0,
        6310.0,
        6315.0,
        6320.0,
        6325.0,
        6330.0,
        6335.0,
        6340.0,
        6345.0,
        6350.0,
        6355.0,
        6360.0,
        6365.0,
        6370.0,
        6375.0,
        6380.0,
        6385.0,
        6390.0,
        6395.0,
        6400.0,
        6405.0,
        6410.0,
        6415.0,
        6420.0,
        6425.0,
        6430.0,
        6435.0,
        6440.0,
        6445.0,
        6450.0,
        6455.0,
        6460.0,
        6465.0,
        6470.0,
        6475.0,
        6480.0,
        6485.0,
        6490.0,
        6495.0,
        6500.0,
        6505.0,
        6510.0,
        6515.0,
        6520.0,
        6525.0,
        6530.0,
        6535.0,
        6540.0,
        6545.0,
        6550.0,
        6555.0,
        6560.0,
        6565.0,
        6570.0,
        6575.0,
        6580.0,
        6585.0,
        6590.0,
        6595.0,
        6600.0,
        6605.0,
        6610.0,
        6615.0,
        6620.0,
        6625.0,
        6630.0,
        6635.0,
        6640.0,
        6645.0,
        6650.0,
        6655.0,
        6660.0,
        6665.0,
        6670.0,
        6675.0,
        6680.0,
        6685.0,
        6690.0,
        6695.0,
        6700.0,
        6705.0,
        6710.0,
        6715.0,
        6720.0,
        6725.0,
        6730.0,
        6735.0,
        6740.0,
        6745.0,
        6750.0,
        6755.0,
        6760.0,
        6765.0,
        6770.0,
        6775.0,
        6780.0,
        6785.0,
        6790.0,
        6795.0,
        6800.0,
        6805.0,
        6810.0,
        6815.0,
        6820.0,
        6825.0,
        6830.0,
        6835.0,
        6840.0,
        6845.0,
        6850.0,
        6855.0,
        6860.0,
        6865.0,
        6870.0,
        6875.0,
        6880.0,
        6885.0,
        6890.0,
        6895.0,
        6900.0,
        6905.0,
        6910.0,
        6915.0,
        6920.0,
        6925.0,
        6930.0,
        6935.0,
        6940.0,
        6945.0,
        6950.0,
        6955.0,
        6960.0,
        6965.0,
        6970.0,
        6975.0,
        6980.0,
        6985.0,
        6990.0,
        6995.0,
        7000.0,
        7005.0,
        7010.0,
        7015.0,
        7020.0,
        7025.0,
        7030.0,
        7035.0,
        7040.0,
        7045.0,
        7050.0,
        7055.0,
        7060.0,
        7065.0,
        7070.0,
        7075.0,
        7080.0,
        7085.0,
        7090.0,
        7095.0,
        7100.0,
        7105.0,
        7110.0,
        7115.0,
        7120.0,
        7125.0,
        7130.0,
        7135.0,
        7140.0,
        7145.0,
        7150.0,
        7155.0,
        7160.0,
        7165.0,
        7170.0,
        7175.0,
        7180.0,
        7185.0,
        7190.0,
        7195.0,
        7200.0,
        7205.0,
        7210.0,
        7215.0,
        7220.0,
        7225.0,
        7230.0,
        7235.0,
        7240.0,
        7245.0,
        7250.0,
        7255.0,
        7260.0,
        7265.0,
        7270.0,
        7275.0,
        7280.0,
        7285.0,
        7290.0,
        7295.0,
        7300.0,
        7305.0,
        7310.0,
        7315.0,
        7320.0,
        7325.0,
        7330.0,
        7335.0,
        7340.0,
        7345.0,
        7350.0,
        7355.0,
        7360.0,
        7365.0,
        7370.0,
        7375.0,
        7380.0,
        7385.0,
        7390.0,
        7395.0,
        7400.0,
        7405.0,
        7410.0,
        7415.0,
        7420.0,
        7425.0,
        7430.0,
        7435.0,
        7440.0,
        7445.0,
        7450.0,
        7455.0,
        7460.0,
        7465.0,
        7470.0,
        7475.0,
        7480.0,
        7485.0,
        7490.0,
        7495.0,
        7500.0,
        7505.0,
        7510.0,
        7515.0,
        7520.0,
        7525.0,
        7530.0,
        7535.0,
        7540.0,
        7545.0,
        7550.0,
        7555.0,
        7560.0,
        7565.0,
        7570.0,
        7575.0,
        7580.0,
        7585.0,
        7590.0,
        7595.0,
        7600.0,
        7605.0,
        7610.0,
        7615.0,
        7620.0,
        7625.0,
        7630.0,
        7635.0,
        7640.0,
        7645.0,
        7650.0,
        7655.0,
        7660.0,
        7665.0,
        7670.0,
        7675.0,
        7680.0,
        7685.0,
        7690.0,
        7695.0,
        7700.0,
        7705.0,
        7710.0,
        7715.0,
        7720.0,
        7725.0,
        7730.0,
        7735.0,
        7740.0,
        7745.0,
        7750.0,
        7755.0,
        7760.0,
        7765.0,
        7770.0,
        7775.0,
        7780.0,
        7785.0,
        7790.0,
        7795.0,
        7800.0,
        7805.0,
        7810.0,
        7815.0,
        7820.0,
        7825.0,
        7830.0,
        7835.0,
        7840.0,
        7845.0,
        7850.0,
        7855.0,
        7860.0,
        7865.0,
        7870.0,
        7875.0,
        7880.0,
        7885.0,
        7890.0,
        7895.0,
        7900.0,
        7905.0,
        7910.0,
        7915.0,
        7920.0,
        7925.0,
        7930.0,
        7935.0,
        7940.0,
        7945.0,
        7950.0,
        7955.0,
        7960.0,
        7965.0,
        7970.0,
        7975.0,
        7980.0,
        7985.0,
        7990.0,
        7995.0,
        8000.0,
        8005.0,
        8010.0,
        8015.0,
        8020.0,
        8025.0,
        8030.0,
        8035.0,
        8040.0,
        8045.0,
        8050.0,
        8055.0,
        8060.0,
        8065.0,
        8070.0,
        8075.0,
        8080.0,
        8085.0,
        8090.0,
        8095.0,
        8100.0,
        8105.0,
        8110.0,
        8115.0,
        8120.0,
        8125.0,
        8130.0,
        8135.0,
        8140.0,
        8145.0,
        8150.0,
        8155.0,
        8160.0,
        8165.0,
        8170.0,
        8175.0,
        8180.0,
        8185.0,
        8190.0,
        8195.0,
        8200.0,
        8205.0,
        8210.0,
        8215.0,
        8220.0,
        8225.0,
        8230.0,
        8235.0,
        8240.0,
        8245.0,
        8250.0,
        8255.0,
        8260.0,
        8265.0,
        8270.0,
        8275.0,
        8280.0,
        8285.0,
        8290.0,
        8295.0,
        8300.0,
        8305.0,
        8310.0,
        8315.0,
        8320.0,
        8325.0,
        8330.0,
        8335.0,
        8340.0,
        8345.0,
        8350.0,
        8355.0,
        8360.0,
        8365.0,
        8370.0,
        8375.0,
        8380.0,
        8385.0,
        8390.0,
        8395.0,
        8400.0,
        8405.0,
        8410.0,
        8415.0,
        8420.0,
        8425.0,
        8430.0,
        8435.0,
        8440.0,
        8445.0,
        8450.0,
        8455.0,
        8460.0,
        8465.0,
        8470.0,
        8475.0,
        8480.0,
        8485.0,
        8490.0,
        8495.0,
        8500.0,
        8505.0,
        8510.0,
        8515.0,
        8520.0,
        8525.0,
        8530.0,
        8535.0,
        8540.0,
        8545.0,
        8550.0,
        8555.0,
        8560.0,
        8565.0,
        8570.0,
        8575.0,
        8580.0,
        8585.0,
        8590.0,
        8595.0,
        8600.0,
        8605.0,
        8610.0,
        8615.0,
        8620.0,
        8625.0,
        8630.0,
        8635.0,
        8640.0,
        8645.0,
        8650.0,
        8655.0,
        8660.0,
        8665.0,
        8670.0,
        8675.0,
        8680.0,
        8685.0,
        8690.0,
        8695.0,
        8700.0,
        8705.0,
        8710.0,
        8715.0,
        8720.0,
        8725.0,
        8730.0,
        8735.0,
        8740.0,
        8745.0,
        8750.0,
        8755.0,
        8760.0,
        8765.0,
        8770.0,
        8775.0,
        8780.0,
        8785.0,
        8790.0,
        8795.0,
        8800.0,
        8805.0,
        8810.0,
        8815.0,
        8820.0,
        8825.0,
        8830.0,
        8835.0,
        8840.0,
        8845.0,
        8850.0,
        8855.0,
        8860.0,
        8865.0,
        8870.0,
        8875.0,
        8880.0,
        8885.0,
        8890.0,
        8895.0,
        8900.0,
        8905.0,
        8910.0,
        8915.0,
        8920.0,
        8925.0,
        8930.0,
        8935.0,
        8940.0,
        8945.0,
        8950.0,
        8955.0,
        8960.0,
        8965.0,
        8970.0,
        8975.0,
        8980.0,
        8985.0,
        8990.0,
        8995.0,
        9000.0,
        9005.0,
        9010.0,
        9015.0,
        9020.0,
        9025.0,
        9030.0,
        9035.0,
        9040.0,
        9045.0,
        9050.0,
        9055.0,
        9060.0,
        9065.0,
        9070.0,
        9075.0,
        9080.0,
        9085.0,
        9090.0,
        9095.0,
        9100.0,
        9105.0,
        9110.0,
        9115.0,
        9120.0,
        9125.0,
        9130.0,
        9135.0,
        9140.0,
        9145.0,
        9150.0,
        9155.0,
        9160.0,
        9165.0,
        9170.0,
        9175.0,
        9180.0,
        9185.0,
        9190.0,
        9195.0,
        9200.0,
        9205.0,
        9210.0,
        9215.0,
        9220.0,
        9225.0,
        9230.0,
        9235.0,
        9240.0,
        9245.0,
        9250.0,
        9255.0,
        9260.0,
        9265.0,
        9270.0,
        9275.0,
        9280.0,
        9285.0,
        9290.0,
        9295.0,
        9300.0,
        9305.0,
        9310.0,
        9315.0,
        9320.0,
        9325.0,
        9330.0,
        9335.0,
        9340.0,
        9345.0,
        9350.0,
        9355.0,
        9360.0,
        9365.0,
        9370.0,
        9375.0,
        9380.0,
        9385.0,
        9390.0,
        9395.0,
        9400.0,
        9405.0,
        9410.0,
        9415.0,
        9420.0,
        9425.0,
        9430.0,
        9435.0,
        9440.0,
        9445.0,
        9450.0,
        9455.0,
        9460.0,
        9465.0,
        9470.0,
        9475.0,
        9480.0,
        9485.0,
        9490.0,
        9495.0,
        9500.0,
        9505.0,
        9510.0,
        9515.0,
        9520.0,
        9525.0,
        9530.0,
        9535.0,
        9540.0,
        9545.0,
        9550.0,
        9555.0,
        9560.0,
        9565.0,
        9570.0,
        9575.0,
        9580.0,
        9585.0,
        9590.0,
        9595.0,
        9600.0,
        9605.0,
        9610.0,
        9615.0,
        9620.0,
        9625.0,
        9630.0,
        9635.0,
        9640.0,
        9645.0,
        9650.0,
        9655.0,
        9660.0,
        9665.0,
        9670.0,
        9675.0,
        9680.0,
        9685.0,
        9690.0,
        9695.0,
        9700.0,
        9705.0,
        9710.0,
        9715.0,
        9720.0,
        9725.0,
        9730.0,
        9735.0,
        9740.0,
        9745.0,
        9750.0,
        9755.0,
        9760.0,
        9765.0,
        9770.0,
        9775.0,
        9780.0,
        9785.0,
        9790.0,
        9795.0,
        9800.0,
        9805.0,
        9810.0,
        9815.0,
        9820.0,
        9825.0,
        9830.0,
        9835.0,
        9840.0,
        9845.0,
        9850.0,
        9855.0,
        9860.0,
        9865.0,
        9870.0,
        9875.0,
        9880.0,
        9885.0,
        9890.0,
        9895.0,
        9900.0,
        9905.0,
        9910.0,
        9915.0,
        9920.0,
        9925.0,
        9930.0,
        9935.0,
        9940.0,
        9945.0,
        9950.0,
        9955.0,
        9960.0,
        9965.0,
        9970.0,
        9975.0,
        9980.0,
        9985.0,
        9990.0,
        9995.0,
        10000.0,
        10005.0,
        10010.0,
        10015.0,
        10020.0,
        10025.0,
        10030.0,
        10035.0,
        10040.0,
        10045.0,
        10050.0,
        10055.0,
        10060.0,
        10065.0,
        10070.0,
        10075.0,
        10080.0,
        10085.0,
        10090.0,
        10095.0,
        10100.0,
        10105.0,
        10110.0,
        10115.0,
        10120.0,
        10125.0,
        10130.0,
        10135.0,
        10140.0,
        10145.0,
        10150.0,
        10155.0,
        10160.0,
        10165.0,
        10170.0,
        10175.0,
        10180.0,
        10185.0,
        10190.0,
        10195.0,
        10200.0,
        10205.0,
        10210.0,
        10215.0,
        10220.0,
        10225.0,
        10230.0,
        10235.0,
        10240.0,
        10245.0,
        10250.0,
        10255.0,
        10260.0,
        10265.0,
        10270.0,
        10275.0,
        10280.0,
        10285.0,
        10290.0,
        10295.0,
        10300.0,
        10305.0,
        10310.0,
        10315.0,
        10320.0,
        10325.0,
        10330.0,
        10335.0,
        10340.0,
        10345.0,
        10350.0,
        10355.0,
        10360.0,
        10365.0,
        10370.0,
        10375.0,
        10380.0,
        10385.0,
        10390.0,
        10395.0,
        10400.0,
        10405.0,
        10410.0,
        10415.0,
        10420.0,
        10425.0,
        10430.0,
        10435.0,
        10440.0,
        10445.0,
        10450.0,
        10455.0,
        10460.0,
        10465.0,
        10470.0,
        10475.0,
        10480.0,
        10485.0,
        10490.0,
        10495.0,
        10500.0
      ],
      "units":"angstrom"
    },
    "values":{
      "value":[
        0.41232,
        0.229507,
        0.122171,
        0.136122,
        0.1819,
        0.151325,
        0.16863,
        0.158584,
        0.034372,
        0.04568,
        0.062538,
        0.104686,
        0.246143,
        0.270442,
        0.168299,
        0.131535,
        0.211219,
        0.334912,
        0.436917,
        0.393979,
        0.367643,
        0.3874,
        0.308644,
        0.348625,
        0.451105,
        0.461119,
        0.50198,
        0.525676,
        0.483771,
        0.418344,
        0.37801,
        0.414787,
        0.550163,
        0.701643,
        0.725121,
        0.655677,
        0.612681,
        0.623942,
        0.775728,
        0.761059,
        0.793181,
        0.832847,
        0.749843,
        0.666835,
        0.700661,
        0.773426,
        0.753882,
        0.818267,
        0.779519,
        0.764807,
        0.850409,
        0.896403,
        0.881919,
        0.858479,
        0.864973,
        0.971266,
        0.999923,
        0.996304,
        1.018324,
        1.059793,
        1.141617,
        1.187832,
        1.262278,
        1.166564,
        1.09178,
        1.093725,
        1.129213,
        1.214525,
        1.270855,
        1.215546,
        1.181541,
        1.131591,
        1.083098,
        1.147577,
        1.261509,
        1.161182,
        1.094645,
        1.088225,
        1.15041,
        1.114273,
        1.124553,
        1.137631,
        1.059922,
        1.093553,
        1.115339,
        1.137698,
        1.227932,
        1.291683,
        1.358315,
        1.313017,
        1.203262,
        1.13745,
        1.09875,
        1.190312,
        1.161419,
        1.13684,
        1.152621,
        1.1636,
        1.227757,
        1.244686,
        1.187268,
        1.076716,
        1.13992,
        1.234632,
        1.178258,
        1.187727,
        1.285923,
        1.276763,
        1.215669,
        1.197861,
        1.184317,
        1.113732,
        1.056499,
        1.021928,
        0.977762,
        1.050156,
        1.154779,
        1.151282,
        1.137072,
        1.132545,
        1.176534,
        1.27256,
        1.218064,
        1.199285,
        1.184295,
        1.204787,
        1.257901,
        1.084243,
        0.936867,
        1.248224,
        1.344958,
        1.283225,
        1.248907,
        1.200983,
        1.177755,
        1.182348,
        1.147817,
        1.135644,
        1.047221,
        0.959258,
        0.916058,
        0.897002,
        0.912099,
        0.974752,
        1.053117,
        1.040561,
        0.962459,
        0.863171,
        0.802567,
        0.835518,
        0.873909,
        0.882173,
        0.862629,
        0.796638,
        0.765575,
        0.733082,
        0.761136,
        0.808686,
        0.823084,
        0.828032,
        0.79672,
        0.806036,
        0.787524,
        0.655363,
        0.739987,
        0.887329,
        0.828807,
        0.852685,
        0.76004,
        0.590829,
        0.60527,
        0.613045,
        0.624083,
        0.652376,
        0.623898,
        0.611687,
        0.640132,
        0.607059,
        0.523948,
        0.478477,
        0.453454,
        0.504419,
        0.521784,
        0.483261,
        0.486426,
        0.515874,
        0.538163,
        0.477838,
        0.488892,
        0.370151,
        0.306397,
        0.425502,
        0.525076,
        0.445945,
        0.417657,
        0.554016,
        0.495619,
        0.38625,
        0.367944,
        0.384584,
        0.380903,
        0.418297,
        0.464434,
        0.393905,
        0.364213,
        0.265638,
        0.223139,
        0.290441,
        0.286555,
        0.2955,
        0.309602,
        0.321845,
        0.315584,
        0.290519,
        0.256953,
        0.298632,
        0.341145,
        0.361153,
        0.343878,
        0.24505,
        0.353898,
        0.459061,
        0.346091,
        0.336951,
        0.442956,
        0.407683,
        0.399038,
        0.385065,
        0.462922,
        0.493365,
        0.505719,
        0.535001,
        0.597171,
        0.638045,
        0.546936,
        0.578226,
        0.705555,
        0.644971,
        0.565888,
        0.657717,
        0.674208,
        0.626296,
        0.623266,
        0.589891,
        0.57296,
        0.673553,
        0.763177,
        0.773624,
        0.708704,
        0.718055,
        0.884579,
        0.790534,
        0.695972,
        0.638871,
        0.701426,
        0.84627,
        0.945578,
        0.860382,
        0.798387,
        0.92831,
        0.963021,
        1.014711,
        1.122243,
        1.083579,
        0.961126,
        1.010292,
        1.00216,
        0.978105,
        1.011175,
        0.988956,
        1.145952,
        1.215984,
        1.163413,
        1.191861,
        1.173606,
        1.16343,
        1.095455,
        1.135091,
        1.16054,
        1.106668,
        1.145381,
        1.232004,
        1.294113,
        1.322337,
        1.332671,
        1.310142,
        1.104506,
        0.993542,
        1.230474,
        1.42997,
        1.404514,
        1.433767,
        1.482336,
        1.451361,
        1.429402,
        1.389277,
        1.447805,
        1.545029,
        1.594897,
        1.676536,
        1.760221,
        1.778042,
        1.706488,
        1.703827,
        1.66211,
        1.674637,
        1.754099,
        1.753334,
        1.784655,
        1.715435,
        1.684545,
        1.753592,
        1.717864,
        1.67158,
        1.659928,
        1.733114,
        1.785215,
        1.786875,
        1.733643,
        1.656097,
        1.640131,
        1.556748,
        1.616133,
        1.715058,
        1.715873,
        1.739694,
        1.901145,
        1.955789,
        2.001923,
        1.960783,
        1.662235,
        1.670699,
        1.848764,
        2.013543,
        2.100251,
        2.141845,
        1.922125,
        1.836965,
        1.882482,
        1.897175,
        1.95489,
        1.919464,
        1.870141,
        1.914916,
        1.98185,
        1.964272,
        1.945384,
        1.976342,
        2.046636,
        2.095278,
        2.086153,
        2.026593,
        2.053778,
        2.178966,
        2.201505,
        1.99784,
        1.977778,
        1.988852,
        1.950304,
        1.981615,
        1.944291,
        1.980359,
        2.073441,
        2.025796,
        1.998301,
        2.042167,
        2.121732,
        2.020195,
        1.891677,
        1.9856,
        2.058633,
        2.023652,
        2.049666,
        2.011025,
        1.999983,
        1.955343,
        1.977632,
        2.017172,
        2.052343,
        2.081715,
        2.051834,
        2.029514,
        1.98622,
        1.925974,
        1.887063,
        1.949891,
        2.043543,
        2.076295,
        2.003898,
        2.054158,
        2.08264,
        2.012947,
        1.965363,
        1.944861,
        1.939043,
        2.042289,
        2.080749,
        2.046427,
        2.001257,
        2.011827,
        2.054422,
        2.091309,
        1.996123,
        1.960202,
        2.029243,
        2.086528,
        2.015001,
        2.00171,
        2.100473,
        2.11941,
        2.110482,
        2.126171,
        2.131559,
        2.10251,
        2.068367,
        2.062868,
        2.083876,
        2.117865,
        2.141626,
        2.137348,
        2.118485,
        2.102818,
        2.09417,
        2.090604,
        2.0811,
        2.058251,
        2.038188,
        2.037544,
        2.051421,
        2.068054,
        2.069713,
        2.046201,
        2.023406,
        2.027065,
        2.046218,
        2.063184,
        2.070078,
        2.064422,
        2.055541,
        2.053987,
        2.06342,
        2.080163,
        2.078106,
        2.039058,
        1.998947,
        1.992407,
        1.994784,
        1.979557,
        1.972023,
        1.997945,
        2.033145,
        2.04957,
        2.053621,
        2.055675,
        2.047553,
        2.023041,
        2.002344,
        2.003989,
        2.013376,
        2.014256,
        2.016907,
        2.030464,
        2.032945,
        2.0071,
        1.985718,
        1.998174,
        2.010143,
        1.988236,
        1.966487,
        1.979759,
        1.998793,
        1.991259,
        1.975063,
        1.976298,
        1.962129,
        1.964466,
        1.94153,
        1.946695,
        1.934584,
        1.930847,
        1.933857,
        1.910651,
        1.910649,
        1.897277,
        1.88796,
        1.861868,
        1.833517,
        1.848162,
        1.86526,
        1.869774,
        1.874197,
        1.887353,
        1.8784,
        1.893349,
        1.930162,
        1.900808,
        1.913884,
        1.896368,
        1.922332,
        1.916292,
        1.839325,
        1.837628,
        1.875144,
        1.852306,
        1.859881,
        1.924721,
        1.954197,
        1.960087,
        1.947237,
        1.952045,
        2.03186,
        2.016887,
        2.110846,
        2.218926,
        2.189156,
        2.287896,
        2.292266,
        2.108036,
        2.436388,
        2.382727,
        2.142647,
        2.430617,
        2.578032,
        2.412449,
        2.150441,
        2.389174,
        2.647018,
        2.666001,
        2.577592,
        2.210742,
        2.237739,
        2.551016,
        2.647969,
        2.698554,
        2.666892,
        2.65276,
        2.431187,
        2.105276,
        2.404933,
        2.633819,
        2.628039,
        2.593071,
        2.542095,
        2.527002,
        2.54685,
        2.5033,
        2.466129,
        2.21692,
        2.040607,
        2.355099,
        2.558914,
        2.560631,
        2.534166,
        2.494763,
        2.441482,
        2.429314,
        2.305268,
        2.280266,
        2.445332,
        2.463647,
        2.459002,
        2.455952,
        2.398192,
        2.036598,
        1.789385,
        2.192722,
        2.363902,
        2.370164,
        2.373161,
        2.339714,
        2.334845,
        2.292695,
        2.285199,
        2.288529,
        2.260281,
        2.187479,
        2.230258,
        2.263646,
        2.277485,
        2.288874,
        2.282599,
        2.267395,
        2.24362,
        2.211392,
        2.195383,
        2.158551,
        2.165171,
        2.155553,
        2.110099,
        1.96686,
        1.703547,
        1.876774,
        2.093287,
        2.102903,
        2.082572,
        2.055376,
        2.032215,
        2.058014,
        2.045351,
        2.04623,
        2.065904,
        2.050604,
        2.053744,
        2.04332,
        2.037784,
        2.019602,
        2.019845,
        2.017778,
        2.009405,
        2.019427,
        2.026506,
        2.007277,
        1.977538,
        1.985514,
        1.990528,
        1.9805,
        1.955221,
        1.955734,
        1.974588,
        1.956833,
        1.96852,
        1.960552,
        1.936824,
        1.904386,
        1.876173,
        1.890439,
        1.902727,
        1.90388,
        1.903053,
        1.891262,
        1.899296,
        1.909536,
        1.900434,
        1.910451,
        1.919809,
        1.922393,
        1.897974,
        1.729203,
        1.500695,
        1.67343,
        1.831697,
        1.892871,
        1.89389,
        1.882238,
        1.86663,
        1.861679,
        1.836603,
        1.753196,
        1.753371,
        1.807257,
        1.829553,
        1.821475,
        1.775958,
        1.757549,
        1.686599,
        1.643138,
        1.639735,
        1.640712,
        1.669316,
        1.718036,
        1.729098,
        1.73153,
        1.730923,
        1.712299,
        1.652014,
        1.676295,
        1.676468,
        1.723987,
        1.739522,
        1.745957,
        1.734378,
        1.723921,
        1.734166,
        1.743842,
        1.707287,
        1.695772,
        1.712929,
        1.707592,
        1.690179,
        1.670049,
        1.662648,
        1.682971,
        1.691353,
        1.679933,
        1.680776,
        1.698427,
        1.687578,
        1.649159,
        1.651325,
        1.637048,
        1.625854,
        1.633796,
        1.650633,
        1.652445,
        1.640389,
        1.64818,
        1.629224,
        1.623142,
        1.621684,
        1.630733,
        1.621305,
        1.630188,
        1.639109,
        1.642888,
        1.622154,
        1.640974,
        1.65427,
        1.663013,
        1.641262,
        1.61104,
        1.616062,
        1.631865,
        1.615597,
        1.579408,
        1.578813,
        1.574148,
        1.575151,
        1.574302,
        1.570948,
        1.584731,
        1.577345,
        1.56403,
        1.557166,
        1.537281,
        1.534235,
        1.517917,
        1.530262,
        1.516726,
        1.516251,
        1.530341,
        1.519699,
        1.493824,
        1.490376,
        1.498627,
        1.503582,
        1.511421,
        1.516076,
        1.534156,
        1.518266,
        1.476652,
        1.461084,
        1.390513,
        1.258583,
        1.32992,
        1.404757,
        1.412769,
        1.415738,
        1.426938,
        1.445232,
        1.419553,
        1.43369,
        1.467216,
        1.445445,
        1.434726,
        1.378741,
        1.352691,
        1.420963,
        1.45383,
        1.449883,
        1.43734,
        1.424535,
        1.432116,
        1.408888,
        1.417136,
        1.404438,
        1.411975,
        1.39841,
        1.406381,
        1.417839,
        1.403407,
        1.422799,
        1.391142,
        1.362613,
        1.320494,
        1.309799,
        1.348535,
        1.342273,
        1.339834,
        1.354539,
        1.34874,
        1.326949,
        1.325649,
        1.323643,
        1.338055,
        1.350575,
        1.342661,
        1.349459,
        1.340167,
        1.326215,
        1.312286,
        1.308642,
        1.311217,
        1.317823,
        1.294932,
        1.293017,
        1.300647,
        1.295674,
        1.306668,
        1.300409,
        1.288763,
        1.282434,
        1.262084,
        1.26773,
        1.254933,
        1.247265,
        1.272949,
        1.273403,
        1.277985,
        1.275364,
        1.270808,
        1.260023,
        1.245605,
        1.236579,
        1.238882,
        1.233766,
        1.22595,
        1.219941,
        1.209762,
        1.209798,
        1.203462,
        1.199255,
        1.198817,
        1.208803,
        1.188644,
        1.171976,
        1.175715,
        1.179131,
        1.177259,
        1.172399,
        1.186159,
        1.18138,
        1.189149,
        1.173226,
        1.158592,
        1.146798,
        1.148474,
        1.14519,
        1.141632,
        1.129645,
        1.128152,
        1.128219,
        1.133175,
        1.124899,
        1.124874,
        1.129182,
        1.113531,
        1.106508,
        1.089391,
        1.097269,
        1.100057,
        1.086705,
        1.093331,
        1.085479,
        1.095195,
        1.097544,
        1.082214,
        1.068344,
        1.064665,
        1.070385,
        1.056865,
        1.046757,
        1.04803,
        1.070358,
        1.066308,
        1.047823,
        1.054562,
        1.045999,
        1.032792,
        1.022901,
        1.036334,
        1.057171,
        1.038058,
        1.010583,
        1.022392,
        1.025541,
        1.013121,
        1.016463,
        0.998058,
        0.996447,
        1.001139,
        1.004686,
        0.992708,
        0.991162,
        1.000347,
        1.002912,
        1.00796,
        0.988276,
        0.980668,
        0.985164,
        0.987537,
        0.974769,
        0.974283,
        0.976168,
        0.963376,
        0.963676,
        0.973361,
        0.968291,
        0.97094,
        0.954137,
        0.94758,
        0.943196,
        0.944745,
        0.935,
        0.92451,
        0.926047,
        0.928659,
        0.927709,
        0.930886,
        0.929675,
        0.920166,
        0.914939,
        0.910915,
        0.906584,
        0.905224,
        0.900743,
        0.911328,
        0.910969,
        0.901425,
        0.882792,
        0.88223,
        0.894793,
        0.896267,
        0.889387,
        0.88051,
        0.868131,
        0.850418,
        0.802599,
        0.81422,
        0.853768,
        0.842936,
        0.844668,
        0.85755,
        0.847035,
        0.853708,
        0.862454,
        0.860147,
        0.860376,
        0.858491,
        0.859578,
        0.843846,
        0.833132,
        0.837008,
        0.851588,
        0.849129,
        0.824222,
        0.761757,
        0.796097,
        0.760906,
        0.669316,
        0.698342,
        0.774094,
        0.832393,
        0.823741,
        0.818745,
        0.811532,
        0.800949,
        0.785913,
        0.801718,
        0.795373,
        0.785552,
        0.782914,
        0.789989,
        0.798506,
        0.787367,
        0.771831,
        0.753187,
        0.755409,
        0.761157,
        0.771212,
        0.775895,
        0.773763,
        0.777252,
        0.770649,
        0.778525,
        0.7813,
        0.776095,
        0.772644,
        0.761008,
        0.760529,
        0.767344,
        0.767222,
        0.763155,
        0.765232,
        0.762565,
        0.758016,
        0.75716,
        0.75375,
        0.753384,
        0.749568,
        0.749404,
        0.747379,
        0.744967,
        0.747263,
        0.748204,
        0.746334,
        0.741477,
        0.740112,
        0.736736,
        0.732596,
        0.72745,
        0.72824,
        0.723381,
        0.718226,
        0.717686,
        0.71375,
        0.712703,
        0.718694,
        0.714178,
        0.713059,
        0.714401,
        0.711497,
        0.709137,
        0.712351,
        0.711208,
        0.710164,
        0.710103,
        0.708409,
        0.706554,
        0.706867,
        0.70686,
        0.70514,
        0.708877,
        0.701775,
        0.677751,
        0.678621,
        0.669273,
        0.637068,
        0.640919,
        0.670933,
        0.683105,
        0.682149,
        0.680645,
        0.678978,
        0.679525,
        0.681522,
        0.682833,
        0.682019,
        0.681466,
        0.677328,
        0.648153,
        0.645863,
        0.667544,
        0.669635,
        0.662506,
        0.637802,
        0.640344,
        0.654852,
        0.657827,
        0.659028,
        0.658884,
        0.654118,
        0.653212,
        0.655385,
        0.65257,
        0.651171,
        0.651954,
        0.651056,
        0.649628,
        0.645835,
        0.641729,
        0.640917,
        0.636946,
        0.637355,
        0.634752,
        0.632849,
        0.628746,
        0.625883,
        0.624189,
        0.621801,
        0.625428,
        0.631394,
        0.630015,
        0.62764,
        0.620398,
        0.622681,
        0.624838,
        0.621858,
        0.624125,
        0.627976,
        0.62349,
        0.619426,
        0.613122,
        0.603408,
        0.601516,
        0.614178,
        0.606832,
        0.598847,
        0.605711,
        0.611577,
        0.611717,
        0.61163,
        0.612307,
        0.602719,
        0.602995,
        0.606268,
        0.604555,
        0.602251,
        0.59908,
        0.596421,
        0.594833,
        0.591415,
        0.586188,
        0.585184,
        0.586126,
        0.58097,
        0.559533,
        0.554224,
        0.576581,
        0.580391,
        0.579406,
        0.578626,
        0.580809,
        0.577717,
        0.573426,
        0.575246,
        0.574143,
        0.570596,
        0.56944,
        0.570976,
        0.566584,
        0.566665,
        0.565558,
        0.563666,
        0.565189,
        0.559167,
        0.558156,
        0.557265,
        0.557021,
        0.558342,
        0.558295,
        0.556993,
        0.557819,
        0.558558,
        0.559346,
        0.551267,
        0.550086,
        0.547613,
        0.548153,
        0.548203,
        0.546949,
        0.545607,
        0.544366,
        0.543177,
        0.541958,
        0.540748,
        0.539533,
        0.538445,
        0.537296,
        0.536177,
        0.535039,
        0.53393,
        0.532818,
        0.53171,
        0.530598,
        0.529597,
        0.5287,
        0.528014,
        0.527303,
        0.526577,
        0.525872,
        0.525154,
        0.524435,
        0.52362,
        0.522907,
        0.522157,
        0.522183,
        0.518446,
        0.513193,
        0.503791,
        0.505026,
        0.506247,
        0.504717,
        0.506236,
        0.506092,
        0.501575,
        0.496236,
        0.497973,
        0.501367,
        0.5001,
        0.497175,
        0.497271,
        0.492395,
        0.485283,
        0.475073,
        0.48847,
        0.495902,
        0.494643,
        0.49624,
        0.494238,
        0.495715,
        0.497544,
        0.495493,
        0.493654,
        0.495916,
        0.495646,
        0.496697,
        0.50032,
        0.499744,
        0.497392,
        0.494149,
        0.49349,
        0.49175,
        0.489743,
        0.480018,
        0.462217,
        0.447581,
        0.446902,
        0.432503,
        0.434684,
        0.440381,
        0.440634,
        0.448627,
        0.479769,
        0.491547,
        0.489618,
        0.480058,
        0.46942,
        0.443379,
        0.446963,
        0.451137,
        0.454955,
        0.450572,
        0.459567,
        0.449934,
        0.451654,
        0.433518,
        0.433348,
        0.451095,
        0.440888,
        0.44169,
        0.44693,
        0.433865,
        0.437428,
        0.436411,
        0.436806,
        0.448201,
        0.448854,
        0.44403,
        0.445989,
        0.443837,
        0.442004,
        0.443304,
        0.438842,
        0.433845,
        0.432799,
        0.43394,
        0.431044,
        0.434139,
        0.434927,
        0.432234,
        0.428941,
        0.429428,
        0.425512,
        0.422728,
        0.421828,
        0.434219,
        0.434628,
        0.433924,
        0.431391,
        0.429399,
        0.431132,
        0.430181,
        0.428932,
        0.42501,
        0.423015,
        0.426377,
        0.425446,
        0.425394,
        0.423926,
        0.424794,
        0.423337,
        0.422384,
        0.422643,
        0.422495,
        0.419872,
        0.417893,
        0.417377,
        0.415596,
        0.415252,
        0.413485,
        0.413,
        0.412189,
        0.411502,
        0.410784,
        0.410066,
        0.409402,
        0.408748,
        0.408015,
        0.407256,
        0.406489,
        0.405699,
        0.404914,
        0.404094,
        0.403281,
        0.402467,
        0.401655,
        0.400846,
        0.400042,
        0.399242,
        0.398447,
        0.397657,
        0.396872,
        0.396089,
        0.395309,
        0.394529,
        0.393704,
        0.392887,
        0.392046,
        0.391216,
        0.390368,
        0.389565,
        0.388861,
        0.388895,
        0.390142,
        0.390222,
        0.389437,
        0.388537,
        0.388916,
        0.387428,
        0.387183,
        0.3859,
        0.385252,
        0.383026,
        0.379375,
        0.357559,
        0.328631,
        0.362919,
        0.37851,
        0.378564,
        0.378593,
        0.377227,
        0.376062,
        0.375954,
        0.374756,
        0.373228,
        0.373273,
        0.373446,
        0.37128,
        0.368529,
        0.36768,
        0.369839,
        0.367505,
        0.366152,
        0.365207,
        0.364014,
        0.361937,
        0.360374,
        0.361701,
        0.361187,
        0.356483,
        0.356939,
        0.357402,
        0.358095,
        0.356919,
        0.355745,
        0.355906,
        0.354325,
        0.356545,
        0.356326,
        0.354103,
        0.351779,
        0.351722,
        0.348958,
        0.346185,
        0.349106,
        0.349437,
        0.349624,
        0.349064,
        0.349132,
        0.348433,
        0.344331,
        0.344366,
        0.343288,
        0.343174,
        0.34221,
        0.341847,
        0.340875,
        0.340128,
        0.340188,
        0.339884,
        0.340908,
        0.340918,
        0.340062,
        0.339074,
        0.338918,
        0.339575,
        0.338743,
        0.338019,
        0.337844,
        0.339177,
        0.339179,
        0.34083,
        0.33855,
        0.337843,
        0.339194,
        0.336823,
        0.333441,
        0.326419,
        0.327054,
        0.323158,
        0.316987,
        0.312255,
        0.312589,
        0.299584,
        0.313441,
        0.318444,
        0.310087,
        0.319777,
        0.318812,
        0.323213,
        0.320608,
        0.336563,
        0.339567,
        0.331855,
        0.324205,
        0.304538,
        0.279955,
        0.303682,
        0.323159,
        0.322782,
        0.331482,
        0.323568,
        0.318193,
        0.324503,
        0.324087,
        0.309291,
        0.30861,
        0.313677,
        0.310031,
        0.30781,
        0.312876,
        0.307265,
        0.310938,
        0.309053,
        0.303319,
        0.307153,
        0.311467,
        0.307847,
        0.308413,
        0.308337,
        0.311909,
        0.312099,
        0.303832,
        0.309991,
        0.310466,
        0.298633,
        0.30792,
        0.313484,
        0.30417,
        0.298046,
        0.311034,
        0.315195,
        0.303397,
        0.291276,
        0.308425,
        0.31769,
        0.313453,
        0.297378,
        0.284987,
        0.290959,
        0.303071,
        0.316911,
        0.311243,
        0.292875,
        0.285748,
        0.305264,
        0.31481,
        0.318123,
        0.320472,
        0.310894,
        0.289854,
        0.276627,
        0.299617,
        0.310059,
        0.314631,
        0.315272,
        0.311553,
        0.306027,
        0.29268,
        0.269243,
        0.278832,
        0.302489,
        0.310561,
        0.311285,
        0.310626,
        0.309393,
        0.305657,
        0.301526,
        0.294973,
        0.27842,
        0.258067,
        0.283602,
        0.300094,
        0.304804,
        0.306476,
        0.307718,
        0.308062,
        0.308559,
        0.308121,
        0.305904,
        0.302892,
        0.296075,
        0.280445,
        0.253615,
        0.265001,
        0.285076,
        0.286088,
        0.286687,
        0.295513,
        0.301968,
        0.30164,
        0.299582,
        0.299633,
        0.300908,
        0.298487,
        0.299638,
        0.296255,
        0.292736,
        0.287323,
        0.274577,
        0.249014,
        0.256517,
        0.278476,
        0.286507,
        0.289535,
        0.287415,
        0.285969,
        0.28551,
        0.288157,
        0.287413,
        0.287911,
        0.289509,
        0.288444,
        0.287014,
        0.284305,
        0.282723,
        0.284655,
        0.284805,
        0.284236,
        0.280077,
        0.275859,
        0.268903,
        0.249505,
        0.236231,
        0.260353,
        0.271618,
        0.276818,
        0.279179,
        0.281196,
        0.280643,
        0.281439,
        0.282743,
        0.28543,
        0.284237,
        0.283197,
        0.284171,
        0.280844,
        0.278928,
        0.279537,
        0.276854,
        0.272102,
        0.268129,
        0.269648,
        0.258656,
        0.26055,
        0.259444,
        0.262967,
        0.252538,
        0.230458,
        0.246589,
        0.247054,
        0.238532,
        0.233436,
        0.214078,
        0.227958,
        0.246804,
        0.262244,
        0.27587,
        0.280219,
        0.277503,
        0.277814,
        0.274365,
        0.270984,
        0.259481,
        0.251897,
        0.252878,
        0.251703,
        0.247192,
        0.248944,
        0.253746,
        0.248381,
        0.249956,
        0.254511,
        0.262699,
        0.254893,
        0.260769,
        0.24762,
        0.236801,
        0.245919,
        0.256482,
        0.245203,
        0.226002,
        0.238849,
        0.24952,
        0.245999,
        0.232624,
        0.243349,
        0.248191,
        0.251074,
        0.248389,
        0.257167,
        0.249446,
        0.246257,
        0.241703,
        0.240487,
        0.237064,
        0.228089,
        0.23391,
        0.240659,
        0.242951,
        0.242643,
        0.243388,
        0.238912,
        0.238842,
        0.246396,
        0.250021,
        0.245596,
        0.246066,
        0.243085,
        0.237559,
        0.230535,
        0.231042,
        0.229582,
        0.225815,
        0.22072,
        0.222363,
        0.225418,
        0.217389,
        0.210987,
        0.203893,
        0.223287,
        0.213702,
        0.214649,
        0.223057,
        0.215176,
        0.225165,
        0.224439,
        0.239012,
        0.259324,
        0.271557,
        0.261335,
        0.253507,
        0.244099,
        0.239378,
        0.232499,
        0.221828,
        0.206705,
        0.220668,
        0.204583,
        0.205244,
        0.223555,
        0.218224,
        0.211741,
        0.220126,
        0.226682,
        0.228583,
        0.221085,
        0.222449,
        0.234221,
        0.216059,
        0.203744,
        0.22018,
        0.233415,
        0.225314,
        0.206368,
        0.210325,
        0.211762,
        0.217529,
        0.220155,
        0.204766,
        0.203549,
        0.203527,
        0.207651,
        0.21008,
        0.2148,
        0.228613,
        0.224667,
        0.221055,
        0.213092,
        0.210109,
        0.215807,
        0.216064,
        0.217973,
        0.221573,
        0.215097,
        0.210013,
        0.216555,
        0.214611,
        0.210185,
        0.210184,
        0.211989,
        0.216398,
        0.212989,
        0.20849,
        0.211249,
        0.216495,
        0.213798,
        0.212585,
        0.212785,
        0.211588,
        0.207652,
        0.206636,
        0.205908,
        0.204908,
        0.203967,
        0.203541,
        0.2062,
        0.203761,
        0.205136,
        0.206234,
        0.204737,
        0.20337,
        0.201285,
        0.201548,
        0.204456,
        0.204031,
        0.202649,
        0.20223,
        0.200735,
        0.199101,
        0.201739,
        0.201483,
        0.202907,
        0.200289,
        0.199462,
        0.196625,
        0.196686,
        0.198178,
        0.197503,
        0.198644,
        0.19853,
        0.200497,
        0.20224,
        0.202151,
        0.200817,
        0.199495,
        0.198492,
        0.195898,
        0.196092,
        0.193868,
        0.194674,
        0.19664,
        0.195172,
        0.19473,
        0.195176,
        0.193469,
        0.193044,
        0.190001,
        0.190243,
        0.188852,
        0.191011,
        0.188101,
        0.189225,
        0.190894,
        0.187109,
        0.186664,
        0.187538,
        0.186142,
        0.188336,
        0.188191,
        0.187615,
        0.185672,
        0.186,
        0.18341,
        0.176481,
        0.173652,
        0.175736,
        0.17456,
        0.171482,
        0.171567,
        0.166554,
        0.166725,
        0.174025,
        0.177477,
        0.175932,
        0.179022,
        0.178904,
        0.179987,
        0.180115,
        0.178483,
        0.180077,
        0.177665,
        0.179138,
        0.17584,
        0.174574,
        0.172461,
        0.176257,
        0.176276,
        0.177804,
        0.176489,
        0.177205,
        0.178731,
        0.179827,
        0.180245,
        0.180141,
        0.179769,
        0.179383,
        0.179162,
        0.178992,
        0.178682,
        0.178043,
        0.176958,
        0.175603,
        0.174227,
        0.173078,
        0.172349,
        0.172,
        0.171935,
        0.172058,
        0.172242,
        0.172236,
        0.171759,
        0.170529,
        0.168435,
        0.166043,
        0.164089,
        0.16331,
        0.164185,
        0.16617,
        0.168461,
        0.170258,
        0.170756,
        0.170548,
        0.170115,
        0.169666,
        0.169371,
        0.169236,
        0.169225,
        0.169301,
        0.169429,
        0.169574,
        0.169702,
        0.169779,
        0.169763,
        0.169592,
        0.169195,
        0.168501,
        0.167497,
        0.166389,
        0.165442,
        0.164919,
        0.164979,
        0.165363,
        0.165707,
        0.165647,
        0.164959,
        0.16397,
        0.16315,
        0.162967,
        0.163702,
        0.164889,
        0.165874,
        0.166003,
        0.164838,
        0.162788,
        0.160479,
        0.158536,
        0.157454,
        0.157209,
        0.15765,
        0.158622
      ],
      "range":1
    }
  }
]
