[
  {
    "model":"Star, type K4(iii)",
    "name":"Star, type K4(iii)",
    "type":"WB_REF",
    "dataQualityMarker":3,
    "dataSource":"https://www.eso.org/sci/facilities/paranal/decommissioned/isaac/tools/lib.html",
    "manufacturer":"A. Pickles (A.J. Pickles, PASP 110,863, 1998)",
    "version":1,
    "wavelength":{
      "value":[
        1150.0,
        1155.0,
        1160.0,
        1165.0,
        1170.0,
        1175.0,
        1180.0,
        1185.0,
        1190.0,
        1195.0,
        1200.0,
        1205.0,
        1210.0,
        1215.0,
        1220.0,
        1225.0,
        1230.0,
        1235.0,
        1240.0,
        1245.0,
        1250.0,
        1255.0,
        1260.0,
        1265.0,
        1270.0,
        1275.0,
        1280.0,
        1285.0,
        1290.0,
        1295.0,
        1300.0,
        1305.0,
        1310.0,
        1315.0,
        1320.0,
        1325.0,
        1330.0,
        1335.0,
        1340.0,
        1345.0,
        1350.0,
        1355.0,
        1360.0,
        1365.0,
        1370.0,
        1375.0,
        1380.0,
        1385.0,
        1390.0,
        1395.0,
        1400.0,
        1405.0,
        1410.0,
        1415.0,
        1420.0,
        1425.0,
        1430.0,
        1435.0,
        1440.0,
        1445.0,
        1450.0,
        1455.0,
        1460.0,
        1465.0,
        1470.0,
        1475.0,
        1480.0,
        1485.0,
        1490.0,
        1495.0,
        1500.0,
        1505.0,
        1510.0,
        1515.0,
        1520.0,
        1525.0,
        1530.0,
        1535.0,
        1540.0,
        1545.0,
        1550.0,
        1555.0,
        1560.0,
        1565.0,
        1570.0,
        1575.0,
        1580.0,
        1585.0,
        1590.0,
        1595.0,
        1600.0,
        1605.0,
        1610.0,
        1615.0,
        1620.0,
        1625.0,
        1630.0,
        1635.0,
        1640.0,
        1645.0,
        1650.0,
        1655.0,
        1660.0,
        1665.0,
        1670.0,
        1675.0,
        1680.0,
        1685.0,
        1690.0,
        1695.0,
        1700.0,
        1705.0,
        1710.0,
        1715.0,
        1720.0,
        1725.0,
        1730.0,
        1735.0,
        1740.0,
        1745.0,
        1750.0,
        1755.0,
        1760.0,
        1765.0,
        1770.0,
        1775.0,
        1780.0,
        1785.0,
        1790.0,
        1795.0,
        1800.0,
        1805.0,
        1810.0,
        1815.0,
        1820.0,
        1825.0,
        1830.0,
        1835.0,
        1840.0,
        1845.0,
        1850.0,
        1855.0,
        1860.0,
        1865.0,
        1870.0,
        1875.0,
        1880.0,
        1885.0,
        1890.0,
        1895.0,
        1900.0,
        1905.0,
        1910.0,
        1915.0,
        1920.0,
        1925.0,
        1930.0,
        1935.0,
        1940.0,
        1945.0,
        1950.0,
        1955.0,
        1960.0,
        1965.0,
        1970.0,
        1975.0,
        1980.0,
        1985.0,
        1990.0,
        1995.0,
        2000.0,
        2005.0,
        2010.0,
        2015.0,
        2020.0,
        2025.0,
        2030.0,
        2035.0,
        2040.0,
        2045.0,
        2050.0,
        2055.0,
        2060.0,
        2065.0,
        2070.0,
        2075.0,
        2080.0,
        2085.0,
        2090.0,
        2095.0,
        2100.0,
        2105.0,
        2110.0,
        2115.0,
        2120.0,
        2125.0,
        2130.0,
        2135.0,
        2140.0,
        2145.0,
        2150.0,
        2155.0,
        2160.0,
        2165.0,
        2170.0,
        2175.0,
        2180.0,
        2185.0,
        2190.0,
        2195.0,
        2200.0,
        2205.0,
        2210.0,
        2215.0,
        2220.0,
        2225.0,
        2230.0,
        2235.0,
        2240.0,
        2245.0,
        2250.0,
        2255.0,
        2260.0,
        2265.0,
        2270.0,
        2275.0,
        2280.0,
        2285.0,
        2290.0,
        2295.0,
        2300.0,
        2305.0,
        2310.0,
        2315.0,
        2320.0,
        2325.0,
        2330.0,
        2335.0,
        2340.0,
        2345.0,
        2350.0,
        2355.0,
        2360.0,
        2365.0,
        2370.0,
        2375.0,
        2380.0,
        2385.0,
        2390.0,
        2395.0,
        2400.0,
        2405.0,
        2410.0,
        2415.0,
        2420.0,
        2425.0,
        2430.0,
        2435.0,
        2440.0,
        2445.0,
        2450.0,
        2455.0,
        2460.0,
        2465.0,
        2470.0,
        2475.0,
        2480.0,
        2485.0,
        2490.0,
        2495.0,
        2500.0,
        2505.0,
        2510.0,
        2515.0,
        2520.0,
        2525.0,
        2530.0,
        2535.0,
        2540.0,
        2545.0,
        2550.0,
        2555.0,
        2560.0,
        2565.0,
        2570.0,
        2575.0,
        2580.0,
        2585.0,
        2590.0,
        2595.0,
        2600.0,
        2605.0,
        2610.0,
        2615.0,
        2620.0,
        2625.0,
        2630.0,
        2635.0,
        2640.0,
        2645.0,
        2650.0,
        2655.0,
        2660.0,
        2665.0,
        2670.0,
        2675.0,
        2680.0,
        2685.0,
        2690.0,
        2695.0,
        2700.0,
        2705.0,
        2710.0,
        2715.0,
        2720.0,
        2725.0,
        2730.0,
        2735.0,
        2740.0,
        2745.0,
        2750.0,
        2755.0,
        2760.0,
        2765.0,
        2770.0,
        2775.0,
        2780.0,
        2785.0,
        2790.0,
        2795.0,
        2800.0,
        2805.0,
        2810.0,
        2815.0,
        2820.0,
        2825.0,
        2830.0,
        2835.0,
        2840.0,
        2845.0,
        2850.0,
        2855.0,
        2860.0,
        2865.0,
        2870.0,
        2875.0,
        2880.0,
        2885.0,
        2890.0,
        2895.0,
        2900.0,
        2905.0,
        2910.0,
        2915.0,
        2920.0,
        2925.0,
        2930.0,
        2935.0,
        2940.0,
        2945.0,
        2950.0,
        2955.0,
        2960.0,
        2965.0,
        2970.0,
        2975.0,
        2980.0,
        2985.0,
        2990.0,
        2995.0,
        3000.0,
        3005.0,
        3010.0,
        3015.0,
        3020.0,
        3025.0,
        3030.0,
        3035.0,
        3040.0,
        3045.0,
        3050.0,
        3055.0,
        3060.0,
        3065.0,
        3070.0,
        3075.0,
        3080.0,
        3085.0,
        3090.0,
        3095.0,
        3100.0,
        3105.0,
        3110.0,
        3115.0,
        3120.0,
        3125.0,
        3130.0,
        3135.0,
        3140.0,
        3145.0,
        3150.0,
        3155.0,
        3160.0,
        3165.0,
        3170.0,
        3175.0,
        3180.0,
        3185.0,
        3190.0,
        3195.0,
        3200.0,
        3205.0,
        3210.0,
        3215.0,
        3220.0,
        3225.0,
        3230.0,
        3235.0,
        3240.0,
        3245.0,
        3250.0,
        3255.0,
        3260.0,
        3265.0,
        3270.0,
        3275.0,
        3280.0,
        3285.0,
        3290.0,
        3295.0,
        3300.0,
        3305.0,
        3310.0,
        3315.0,
        3320.0,
        3325.0,
        3330.0,
        3335.0,
        3340.0,
        3345.0,
        3350.0,
        3355.0,
        3360.0,
        3365.0,
        3370.0,
        3375.0,
        3380.0,
        3385.0,
        3390.0,
        3395.0,
        3400.0,
        3405.0,
        3410.0,
        3415.0,
        3420.0,
        3425.0,
        3430.0,
        3435.0,
        3440.0,
        3445.0,
        3450.0,
        3455.0,
        3460.0,
        3465.0,
        3470.0,
        3475.0,
        3480.0,
        3485.0,
        3490.0,
        3495.0,
        3500.0,
        3505.0,
        3510.0,
        3515.0,
        3520.0,
        3525.0,
        3530.0,
        3535.0,
        3540.0,
        3545.0,
        3550.0,
        3555.0,
        3560.0,
        3565.0,
        3570.0,
        3575.0,
        3580.0,
        3585.0,
        3590.0,
        3595.0,
        3600.0,
        3605.0,
        3610.0,
        3615.0,
        3620.0,
        3625.0,
        3630.0,
        3635.0,
        3640.0,
        3645.0,
        3650.0,
        3655.0,
        3660.0,
        3665.0,
        3670.0,
        3675.0,
        3680.0,
        3685.0,
        3690.0,
        3695.0,
        3700.0,
        3705.0,
        3710.0,
        3715.0,
        3720.0,
        3725.0,
        3730.0,
        3735.0,
        3740.0,
        3745.0,
        3750.0,
        3755.0,
        3760.0,
        3765.0,
        3770.0,
        3775.0,
        3780.0,
        3785.0,
        3790.0,
        3795.0,
        3800.0,
        3805.0,
        3810.0,
        3815.0,
        3820.0,
        3825.0,
        3830.0,
        3835.0,
        3840.0,
        3845.0,
        3850.0,
        3855.0,
        3860.0,
        3865.0,
        3870.0,
        3875.0,
        3880.0,
        3885.0,
        3890.0,
        3895.0,
        3900.0,
        3905.0,
        3910.0,
        3915.0,
        3920.0,
        3925.0,
        3930.0,
        3935.0,
        3940.0,
        3945.0,
        3950.0,
        3955.0,
        3960.0,
        3965.0,
        3970.0,
        3975.0,
        3980.0,
        3985.0,
        3990.0,
        3995.0,
        4000.0,
        4005.0,
        4010.0,
        4015.0,
        4020.0,
        4025.0,
        4030.0,
        4035.0,
        4040.0,
        4045.0,
        4050.0,
        4055.0,
        4060.0,
        4065.0,
        4070.0,
        4075.0,
        4080.0,
        4085.0,
        4090.0,
        4095.0,
        4100.0,
        4105.0,
        4110.0,
        4115.0,
        4120.0,
        4125.0,
        4130.0,
        4135.0,
        4140.0,
        4145.0,
        4150.0,
        4155.0,
        4160.0,
        4165.0,
        4170.0,
        4175.0,
        4180.0,
        4185.0,
        4190.0,
        4195.0,
        4200.0,
        4205.0,
        4210.0,
        4215.0,
        4220.0,
        4225.0,
        4230.0,
        4235.0,
        4240.0,
        4245.0,
        4250.0,
        4255.0,
        4260.0,
        4265.0,
        4270.0,
        4275.0,
        4280.0,
        4285.0,
        4290.0,
        4295.0,
        4300.0,
        4305.0,
        4310.0,
        4315.0,
        4320.0,
        4325.0,
        4330.0,
        4335.0,
        4340.0,
        4345.0,
        4350.0,
        4355.0,
        4360.0,
        4365.0,
        4370.0,
        4375.0,
        4380.0,
        4385.0,
        4390.0,
        4395.0,
        4400.0,
        4405.0,
        4410.0,
        4415.0,
        4420.0,
        4425.0,
        4430.0,
        4435.0,
        4440.0,
        4445.0,
        4450.0,
        4455.0,
        4460.0,
        4465.0,
        4470.0,
        4475.0,
        4480.0,
        4485.0,
        4490.0,
        4495.0,
        4500.0,
        4505.0,
        4510.0,
        4515.0,
        4520.0,
        4525.0,
        4530.0,
        4535.0,
        4540.0,
        4545.0,
        4550.0,
        4555.0,
        4560.0,
        4565.0,
        4570.0,
        4575.0,
        4580.0,
        4585.0,
        4590.0,
        4595.0,
        4600.0,
        4605.0,
        4610.0,
        4615.0,
        4620.0,
        4625.0,
        4630.0,
        4635.0,
        4640.0,
        4645.0,
        4650.0,
        4655.0,
        4660.0,
        4665.0,
        4670.0,
        4675.0,
        4680.0,
        4685.0,
        4690.0,
        4695.0,
        4700.0,
        4705.0,
        4710.0,
        4715.0,
        4720.0,
        4725.0,
        4730.0,
        4735.0,
        4740.0,
        4745.0,
        4750.0,
        4755.0,
        4760.0,
        4765.0,
        4770.0,
        4775.0,
        4780.0,
        4785.0,
        4790.0,
        4795.0,
        4800.0,
        4805.0,
        4810.0,
        4815.0,
        4820.0,
        4825.0,
        4830.0,
        4835.0,
        4840.0,
        4845.0,
        4850.0,
        4855.0,
        4860.0,
        4865.0,
        4870.0,
        4875.0,
        4880.0,
        4885.0,
        4890.0,
        4895.0,
        4900.0,
        4905.0,
        4910.0,
        4915.0,
        4920.0,
        4925.0,
        4930.0,
        4935.0,
        4940.0,
        4945.0,
        4950.0,
        4955.0,
        4960.0,
        4965.0,
        4970.0,
        4975.0,
        4980.0,
        4985.0,
        4990.0,
        4995.0,
        5000.0,
        5005.0,
        5010.0,
        5015.0,
        5020.0,
        5025.0,
        5030.0,
        5035.0,
        5040.0,
        5045.0,
        5050.0,
        5055.0,
        5060.0,
        5065.0,
        5070.0,
        5075.0,
        5080.0,
        5085.0,
        5090.0,
        5095.0,
        5100.0,
        5105.0,
        5110.0,
        5115.0,
        5120.0,
        5125.0,
        5130.0,
        5135.0,
        5140.0,
        5145.0,
        5150.0,
        5155.0,
        5160.0,
        5165.0,
        5170.0,
        5175.0,
        5180.0,
        5185.0,
        5190.0,
        5195.0,
        5200.0,
        5205.0,
        5210.0,
        5215.0,
        5220.0,
        5225.0,
        5230.0,
        5235.0,
        5240.0,
        5245.0,
        5250.0,
        5255.0,
        5260.0,
        5265.0,
        5270.0,
        5275.0,
        5280.0,
        5285.0,
        5290.0,
        5295.0,
        5300.0,
        5305.0,
        5310.0,
        5315.0,
        5320.0,
        5325.0,
        5330.0,
        5335.0,
        5340.0,
        5345.0,
        5350.0,
        5355.0,
        5360.0,
        5365.0,
        5370.0,
        5375.0,
        5380.0,
        5385.0,
        5390.0,
        5395.0,
        5400.0,
        5405.0,
        5410.0,
        5415.0,
        5420.0,
        5425.0,
        5430.0,
        5435.0,
        5440.0,
        5445.0,
        5450.0,
        5455.0,
        5460.0,
        5465.0,
        5470.0,
        5475.0,
        5480.0,
        5485.0,
        5490.0,
        5495.0,
        5500.0,
        5505.0,
        5510.0,
        5515.0,
        5520.0,
        5525.0,
        5530.0,
        5535.0,
        5540.0,
        5545.0,
        5550.0,
        5555.0,
        5560.0,
        5565.0,
        5570.0,
        5575.0,
        5580.0,
        5585.0,
        5590.0,
        5595.0,
        5600.0,
        5605.0,
        5610.0,
        5615.0,
        5620.0,
        5625.0,
        5630.0,
        5635.0,
        5640.0,
        5645.0,
        5650.0,
        5655.0,
        5660.0,
        5665.0,
        5670.0,
        5675.0,
        5680.0,
        5685.0,
        5690.0,
        5695.0,
        5700.0,
        5705.0,
        5710.0,
        5715.0,
        5720.0,
        5725.0,
        5730.0,
        5735.0,
        5740.0,
        5745.0,
        5750.0,
        5755.0,
        5760.0,
        5765.0,
        5770.0,
        5775.0,
        5780.0,
        5785.0,
        5790.0,
        5795.0,
        5800.0,
        5805.0,
        5810.0,
        5815.0,
        5820.0,
        5825.0,
        5830.0,
        5835.0,
        5840.0,
        5845.0,
        5850.0,
        5855.0,
        5860.0,
        5865.0,
        5870.0,
        5875.0,
        5880.0,
        5885.0,
        5890.0,
        5895.0,
        5900.0,
        5905.0,
        5910.0,
        5915.0,
        5920.0,
        5925.0,
        5930.0,
        5935.0,
        5940.0,
        5945.0,
        5950.0,
        5955.0,
        5960.0,
        5965.0,
        5970.0,
        5975.0,
        5980.0,
        5985.0,
        5990.0,
        5995.0,
        6000.0,
        6005.0,
        6010.0,
        6015.0,
        6020.0,
        6025.0,
        6030.0,
        6035.0,
        6040.0,
        6045.0,
        6050.0,
        6055.0,
        6060.0,
        6065.0,
        6070.0,
        6075.0,
        6080.0,
        6085.0,
        6090.0,
        6095.0,
        6100.0,
        6105.0,
        6110.0,
        6115.0,
        6120.0,
        6125.0,
        6130.0,
        6135.0,
        6140.0,
        6145.0,
        6150.0,
        6155.0,
        6160.0,
        6165.0,
        6170.0,
        6175.0,
        6180.0,
        6185.0,
        6190.0,
        6195.0,
        6200.0,
        6205.0,
        6210.0,
        6215.0,
        6220.0,
        6225.0,
        6230.0,
        6235.0,
        6240.0,
        6245.0,
        6250.0,
        6255.0,
        6260.0,
        6265.0,
        6270.0,
        6275.0,
        6280.0,
        6285.0,
        6290.0,
        6295.0,
        6300.0,
        6305.0,
        6310.0,
        6315.0,
        6320.0,
        6325.0,
        6330.0,
        6335.0,
        6340.0,
        6345.0,
        6350.0,
        6355.0,
        6360.0,
        6365.0,
        6370.0,
        6375.0,
        6380.0,
        6385.0,
        6390.0,
        6395.0,
        6400.0,
        6405.0,
        6410.0,
        6415.0,
        6420.0,
        6425.0,
        6430.0,
        6435.0,
        6440.0,
        6445.0,
        6450.0,
        6455.0,
        6460.0,
        6465.0,
        6470.0,
        6475.0,
        6480.0,
        6485.0,
        6490.0,
        6495.0,
        6500.0,
        6505.0,
        6510.0,
        6515.0,
        6520.0,
        6525.0,
        6530.0,
        6535.0,
        6540.0,
        6545.0,
        6550.0,
        6555.0,
        6560.0,
        6565.0,
        6570.0,
        6575.0,
        6580.0,
        6585.0,
        6590.0,
        6595.0,
        6600.0,
        6605.0,
        6610.0,
        6615.0,
        6620.0,
        6625.0,
        6630.0,
        6635.0,
        6640.0,
        6645.0,
        6650.0,
        6655.0,
        6660.0,
        6665.0,
        6670.0,
        6675.0,
        6680.0,
        6685.0,
        6690.0,
        6695.0,
        6700.0,
        6705.0,
        6710.0,
        6715.0,
        6720.0,
        6725.0,
        6730.0,
        6735.0,
        6740.0,
        6745.0,
        6750.0,
        6755.0,
        6760.0,
        6765.0,
        6770.0,
        6775.0,
        6780.0,
        6785.0,
        6790.0,
        6795.0,
        6800.0,
        6805.0,
        6810.0,
        6815.0,
        6820.0,
        6825.0,
        6830.0,
        6835.0,
        6840.0,
        6845.0,
        6850.0,
        6855.0,
        6860.0,
        6865.0,
        6870.0,
        6875.0,
        6880.0,
        6885.0,
        6890.0,
        6895.0,
        6900.0,
        6905.0,
        6910.0,
        6915.0,
        6920.0,
        6925.0,
        6930.0,
        6935.0,
        6940.0,
        6945.0,
        6950.0,
        6955.0,
        6960.0,
        6965.0,
        6970.0,
        6975.0,
        6980.0,
        6985.0,
        6990.0,
        6995.0,
        7000.0,
        7005.0,
        7010.0,
        7015.0,
        7020.0,
        7025.0,
        7030.0,
        7035.0,
        7040.0,
        7045.0,
        7050.0,
        7055.0,
        7060.0,
        7065.0,
        7070.0,
        7075.0,
        7080.0,
        7085.0,
        7090.0,
        7095.0,
        7100.0,
        7105.0,
        7110.0,
        7115.0,
        7120.0,
        7125.0,
        7130.0,
        7135.0,
        7140.0,
        7145.0,
        7150.0,
        7155.0,
        7160.0,
        7165.0,
        7170.0,
        7175.0,
        7180.0,
        7185.0,
        7190.0,
        7195.0,
        7200.0,
        7205.0,
        7210.0,
        7215.0,
        7220.0,
        7225.0,
        7230.0,
        7235.0,
        7240.0,
        7245.0,
        7250.0,
        7255.0,
        7260.0,
        7265.0,
        7270.0,
        7275.0,
        7280.0,
        7285.0,
        7290.0,
        7295.0,
        7300.0,
        7305.0,
        7310.0,
        7315.0,
        7320.0,
        7325.0,
        7330.0,
        7335.0,
        7340.0,
        7345.0,
        7350.0,
        7355.0,
        7360.0,
        7365.0,
        7370.0,
        7375.0,
        7380.0,
        7385.0,
        7390.0,
        7395.0,
        7400.0,
        7405.0,
        7410.0,
        7415.0,
        7420.0,
        7425.0,
        7430.0,
        7435.0,
        7440.0,
        7445.0,
        7450.0,
        7455.0,
        7460.0,
        7465.0,
        7470.0,
        7475.0,
        7480.0,
        7485.0,
        7490.0,
        7495.0,
        7500.0,
        7505.0,
        7510.0,
        7515.0,
        7520.0,
        7525.0,
        7530.0,
        7535.0,
        7540.0,
        7545.0,
        7550.0,
        7555.0,
        7560.0,
        7565.0,
        7570.0,
        7575.0,
        7580.0,
        7585.0,
        7590.0,
        7595.0,
        7600.0,
        7605.0,
        7610.0,
        7615.0,
        7620.0,
        7625.0,
        7630.0,
        7635.0,
        7640.0,
        7645.0,
        7650.0,
        7655.0,
        7660.0,
        7665.0,
        7670.0,
        7675.0,
        7680.0,
        7685.0,
        7690.0,
        7695.0,
        7700.0,
        7705.0,
        7710.0,
        7715.0,
        7720.0,
        7725.0,
        7730.0,
        7735.0,
        7740.0,
        7745.0,
        7750.0,
        7755.0,
        7760.0,
        7765.0,
        7770.0,
        7775.0,
        7780.0,
        7785.0,
        7790.0,
        7795.0,
        7800.0,
        7805.0,
        7810.0,
        7815.0,
        7820.0,
        7825.0,
        7830.0,
        7835.0,
        7840.0,
        7845.0,
        7850.0,
        7855.0,
        7860.0,
        7865.0,
        7870.0,
        7875.0,
        7880.0,
        7885.0,
        7890.0,
        7895.0,
        7900.0,
        7905.0,
        7910.0,
        7915.0,
        7920.0,
        7925.0,
        7930.0,
        7935.0,
        7940.0,
        7945.0,
        7950.0,
        7955.0,
        7960.0,
        7965.0,
        7970.0,
        7975.0,
        7980.0,
        7985.0,
        7990.0,
        7995.0,
        8000.0,
        8005.0,
        8010.0,
        8015.0,
        8020.0,
        8025.0,
        8030.0,
        8035.0,
        8040.0,
        8045.0,
        8050.0,
        8055.0,
        8060.0,
        8065.0,
        8070.0,
        8075.0,
        8080.0,
        8085.0,
        8090.0,
        8095.0,
        8100.0,
        8105.0,
        8110.0,
        8115.0,
        8120.0,
        8125.0,
        8130.0,
        8135.0,
        8140.0,
        8145.0,
        8150.0,
        8155.0,
        8160.0,
        8165.0,
        8170.0,
        8175.0,
        8180.0,
        8185.0,
        8190.0,
        8195.0,
        8200.0,
        8205.0,
        8210.0,
        8215.0,
        8220.0,
        8225.0,
        8230.0,
        8235.0,
        8240.0,
        8245.0,
        8250.0,
        8255.0,
        8260.0,
        8265.0,
        8270.0,
        8275.0,
        8280.0,
        8285.0,
        8290.0,
        8295.0,
        8300.0,
        8305.0,
        8310.0,
        8315.0,
        8320.0,
        8325.0,
        8330.0,
        8335.0,
        8340.0,
        8345.0,
        8350.0,
        8355.0,
        8360.0,
        8365.0,
        8370.0,
        8375.0,
        8380.0,
        8385.0,
        8390.0,
        8395.0,
        8400.0,
        8405.0,
        8410.0,
        8415.0,
        8420.0,
        8425.0,
        8430.0,
        8435.0,
        8440.0,
        8445.0,
        8450.0,
        8455.0,
        8460.0,
        8465.0,
        8470.0,
        8475.0,
        8480.0,
        8485.0,
        8490.0,
        8495.0,
        8500.0,
        8505.0,
        8510.0,
        8515.0,
        8520.0,
        8525.0,
        8530.0,
        8535.0,
        8540.0,
        8545.0,
        8550.0,
        8555.0,
        8560.0,
        8565.0,
        8570.0,
        8575.0,
        8580.0,
        8585.0,
        8590.0,
        8595.0,
        8600.0,
        8605.0,
        8610.0,
        8615.0,
        8620.0,
        8625.0,
        8630.0,
        8635.0,
        8640.0,
        8645.0,
        8650.0,
        8655.0,
        8660.0,
        8665.0,
        8670.0,
        8675.0,
        8680.0,
        8685.0,
        8690.0,
        8695.0,
        8700.0,
        8705.0,
        8710.0,
        8715.0,
        8720.0,
        8725.0,
        8730.0,
        8735.0,
        8740.0,
        8745.0,
        8750.0,
        8755.0,
        8760.0,
        8765.0,
        8770.0,
        8775.0,
        8780.0,
        8785.0,
        8790.0,
        8795.0,
        8800.0,
        8805.0,
        8810.0,
        8815.0,
        8820.0,
        8825.0,
        8830.0,
        8835.0,
        8840.0,
        8845.0,
        8850.0,
        8855.0,
        8860.0,
        8865.0,
        8870.0,
        8875.0,
        8880.0,
        8885.0,
        8890.0,
        8895.0,
        8900.0,
        8905.0,
        8910.0,
        8915.0,
        8920.0,
        8925.0,
        8930.0,
        8935.0,
        8940.0,
        8945.0,
        8950.0,
        8955.0,
        8960.0,
        8965.0,
        8970.0,
        8975.0,
        8980.0,
        8985.0,
        8990.0,
        8995.0,
        9000.0,
        9005.0,
        9010.0,
        9015.0,
        9020.0,
        9025.0,
        9030.0,
        9035.0,
        9040.0,
        9045.0,
        9050.0,
        9055.0,
        9060.0,
        9065.0,
        9070.0,
        9075.0,
        9080.0,
        9085.0,
        9090.0,
        9095.0,
        9100.0,
        9105.0,
        9110.0,
        9115.0,
        9120.0,
        9125.0,
        9130.0,
        9135.0,
        9140.0,
        9145.0,
        9150.0,
        9155.0,
        9160.0,
        9165.0,
        9170.0,
        9175.0,
        9180.0,
        9185.0,
        9190.0,
        9195.0,
        9200.0,
        9205.0,
        9210.0,
        9215.0,
        9220.0,
        9225.0,
        9230.0,
        9235.0,
        9240.0,
        9245.0,
        9250.0,
        9255.0,
        9260.0,
        9265.0,
        9270.0,
        9275.0,
        9280.0,
        9285.0,
        9290.0,
        9295.0,
        9300.0,
        9305.0,
        9310.0,
        9315.0,
        9320.0,
        9325.0,
        9330.0,
        9335.0,
        9340.0,
        9345.0,
        9350.0,
        9355.0,
        9360.0,
        9365.0,
        9370.0,
        9375.0,
        9380.0,
        9385.0,
        9390.0,
        9395.0,
        9400.0,
        9405.0,
        9410.0,
        9415.0,
        9420.0,
        9425.0,
        9430.0,
        9435.0,
        9440.0,
        9445.0,
        9450.0,
        9455.0,
        9460.0,
        9465.0,
        9470.0,
        9475.0,
        9480.0,
        9485.0,
        9490.0,
        9495.0,
        9500.0,
        9505.0,
        9510.0,
        9515.0,
        9520.0,
        9525.0,
        9530.0,
        9535.0,
        9540.0,
        9545.0,
        9550.0,
        9555.0,
        9560.0,
        9565.0,
        9570.0,
        9575.0,
        9580.0,
        9585.0,
        9590.0,
        9595.0,
        9600.0,
        9605.0,
        9610.0,
        9615.0,
        9620.0,
        9625.0,
        9630.0,
        9635.0,
        9640.0,
        9645.0,
        9650.0,
        9655.0,
        9660.0,
        9665.0,
        9670.0,
        9675.0,
        9680.0,
        9685.0,
        9690.0,
        9695.0,
        9700.0,
        9705.0,
        9710.0,
        9715.0,
        9720.0,
        9725.0,
        9730.0,
        9735.0,
        9740.0,
        9745.0,
        9750.0,
        9755.0,
        9760.0,
        9765.0,
        9770.0,
        9775.0,
        9780.0,
        9785.0,
        9790.0,
        9795.0,
        9800.0,
        9805.0,
        9810.0,
        9815.0,
        9820.0,
        9825.0,
        9830.0,
        9835.0,
        9840.0,
        9845.0,
        9850.0,
        9855.0,
        9860.0,
        9865.0,
        9870.0,
        9875.0,
        9880.0,
        9885.0,
        9890.0,
        9895.0,
        9900.0,
        9905.0,
        9910.0,
        9915.0,
        9920.0,
        9925.0,
        9930.0,
        9935.0,
        9940.0,
        9945.0,
        9950.0,
        9955.0,
        9960.0,
        9965.0,
        9970.0,
        9975.0,
        9980.0,
        9985.0,
        9990.0,
        9995.0,
        10000.0,
        10005.0,
        10010.0,
        10015.0,
        10020.0,
        10025.0,
        10030.0,
        10035.0,
        10040.0,
        10045.0,
        10050.0,
        10055.0,
        10060.0,
        10065.0,
        10070.0,
        10075.0,
        10080.0,
        10085.0,
        10090.0,
        10095.0,
        10100.0,
        10105.0,
        10110.0,
        10115.0,
        10120.0,
        10125.0,
        10130.0,
        10135.0,
        10140.0,
        10145.0,
        10150.0,
        10155.0,
        10160.0,
        10165.0,
        10170.0,
        10175.0,
        10180.0,
        10185.0,
        10190.0,
        10195.0,
        10200.0,
        10205.0,
        10210.0,
        10215.0,
        10220.0,
        10225.0,
        10230.0,
        10235.0,
        10240.0,
        10245.0,
        10250.0,
        10255.0,
        10260.0,
        10265.0,
        10270.0,
        10275.0,
        10280.0,
        10285.0,
        10290.0,
        10295.0,
        10300.0,
        10305.0,
        10310.0,
        10315.0,
        10320.0,
        10325.0,
        10330.0,
        10335.0,
        10340.0,
        10345.0,
        10350.0,
        10355.0,
        10360.0,
        10365.0,
        10370.0,
        10375.0,
        10380.0,
        10385.0,
        10390.0,
        10395.0,
        10400.0,
        10405.0,
        10410.0,
        10415.0,
        10420.0,
        10425.0,
        10430.0,
        10435.0,
        10440.0,
        10445.0,
        10450.0,
        10455.0,
        10460.0,
        10465.0,
        10470.0,
        10475.0,
        10480.0,
        10485.0,
        10490.0,
        10495.0,
        10500.0
      ],
      "units":"angstrom"
    },
    "values":{
      "value":[
        0.0,
        0.0,
        0.0,
        0.0,
        0.0,
        0.0,
        0.0,
        0.0,
        0.0,
        0.0,
        0.0,
        0.0,
        0.0,
        0.0,
        0.0,
        0.0,
        0.0,
        0.0,
        0.0,
        0.0,
        0.0,
        0.0,
        0.0,
        0.0,
        0.0,
        0.0,
        0.0,
        0.0,
        0.0,
        0.0,
        0.0,
        0.0,
        0.0,
        0.0,
        0.0,
        0.0,
        0.0,
        0.0,
        0.0,
        0.0,
        0.0,
        0.0,
        0.0,
        0.0,
        0.0,
        0.0,
        0.0,
        0.0,
        0.0,
        0.0,
        0.0,
        0.0,
        0.0,
        0.0,
        0.0,
        0.0,
        0.0,
        0.0,
        0.0,
        0.0,
        0.0,
        0.0,
        0.0,
        0.0,
        0.0,
        0.0,
        0.0,
        0.0,
        0.0,
        0.0,
        0.0,
        0.0,
        0.0,
        0.0,
        0.0,
        0.0,
        0.0,
        0.0,
        0.0,
        0.0,
        0.0,
        0.0,
        0.0,
        0.0,
        0.0,
        0.0,
        0.0,
        0.0,
        0.0,
        0.0,
        0.0,
        0.0,
        0.0,
        0.0,
        0.0,
        0.0,
        0.0,
        0.0,
        0.0,
        0.0,
        0.0,
        0.0,
        0.0,
        0.0,
        0.0,
        0.0,
        0.0,
        0.0,
        0.0,
        0.0,
        0.0,
        0.0,
        0.0,
        0.0,
        0.0,
        0.0,
        0.0,
        0.0,
        0.0,
        0.0,
        0.0,
        0.0,
        0.0,
        0.0,
        0.0,
        0.0,
        0.0,
        0.0,
        0.0,
        0.0,
        0.0,
        0.0,
        0.0,
        0.0,
        0.0,
        0.0,
        0.0,
        0.0,
        0.0,
        0.0,
        0.0,
        0.0,
        0.0,
        0.0,
        0.0,
        0.0,
        0.0,
        0.0,
        0.0,
        0.0,
        0.0,
        0.0,
        0.0,
        0.0,
        0.0,
        0.0,
        0.0,
        0.0,
        0.0,
        0.0,
        0.0,
        0.0,
        0.0,
        0.0,
        0.0,
        0.0,
        0.0,
        0.0,
        0.0,
        0.0,
        0.0,
        0.0,
        0.0,
        0.0,
        0.0,
        0.0,
        0.0,
        0.0,
        0.0,
        0.0,
        0.0,
        0.0,
        0.0,
        0.0,
        0.0,
        0.0,
        0.0,
        0.0,
        0.0,
        0.0,
        0.0,
        0.0,
        0.0,
        0.0,
        0.0,
        0.0,
        0.0,
        0.0,
        0.0,
        0.0,
        0.0,
        0.0,
        0.0,
        0.0,
        0.0,
        0.0,
        0.0,
        0.0,
        0.0,
        0.0,
        0.0,
        0.0,
        0.0,
        0.0,
        0.0,
        0.0,
        0.0,
        0.0,
        0.0,
        0.0,
        0.0,
        0.0,
        0.0,
        0.0,
        0.0,
        0.0,
        0.0,
        0.0,
        0.0,
        0.0,
        0.0,
        0.0,
        0.0,
        0.0,
        0.0,
        0.0,
        0.0,
        0.0,
        0.0,
        0.0,
        0.0,
        0.0,
        0.0,
        0.0,
        0.0,
        0.0,
        0.0,
        0.0,
        0.0,
        0.0,
        0.0,
        0.0,
        0.0,
        0.0,
        0.0,
        0.0,
        0.0,
        0.0,
        0.0,
        0.0,
        0.0,
        0.0,
        0.0,
        0.0,
        0.0,
        0.0,
        0.0,
        0.0,
        0.0,
        0.0,
        0.0,
        0.0,
        1e-06,
        1e-06,
        2e-06,
        2e-06,
        2e-06,
        2e-06,
        2e-06,
        1e-06,
        0.0,
        0.0,
        0.0,
        0.0,
        0.0,
        0.0,
        0.0,
        0.0,
        0.0,
        0.0,
        0.0,
        5e-06,
        1.2e-05,
        1.8e-05,
        2.4e-05,
        2.8e-05,
        3e-05,
        2.9e-05,
        2.4e-05,
        1.5e-05,
        0.0,
        0.0,
        0.0,
        0.0,
        0.0,
        0.0,
        0.0,
        0.0,
        0.0,
        0.0,
        0.0,
        7.8e-05,
        0.00018,
        0.000307,
        0.000458,
        0.000637,
        0.000842,
        0.001075,
        0.001336,
        0.001627,
        0.001948,
        0.002298,
        0.002667,
        0.003043,
        0.003414,
        0.003768,
        0.004094,
        0.004379,
        0.004611,
        0.004779,
        0.00487,
        0.004878,
        0.004815,
        0.004699,
        0.004547,
        0.004379,
        0.004211,
        0.00406,
        0.003946,
        0.003885,
        0.003896,
        0.003991,
        0.004163,
        0.004399,
        0.004687,
        0.005015,
        0.00537,
        0.005741,
        0.006114,
        0.006477,
        0.006818,
        0.007127,
        0.007405,
        0.007653,
        0.007873,
        0.008069,
        0.008243,
        0.008397,
        0.008534,
        0.008656,
        0.008766,
        0.008866,
        0.008959,
        0.009046,
        0.009132,
        0.009217,
        0.009306,
        0.0094,
        0.009502,
        0.009615,
        0.00974,
        0.009882,
        0.010044,
        0.010231,
        0.010449,
        0.010702,
        0.010995,
        0.011332,
        0.011719,
        0.012161,
        0.012662,
        0.013225,
        0.013842,
        0.014503,
        0.015196,
        0.015913,
        0.016643,
        0.017374,
        0.018098,
        0.018804,
        0.019481,
        0.020121,
        0.020731,
        0.021315,
        0.021882,
        0.02244,
        0.022994,
        0.023552,
        0.024122,
        0.02471,
        0.025325,
        0.025968,
        0.026625,
        0.027279,
        0.036811,
        0.036574,
        0.037775,
        0.039158,
        0.037971,
        0.032668,
        0.026944,
        0.027712,
        0.031704,
        0.033221,
        0.033293,
        0.033977,
        0.034707,
        0.034368,
        0.03227,
        0.028556,
        0.026268,
        0.028361,
        0.034528,
        0.042703,
        0.047045,
        0.043723,
        0.040729,
        0.045592,
        0.052185,
        0.053155,
        0.049903,
        0.045767,
        0.043079,
        0.043345,
        0.045757,
        0.048849,
        0.050831,
        0.050742,
        0.051266,
        0.05447,
        0.056313,
        0.053038,
        0.048132,
        0.045793,
        0.04581,
        0.04718,
        0.050128,
        0.054712,
        0.059085,
        0.061569,
        0.063065,
        0.064698,
        0.065899,
        0.065904,
        0.064854,
        0.063098,
        0.060912,
        0.058343,
        0.054586,
        0.049914,
        0.049769,
        0.057729,
        0.06476,
        0.062536,
        0.058191,
        0.059799,
        0.06375,
        0.065303,
        0.066893,
        0.071496,
        0.077094,
        0.080469,
        0.067333,
        0.063815,
        0.057474,
        0.05862,
        0.06848,
        0.077026,
        0.082674,
        0.079796,
        0.074026,
        0.069385,
        0.063107,
        0.054369,
        0.047097,
        0.038876,
        0.03321,
        0.039043,
        0.050121,
        0.063085,
        0.067473,
        0.062572,
        0.050327,
        0.058988,
        0.066822,
        0.080847,
        0.068338,
        0.07527,
        0.091537,
        0.073713,
        0.078209,
        0.102712,
        0.107099,
        0.100057,
        0.098058,
        0.100495,
        0.085959,
        0.079867,
        0.087961,
        0.103501,
        0.107359,
        0.075073,
        0.079241,
        0.08479,
        0.053168,
        0.055574,
        0.049853,
        0.037934,
        0.046738,
        0.043601,
        0.051333,
        0.067196,
        0.058385,
        0.069438,
        0.097303,
        0.105224,
        0.101461,
        0.089904,
        0.070182,
        0.066234,
        0.07369,
        0.084197,
        0.075619,
        0.057355,
        0.044429,
        0.041098,
        0.043959,
        0.048163,
        0.054694,
        0.063166,
        0.061726,
        0.05534,
        0.051259,
        0.055224,
        0.056094,
        0.058448,
        0.063457,
        0.069777,
        0.088171,
        0.101816,
        0.096412,
        0.096198,
        0.109241,
        0.105608,
        0.082024,
        0.061984,
        0.036282,
        0.032437,
        0.054249,
        0.078283,
        0.105536,
        0.109235,
        0.076643,
        0.04792,
        0.052458,
        0.095402,
        0.137102,
        0.164313,
        0.176692,
        0.186059,
        0.202245,
        0.20542,
        0.216048,
        0.231117,
        0.231573,
        0.224402,
        0.200261,
        0.210218,
        0.217929,
        0.190404,
        0.228472,
        0.217309,
        0.19316,
        0.200059,
        0.210482,
        0.207998,
        0.240934,
        0.27646,
        0.281652,
        0.243537,
        0.224138,
        0.241333,
        0.239195,
        0.231715,
        0.229689,
        0.233049,
        0.212156,
        0.215693,
        0.205045,
        0.196292,
        0.199871,
        0.214456,
        0.239085,
        0.228499,
        0.212628,
        0.203573,
        0.223509,
        0.242887,
        0.239316,
        0.219192,
        0.209291,
        0.237302,
        0.255854,
        0.264297,
        0.272367,
        0.194099,
        0.226175,
        0.260216,
        0.299321,
        0.32296,
        0.273145,
        0.266734,
        0.290529,
        0.317484,
        0.258964,
        0.255467,
        0.298761,
        0.288802,
        0.264029,
        0.262321,
        0.23435,
        0.213863,
        0.250699,
        0.369678,
        0.391331,
        0.337517,
        0.400689,
        0.427004,
        0.384834,
        0.429609,
        0.420342,
        0.423446,
        0.445511,
        0.468049,
        0.433391,
        0.41367,
        0.363334,
        0.319312,
        0.375742,
        0.416651,
        0.410508,
        0.348474,
        0.396348,
        0.415108,
        0.442535,
        0.436805,
        0.430029,
        0.435783,
        0.475594,
        0.489358,
        0.494031,
        0.445573,
        0.425227,
        0.469082,
        0.507244,
        0.558128,
        0.553234,
        0.573815,
        0.536892,
        0.522703,
        0.6028,
        0.6441,
        0.61477,
        0.588108,
        0.586853,
        0.524109,
        0.48765,
        0.537512,
        0.556439,
        0.555093,
        0.563853,
        0.600682,
        0.62514,
        0.623319,
        0.627602,
        0.625174,
        0.591054,
        0.611791,
        0.6155,
        0.593699,
        0.609171,
        0.632685,
        0.670806,
        0.693625,
        0.709025,
        0.705835,
        0.690412,
        0.659061,
        0.632583,
        0.614164,
        0.62831,
        0.653423,
        0.671712,
        0.63458,
        0.642353,
        0.660398,
        0.654202,
        0.650505,
        0.651422,
        0.661102,
        0.649445,
        0.65435,
        0.662795,
        0.677106,
        0.69536,
        0.684222,
        0.655245,
        0.679265,
        0.697996,
        0.709376,
        0.715059,
        0.710902,
        0.703521,
        0.685191,
        0.692401,
        0.711162,
        0.704787,
        0.689136,
        0.705224,
        0.724503,
        0.727938,
        0.735509,
        0.741087,
        0.751474,
        0.748713,
        0.738463,
        0.731904,
        0.73898,
        0.741567,
        0.751878,
        0.749315,
        0.721628,
        0.690071,
        0.684774,
        0.688839,
        0.70331,
        0.728611,
        0.720304,
        0.718758,
        0.768929,
        0.793352,
        0.784298,
        0.779695,
        0.771893,
        0.744257,
        0.739386,
        0.779414,
        0.775601,
        0.777297,
        0.81445,
        0.834284,
        0.825738,
        0.797891,
        0.79988,
        0.792235,
        0.806682,
        0.780091,
        0.739622,
        0.755844,
        0.766631,
        0.736858,
        0.708274,
        0.718302,
        0.703572,
        0.711981,
        0.726165,
        0.744712,
        0.758206,
        0.720053,
        0.733843,
        0.762529,
        0.771885,
        0.79939,
        0.783449,
        0.751686,
        0.750252,
        0.72903,
        0.726827,
        0.756602,
        0.764775,
        0.736505,
        0.730246,
        0.715788,
        0.730339,
        0.735831,
        0.70504,
        0.707484,
        0.726512,
        0.714673,
        0.697806,
        0.697911,
        0.711317,
        0.730272,
        0.666411,
        0.589864,
        0.582259,
        0.615387,
        0.627977,
        0.701383,
        0.730672,
        0.75074,
        0.712883,
        0.691177,
        0.745984,
        0.779202,
        0.767528,
        0.792889,
        0.838129,
        0.86659,
        0.85991,
        0.826004,
        0.836676,
        0.83487,
        0.75897,
        0.725606,
        0.790558,
        0.854256,
        0.877301,
        0.923911,
        0.905659,
        0.885712,
        0.928378,
        0.955618,
        0.954061,
        0.941095,
        0.894442,
        0.855565,
        0.903795,
        0.907418,
        0.914794,
        0.940817,
        0.985484,
        0.99546,
        0.963365,
        0.931523,
        0.95869,
        0.98173,
        0.971293,
        0.944458,
        0.905774,
        0.894969,
        0.868712,
        0.883698,
        0.951224,
        0.97831,
        0.97506,
        0.94978,
        0.930754,
        0.961733,
        0.954082,
        0.943934,
        0.952625,
        0.970417,
        0.967121,
        0.959066,
        0.933055,
        0.928502,
        0.953087,
        0.961982,
        0.967897,
        0.976093,
        0.965487,
        0.965661,
        0.954057,
        0.981587,
        0.998821,
        0.991159,
        1.000414,
        1.020784,
        1.025419,
        1.034935,
        1.04328,
        1.032975,
        1.022743,
        1.015837,
        1.026065,
        1.030198,
        1.004329,
        0.953869,
        0.960549,
        0.978391,
        0.981767,
        1.019773,
        1.015085,
        0.993598,
        0.999513,
        1.011557,
        1.030328,
        1.011548,
        1.00232,
        1.008999,
        1.008737,
        0.990125,
        0.997185,
        1.011179,
        1.036942,
        1.056274,
        1.036874,
        1.022391,
        1.022021,
        0.993012,
        0.963356,
        0.955064,
        0.987369,
        1.043053,
        1.071947,
        1.063048,
        1.061408,
        1.058119,
        1.060306,
        1.060568,
        1.061846,
        1.071736,
        1.076456,
        1.086207,
        1.071628,
        1.042976,
        0.993531,
        1.023649,
        1.060557,
        1.075835,
        1.089463,
        1.095676,
        1.109697,
        1.124239,
        1.128047,
        1.129435,
        1.125261,
        1.131932,
        1.12583,
        1.107413,
        1.0977,
        1.095918,
        1.110225,
        1.122781,
        1.118781,
        1.070421,
        1.007653,
        0.913337,
        0.896739,
        0.980536,
        1.055649,
        1.091335,
        1.094191,
        1.108071,
        1.115636,
        1.111886,
        1.100881,
        1.097446,
        1.094716,
        1.092518,
        1.084498,
        1.099742,
        1.107261,
        1.120471,
        1.113905,
        1.093944,
        1.086368,
        1.096107,
        1.09602,
        1.085839,
        1.081741,
        1.081738,
        1.077786,
        1.070685,
        1.095831,
        1.124588,
        1.134949,
        1.137165,
        1.146039,
        1.156899,
        1.151198,
        1.147625,
        1.144063,
        1.161157,
        1.142447,
        1.10847,
        1.101818,
        1.093771,
        1.10047,
        1.094092,
        1.099059,
        1.112266,
        1.104345,
        1.078042,
        1.07421,
        1.081649,
        1.05379,
        1.069578,
        1.089667,
        1.084379,
        1.078506,
        1.04084,
        1.032412,
        1.040133,
        1.069277,
        1.088521,
        1.084481,
        1.061739,
        1.084554,
        1.093423,
        1.101213,
        1.08234,
        1.03474,
        1.022413,
        1.028694,
        1.022025,
        1.035162,
        1.034192,
        1.02362,
        1.037704,
        1.00501,
        0.988051,
        1.010328,
        1.039607,
        1.057502,
        1.051973,
        1.062641,
        1.08218,
        1.061904,
        1.046294,
        1.047674,
        1.057936,
        1.050987,
        1.067188,
        1.10458,
        1.121413,
        1.11551,
        1.097952,
        1.095674,
        1.097661,
        1.085531,
        1.059857,
        1.072271,
        1.117113,
        1.139003,
        1.136733,
        1.147621,
        1.147662,
        1.138721,
        1.130886,
        1.140177,
        1.132767,
        1.124865,
        1.124084,
        1.139018,
        1.133449,
        1.142321,
        1.148184,
        1.1498,
        1.117527,
        1.119389,
        1.127303,
        1.114869,
        1.129362,
        1.130293,
        1.122102,
        1.116856,
        1.091291,
        1.050388,
        1.081115,
        1.125866,
        1.145673,
        1.151917,
        1.15729,
        1.1629,
        1.158785,
        1.167172,
        1.16444,
        1.136415,
        1.106086,
        1.075926,
        1.038807,
        1.053136,
        1.099584,
        1.119425,
        1.141146,
        1.143308,
        1.129333,
        1.112919,
        1.135422,
        1.133327,
        1.137122,
        1.162888,
        1.168986,
        1.155868,
        1.143799,
        1.143142,
        1.152493,
        1.149721,
        1.15644,
        1.152409,
        1.129734,
        1.114072,
        1.133769,
        1.136227,
        1.137623,
        1.155704,
        1.15737,
        1.139894,
        1.134768,
        1.132994,
        1.126998,
        1.113157,
        1.127002,
        1.133989,
        1.130457,
        1.129885,
        1.123644,
        1.12782,
        1.128589,
        1.136732,
        1.149876,
        1.1395,
        1.129236,
        1.141038,
        1.139466,
        1.115837,
        1.117432,
        1.12413,
        1.140082,
        1.1489,
        1.152924,
        1.148777,
        1.147299,
        1.147085,
        1.134273,
        1.136836,
        1.137871,
        1.134762,
        1.126084,
        1.115159,
        1.108099,
        1.109484,
        1.118782,
        1.130817,
        1.139688,
        1.142703,
        1.14151,
        1.139925,
        1.140454,
        1.142391,
        1.143255,
        1.141286,
        1.136899,
        1.132142,
        1.12879,
        1.12712,
        1.126315,
        1.125618,
        1.124909,
        1.124337,
        1.123669,
        1.122235,
        1.119695,
        1.116574,
        1.096847,
        1.118456,
        1.118231,
        1.124682,
        1.116596,
        1.109069,
        1.115493,
        1.106694,
        1.099707,
        1.097171,
        1.095895,
        1.108185,
        1.124147,
        1.146683,
        1.140259,
        1.135619,
        1.127344,
        1.1081,
        1.104127,
        1.129997,
        1.126961,
        1.093203,
        1.07913,
        1.080607,
        1.0824,
        1.085984,
        1.088726,
        1.103839,
        1.097163,
        1.085868,
        1.077248,
        1.086251,
        1.091824,
        1.092863,
        1.087775,
        1.098259,
        1.098505,
        1.088937,
        1.078651,
        1.062255,
        1.044212,
        1.013263,
        1.014076,
        1.043101,
        1.059232,
        1.073248,
        1.09552,
        1.112954,
        1.10958,
        1.106179,
        1.108832,
        1.108597,
        1.10445,
        1.101642,
        1.095382,
        1.076921,
        1.076867,
        1.075931,
        1.086871,
        1.070076,
        1.076262,
        1.073057,
        1.045928,
        1.074546,
        1.094168,
        1.091976,
        1.090841,
        1.090446,
        1.097243,
        1.100358,
        1.099292,
        1.106534,
        1.110964,
        1.09744,
        1.089134,
        1.082326,
        1.085189,
        1.096124,
        1.104286,
        1.113357,
        1.118178,
        1.094906,
        1.08078,
        1.094525,
        1.09542,
        1.090007,
        1.068493,
        1.052332,
        1.054883,
        1.075586,
        1.092382,
        1.101838,
        1.105522,
        1.108769,
        1.114333,
        1.119985,
        1.120814,
        1.113688,
        1.100043,
        1.084773,
        1.073288,
        1.068991,
        1.071894,
        1.078547,
        1.08339,
        1.081625,
        1.072802,
        1.062253,
        1.058806,
        1.069347,
        1.093103,
        1.120768,
        1.139988,
        1.142745,
        1.12997,
        1.110615,
        1.095607,
        1.09154,
        1.098268,
        1.110916,
        1.123904,
        1.134213,
        1.142179,
        1.149813,
        1.158208,
        1.166314,
        1.171491,
        1.171414,
        1.166194,
        1.158259,
        1.14994,
        1.141043,
        1.128747,
        1.110453,
        1.087768,
        1.067317,
        1.05674,
        1.059142,
        1.070701,
        1.083628,
        1.092571,
        1.098364,
        1.104988,
        1.113497,
        1.118937,
        1.113621,
        1.095182,
        1.071424,
        1.055728,
        1.05714,
        1.07324,
        1.091549,
        1.099541,
        1.094818,
        1.085403,
        1.081368,
        1.08565,
        1.091602,
        1.090098,
        1.079447,
        1.067937,
        1.067007,
        1.081556,
        1.105151,
        1.124585,
        1.130588,
        1.123841,
        1.112622,
        1.105454,
        1.104891,
        1.107671,
        1.110002,
        1.11088,
        1.110577,
        1.107242,
        1.096216,
        1.0748,
        1.0485,
        1.030349,
        1.032128,
        1.054152,
        1.081809,
        1.094011,
        1.079275,
        1.044721,
        1.0109,
        0.997212,
        1.008236,
        1.031468,
        1.048936,
        1.050974,
        1.040981,
        1.030075,
        1.027091,
        1.032426,
        1.040957,
        1.048482,
        1.054842,
        1.062174,
        1.070886,
        1.078115,
        1.080936,
        1.079582,
        1.077338,
        1.077433,
        1.079875,
        1.081819,
        1.08157,
        1.081182,
        1.08493,
        1.095117,
        1.108768,
        1.118824,
        1.119649,
        1.111414,
        1.099736,
        1.091311,
        1.088797,
        1.088993,
        1.086122,
        1.076715,
        1.062173,
        1.04761,
        1.038109,
        1.035348,
        1.03743,
        1.041523,
        1.046464,
        1.053308,
        1.06337,
        1.075225,
        1.084256,
        1.085987,
        1.080029,
        1.071415,
        1.067657,
        1.072593,
        1.082612,
        1.089358,
        1.086415,
        1.07476,
        1.06254,
        1.058251,
        1.063381,
        1.071648,
        1.075015,
        1.070988,
        1.065294,
        1.06705,
        1.080142,
        1.099392,
        1.114224,
        1.116311,
        1.10557,
        1.08986,
        1.078596,
        1.076796,
        1.083321,
        1.093061,
        1.100734,
        1.103301,
        1.099977,
        1.091403,
        1.079311,
        1.066297,
        1.055203,
        1.048025,
        1.044567,
        1.042621,
        1.039293,
        1.032701,
        1.023236,
        1.013669,
        1.007898,
        1.008981,
        1.017321,
        1.029927,
        1.041426,
        1.046882,
        1.045156,
        1.039708,
        1.036379,
        1.039404,
        1.048108,
        1.056915,
        1.059154,
        1.051512,
        1.036204,
        1.019865,
        1.010062,
        1.011574,
        1.024384,
        1.043958,
        1.063185,
        1.075524,
        1.078357,
        1.074884,
        1.072416,
        1.076967,
        1.087524,
        1.094564,
        1.085439,
        1.055107,
        1.014068,
        0.984418,
        0.985234,
        1.016732,
        1.054633,
        1.062641,
        1.018195,
        0.931086,
        0.840513,
        0.792482,
        0.81111,
        0.882876,
        0.967499,
        1.025811,
        1.041863,
        1.027004,
        1.006101,
        0.997278,
        1.00217,
        1.011663,
        1.016537,
        1.013908,
        1.006331,
        0.997042,
        0.988707,
        0.985995,
        0.995127,
        1.018345,
        1.04693,
        1.060568,
        1.039788,
        0.982642,
        0.910943,
        0.859951,
        0.856499,
        0.899997,
        0.963307,
        1.012661,
        1.029369,
        1.018885,
        1.002743,
        1.000211,
        1.014852,
        1.036337,
        1.05125,
        1.053332,
        1.046581,
        1.039999,
        1.039368,
        1.043722,
        1.046988,
        1.042801,
        1.029329,
        1.011001,
        0.996184,
        0.991989,
        0.999632,
        1.013202,
        1.023134,
        1.023115,
        1.015151,
        1.007828,
        1.009666,
        1.022518,
        1.039964,
        1.052881,
        1.057175,
        1.056394,
        1.057588,
        1.064607,
        1.074285,
        1.079,
        1.073375,
        1.058447,
        1.040289,
        1.025557,
        1.017685,
        1.016397,
        1.020277,
        1.028372,
        1.039652,
        1.051872,
        1.061553,
        1.065738,
        1.064132,
        1.058847,
        1.052521,
        1.046607,
        1.041268,
        1.037017,
        1.035513,
        1.038496,
        1.045713,
        1.054101,
        1.059435,
        1.059555,
        1.05643,
        1.054733,
        1.058197,
        1.066384,
        1.074212,
        1.075182,
        1.066253,
        1.050475,
        1.035569,
        1.029273,
        1.034137,
        1.045399,
        1.054463,
        1.055436,
        1.049237,
        1.042618,
        1.042531,
        1.04955,
        1.057177,
        1.057438,
        1.047501,
        1.031804,
        1.017982,
        1.009836,
        1.004523,
        0.996869,
        1.010267,
        0.998452,
        0.98549,
        0.975126,
        0.96779,
        0.960796,
        0.952968,
        0.946202,
        0.943508,
        0.945296,
        0.948255,
        0.947591,
        0.941053,
        0.932436,
        0.928257,
        0.933369,
        0.947394,
        0.962963,
        0.972917,
        0.974164,
        0.968417,
        0.962247,
        0.959422,
        0.959393,
        0.959329,
        0.955018,
        0.945517,
        0.932886,
        0.919932,
        0.910907,
        0.908607,
        0.9146,
        0.928986,
        0.946368,
        0.960232,
        0.964496,
        0.955612,
        0.938027,
        0.918044,
        0.900619,
        0.887674,
        0.876244,
        0.863652,
        0.85055,
        0.840738,
        0.837559,
        0.841155,
        0.846765,
        0.847373,
        0.841359,
        0.832332,
        0.828826,
        0.84009,
        0.867858,
        0.907877,
        0.952202,
        0.99206,
        1.019442,
        1.029805,
        1.020677,
        0.991776,
        0.95142,
        0.909147,
        0.874147,
        0.853419,
        0.845183,
        0.844695,
        0.847,
        0.848784,
        0.850766,
        0.855015,
        0.862595,
        0.872451,
        0.881253,
        0.886112,
        0.886121,
        0.882645,
        0.880204,
        0.883076,
        0.894857,
        0.917913,
        0.949009,
        0.981958,
        1.00763,
        1.016482,
        1.006741,
        0.983265,
        0.957011,
        0.940104,
        0.936239,
        0.941293,
        0.945885,
        0.941139,
        0.926397,
        0.907387,
        0.891639,
        0.884015,
        0.884222,
        0.889299,
        0.897386,
        0.908901,
        0.923366,
        0.938484,
        0.949481,
        0.951165,
        0.94322,
        0.929324,
        0.915175,
        0.905558,
        0.901007,
        0.899566,
        0.899116,
        0.89899,
        0.900124,
        0.903455,
        0.908761,
        0.914747,
        0.920252,
        0.925211,
        0.921964,
        0.919,
        0.914246,
        0.90802,
        0.90064,
        0.89249,
        0.884216,
        0.876527,
        0.870135,
        0.865528,
        0.862304,
        0.859843,
        0.857522,
        0.854951,
        0.85267,
        0.851451,
        0.852068,
        0.855085,
        0.86023,
        0.867026,
        0.874995,
        0.883658,
        0.892551,
        0.901208,
        0.909165,
        0.915829,
        0.920089,
        0.920708,
        0.916446,
        0.906904,
        0.895037,
        0.88464,
        0.879508,
        0.88211,
        0.889617,
        0.897877,
        0.902735,
        0.901186,
        0.89481,
        0.886334,
        0.878486,
        0.873383,
        0.8707,
        0.869501,
        0.86885,
        0.868055,
        0.867404,
        0.867427,
        0.868654,
        0.871434,
        0.875379,
        0.879918,
        0.884481,
        0.888542,
        0.891746,
        0.893786,
        0.894353,
        0.893275,
        0.890938,
        0.887865,
        0.884578,
        0.881486,
        0.878534,
        0.87555,
        0.872363,
        0.868847,
        0.865054,
        0.86108,
        0.857019,
        0.853085,
        0.849948,
        0.848396,
        0.849215,
        0.852776,
        0.857781,
        0.862516,
        0.865268,
        0.864804,
        0.861814,
        0.857471,
        0.852946,
        0.84928,
        0.846986,
        0.846446,
        0.848043,
        0.851786,
        0.856199,
        0.859434,
        0.859641,
        0.855695,
        0.849347,
        0.843072,
        0.839345,
        0.839931,
        0.84376,
        0.849056,
        0.854041,
        0.857226,
        0.858277,
        0.857148,
        0.853794,
        0.848465,
        0.84259,
        0.837895,
        0.836104,
        0.838324,
        0.843193,
        0.848727,
        0.852946,
        0.854353,
        0.853387,
        0.850973,
        0.848035,
        0.84541,
        0.84358,
        0.84294,
        0.843884,
        0.846485,
        0.849525,
        0.851465,
        0.850767,
        0.847771,
        0.844329,
        0.84079,
        0.83815,
        0.837181,
        0.837762,
        0.839549,
        0.842197,
        0.845263,
        0.847905,
        0.84918,
        0.848148,
        0.844292,
        0.838798,
        0.833275,
        0.829335,
        0.828202,
        0.829553,
        0.83268,
        0.836872,
        0.841445,
        0.845811,
        0.849405,
        0.851663,
        0.852179,
        0.851169,
        0.84901,
        0.846075,
        0.842752,
        0.83947,
        0.836673,
        0.834802,
        0.834191,
        0.834736,
        0.836226,
        0.838449,
        0.841155,
        0.843937,
        0.846351,
        0.847951
      ],
      "range":1
    }
  }
]
