[
  {
    "model":"Star, type K0(iii)",
    "name":"Star, type K0(iii)",
    "type":"WB_REF",
    "dataQualityMarker":3,
    "dataSource":"https://www.eso.org/sci/facilities/paranal/decommissioned/isaac/tools/lib.html",
    "manufacturer":"A. Pickles (A.J. Pickles, PASP 110,863, 1998)",
    "version":1,
    "wavelength":{
      "value":[
        1150.0,
        1155.0,
        1160.0,
        1165.0,
        1170.0,
        1175.0,
        1180.0,
        1185.0,
        1190.0,
        1195.0,
        1200.0,
        1205.0,
        1210.0,
        1215.0,
        1220.0,
        1225.0,
        1230.0,
        1235.0,
        1240.0,
        1245.0,
        1250.0,
        1255.0,
        1260.0,
        1265.0,
        1270.0,
        1275.0,
        1280.0,
        1285.0,
        1290.0,
        1295.0,
        1300.0,
        1305.0,
        1310.0,
        1315.0,
        1320.0,
        1325.0,
        1330.0,
        1335.0,
        1340.0,
        1345.0,
        1350.0,
        1355.0,
        1360.0,
        1365.0,
        1370.0,
        1375.0,
        1380.0,
        1385.0,
        1390.0,
        1395.0,
        1400.0,
        1405.0,
        1410.0,
        1415.0,
        1420.0,
        1425.0,
        1430.0,
        1435.0,
        1440.0,
        1445.0,
        1450.0,
        1455.0,
        1460.0,
        1465.0,
        1470.0,
        1475.0,
        1480.0,
        1485.0,
        1490.0,
        1495.0,
        1500.0,
        1505.0,
        1510.0,
        1515.0,
        1520.0,
        1525.0,
        1530.0,
        1535.0,
        1540.0,
        1545.0,
        1550.0,
        1555.0,
        1560.0,
        1565.0,
        1570.0,
        1575.0,
        1580.0,
        1585.0,
        1590.0,
        1595.0,
        1600.0,
        1605.0,
        1610.0,
        1615.0,
        1620.0,
        1625.0,
        1630.0,
        1635.0,
        1640.0,
        1645.0,
        1650.0,
        1655.0,
        1660.0,
        1665.0,
        1670.0,
        1675.0,
        1680.0,
        1685.0,
        1690.0,
        1695.0,
        1700.0,
        1705.0,
        1710.0,
        1715.0,
        1720.0,
        1725.0,
        1730.0,
        1735.0,
        1740.0,
        1745.0,
        1750.0,
        1755.0,
        1760.0,
        1765.0,
        1770.0,
        1775.0,
        1780.0,
        1785.0,
        1790.0,
        1795.0,
        1800.0,
        1805.0,
        1810.0,
        1815.0,
        1820.0,
        1825.0,
        1830.0,
        1835.0,
        1840.0,
        1845.0,
        1850.0,
        1855.0,
        1860.0,
        1865.0,
        1870.0,
        1875.0,
        1880.0,
        1885.0,
        1890.0,
        1895.0,
        1900.0,
        1905.0,
        1910.0,
        1915.0,
        1920.0,
        1925.0,
        1930.0,
        1935.0,
        1940.0,
        1945.0,
        1950.0,
        1955.0,
        1960.0,
        1965.0,
        1970.0,
        1975.0,
        1980.0,
        1985.0,
        1990.0,
        1995.0,
        2000.0,
        2005.0,
        2010.0,
        2015.0,
        2020.0,
        2025.0,
        2030.0,
        2035.0,
        2040.0,
        2045.0,
        2050.0,
        2055.0,
        2060.0,
        2065.0,
        2070.0,
        2075.0,
        2080.0,
        2085.0,
        2090.0,
        2095.0,
        2100.0,
        2105.0,
        2110.0,
        2115.0,
        2120.0,
        2125.0,
        2130.0,
        2135.0,
        2140.0,
        2145.0,
        2150.0,
        2155.0,
        2160.0,
        2165.0,
        2170.0,
        2175.0,
        2180.0,
        2185.0,
        2190.0,
        2195.0,
        2200.0,
        2205.0,
        2210.0,
        2215.0,
        2220.0,
        2225.0,
        2230.0,
        2235.0,
        2240.0,
        2245.0,
        2250.0,
        2255.0,
        2260.0,
        2265.0,
        2270.0,
        2275.0,
        2280.0,
        2285.0,
        2290.0,
        2295.0,
        2300.0,
        2305.0,
        2310.0,
        2315.0,
        2320.0,
        2325.0,
        2330.0,
        2335.0,
        2340.0,
        2345.0,
        2350.0,
        2355.0,
        2360.0,
        2365.0,
        2370.0,
        2375.0,
        2380.0,
        2385.0,
        2390.0,
        2395.0,
        2400.0,
        2405.0,
        2410.0,
        2415.0,
        2420.0,
        2425.0,
        2430.0,
        2435.0,
        2440.0,
        2445.0,
        2450.0,
        2455.0,
        2460.0,
        2465.0,
        2470.0,
        2475.0,
        2480.0,
        2485.0,
        2490.0,
        2495.0,
        2500.0,
        2505.0,
        2510.0,
        2515.0,
        2520.0,
        2525.0,
        2530.0,
        2535.0,
        2540.0,
        2545.0,
        2550.0,
        2555.0,
        2560.0,
        2565.0,
        2570.0,
        2575.0,
        2580.0,
        2585.0,
        2590.0,
        2595.0,
        2600.0,
        2605.0,
        2610.0,
        2615.0,
        2620.0,
        2625.0,
        2630.0,
        2635.0,
        2640.0,
        2645.0,
        2650.0,
        2655.0,
        2660.0,
        2665.0,
        2670.0,
        2675.0,
        2680.0,
        2685.0,
        2690.0,
        2695.0,
        2700.0,
        2705.0,
        2710.0,
        2715.0,
        2720.0,
        2725.0,
        2730.0,
        2735.0,
        2740.0,
        2745.0,
        2750.0,
        2755.0,
        2760.0,
        2765.0,
        2770.0,
        2775.0,
        2780.0,
        2785.0,
        2790.0,
        2795.0,
        2800.0,
        2805.0,
        2810.0,
        2815.0,
        2820.0,
        2825.0,
        2830.0,
        2835.0,
        2840.0,
        2845.0,
        2850.0,
        2855.0,
        2860.0,
        2865.0,
        2870.0,
        2875.0,
        2880.0,
        2885.0,
        2890.0,
        2895.0,
        2900.0,
        2905.0,
        2910.0,
        2915.0,
        2920.0,
        2925.0,
        2930.0,
        2935.0,
        2940.0,
        2945.0,
        2950.0,
        2955.0,
        2960.0,
        2965.0,
        2970.0,
        2975.0,
        2980.0,
        2985.0,
        2990.0,
        2995.0,
        3000.0,
        3005.0,
        3010.0,
        3015.0,
        3020.0,
        3025.0,
        3030.0,
        3035.0,
        3040.0,
        3045.0,
        3050.0,
        3055.0,
        3060.0,
        3065.0,
        3070.0,
        3075.0,
        3080.0,
        3085.0,
        3090.0,
        3095.0,
        3100.0,
        3105.0,
        3110.0,
        3115.0,
        3120.0,
        3125.0,
        3130.0,
        3135.0,
        3140.0,
        3145.0,
        3150.0,
        3155.0,
        3160.0,
        3165.0,
        3170.0,
        3175.0,
        3180.0,
        3185.0,
        3190.0,
        3195.0,
        3200.0,
        3205.0,
        3210.0,
        3215.0,
        3220.0,
        3225.0,
        3230.0,
        3235.0,
        3240.0,
        3245.0,
        3250.0,
        3255.0,
        3260.0,
        3265.0,
        3270.0,
        3275.0,
        3280.0,
        3285.0,
        3290.0,
        3295.0,
        3300.0,
        3305.0,
        3310.0,
        3315.0,
        3320.0,
        3325.0,
        3330.0,
        3335.0,
        3340.0,
        3345.0,
        3350.0,
        3355.0,
        3360.0,
        3365.0,
        3370.0,
        3375.0,
        3380.0,
        3385.0,
        3390.0,
        3395.0,
        3400.0,
        3405.0,
        3410.0,
        3415.0,
        3420.0,
        3425.0,
        3430.0,
        3435.0,
        3440.0,
        3445.0,
        3450.0,
        3455.0,
        3460.0,
        3465.0,
        3470.0,
        3475.0,
        3480.0,
        3485.0,
        3490.0,
        3495.0,
        3500.0,
        3505.0,
        3510.0,
        3515.0,
        3520.0,
        3525.0,
        3530.0,
        3535.0,
        3540.0,
        3545.0,
        3550.0,
        3555.0,
        3560.0,
        3565.0,
        3570.0,
        3575.0,
        3580.0,
        3585.0,
        3590.0,
        3595.0,
        3600.0,
        3605.0,
        3610.0,
        3615.0,
        3620.0,
        3625.0,
        3630.0,
        3635.0,
        3640.0,
        3645.0,
        3650.0,
        3655.0,
        3660.0,
        3665.0,
        3670.0,
        3675.0,
        3680.0,
        3685.0,
        3690.0,
        3695.0,
        3700.0,
        3705.0,
        3710.0,
        3715.0,
        3720.0,
        3725.0,
        3730.0,
        3735.0,
        3740.0,
        3745.0,
        3750.0,
        3755.0,
        3760.0,
        3765.0,
        3770.0,
        3775.0,
        3780.0,
        3785.0,
        3790.0,
        3795.0,
        3800.0,
        3805.0,
        3810.0,
        3815.0,
        3820.0,
        3825.0,
        3830.0,
        3835.0,
        3840.0,
        3845.0,
        3850.0,
        3855.0,
        3860.0,
        3865.0,
        3870.0,
        3875.0,
        3880.0,
        3885.0,
        3890.0,
        3895.0,
        3900.0,
        3905.0,
        3910.0,
        3915.0,
        3920.0,
        3925.0,
        3930.0,
        3935.0,
        3940.0,
        3945.0,
        3950.0,
        3955.0,
        3960.0,
        3965.0,
        3970.0,
        3975.0,
        3980.0,
        3985.0,
        3990.0,
        3995.0,
        4000.0,
        4005.0,
        4010.0,
        4015.0,
        4020.0,
        4025.0,
        4030.0,
        4035.0,
        4040.0,
        4045.0,
        4050.0,
        4055.0,
        4060.0,
        4065.0,
        4070.0,
        4075.0,
        4080.0,
        4085.0,
        4090.0,
        4095.0,
        4100.0,
        4105.0,
        4110.0,
        4115.0,
        4120.0,
        4125.0,
        4130.0,
        4135.0,
        4140.0,
        4145.0,
        4150.0,
        4155.0,
        4160.0,
        4165.0,
        4170.0,
        4175.0,
        4180.0,
        4185.0,
        4190.0,
        4195.0,
        4200.0,
        4205.0,
        4210.0,
        4215.0,
        4220.0,
        4225.0,
        4230.0,
        4235.0,
        4240.0,
        4245.0,
        4250.0,
        4255.0,
        4260.0,
        4265.0,
        4270.0,
        4275.0,
        4280.0,
        4285.0,
        4290.0,
        4295.0,
        4300.0,
        4305.0,
        4310.0,
        4315.0,
        4320.0,
        4325.0,
        4330.0,
        4335.0,
        4340.0,
        4345.0,
        4350.0,
        4355.0,
        4360.0,
        4365.0,
        4370.0,
        4375.0,
        4380.0,
        4385.0,
        4390.0,
        4395.0,
        4400.0,
        4405.0,
        4410.0,
        4415.0,
        4420.0,
        4425.0,
        4430.0,
        4435.0,
        4440.0,
        4445.0,
        4450.0,
        4455.0,
        4460.0,
        4465.0,
        4470.0,
        4475.0,
        4480.0,
        4485.0,
        4490.0,
        4495.0,
        4500.0,
        4505.0,
        4510.0,
        4515.0,
        4520.0,
        4525.0,
        4530.0,
        4535.0,
        4540.0,
        4545.0,
        4550.0,
        4555.0,
        4560.0,
        4565.0,
        4570.0,
        4575.0,
        4580.0,
        4585.0,
        4590.0,
        4595.0,
        4600.0,
        4605.0,
        4610.0,
        4615.0,
        4620.0,
        4625.0,
        4630.0,
        4635.0,
        4640.0,
        4645.0,
        4650.0,
        4655.0,
        4660.0,
        4665.0,
        4670.0,
        4675.0,
        4680.0,
        4685.0,
        4690.0,
        4695.0,
        4700.0,
        4705.0,
        4710.0,
        4715.0,
        4720.0,
        4725.0,
        4730.0,
        4735.0,
        4740.0,
        4745.0,
        4750.0,
        4755.0,
        4760.0,
        4765.0,
        4770.0,
        4775.0,
        4780.0,
        4785.0,
        4790.0,
        4795.0,
        4800.0,
        4805.0,
        4810.0,
        4815.0,
        4820.0,
        4825.0,
        4830.0,
        4835.0,
        4840.0,
        4845.0,
        4850.0,
        4855.0,
        4860.0,
        4865.0,
        4870.0,
        4875.0,
        4880.0,
        4885.0,
        4890.0,
        4895.0,
        4900.0,
        4905.0,
        4910.0,
        4915.0,
        4920.0,
        4925.0,
        4930.0,
        4935.0,
        4940.0,
        4945.0,
        4950.0,
        4955.0,
        4960.0,
        4965.0,
        4970.0,
        4975.0,
        4980.0,
        4985.0,
        4990.0,
        4995.0,
        5000.0,
        5005.0,
        5010.0,
        5015.0,
        5020.0,
        5025.0,
        5030.0,
        5035.0,
        5040.0,
        5045.0,
        5050.0,
        5055.0,
        5060.0,
        5065.0,
        5070.0,
        5075.0,
        5080.0,
        5085.0,
        5090.0,
        5095.0,
        5100.0,
        5105.0,
        5110.0,
        5115.0,
        5120.0,
        5125.0,
        5130.0,
        5135.0,
        5140.0,
        5145.0,
        5150.0,
        5155.0,
        5160.0,
        5165.0,
        5170.0,
        5175.0,
        5180.0,
        5185.0,
        5190.0,
        5195.0,
        5200.0,
        5205.0,
        5210.0,
        5215.0,
        5220.0,
        5225.0,
        5230.0,
        5235.0,
        5240.0,
        5245.0,
        5250.0,
        5255.0,
        5260.0,
        5265.0,
        5270.0,
        5275.0,
        5280.0,
        5285.0,
        5290.0,
        5295.0,
        5300.0,
        5305.0,
        5310.0,
        5315.0,
        5320.0,
        5325.0,
        5330.0,
        5335.0,
        5340.0,
        5345.0,
        5350.0,
        5355.0,
        5360.0,
        5365.0,
        5370.0,
        5375.0,
        5380.0,
        5385.0,
        5390.0,
        5395.0,
        5400.0,
        5405.0,
        5410.0,
        5415.0,
        5420.0,
        5425.0,
        5430.0,
        5435.0,
        5440.0,
        5445.0,
        5450.0,
        5455.0,
        5460.0,
        5465.0,
        5470.0,
        5475.0,
        5480.0,
        5485.0,
        5490.0,
        5495.0,
        5500.0,
        5505.0,
        5510.0,
        5515.0,
        5520.0,
        5525.0,
        5530.0,
        5535.0,
        5540.0,
        5545.0,
        5550.0,
        5555.0,
        5560.0,
        5565.0,
        5570.0,
        5575.0,
        5580.0,
        5585.0,
        5590.0,
        5595.0,
        5600.0,
        5605.0,
        5610.0,
        5615.0,
        5620.0,
        5625.0,
        5630.0,
        5635.0,
        5640.0,
        5645.0,
        5650.0,
        5655.0,
        5660.0,
        5665.0,
        5670.0,
        5675.0,
        5680.0,
        5685.0,
        5690.0,
        5695.0,
        5700.0,
        5705.0,
        5710.0,
        5715.0,
        5720.0,
        5725.0,
        5730.0,
        5735.0,
        5740.0,
        5745.0,
        5750.0,
        5755.0,
        5760.0,
        5765.0,
        5770.0,
        5775.0,
        5780.0,
        5785.0,
        5790.0,
        5795.0,
        5800.0,
        5805.0,
        5810.0,
        5815.0,
        5820.0,
        5825.0,
        5830.0,
        5835.0,
        5840.0,
        5845.0,
        5850.0,
        5855.0,
        5860.0,
        5865.0,
        5870.0,
        5875.0,
        5880.0,
        5885.0,
        5890.0,
        5895.0,
        5900.0,
        5905.0,
        5910.0,
        5915.0,
        5920.0,
        5925.0,
        5930.0,
        5935.0,
        5940.0,
        5945.0,
        5950.0,
        5955.0,
        5960.0,
        5965.0,
        5970.0,
        5975.0,
        5980.0,
        5985.0,
        5990.0,
        5995.0,
        6000.0,
        6005.0,
        6010.0,
        6015.0,
        6020.0,
        6025.0,
        6030.0,
        6035.0,
        6040.0,
        6045.0,
        6050.0,
        6055.0,
        6060.0,
        6065.0,
        6070.0,
        6075.0,
        6080.0,
        6085.0,
        6090.0,
        6095.0,
        6100.0,
        6105.0,
        6110.0,
        6115.0,
        6120.0,
        6125.0,
        6130.0,
        6135.0,
        6140.0,
        6145.0,
        6150.0,
        6155.0,
        6160.0,
        6165.0,
        6170.0,
        6175.0,
        6180.0,
        6185.0,
        6190.0,
        6195.0,
        6200.0,
        6205.0,
        6210.0,
        6215.0,
        6220.0,
        6225.0,
        6230.0,
        6235.0,
        6240.0,
        6245.0,
        6250.0,
        6255.0,
        6260.0,
        6265.0,
        6270.0,
        6275.0,
        6280.0,
        6285.0,
        6290.0,
        6295.0,
        6300.0,
        6305.0,
        6310.0,
        6315.0,
        6320.0,
        6325.0,
        6330.0,
        6335.0,
        6340.0,
        6345.0,
        6350.0,
        6355.0,
        6360.0,
        6365.0,
        6370.0,
        6375.0,
        6380.0,
        6385.0,
        6390.0,
        6395.0,
        6400.0,
        6405.0,
        6410.0,
        6415.0,
        6420.0,
        6425.0,
        6430.0,
        6435.0,
        6440.0,
        6445.0,
        6450.0,
        6455.0,
        6460.0,
        6465.0,
        6470.0,
        6475.0,
        6480.0,
        6485.0,
        6490.0,
        6495.0,
        6500.0,
        6505.0,
        6510.0,
        6515.0,
        6520.0,
        6525.0,
        6530.0,
        6535.0,
        6540.0,
        6545.0,
        6550.0,
        6555.0,
        6560.0,
        6565.0,
        6570.0,
        6575.0,
        6580.0,
        6585.0,
        6590.0,
        6595.0,
        6600.0,
        6605.0,
        6610.0,
        6615.0,
        6620.0,
        6625.0,
        6630.0,
        6635.0,
        6640.0,
        6645.0,
        6650.0,
        6655.0,
        6660.0,
        6665.0,
        6670.0,
        6675.0,
        6680.0,
        6685.0,
        6690.0,
        6695.0,
        6700.0,
        6705.0,
        6710.0,
        6715.0,
        6720.0,
        6725.0,
        6730.0,
        6735.0,
        6740.0,
        6745.0,
        6750.0,
        6755.0,
        6760.0,
        6765.0,
        6770.0,
        6775.0,
        6780.0,
        6785.0,
        6790.0,
        6795.0,
        6800.0,
        6805.0,
        6810.0,
        6815.0,
        6820.0,
        6825.0,
        6830.0,
        6835.0,
        6840.0,
        6845.0,
        6850.0,
        6855.0,
        6860.0,
        6865.0,
        6870.0,
        6875.0,
        6880.0,
        6885.0,
        6890.0,
        6895.0,
        6900.0,
        6905.0,
        6910.0,
        6915.0,
        6920.0,
        6925.0,
        6930.0,
        6935.0,
        6940.0,
        6945.0,
        6950.0,
        6955.0,
        6960.0,
        6965.0,
        6970.0,
        6975.0,
        6980.0,
        6985.0,
        6990.0,
        6995.0,
        7000.0,
        7005.0,
        7010.0,
        7015.0,
        7020.0,
        7025.0,
        7030.0,
        7035.0,
        7040.0,
        7045.0,
        7050.0,
        7055.0,
        7060.0,
        7065.0,
        7070.0,
        7075.0,
        7080.0,
        7085.0,
        7090.0,
        7095.0,
        7100.0,
        7105.0,
        7110.0,
        7115.0,
        7120.0,
        7125.0,
        7130.0,
        7135.0,
        7140.0,
        7145.0,
        7150.0,
        7155.0,
        7160.0,
        7165.0,
        7170.0,
        7175.0,
        7180.0,
        7185.0,
        7190.0,
        7195.0,
        7200.0,
        7205.0,
        7210.0,
        7215.0,
        7220.0,
        7225.0,
        7230.0,
        7235.0,
        7240.0,
        7245.0,
        7250.0,
        7255.0,
        7260.0,
        7265.0,
        7270.0,
        7275.0,
        7280.0,
        7285.0,
        7290.0,
        7295.0,
        7300.0,
        7305.0,
        7310.0,
        7315.0,
        7320.0,
        7325.0,
        7330.0,
        7335.0,
        7340.0,
        7345.0,
        7350.0,
        7355.0,
        7360.0,
        7365.0,
        7370.0,
        7375.0,
        7380.0,
        7385.0,
        7390.0,
        7395.0,
        7400.0,
        7405.0,
        7410.0,
        7415.0,
        7420.0,
        7425.0,
        7430.0,
        7435.0,
        7440.0,
        7445.0,
        7450.0,
        7455.0,
        7460.0,
        7465.0,
        7470.0,
        7475.0,
        7480.0,
        7485.0,
        7490.0,
        7495.0,
        7500.0,
        7505.0,
        7510.0,
        7515.0,
        7520.0,
        7525.0,
        7530.0,
        7535.0,
        7540.0,
        7545.0,
        7550.0,
        7555.0,
        7560.0,
        7565.0,
        7570.0,
        7575.0,
        7580.0,
        7585.0,
        7590.0,
        7595.0,
        7600.0,
        7605.0,
        7610.0,
        7615.0,
        7620.0,
        7625.0,
        7630.0,
        7635.0,
        7640.0,
        7645.0,
        7650.0,
        7655.0,
        7660.0,
        7665.0,
        7670.0,
        7675.0,
        7680.0,
        7685.0,
        7690.0,
        7695.0,
        7700.0,
        7705.0,
        7710.0,
        7715.0,
        7720.0,
        7725.0,
        7730.0,
        7735.0,
        7740.0,
        7745.0,
        7750.0,
        7755.0,
        7760.0,
        7765.0,
        7770.0,
        7775.0,
        7780.0,
        7785.0,
        7790.0,
        7795.0,
        7800.0,
        7805.0,
        7810.0,
        7815.0,
        7820.0,
        7825.0,
        7830.0,
        7835.0,
        7840.0,
        7845.0,
        7850.0,
        7855.0,
        7860.0,
        7865.0,
        7870.0,
        7875.0,
        7880.0,
        7885.0,
        7890.0,
        7895.0,
        7900.0,
        7905.0,
        7910.0,
        7915.0,
        7920.0,
        7925.0,
        7930.0,
        7935.0,
        7940.0,
        7945.0,
        7950.0,
        7955.0,
        7960.0,
        7965.0,
        7970.0,
        7975.0,
        7980.0,
        7985.0,
        7990.0,
        7995.0,
        8000.0,
        8005.0,
        8010.0,
        8015.0,
        8020.0,
        8025.0,
        8030.0,
        8035.0,
        8040.0,
        8045.0,
        8050.0,
        8055.0,
        8060.0,
        8065.0,
        8070.0,
        8075.0,
        8080.0,
        8085.0,
        8090.0,
        8095.0,
        8100.0,
        8105.0,
        8110.0,
        8115.0,
        8120.0,
        8125.0,
        8130.0,
        8135.0,
        8140.0,
        8145.0,
        8150.0,
        8155.0,
        8160.0,
        8165.0,
        8170.0,
        8175.0,
        8180.0,
        8185.0,
        8190.0,
        8195.0,
        8200.0,
        8205.0,
        8210.0,
        8215.0,
        8220.0,
        8225.0,
        8230.0,
        8235.0,
        8240.0,
        8245.0,
        8250.0,
        8255.0,
        8260.0,
        8265.0,
        8270.0,
        8275.0,
        8280.0,
        8285.0,
        8290.0,
        8295.0,
        8300.0,
        8305.0,
        8310.0,
        8315.0,
        8320.0,
        8325.0,
        8330.0,
        8335.0,
        8340.0,
        8345.0,
        8350.0,
        8355.0,
        8360.0,
        8365.0,
        8370.0,
        8375.0,
        8380.0,
        8385.0,
        8390.0,
        8395.0,
        8400.0,
        8405.0,
        8410.0,
        8415.0,
        8420.0,
        8425.0,
        8430.0,
        8435.0,
        8440.0,
        8445.0,
        8450.0,
        8455.0,
        8460.0,
        8465.0,
        8470.0,
        8475.0,
        8480.0,
        8485.0,
        8490.0,
        8495.0,
        8500.0,
        8505.0,
        8510.0,
        8515.0,
        8520.0,
        8525.0,
        8530.0,
        8535.0,
        8540.0,
        8545.0,
        8550.0,
        8555.0,
        8560.0,
        8565.0,
        8570.0,
        8575.0,
        8580.0,
        8585.0,
        8590.0,
        8595.0,
        8600.0,
        8605.0,
        8610.0,
        8615.0,
        8620.0,
        8625.0,
        8630.0,
        8635.0,
        8640.0,
        8645.0,
        8650.0,
        8655.0,
        8660.0,
        8665.0,
        8670.0,
        8675.0,
        8680.0,
        8685.0,
        8690.0,
        8695.0,
        8700.0,
        8705.0,
        8710.0,
        8715.0,
        8720.0,
        8725.0,
        8730.0,
        8735.0,
        8740.0,
        8745.0,
        8750.0,
        8755.0,
        8760.0,
        8765.0,
        8770.0,
        8775.0,
        8780.0,
        8785.0,
        8790.0,
        8795.0,
        8800.0,
        8805.0,
        8810.0,
        8815.0,
        8820.0,
        8825.0,
        8830.0,
        8835.0,
        8840.0,
        8845.0,
        8850.0,
        8855.0,
        8860.0,
        8865.0,
        8870.0,
        8875.0,
        8880.0,
        8885.0,
        8890.0,
        8895.0,
        8900.0,
        8905.0,
        8910.0,
        8915.0,
        8920.0,
        8925.0,
        8930.0,
        8935.0,
        8940.0,
        8945.0,
        8950.0,
        8955.0,
        8960.0,
        8965.0,
        8970.0,
        8975.0,
        8980.0,
        8985.0,
        8990.0,
        8995.0,
        9000.0,
        9005.0,
        9010.0,
        9015.0,
        9020.0,
        9025.0,
        9030.0,
        9035.0,
        9040.0,
        9045.0,
        9050.0,
        9055.0,
        9060.0,
        9065.0,
        9070.0,
        9075.0,
        9080.0,
        9085.0,
        9090.0,
        9095.0,
        9100.0,
        9105.0,
        9110.0,
        9115.0,
        9120.0,
        9125.0,
        9130.0,
        9135.0,
        9140.0,
        9145.0,
        9150.0,
        9155.0,
        9160.0,
        9165.0,
        9170.0,
        9175.0,
        9180.0,
        9185.0,
        9190.0,
        9195.0,
        9200.0,
        9205.0,
        9210.0,
        9215.0,
        9220.0,
        9225.0,
        9230.0,
        9235.0,
        9240.0,
        9245.0,
        9250.0,
        9255.0,
        9260.0,
        9265.0,
        9270.0,
        9275.0,
        9280.0,
        9285.0,
        9290.0,
        9295.0,
        9300.0,
        9305.0,
        9310.0,
        9315.0,
        9320.0,
        9325.0,
        9330.0,
        9335.0,
        9340.0,
        9345.0,
        9350.0,
        9355.0,
        9360.0,
        9365.0,
        9370.0,
        9375.0,
        9380.0,
        9385.0,
        9390.0,
        9395.0,
        9400.0,
        9405.0,
        9410.0,
        9415.0,
        9420.0,
        9425.0,
        9430.0,
        9435.0,
        9440.0,
        9445.0,
        9450.0,
        9455.0,
        9460.0,
        9465.0,
        9470.0,
        9475.0,
        9480.0,
        9485.0,
        9490.0,
        9495.0,
        9500.0,
        9505.0,
        9510.0,
        9515.0,
        9520.0,
        9525.0,
        9530.0,
        9535.0,
        9540.0,
        9545.0,
        9550.0,
        9555.0,
        9560.0,
        9565.0,
        9570.0,
        9575.0,
        9580.0,
        9585.0,
        9590.0,
        9595.0,
        9600.0,
        9605.0,
        9610.0,
        9615.0,
        9620.0,
        9625.0,
        9630.0,
        9635.0,
        9640.0,
        9645.0,
        9650.0,
        9655.0,
        9660.0,
        9665.0,
        9670.0,
        9675.0,
        9680.0,
        9685.0,
        9690.0,
        9695.0,
        9700.0,
        9705.0,
        9710.0,
        9715.0,
        9720.0,
        9725.0,
        9730.0,
        9735.0,
        9740.0,
        9745.0,
        9750.0,
        9755.0,
        9760.0,
        9765.0,
        9770.0,
        9775.0,
        9780.0,
        9785.0,
        9790.0,
        9795.0,
        9800.0,
        9805.0,
        9810.0,
        9815.0,
        9820.0,
        9825.0,
        9830.0,
        9835.0,
        9840.0,
        9845.0,
        9850.0,
        9855.0,
        9860.0,
        9865.0,
        9870.0,
        9875.0,
        9880.0,
        9885.0,
        9890.0,
        9895.0,
        9900.0,
        9905.0,
        9910.0,
        9915.0,
        9920.0,
        9925.0,
        9930.0,
        9935.0,
        9940.0,
        9945.0,
        9950.0,
        9955.0,
        9960.0,
        9965.0,
        9970.0,
        9975.0,
        9980.0,
        9985.0,
        9990.0,
        9995.0,
        10000.0,
        10005.0,
        10010.0,
        10015.0,
        10020.0,
        10025.0,
        10030.0,
        10035.0,
        10040.0,
        10045.0,
        10050.0,
        10055.0,
        10060.0,
        10065.0,
        10070.0,
        10075.0,
        10080.0,
        10085.0,
        10090.0,
        10095.0,
        10100.0,
        10105.0,
        10110.0,
        10115.0,
        10120.0,
        10125.0,
        10130.0,
        10135.0,
        10140.0,
        10145.0,
        10150.0,
        10155.0,
        10160.0,
        10165.0,
        10170.0,
        10175.0,
        10180.0,
        10185.0,
        10190.0,
        10195.0,
        10200.0,
        10205.0,
        10210.0,
        10215.0,
        10220.0,
        10225.0,
        10230.0,
        10235.0,
        10240.0,
        10245.0,
        10250.0,
        10255.0,
        10260.0,
        10265.0,
        10270.0,
        10275.0,
        10280.0,
        10285.0,
        10290.0,
        10295.0,
        10300.0,
        10305.0,
        10310.0,
        10315.0,
        10320.0,
        10325.0,
        10330.0,
        10335.0,
        10340.0,
        10345.0,
        10350.0,
        10355.0,
        10360.0,
        10365.0,
        10370.0,
        10375.0,
        10380.0,
        10385.0,
        10390.0,
        10395.0,
        10400.0,
        10405.0,
        10410.0,
        10415.0,
        10420.0,
        10425.0,
        10430.0,
        10435.0,
        10440.0,
        10445.0,
        10450.0,
        10455.0,
        10460.0,
        10465.0,
        10470.0,
        10475.0,
        10480.0,
        10485.0,
        10490.0,
        10495.0,
        10500.0
      ],
      "units":"angstrom"
    },
    "values":{
      "value":[
        0.0,
        0.0,
        0.0,
        0.0,
        0.0,
        0.0,
        0.0,
        0.0,
        0.0,
        0.0,
        0.0,
        0.0,
        0.0,
        0.0,
        0.0,
        0.0,
        0.0,
        0.0,
        0.0,
        0.0,
        0.0,
        0.0,
        0.0,
        0.0,
        0.0,
        0.0,
        0.0,
        0.0,
        0.0,
        0.0,
        0.0,
        0.0,
        0.0,
        0.0,
        0.0,
        0.0,
        0.0,
        0.0,
        0.0,
        0.0,
        0.0,
        0.0,
        0.0,
        0.0,
        0.0,
        0.0,
        0.0,
        0.0,
        0.0,
        0.0,
        0.0,
        0.0,
        0.0,
        0.0,
        0.0,
        0.0,
        0.0,
        0.0,
        0.0,
        0.0,
        0.0,
        0.0,
        0.0,
        0.0,
        0.0,
        0.0,
        0.0,
        0.0,
        0.0,
        0.0,
        0.0,
        0.0,
        0.0,
        0.0,
        0.0,
        0.0,
        0.0,
        0.0,
        0.0,
        0.0,
        0.0,
        0.0,
        0.0,
        0.0,
        0.0,
        0.0,
        0.0,
        0.0,
        0.0,
        0.0,
        0.0,
        0.0,
        0.0,
        0.0,
        0.0,
        0.0,
        0.0,
        0.0,
        0.0,
        0.0,
        0.0,
        0.0,
        0.0,
        0.0,
        0.0,
        0.0,
        0.0,
        0.0,
        0.0,
        0.0,
        0.0,
        0.0,
        0.0,
        0.0,
        0.0,
        0.0,
        0.0,
        0.0,
        0.0,
        0.0,
        0.0,
        0.0,
        0.0,
        0.0,
        0.0,
        0.0,
        0.0,
        0.0,
        0.0,
        0.0,
        0.0,
        0.0,
        0.0,
        0.0,
        0.0,
        0.0,
        0.0,
        0.0,
        0.0,
        0.0,
        0.0,
        0.0,
        0.0,
        0.0,
        0.0,
        0.0,
        0.0,
        0.0,
        0.0,
        0.0,
        0.0,
        0.0,
        0.0,
        0.0,
        0.0,
        0.0,
        0.0,
        0.0,
        0.0,
        0.0,
        0.0,
        0.0,
        0.0,
        0.0,
        0.0,
        0.0,
        0.0,
        0.0,
        0.0,
        0.0,
        0.0,
        0.0,
        0.0,
        0.0,
        0.0,
        0.0,
        0.0,
        0.0,
        0.0,
        0.0,
        0.0,
        0.0,
        0.0,
        0.0,
        0.0,
        0.0,
        0.0,
        0.0,
        0.0,
        0.0,
        0.0,
        0.0,
        0.0,
        0.0,
        0.0,
        0.0,
        0.0,
        0.0,
        0.0,
        0.0,
        0.0,
        1e-06,
        2e-06,
        2e-06,
        3e-06,
        4e-06,
        4e-06,
        4e-06,
        3e-06,
        2e-06,
        0.0,
        0.0,
        0.0,
        0.0,
        0.0,
        0.0,
        0.0,
        0.0,
        0.0,
        0.0,
        0.0,
        1e-05,
        2.2e-05,
        3.4e-05,
        4.5e-05,
        5.2e-05,
        5.6e-05,
        5.4e-05,
        4.5e-05,
        2.8e-05,
        0.0,
        0.0,
        0.0,
        0.0,
        0.0,
        0.0,
        0.0,
        0.0,
        0.0,
        0.0,
        0.0,
        0.000144,
        0.000322,
        0.000526,
        0.000748,
        0.000979,
        0.001211,
        0.001436,
        0.001646,
        0.001831,
        0.001983,
        0.002097,
        0.002175,
        0.00222,
        0.002237,
        0.00223,
        0.002203,
        0.002161,
        0.002107,
        0.002047,
        0.001983,
        0.001921,
        0.001864,
        0.001815,
        0.001777,
        0.001754,
        0.00175,
        0.001767,
        0.001809,
        0.00188,
        0.001983,
        0.00212,
        0.002286,
        0.002476,
        0.002684,
        0.002903,
        0.003128,
        0.003352,
        0.003571,
        0.003778,
        0.003967,
        0.004135,
        0.004287,
        0.004432,
        0.004578,
        0.004734,
        0.004908,
        0.005109,
        0.005344,
        0.005621,
        0.00595,
        0.006336,
        0.006772,
        0.007248,
        0.007755,
        0.008283,
        0.008823,
        0.009366,
        0.0099,
        0.010418,
        0.010909,
        0.011366,
        0.011786,
        0.012171,
        0.01252,
        0.012835,
        0.013114,
        0.013358,
        0.013568,
        0.013743,
        0.013884,
        0.013993,
        0.014077,
        0.014144,
        0.014203,
        0.014263,
        0.014332,
        0.014419,
        0.014533,
        0.014683,
        0.014876,
        0.015118,
        0.015395,
        0.015691,
        0.015989,
        0.016272,
        0.016522,
        0.016723,
        0.016857,
        0.016909,
        0.01686,
        0.016706,
        0.016494,
        0.016284,
        0.016134,
        0.016105,
        0.016255,
        0.016643,
        0.01733,
        0.018374,
        0.019835,
        0.021751,
        0.024077,
        0.026749,
        0.029699,
        0.032863,
        0.036175,
        0.039569,
        0.042979,
        0.04634,
        0.049587,
        0.052656,
        0.055498,
        0.058066,
        0.060314,
        0.062195,
        0.063663,
        0.06467,
        0.06517,
        0.065116,
        0.064463,
        0.063194,
        0.061424,
        0.059297,
        0.056959,
        0.054554,
        0.052228,
        0.050126,
        0.048392,
        0.047172,
        0.046612,
        0.046815,
        0.047729,
        0.049261,
        0.051316,
        0.053802,
        0.056625,
        0.059692,
        0.06291,
        0.066184,
        0.069421,
        0.072544,
        0.075534,
        0.078386,
        0.081098,
        0.083666,
        0.086086,
        0.088354,
        0.090468,
        0.092422,
        0.094215,
        0.095848,
        0.097352,
        0.098763,
        0.100117,
        0.101451,
        0.102801,
        0.104204,
        0.105696,
        0.107312,
        0.109091,
        0.111049,
        0.117886,
        0.129251,
        0.135478,
        0.133404,
        0.127859,
        0.124627,
        0.125327,
        0.129651,
        0.142561,
        0.142928,
        0.135187,
        0.121593,
        0.108585,
        0.102814,
        0.107593,
        0.122976,
        0.139333,
        0.1483,
        0.156263,
        0.169281,
        0.17736,
        0.171677,
        0.164143,
        0.167407,
        0.176333,
        0.183428,
        0.189554,
        0.195686,
        0.194885,
        0.182256,
        0.168968,
        0.166142,
        0.168619,
        0.169101,
        0.167998,
        0.167232,
        0.16705,
        0.166804,
        0.163929,
        0.156725,
        0.148854,
        0.144847,
        0.147343,
        0.157163,
        0.169765,
        0.180099,
        0.186452,
        0.188666,
        0.189442,
        0.191313,
        0.193276,
        0.19346,
        0.190081,
        0.182233,
        0.172446,
        0.164183,
        0.161217,
        0.165934,
        0.174858,
        0.183068,
        0.185709,
        0.180274,
        0.173579,
        0.172743,
        0.176778,
        0.183124,
        0.191037,
        0.200203,
        0.2102,
        0.219023,
        0.218415,
        0.203771,
        0.191328,
        0.196581,
        0.211208,
        0.222332,
        0.222676,
        0.209263,
        0.190733,
        0.176271,
        0.165633,
        0.156529,
        0.147926,
        0.141111,
        0.145389,
        0.16739,
        0.195028,
        0.213907,
        0.21911,
        0.21183,
        0.208217,
        0.221659,
        0.239535,
        0.24704,
        0.246652,
        0.245519,
        0.252176,
        0.271801,
        0.294748,
        0.309732,
        0.313729,
        0.307298,
        0.297052,
        0.290072,
        0.289243,
        0.294504,
        0.298193,
        0.293054,
        0.28105,
        0.266553,
        0.25436,
        0.246623,
        0.234503,
        0.211144,
        0.188644,
        0.180204,
        0.184492,
        0.196906,
        0.214308,
        0.233902,
        0.25281,
        0.268425,
        0.279323,
        0.283712,
        0.277163,
        0.258061,
        0.2387,
        0.230358,
        0.226346,
        0.216929,
        0.198138,
        0.170379,
        0.145784,
        0.135887,
        0.13811,
        0.146396,
        0.154874,
        0.158826,
        0.157942,
        0.154108,
        0.15357,
        0.161569,
        0.174972,
        0.19053,
        0.212901,
        0.245367,
        0.277812,
        0.29928,
        0.308843,
        0.293386,
        0.287625,
        0.272099,
        0.244313,
        0.207922,
        0.178908,
        0.175388,
        0.199465,
        0.239915,
        0.273512,
        0.279145,
        0.263767,
        0.249557,
        0.256591,
        0.297437,
        0.361216,
        0.425363,
        0.475777,
        0.506186,
        0.520412,
        0.528744,
        0.537392,
        0.547518,
        0.557755,
        0.563885,
        0.560967,
        0.549051,
        0.535892,
        0.528824,
        0.525975,
        0.521679,
        0.514381,
        0.506728,
        0.505137,
        0.516107,
        0.537694,
        0.561329,
        0.578568,
        0.583092,
        0.575485,
        0.562746,
        0.551362,
        0.544608,
        0.54217,
        0.540019,
        0.534667,
        0.526329,
        0.51667,
        0.508531,
        0.506666,
        0.511449,
        0.514733,
        0.51064,
        0.504109,
        0.502284,
        0.507015,
        0.516117,
        0.525778,
        0.534198,
        0.543332,
        0.556173,
        0.571961,
        0.586015,
        0.594576,
        0.596834,
        0.597263,
        0.603305,
        0.615018,
        0.62703,
        0.636698,
        0.640341,
        0.633958,
        0.62071,
        0.607844,
        0.600037,
        0.596052,
        0.587243,
        0.562942,
        0.524565,
        0.498926,
        0.513561,
        0.562143,
        0.622687,
        0.675322,
        0.705101,
        0.717206,
        0.72534,
        0.731886,
        0.736743,
        0.744443,
        0.754714,
        0.759364,
        0.751405,
        0.729464,
        0.698359,
        0.673074,
        0.666103,
        0.674477,
        0.690792,
        0.709353,
        0.725905,
        0.741488,
        0.757331,
        0.769252,
        0.775221,
        0.781809,
        0.793931,
        0.804373,
        0.803775,
        0.79329,
        0.780889,
        0.778721,
        0.796284,
        0.826395,
        0.853927,
        0.869555,
        0.872021,
        0.873434,
        0.888836,
        0.916833,
        0.943714,
        0.954153,
        0.938021,
        0.902033,
        0.865271,
        0.844614,
        0.84706,
        0.866375,
        0.88865,
        0.901577,
        0.90211,
        0.897171,
        0.894707,
        0.897523,
        0.902832,
        0.905924,
        0.904323,
        0.899224,
        0.89514,
        0.899024,
        0.915654,
        0.940337,
        0.964102,
        0.981459,
        0.986573,
        0.972893,
        0.942744,
        0.913143,
        0.899953,
        0.900053,
        0.901777,
        0.90058,
        0.897741,
        0.897748,
        0.905151,
        0.915216,
        0.918362,
        0.912577,
        0.901879,
        0.893308,
        0.894753,
        0.906944,
        0.923264,
        0.935322,
        0.938699,
        0.938831,
        0.944262,
        0.955867,
        0.968224,
        0.973658,
        0.967954,
        0.958517,
        0.9563,
        0.962369,
        0.972843,
        0.985152,
        0.995671,
        1.001171,
        1.001782,
        1.000923,
        1.002365,
        1.006602,
        1.011285,
        1.013546,
        1.011504,
        1.005606,
        0.997651,
        0.987454,
        0.972828,
        0.9529,
        0.928758,
        0.906132,
        0.893726,
        0.895543,
        0.910447,
        0.93264,
        0.95364,
        0.968728,
        0.977213,
        0.976892,
        0.967375,
        0.956432,
        0.950406,
        0.947788,
        0.947827,
        0.953825,
        0.96778,
        0.985496,
        1.000294,
        1.008285,
        1.008345,
        1.003235,
        0.996175,
        0.985962,
        0.972084,
        0.959197,
        0.951134,
        0.946466,
        0.941332,
        0.932802,
        0.921776,
        0.914079,
        0.915056,
        0.923974,
        0.935251,
        0.942567,
        0.943786,
        0.942376,
        0.944087,
        0.952934,
        0.965974,
        0.97283,
        0.966388,
        0.952529,
        0.942474,
        0.941012,
        0.946505,
        0.954192,
        0.958742,
        0.958997,
        0.957717,
        0.955345,
        0.95044,
        0.942642,
        0.931634,
        0.919967,
        0.91223,
        0.909767,
        0.910492,
        0.907434,
        0.893483,
        0.871781,
        0.850633,
        0.837256,
        0.837605,
        0.85093,
        0.871198,
        0.891498,
        0.90598,
        0.913053,
        0.915506,
        0.918168,
        0.92389,
        0.931701,
        0.939451,
        0.947411,
        0.957286,
        0.966073,
        0.967873,
        0.95851,
        0.936682,
        0.910475,
        0.893877,
        0.897912,
        0.925102,
        0.960933,
        0.986909,
        0.998673,
        1.001777,
        1.005332,
        1.014998,
        1.023914,
        1.020318,
        1.002171,
        0.977359,
        0.959212,
        0.959661,
        0.978271,
        1.003603,
        1.022678,
        1.028204,
        1.0214,
        1.010576,
        1.006675,
        1.012014,
        1.016099,
        1.008025,
        0.986745,
        0.960426,
        0.943639,
        0.946088,
        0.962958,
        0.982901,
        0.994352,
        0.99192,
        0.984996,
        0.985034,
        0.991984,
        1.001287,
        1.009471,
        1.012726,
        1.008537,
        0.997681,
        0.984816,
        0.975906,
        0.974414,
        0.980061,
        0.989382,
        0.997594,
        0.999847,
        0.995158,
        0.98904,
        0.986792,
        0.988108,
        0.990573,
        0.993581,
        0.998071,
        1.004705,
        1.013184,
        1.022063,
        1.028446,
        1.028318,
        1.020431,
        1.01084,
        1.00502,
        0.99857,
        0.98745,
        0.978087,
        0.977586,
        0.985429,
        0.996854,
        1.006444,
        1.010587,
        1.007734,
        1.000813,
        0.999651,
        1.008782,
        1.017775,
        1.015598,
        1.004681,
        0.993679,
        0.986199,
        0.983695,
        0.992301,
        1.011816,
        1.024967,
        1.018803,
        1.002788,
        0.990241,
        0.981881,
        0.975704,
        0.978385,
        0.995049,
        1.016726,
        1.032344,
        1.039242,
        1.037401,
        1.028357,
        1.016495,
        1.006976,
        1.003633,
        1.00658,
        1.012118,
        1.015435,
        1.013581,
        1.007241,
        1.000277,
        0.997339,
        1.000886,
        1.010196,
        1.022279,
        1.033417,
        1.041785,
        1.04769,
        1.05198,
        1.054919,
        1.054896,
        1.049878,
        1.0399,
        1.027876,
        1.018561,
        1.014703,
        1.014352,
        1.012216,
        1.002654,
        0.984773,
        0.964573,
        0.950927,
        0.950851,
        0.965018,
        0.987037,
        1.007637,
        1.020349,
        1.024248,
        1.022684,
        1.020177,
        1.018823,
        1.018013,
        1.016815,
        1.015708,
        1.016475,
        1.020339,
        1.026156,
        1.030472,
        1.030368,
        1.025643,
        1.0188,
        1.013429,
        1.0111,
        1.01047,
        1.0035,
        1.001577,
        0.999475,
        0.989434,
        0.992753,
        1.02002,
        1.040973,
        1.038143,
        1.053799,
        1.041169,
        1.03327,
        1.024127,
        1.020552,
        1.031447,
        1.025614,
        1.01661,
        1.004488,
        0.993462,
        0.996795,
        1.001154,
        0.993927,
        1.003394,
        1.009339,
        1.000854,
        0.994664,
        0.993425,
        0.97903,
        0.983513,
        0.996311,
        0.988002,
        0.98366,
        0.964491,
        0.95605,
        0.965548,
        0.975609,
        0.990908,
        1.000528,
        0.990705,
        1.00708,
        1.015684,
        1.020697,
        1.001774,
        0.977432,
        0.977894,
        0.991113,
        0.973867,
        0.971192,
        0.960204,
        0.953245,
        0.949889,
        0.943394,
        0.955094,
        0.981142,
        0.990132,
        0.9867,
        0.97259,
        0.984013,
        0.996539,
        0.979756,
        0.967534,
        0.976062,
        0.981023,
        0.961382,
        0.963782,
        0.994537,
        0.992976,
        0.98649,
        0.982447,
        0.980812,
        0.987414,
        0.98025,
        0.963461,
        0.974133,
        1.000185,
        1.015629,
        1.01134,
        1.010379,
        1.006087,
        0.998734,
        0.995554,
        0.993301,
        0.989244,
        0.986338,
        0.989172,
        1.001976,
        0.993249,
        0.997642,
        1.001424,
        0.996641,
        0.978293,
        0.978801,
        0.979975,
        0.979284,
        0.982735,
        0.973623,
        0.966874,
        0.958466,
        0.948302,
        0.92702,
        0.947096,
        0.972582,
        0.982657,
        0.974382,
        0.976819,
        0.973674,
        0.974349,
        0.982393,
        0.991108,
        0.981367,
        0.956911,
        0.931786,
        0.884915,
        0.879789,
        0.925071,
        0.943414,
        0.961506,
        0.961912,
        0.95464,
        0.951523,
        0.962255,
        0.971577,
        0.972056,
        0.984241,
        0.987765,
        0.978998,
        0.96214,
        0.964374,
        0.973644,
        0.971936,
        0.975921,
        0.985441,
        0.969186,
        0.950904,
        0.95684,
        0.960745,
        0.969804,
        0.982015,
        0.995028,
        0.982595,
        0.974565,
        0.971139,
        0.964152,
        0.943673,
        0.950077,
        0.97153,
        0.971764,
        0.968409,
        0.962588,
        0.957032,
        0.950514,
        0.946337,
        0.96309,
        0.968579,
        0.96585,
        0.977516,
        0.980178,
        0.964296,
        0.966751,
        0.969513,
        0.965536,
        0.957498,
        0.967379,
        0.966893,
        0.967221,
        0.967496,
        0.968951,
        0.966203,
        0.961042,
        0.957755,
        0.957398,
        0.959459,
        0.96056,
        0.957618,
        0.951204,
        0.94572,
        0.944676,
        0.949002,
        0.955617,
        0.95974,
        0.958327,
        0.952492,
        0.946208,
        0.943349,
        0.944557,
        0.946006,
        0.944784,
        0.940167,
        0.934539,
        0.931068,
        0.93174,
        0.936009,
        0.939982,
        0.940513,
        0.937624,
        0.922524,
        0.906919,
        0.920868,
        0.922162,
        0.919605,
        0.912439,
        0.914965,
        0.918287,
        0.906966,
        0.910493,
        0.906084,
        0.914583,
        0.915194,
        0.925327,
        0.936422,
        0.933194,
        0.927076,
        0.926413,
        0.922164,
        0.924179,
        0.935278,
        0.93566,
        0.919655,
        0.911133,
        0.909618,
        0.910561,
        0.90635,
        0.912965,
        0.910929,
        0.909683,
        0.904494,
        0.897711,
        0.9066,
        0.903463,
        0.903149,
        0.899184,
        0.906958,
        0.903482,
        0.895886,
        0.894658,
        0.886769,
        0.879454,
        0.864303,
        0.857576,
        0.86155,
        0.861264,
        0.853338,
        0.861174,
        0.871876,
        0.883567,
        0.889724,
        0.896365,
        0.889642,
        0.879395,
        0.874875,
        0.874358,
        0.879035,
        0.879565,
        0.880906,
        0.888956,
        0.875136,
        0.864723,
        0.847811,
        0.834501,
        0.849403,
        0.857563,
        0.859336,
        0.859614,
        0.869636,
        0.871858,
        0.872589,
        0.871102,
        0.881301,
        0.893081,
        0.880589,
        0.870771,
        0.864362,
        0.871378,
        0.876037,
        0.88047,
        0.887502,
        0.881926,
        0.858125,
        0.847253,
        0.855444,
        0.853656,
        0.858573,
        0.852454,
        0.846736,
        0.846322,
        0.864416,
        0.879974,
        0.88793,
        0.886246,
        0.877435,
        0.876689,
        0.874963,
        0.864866,
        0.868976,
        0.878546,
        0.870829,
        0.870984,
        0.868058,
        0.861092,
        0.855712,
        0.869647,
        0.874931,
        0.87801,
        0.885226,
        0.886604,
        0.876745,
        0.876293,
        0.887129,
        0.890592,
        0.8896,
        0.885718,
        0.884738,
        0.883283,
        0.882217,
        0.881129,
        0.879981,
        0.87907,
        0.87822,
        0.877191,
        0.876227,
        0.875608,
        0.874877,
        0.873946,
        0.872947,
        0.871961,
        0.870979,
        0.87,
        0.869022,
        0.868045,
        0.867068,
        0.866089,
        0.865109,
        0.864128,
        0.86315,
        0.86213,
        0.860943,
        0.859843,
        0.859108,
        0.858668,
        0.85765,
        0.85648,
        0.855259,
        0.854142,
        0.853151,
        0.852226,
        0.85125,
        0.851831,
        0.855148,
        0.851885,
        0.845267,
        0.847651,
        0.870637,
        0.876297,
        0.872287,
        0.857023,
        0.842754,
        0.837741,
        0.843817,
        0.857184,
        0.864705,
        0.868312,
        0.859731,
        0.839651,
        0.839664,
        0.844439,
        0.850853,
        0.846827,
        0.842276,
        0.853295,
        0.857831,
        0.859487,
        0.8561,
        0.857382,
        0.848426,
        0.841433,
        0.836933,
        0.839821,
        0.841137,
        0.834111,
        0.813111,
        0.803684,
        0.803543,
        0.807224,
        0.808915,
        0.815333,
        0.808939,
        0.796268,
        0.784455,
        0.778363,
        0.779521,
        0.791134,
        0.795386,
        0.79864,
        0.793278,
        0.79474,
        0.801325,
        0.803443,
        0.81016,
        0.807861,
        0.797189,
        0.786364,
        0.792379,
        0.790405,
        0.797065,
        0.79771,
        0.789365,
        0.78808,
        0.797495,
        0.790837,
        0.779939,
        0.779367,
        0.790312,
        0.797738,
        0.784537,
        0.777344,
        0.771646,
        0.770591,
        0.766094,
        0.763448,
        0.755269,
        0.759403,
        0.759331,
        0.758484,
        0.755911,
        0.763475,
        0.771775,
        0.770071,
        0.767787,
        0.767409,
        0.765038,
        0.763747,
        0.768449,
        0.763355,
        0.756593,
        0.764584,
        0.763535,
        0.754279,
        0.746701,
        0.753418,
        0.750801,
        0.755145,
        0.765214,
        0.766036,
        0.767931,
        0.760966,
        0.752333,
        0.74147,
        0.757235,
        0.770403,
        0.777163,
        0.781904,
        0.772963,
        0.776641,
        0.780241,
        0.769962,
        0.763835,
        0.773653,
        0.774454,
        0.770753,
        0.764387,
        0.75997,
        0.756029,
        0.753313,
        0.758632,
        0.7508,
        0.747659,
        0.742028,
        0.740414,
        0.739603,
        0.744575,
        0.745703,
        0.749767,
        0.746651,
        0.744748,
        0.74906,
        0.754218,
        0.75106,
        0.743331,
        0.746214,
        0.753266,
        0.750546,
        0.748257,
        0.745828,
        0.739709,
        0.741405,
        0.73579,
        0.730816,
        0.727596,
        0.734609,
        0.744611,
        0.757624,
        0.764794,
        0.764622,
        0.752932,
        0.750264,
        0.755907,
        0.760128,
        0.757476,
        0.745,
        0.701348,
        0.668277,
        0.700576,
        0.723596,
        0.72681,
        0.732654,
        0.723915,
        0.686053,
        0.638379,
        0.569176,
        0.569966,
        0.647929,
        0.698342,
        0.719413,
        0.728865,
        0.725152,
        0.719046,
        0.717771,
        0.715837,
        0.714319,
        0.713399,
        0.710225,
        0.705331,
        0.697727,
        0.698237,
        0.699927,
        0.707238,
        0.717307,
        0.728487,
        0.733,
        0.723758,
        0.694829,
        0.658871,
        0.60087,
        0.594038,
        0.655317,
        0.682736,
        0.712872,
        0.719174,
        0.711158,
        0.71826,
        0.715665,
        0.721603,
        0.724053,
        0.727757,
        0.732894,
        0.723074,
        0.720738,
        0.715729,
        0.71154,
        0.715684,
        0.710767,
        0.704446,
        0.703654,
        0.699092,
        0.696216,
        0.701702,
        0.705426,
        0.703787,
        0.698593,
        0.6944,
        0.700211,
        0.688463,
        0.693967,
        0.714267,
        0.717137,
        0.711424,
        0.717718,
        0.712832,
        0.713853,
        0.721021,
        0.718232,
        0.710403,
        0.701084,
        0.691629,
        0.69028,
        0.692959,
        0.688962,
        0.694943,
        0.696145,
        0.699642,
        0.703087,
        0.708057,
        0.707241,
        0.712206,
        0.707827,
        0.702828,
        0.702017,
        0.703167,
        0.697988,
        0.688052,
        0.692813,
        0.699172,
        0.699642,
        0.692828,
        0.692604,
        0.691695,
        0.689712,
        0.682179,
        0.677379,
        0.689548,
        0.684811,
        0.684772,
        0.678826,
        0.676496,
        0.68466,
        0.689227,
        0.702551,
        0.709719,
        0.712404,
        0.708946,
        0.702576,
        0.693175,
        0.687663,
        0.683372,
        0.674251,
        0.672313,
        0.667312,
        0.662803,
        0.659333,
        0.663933,
        0.66279,
        0.660991,
        0.659869,
        0.654906,
        0.652139,
        0.654126,
        0.649398,
        0.642663,
        0.637379,
        0.634016,
        0.632325,
        0.630957,
        0.637775,
        0.637844,
        0.628171,
        0.628427,
        0.63769,
        0.643633,
        0.642943,
        0.64543,
        0.644267,
        0.644492,
        0.636857,
        0.636307,
        0.645107,
        0.646647,
        0.642699,
        0.639004,
        0.632103,
        0.623363,
        0.617755,
        0.616332,
        0.622809,
        0.632302,
        0.64578,
        0.652837,
        0.647205,
        0.649862,
        0.642211,
        0.633802,
        0.62689,
        0.615647,
        0.606248,
        0.588572,
        0.583471,
        0.577692,
        0.583564,
        0.573827,
        0.57111,
        0.57665,
        0.596524,
        0.581315,
        0.602544,
        0.608809,
        0.609643,
        0.62387,
        0.633782,
        0.655703,
        0.674454,
        0.682176,
        0.671029,
        0.648373,
        0.619556,
        0.607673,
        0.592155,
        0.570793,
        0.561725,
        0.573141,
        0.551693,
        0.575415,
        0.587674,
        0.587382,
        0.586988,
        0.605779,
        0.61117,
        0.603205,
        0.59063,
        0.60753,
        0.6029,
        0.5835,
        0.581892,
        0.610472,
        0.631047,
        0.625906,
        0.626919,
        0.639091,
        0.652674,
        0.642875,
        0.633323,
        0.613282,
        0.611235,
        0.588537,
        0.609257,
        0.596533,
        0.605742,
        0.610944,
        0.602547,
        0.59076,
        0.591966,
        0.595025,
        0.602911,
        0.605005,
        0.611412,
        0.624271,
        0.612623,
        0.61929,
        0.617946,
        0.609469,
        0.612062,
        0.605623,
        0.609899,
        0.60962,
        0.609639,
        0.615039,
        0.618251,
        0.610975,
        0.60402,
        0.607093,
        0.604135,
        0.606668,
        0.598339,
        0.607892,
        0.614684,
        0.617229,
        0.619542,
        0.619711,
        0.607729,
        0.59874,
        0.595012,
        0.589908,
        0.578412,
        0.584423,
        0.588616,
        0.590116,
        0.593296,
        0.595678,
        0.602578,
        0.596649,
        0.60065,
        0.610177,
        0.618222,
        0.608523,
        0.614736,
        0.601978,
        0.592576,
        0.593977,
        0.591837,
        0.592752,
        0.599148,
        0.596069,
        0.601075,
        0.585099,
        0.579972,
        0.586983,
        0.585633,
        0.583003,
        0.59038,
        0.595812,
        0.599742,
        0.596297,
        0.609788,
        0.608782,
        0.619896,
        0.606141,
        0.610623,
        0.604932,
        0.604605,
        0.611948,
        0.594353,
        0.60099,
        0.594898,
        0.606928,
        0.594396,
        0.609696,
        0.610948,
        0.620297,
        0.608268,
        0.596074,
        0.58659,
        0.590072,
        0.616287,
        0.61461,
        0.611523,
        0.608121,
        0.6055,
        0.604431,
        0.604374,
        0.604461,
        0.603827,
        0.601917,
        0.599431,
        0.597383,
        0.596785,
        0.59825,
        0.600787,
        0.603003,
        0.603506,
        0.60131,
        0.597046,
        0.591754,
        0.586471,
        0.58205,
        0.578602,
        0.576054,
        0.574333,
        0.573334,
        0.572839,
        0.572599,
        0.572364,
        0.571944,
        0.571373,
        0.570742,
        0.570142,
        0.569584,
        0.568753,
        0.567254,
        0.564689,
        0.560912,
        0.556772,
        0.553364,
        0.551786,
        0.552729,
        0.555272,
        0.558086,
        0.559843,
        0.559569,
        0.557702,
        0.555031,
        0.552349,
        0.550274,
        0.548742,
        0.547521,
        0.546375,
        0.545138,
        0.54391,
        0.542859,
        0.542153,
        0.541912,
        0.542061,
        0.542476,
        0.543035,
        0.54701,
        0.54686,
        0.546327,
        0.545214,
        0.543468,
        0.541605,
        0.540283,
        0.54016,
        0.541635,
        0.544062,
        0.546538,
        0.548157,
        0.548258,
        0.547166,
        0.545449,
        0.543676,
        0.542329,
        0.54154,
        0.541357,
        0.541827,
        0.542922,
        0.544326,
        0.545649,
        0.5465,
        0.546553,
        0.545741,
        0.544061,
        0.54151,
        0.538215,
        0.53483,
        0.532142,
        0.530934,
        0.531703,
        0.53379,
        0.536246,
        0.53812,
        0.538719,
        0.538359,
        0.537609,
        0.537041
      ],
      "range":1
    }
  }
]
