[
  {
    "model":"Nikon D100",
    "name":"Nikon D100 LPF",
    "type":"OSC_LPF",
    "dataQualityMarker":3,
    "dataSource":"SVO Filter Profile Service",
    "manufacturer":"Nikon",
    "version":1,
    "wavelength":{
      "value":[
        3095.0,
        3122.392,
        3149.7839,
        3177.1759,
        3204.5678,
        3231.9598,
        3259.3518,
        3286.7437,
        3314.1357,
        3341.5276,
        3368.9196,
        3396.3116,
        3423.7035,
        3451.0955,
        3478.4874,
        3505.8794,
        3533.2714,
        3560.6633,
        3588.0553,
        3615.4472,
        3642.8392,
        3670.2312,
        3697.6231,
        3725.0151,
        3752.407,
        3779.799,
        3807.191,
        3834.5829,
        3861.9749,
        3889.3668,
        3916.7588,
        3944.1508,
        3971.5427,
        3998.9347,
        4026.3266,
        4053.7186,
        4081.1106,
        4108.5025,
        4135.8945,
        4163.2864,
        4190.6784,
        4218.0704,
        4245.4623,
        4272.8543,
        4300.2462,
        4327.6382,
        4355.0302,
        4382.4221,
        4409.8141,
        4437.206,
        4464.598,
        4491.9899,
        4519.3819,
        4546.7739,
        4574.1658,
        4601.5578,
        4628.9497,
        4656.3417,
        4683.7337,
        4711.1256,
        4738.5176,
        4765.9095,
        4793.3015,
        4820.6935,
        4848.0854,
        4875.4774,
        4902.8693,
        4930.2613,
        4957.6533,
        4985.0452,
        5012.4372,
        5039.8291,
        5067.2211,
        5094.6131,
        5122.005,
        5149.397,
        5176.7889,
        5204.1809,
        5231.5729,
        5258.9648,
        5286.3568,
        5313.7487,
        5341.1407,
        5368.5327,
        5395.9246,
        5423.3166,
        5450.7085,
        5478.1005,
        5505.4925,
        5532.8844,
        5560.2764,
        5587.6683,
        5615.0603,
        5642.4523,
        5669.8442,
        5697.2362,
        5724.6281,
        5752.0201,
        5779.4121,
        5806.804,
        5834.196,
        5861.5879,
        5888.9799,
        5916.3719,
        5943.7638,
        5971.1558,
        5998.5477,
        6025.9397,
        6053.3317,
        6080.7236,
        6108.1156,
        6135.5075,
        6162.8995,
        6190.2915,
        6217.6834,
        6245.0754,
        6272.4673,
        6299.8593,
        6327.2513,
        6354.6432,
        6382.0352,
        6409.4271,
        6436.8191,
        6464.2111,
        6491.603,
        6518.995,
        6546.3869,
        6573.7789,
        6601.1709,
        6628.5628,
        6655.9548,
        6683.3467,
        6710.7387,
        6738.1307,
        6765.5226,
        6792.9146,
        6820.3065,
        6847.6985,
        6875.0905,
        6902.4824,
        6929.8744,
        6957.2663,
        6984.6583,
        7012.0503,
        7039.4422,
        7066.8342,
        7094.2261,
        7121.6181,
        7149.0101,
        7176.402,
        7203.794,
        7231.1859,
        7258.5779,
        7285.9698,
        7313.3618,
        7340.7538,
        7368.1457,
        7395.5377,
        7422.9296,
        7450.3216,
        7477.7136,
        7505.1055,
        7532.4975,
        7559.8894,
        7587.2814,
        7614.6734,
        7642.0653,
        7669.4573,
        7696.8492,
        7724.2412,
        7751.6332,
        7779.0251,
        7806.4171,
        7833.809,
        7861.201,
        7888.593,
        7915.9849,
        7943.3769,
        7970.7688,
        7998.1608,
        8025.5528,
        8052.9447,
        8080.3367,
        8107.7286,
        8135.1206,
        8162.5126,
        8189.9045,
        8217.2965,
        8244.6884,
        8272.0804,
        8299.4724,
        8326.8643,
        8354.2563,
        8381.6482,
        8409.0402,
        8436.4322,
        8463.8241,
        8491.2161,
        8518.608,
        8546.0
      ],
      "units":"angstrom"
    },
    "values":{
      "value":[
        0.0083817186,
        0.010156431,
        0.011868226,
        0.013721494,
        0.016264863,
        0.02009103,
        0.026193957,
        0.035438019,
        0.048393489,
        0.066353231,
        0.090450172,
        0.11971815,
        0.15253827,
        0.18908398,
        0.22982815,
        0.27268079,
        0.31322065,
        0.3478499,
        0.37661649,
        0.40250268,
        0.42860371,
        0.456508,
        0.48588316,
        0.51472794,
        0.54067457,
        0.5628816,
        0.58239133,
        0.60025353,
        0.61653705,
        0.63133864,
        0.64512345,
        0.65802789,
        0.6698881,
        0.68076303,
        0.69082203,
        0.69999311,
        0.70832596,
        0.71634176,
        0.72445859,
        0.73263293,
        0.74071491,
        0.74857311,
        0.75594273,
        0.76254744,
        0.76843697,
        0.77398512,
        0.7795215,
        0.78512749,
        0.79065977,
        0.79574589,
        0.80001484,
        0.80354724,
        0.80671054,
        0.80961971,
        0.81222192,
        0.81462582,
        0.81704012,
        0.81961244,
        0.82238578,
        0.82529469,
        0.82822845,
        0.83111872,
        0.83394255,
        0.83661434,
        0.83885025,
        0.84029924,
        0.84093026,
        0.84108495,
        0.84109993,
        0.8411,
        0.8411,
        0.8411,
        0.8411,
        0.8411,
        0.8411,
        0.84109948,
        0.84107111,
        0.8408032,
        0.83967965,
        0.83694203,
        0.83246911,
        0.82697438,
        0.82128497,
        0.81577168,
        0.81043863,
        0.80516828,
        0.79977768,
        0.79411412,
        0.78802689,
        0.78081928,
        0.77139852,
        0.75967112,
        0.74684999,
        0.73413808,
        0.72198328,
        0.710236,
        0.69819881,
        0.68492223,
        0.67008974,
        0.65407572,
        0.6368201,
        0.61780063,
        0.59746099,
        0.57737608,
        0.55855308,
        0.5405947,
        0.52257222,
        0.50353027,
        0.48260177,
        0.45979349,
        0.43607254,
        0.41234082,
        0.38894654,
        0.36595069,
        0.34351113,
        0.32207527,
        0.3019109,
        0.28270798,
        0.26411153,
        0.24614571,
        0.22889151,
        0.21241511,
        0.19724219,
        0.18412927,
        0.17280861,
        0.16166034,
        0.14932917,
        0.13597743,
        0.1227305,
        0.11098822,
        0.10187896,
        0.095302875,
        0.090008904,
        0.084800632,
        0.079213155,
        0.073352923,
        0.067503409,
        0.061840709,
        0.056417395,
        0.051283835,
        0.046554356,
        0.042391873,
        0.038830768,
        0.035668196,
        0.032731141,
        0.030053195,
        0.027664343,
        0.025543903,
        0.023843843,
        0.022804047,
        0.022392103,
        0.022305883,
        0.022300002,
        0.02229846,
        0.022257141,
        0.022024468,
        0.021387342,
        0.020311314,
        0.019050564,
        0.017985238,
        0.01736264,
        0.017118051,
        0.016918153,
        0.016393138,
        0.015405835,
        0.01414978,
        0.012985967,
        0.012211787,
        0.011879763,
        0.011805209,
        0.011800001,
        0.0118,
        0.0118,
        0.0118,
        0.0118,
        0.0118,
        0.0118,
        0.0118,
        0.0118,
        0.0118,
        0.0118,
        0.0118,
        0.0118,
        0.0118,
        0.0118,
        0.0118,
        0.0118,
        0.0118,
        0.011800027,
        0.011801509,
        0.011810926,
        0.011835385,
        0.011867772,
        0.011890699,
        0.011898855,
        0.011899988,
        0.0119,
        0.0119,
        0.0119,
        0.0119
      ],
      "range":1
    }
  }
]
