[
    {
        "model": "Optolong Optolong CLS-CCD",
        "name": "Optolong Optolong CLS-CCD",
        "type": "OSC_FILTER",
        "dataQualityMarker": 2,
        "dataSource": "Scanned from Transmission Chart",
        "manufacturer": "Optolong",
        "version": 1,
        "wavelength": {
            "value": [
                403.283249860879,
                405.954368391764,
                409.070673344463,
                449.137451307735,
                452.253756260434,
                454.034501947691,
                454.479688369505,
                455.370061213133,
                456.260434056761,
                457.595993322204,
                458.486366165832,
                458.931552587646,
                459.821925431274,
                461.157484696717,
                462.047857540345,
                463.383416805787,
                465.609348914858,
                467.390094602115,
                470.506399554814,
                473.177518085698,
                474.067890929327,
                476.293823038397,
                477.62938230384,
                478.519755147468,
                479.85531441291,
                480.300500834725,
                481.190873678353,
                482.971619365609,
                484.752365052866,
                487.423483583751,
                489.204229271007,
                490.094602114636,
                491.430161380078,
                492.76572064552,
                493.210907067334,
                494.101279910963,
                494.546466332777,
                495.436839176405,
                496.327212020033,
                497.217584863662,
                498.10795770729,
                500.333889816361,
                502.114635503617,
                503.005008347245,
                505.230940456316,
                506.566499721759,
                509.237618252643,
                512.353923205342,
                513.244296048971,
                514.579855314413,
                515.915414579855,
                516.36060100167,
                517.250973845298,
                518.141346688926,
                519.476905954368,
                519.922092376183,
                520.812465219811,
                521.702838063439,
                522.593210907067,
                523.92877017251,
                524.819143016138,
                525.709515859766,
                526.15470228158,
                527.045075125209,
                527.490261547023,
                529.716193656094,
                530.606566499722,
                531.49693934335,
                532.832498608792,
                535.503617139677,
                539.510294936005,
                616.52754590985,
                622.314969393434,
                624.986087924318,
                626.321647189761,
                628.992765720646,
                629.883138564274,
                631.218697829716,
                632.554257095159,
                632.999443516973,
                633.889816360601,
                634.335002782415,
                635.670562047858,
                636.560934891486,
                637.896494156928,
                638.341680578742,
                639.232053422371,
                640.122426265999,
                641.457985531441,
                642.793544796884,
                644.129104062326,
                644.57429048414,
                645.909849749583,
                646.355036171397,
                647.245409015025,
                648.135781858653,
                649.026154702282,
                653.478018920423,
                655.703951029494,
                657.039510294936,
                660.155815247635,
                663.717306622148,
                666.388425153033,
                669.949916527546,
                673.511407902059,
                676.182526432944,
                679.744017807457,
                681.524763494713,
                683.750695603784,
                684.641068447412,
                685.531441291041,
                686.867000556483,
                688.202559821925,
                688.64774624374,
                689.983305509182,
                691.318864774624,
                691.764051196439,
                692.654424040067,
                693.544796883695,
                694.435169727323,
                694.880356149138,
                696.21591541458,
                696.661101836394,
                697.551474680022,
                698.887033945465,
                699.777406789093,
                700.222593210907,
                702.003338898164,
                702.448525319978,
                703.338898163606,
                703.78408458542,
                705.119643850863,
                705.564830272677,
                706.900389538119,
                707.345575959933,
                708.235948803562,
                709.571508069004,
                710.907067334446,
                712.687813021703,
                714.468558708959,
                717.584863661658,
                722.0367278798,
                726.043405676127,
                731.385642737896,
                735.837506956038,
                740.734557595993,
                747.85754034502,
                756.761268781302,
                874.735670562048,
                882.303839732888,
                890.762381747357,
                894.769059543684,
                946.410684474124,
                949.526989426822,
                953.978853644964,
                961.10183639399,
                1026.54424040067,
                1030.550918197,
                1035.44796883695,
                1037.22871452421,
                1039.45464663328,
                1043.90651085142,
                1046.5776293823,
                1052.8102392877,
                1063.04952698943,
                1071.06288258208,
                1084.86366165832,
                1090.6510851419,
                1094.65776293823,
                1098.21925431274
            ],
            "units": "nm"
        },
        "values": {
            "value": [
                0.184842883548983,
                0.55452865064695,
                0.184842883548983,
                0.462107208872458,
                1.75600739371534,
                3.69685767097967,
                10.1663585951941,
                19.1312384473198,
                32.8096118299446,
                49.815157116451,
                66.913123844732,
                81.1460258780037,
                86.6913123844732,
                88.909426987061,
                90.8502772643253,
                93.2532347504621,
                92.2365988909427,
                92.9759704251386,
                93.3456561922366,
                92.8835489833642,
                92.2365988909427,
                93.1608133086876,
                91.7744916820703,
                92.6062846580407,
                93.3456561922366,
                93.992606284658,
                94.6395563770795,
                95.1016635859519,
                95.4713493530499,
                96.2107208872458,
                95.9334565619224,
                95.5637707948244,
                95.1016635859519,
                94.4547134935305,
                94.0850277264325,
                93.6229205175601,
                93.2532347504621,
                92.7911275415897,
                92.3290203327172,
                92.1441774491682,
                91.8669131238447,
                92.0517560073937,
                92.4214417744917,
                93.1608133086876,
                94.177449168207,
                94.731977818854,
                95.6561922365989,
                95.9334565619224,
                95.2865064695009,
                94.731977818854,
                92.5138632162662,
                89.8336414048059,
                85.8595194085028,
                80.4990757855823,
                73.4750462107209,
                63.8632162661738,
                55.637707948244,
                49.630314232902,
                41.4048059149723,
                31.7929759704251,
                23.4750462107209,
                16.728280961183,
                11.9223659889094,
                8.13308687615527,
                6.83918669131239,
                5.45286506469501,
                3.51201478743068,
                1.94085027726433,
                1.20147874306839,
                0.462107208872458,
                0.277264325323475,
                0.277264325323475,
                0.55452865064695,
                1.01663585951941,
                1.57116451016636,
                2.49537892791128,
                3.14232902033272,
                4.89833641404806,
                6.46950092421442,
                8.31792975970425,
                9.88909426987061,
                11.645101663586,
                13.8632162661738,
                18.9463955637708,
                24.6765249537893,
                31.7929759704251,
                39.9260628465804,
                49.0757855822551,
                58.6876155268022,
                70.0554528650647,
                76.1552680221812,
                83.1792975970425,
                88.2624768946396,
                91.4972273567468,
                93.5304990757856,
                94.6395563770795,
                95.5637707948244,
                95.5637707948244,
                96.1182994454714,
                96.7652495378928,
                97.1349353049908,
                98.1515711645102,
                97.5970425138632,
                97.2273567467653,
                96.9500924214418,
                97.6894639556377,
                97.6894639556377,
                98.2439926062847,
                97.3197781885397,
                96.1182994454714,
                94.6395563770795,
                90.6654343807764,
                89.279112754159,
                86.6913123844732,
                82.0702402957486,
                76.7097966728281,
                71.3493530499076,
                65.5268022181146,
                59.5194085027727,
                54.9907578558226,
                51.9408502772643,
                47.5046210720887,
                41.4972273567468,
                36.1367837338263,
                31.4232902033272,
                26.8946395563771,
                23.2902033271719,
                19.6857670979667,
                17.8373382624769,
                16.358595194085,
                14.7874306839187,
                13.0314232902033,
                11.1829944547135,
                9.70425138632163,
                8.41035120147874,
                7.30129390018484,
                6.28465804066544,
                5.26802218114603,
                4.34380776340111,
                3.41959334565619,
                2.49537892791128,
                1.75600739371534,
                1.20147874306839,
                0.831792975970425,
                0.55452865064695,
                0.369685767097967,
                0.277264325323475,
                0.277264325323475,
                0.277264325323475,
                0.462107208872458,
                0.462107208872458,
                0.184842883548983,
                0.184842883548983,
                0.646950092421442,
                0.739371534195934,
                0.369685767097967,
                0.277264325323475,
                0.831792975970425,
                0.831792975970425,
                0.369685767097967,
                0.924214417744917,
                0.924214417744917,
                0.462107208872458,
                0.462107208872458,
                0.369685767097967,
                0.55452865064695,
                0.369685767097967,
                0.369685767097967,
                0.55452865064695,
                0.646950092421442
            ],
            "range": 100
        }
    }
]