[
  {
    "model": "KAF3200",
    "name": "KAF3200",
    "type": "MONO_SENSOR",
    "dataQualityMarker": 2,
    "dataSource": "Scanned from published QE plot",
    "manufacturer": "Kodak",
    "version": 1,
    "wavelength": { 
       "value":  [377.350585335798,383.073899289887,389.369544639384,396.905241345601,407.15951218001,414.075183207867,433.629839217671,491.244533022164,506.125149302795,514.710120233928,523.772033994568,529.01840511915,534.360164809633,537.603376050283,554.137394139872,564.039635742978,576.440149310171,587.563137441182,598.413586812476,613.318050234582,629.388373906595,638.476784491097,647.777169666491,666.514209397139,683.956690019124,694.75603837297,705.964194866393],
       "units": "nm"
    },
    "values": {
      "value": [0.475167597765363,0.49680625872905,0.519956791201117,0.541689944134078,0.561178912796788,0.567202775837989,0.56828268405826,0.594794430865922,0.62578779678771,0.655552767108939,0.69193217527933,0.712825399596524,0.734264577513967,0.744847678072626,0.78610917132216,0.79425347915004,0.795333387370311,0.791739317824721,0.790203823324022,0.793274812325419,0.797763180865922,0.796936376134777,0.792329892632682,0.763881060454908,0.725139353052674,0.700318337552374,0.679018272811918],
      "range": 1
      }
  }
]
