[
  {
    "model": "Canon EOS 500D",
    "name": "Canon EOS 500D R",
    "type": "OSC_SENSOR",
    "is_dslr": true,
    "dataQualityMarker": 3,
    "dataSource": "SVO Filter Profile Service",
    "manufacturer": "Canon",
    "channel": "RED",
    "version": 1,
    "wavelength": { 
       "value":  [4000,4100,4200,4300,4400,4500,4600,4700,4800,4900,5000,5100,5200,5300,5400,5500,5600,5700,5800,5900,6000,6100,6200,6300,6400,6500,6600,6700,6800,6900,7000,7100,7200],
       "units": "angstrom"
    },
    "values": {
      "value": [0.0047882,0.006503,0.014181,0.0090063,0.0072716,0.008399,0.012928,0.023407,0.042132,0.06015,0.079772,0.11068,0.1296,0.1528,0.17491,0.23995,0.27103,0.35363,0.59207,0.56519,0.50552,0.48372,0.40474,0.35005,0.26818,0.22628,0.17275,0.13367,0.060161,0.012976,0.0026525,0.00064602,0.00064602],
      "range": 1
    }
  },
  {
    "model": "Canon EOS 500D",
    "name": "Canon EOS 500D G",
    "type": "OSC_SENSOR",
    "dataQualityMarker": 3,
    "dataSource": "SVO Filter Profile Service",
    "manufacturer": "Canon",
    "channel": "GREEN",
    "version": 1,
    "wavelength": { 
       "value":  [4000,4100,4200,4300,4400,4500,4600,4700,4800,4900,5000,5100,5200,5300,5400,5500,5600,5700,5800,5900,6000,6100,6200,6300,6400,6500,6600,6700,6800,6900,7000],
       "units": "angstrom"
    },
    "values": {
      "value": [0.0063344,0.01322,0.056945,0.072339,0.10335,0.12163,0.16863,0.33452,0.58549,0.72721,0.82791,0.94525,0.93856,1,0.91351,0.90129,0.74393,0.68775,0.65043,0.45765,0.29386,0.17488,0.10517,0.076,0.053159,0.042043,0.032367,0.029075,0.016249,0.0045584,0.0010866],
      "range": 1
    }
  },
  {
    "model": "Canon EOS 500D",
    "name": "Canon EOS 500D B",
    "type": "OSC_SENSOR",
    "dataQualityMarker": 3,
    "dataSource": "SVO Filter Profile Service",
    "manufacturer": "Canon",
    "channel": "BLUE",
    "version": 1,
"wavelength": { 
       "value":  [4000,4100,4200,4300,4400,4500,4600,4700,4800,4900,5000,5100,5200,5300,5400,5500,5600,5700,5800,5900,6000,6100,6200,6300,6400,6500,6600,6700,6800,6900,7000],
       "units": "angstrom"
    },
    "values": {
      "value": [0.031083,0.094291,0.48083,0.67493,0.76173,0.82236,0.86969,0.84873,0.82207,0.7235,0.58539,0.46393,0.30706,0.23495,0.18321,0.1615,0.11978,0.10939,0.11367,0.087972,0.064425,0.047167,0.034519,0.02963,0.024397,0.023239,0.020503,0.018144,0.009073,0.0022567,0.00049182],
      "range": 1
    }
  }
]
