[
  {
    "model":"Nikon D80",
    "name":"Nikon D80 R",
    "type":"OSC_SENSOR",
    "is_dslr": true,
    "dataQualityMarker":3,
    "dataSource":"SVO Filter Profile Service",
    "channel": "RED",
    "manufacturer":"Nikon",
    "version":1,
    "wavelength":{
      "value":[
        4000.0,
        4100.0,
        4200.0,
        4300.0,
        4400.0,
        4500.0,
        4600.0,
        4700.0,
        4800.0,
        4900.0,
        5000.0,
        5100.0,
        5200.0,
        5300.0,
        5400.0,
        5500.0,
        5600.0,
        5700.0,
        5800.0,
        5900.0,
        6000.0,
        6100.0,
        6200.0,
        6300.0,
        6400.0,
        6500.0,
        6600.0,
        6700.0,
        6800.0,
        6900.0,
        7000.0
      ],
      "units":"angstrom"
    },
    "values":{
      "value":[
        0.00070595,
        0.00452,
        0.030965,
        0.029562,
        0.023743,
        0.020482,
        0.016799,
        0.019393,
        0.022142,
        0.020545,
        0.021532,
        0.029992,
        0.053211,
        0.064737,
        0.029201,
        0.016091,
        0.019404,
        0.077173,
        0.46519,
        0.76703,
        0.68649,
        0.38112,
        0.48641,
        0.40757,
        0.32172,
        0.24689,
        0.13374,
        0.054813,
        0.016354,
        0.003514,
        0.00084611
      ],
      "range":1
    }
  },
  {
    "model":"Nikon D80",
    "name":"Nikon D80 G",
    "type":"OSC_SENSOR",
    "dataQualityMarker":3,
    "dataSource":"SVO Filter Profile Service",
    "channel": "GREEN",
    "manufacturer":"Nikon",
    "version":1,
    "wavelength":{
      "value":[
        4000.0,
        4100.0,
        4200.0,
        4300.0,
        4400.0,
        4500.0,
        4600.0,
        4700.0,
        4800.0,
        4900.0,
        5000.0,
        5100.0,
        5200.0,
        5300.0,
        5400.0,
        5500.0,
        5600.0,
        5700.0,
        5800.0,
        5900.0,
        6000.0,
        6100.0,
        6200.0,
        6300.0,
        6400.0,
        6500.0,
        6600.0,
        6700.0,
        6800.0,
        6900.0
      ],
      "units":"angstrom"
    },
    "values":{
      "value":[
        0.0013331,
        0.0038321,
        0.032529,
        0.052289,
        0.068017,
        0.094502,
        0.13575,
        0.22776,
        0.30571,
        0.34755,
        0.49428,
        0.71777,
        0.87004,
        1.0,
        0.88465,
        0.85631,
        0.683,
        0.55913,
        0.37691,
        0.24388,
        0.11296,
        0.032638,
        0.026543,
        0.018608,
        0.013406,
        0.0098167,
        0.0064142,
        0.0036479,
        0.0017932,
        0.00060155
      ],
      "range":1
    }
  },
  {
    "model":"Nikon D80",
    "name":"Nikon D80 B",
    "type":"OSC_SENSOR",
    "dataQualityMarker":3,
    "dataSource":"SVO Filter Profile Service",
    "manufacturer":"Nikon",
    "channel": "BLUE",
    "version":1,
    "wavelength":{
      "value":[
        4000.0,
        4100.0,
        4200.0,
        4300.0,
        4400.0,
        4500.0,
        4600.0,
        4700.0,
        4800.0,
        4900.0,
        5000.0,
        5100.0,
        5200.0,
        5300.0,
        5400.0,
        5500.0,
        5600.0,
        5700.0,
        5800.0,
        5900.0,
        6000.0,
        6100.0
      ],
      "units":"angstrom"
    },
    "values":{
      "value":[
        0.0035557,
        0.034702,
        0.24276,
        0.48238,
        0.42343,
        0.60914,
        0.80501,
        0.81328,
        0.76022,
        0.58183,
        0.36484,
        0.20447,
        0.080773,
        0.033215,
        0.015199,
        0.0064075,
        0.0022125,
        0.0012051,
        0.0010351,
        0.00042372,
        0.00085722,
        0.00062479
      ],
      "range":1
    }
  }
]
