[
  {
    "model":"Nikon D90",
    "name":"Nikon D90",
    "type":"OSC_SENSOR",
    "is_dslr": true,
    "dataQualityMarker": 3,
    "dataSource": "SVO Filter Profile Service",
    "manufacturer":"Nikon",
    "channel": "RED",
    "version":1,
    "wavelength":{
      "value":[
        4000.0,
        4100.0,
        4200.0,
        4300.0,
        4400.0,
        4500.0,
        4600.0,
        4700.0,
        4800.0,
        4900.0,
        5000.0,
        5100.0,
        5200.0,
        5300.0,
        5400.0,
        5500.0,
        5600.0,
        5700.0,
        5800.0,
        5900.0,
        6000.0,
        6100.0,
        6200.0,
        6300.0,
        6400.0,
        6500.0,
        6600.0,
        6700.0,
        6800.0,
        6900.0,
        7000.0
      ],
      "units":"angstrom"
    },
    "values":{
      "value":[
        0.0028468,
        0.010062,
        0.061123,
        0.064116,
        0.047407,
        0.038726,
        0.034205,
        0.036572,
        0.047892,
        0.042438,
        0.043595,
        0.052616,
        0.077728,
        0.10753,
        0.06105,
        0.032554,
        0.031711,
        0.082284,
        0.38034,
        0.69515,
        0.64866,
        0.58339,
        0.43881,
        0.38277,
        0.27678,
        0.2214,
        0.14436,
        0.065292,
        0.012061,
        0.0023253,
        0.0006623
      ],
      "range":1
    }
  },
  {
    "model":"Nikon D90",
    "name":"Nikon D90",
    "type":"OSC_SENSOR",
    "dataQualityMarker": 3,
    "dataSource": "SVO Filter Profile Service",
    "manufacturer":"Nikon",
    "channel": "GREEN",
    "version":1,
    "wavelength":{
      "value":[
        4000.0,
        4100.0,
        4200.0,
        4300.0,
        4400.0,
        4500.0,
        4600.0,
        4700.0,
        4800.0,
        4900.0,
        5000.0,
        5100.0,
        5200.0,
        5300.0,
        5400.0,
        5500.0,
        5600.0,
        5700.0,
        5800.0,
        5900.0,
        6000.0,
        6100.0,
        6200.0,
        6300.0,
        6400.0,
        6500.0,
        6600.0,
        6700.0,
        6800.0
      ],
      "units":"angstrom"
    },
    "values":{
      "value":[
        0.0021672,
        0.0067144,
        0.05263,
        0.080844,
        0.095359,
        0.11855,
        0.17451,
        0.27748,
        0.3775,
        0.38856,
        0.53093,
        0.77103,
        0.87177,
        1.0,
        0.92027,
        0.862,
        0.69384,
        0.57252,
        0.38985,
        0.26256,
        0.1333,
        0.068442,
        0.032339,
        0.02286,
        0.014809,
        0.011587,
        0.0083058,
        0.0048175,
        0.0013214
      ],
      "range":1
    }
  },
  {
    "model":"Nikon D90",
    "name":"Nikon D90",
    "type":"OSC_SENSOR",
    "dataQualityMarker": 3,
    "dataSource": "SVO Filter Profile Service",
    "manufacturer":"Nikon",
    "channel": "BLUE",
    "version":1,
    "wavelength":{
      "value":[
        4000.0,
        4100.0,
        4200.0,
        4300.0,
        4400.0,
        4500.0,
        4600.0,
        4700.0,
        4800.0,
        4900.0,
        5000.0,
        5100.0,
        5200.0,
        5300.0,
        5400.0,
        5500.0,
        5600.0,
        5700.0,
        5800.0,
        5900.0,
        6000.0,
        6100.0,
        6200.0,
        6300.0,
        6400.0,
        6500.0,
        6600.0,
        6700.0,
        6800.0
      ],
      "units":"angstrom"
    },
    "values":{
      "value":[
        0.0091573,
        0.051434,
        0.44646,
        0.66315,
        0.71144,
        0.82987,
        0.90129,
        0.87253,
        0.83253,
        0.67033,
        0.51074,
        0.37096,
        0.20735,
        0.13943,
        0.085438,
        0.050472,
        0.022981,
        0.012293,
        0.0076535,
        0.0049382,
        0.0027535,
        0.0020545,
        0.0016008,
        0.002078,
        0.0028889,
        0.0040484,
        0.0039968,
        0.0022416,
        0.00049355
      ],
      "range":1
    }
  }
]
