[
  {
    "model": "Sony IMX178C",
    "name": "Sony IMX178C Red",
    "type": "OSC_SENSOR",
    "dataQualityMarker": 3,
    "dataSource": "https://thinklucid.com/product/phoenix-6-mp-imx178/",
    "manufacturer": "Sony",
    "channel": "RED",
    "comment": "Covers all cameras using this chip, e.g. the ZWO ASI178MC",
    "version": 1,
    "wavelength": { 
       "value":  [320,330,340,350,360,370,380,390,400,410,420,430,440,450,460,470,480,490,500,510,520,530,540,550,560,570,580,590,600,610,620,630,640,650,660,670,680,690,700,710,720],
       "units": "nm"
    },
    "values": {
      "value": [0.0015,0.0015,0.0015,0.0015,0.0015,0.0015,0.0015,0.0757,0.0785,0.055,0.0381,0.028,0.0216,0.0167,0.0139,0.0168,0.0212,0.0223,0.0237,0.0298,0.0451,0.0578,0.0414,0.028,0.026,0.0404,0.2443,0.5502,0.5885,0.568,0.5353,0.4983,0.4666,0.4189,0.215,0.0602,0.0173,0.005,0.002,0.0013,0.0001],
      "range": 1
    }
  },
  {
    "model": "Sony IMX178C",
    "name": "Sony IMX178C Green",
    "type": "OSC_SENSOR",
    "dataQualityMarker": 3,
    "dataSource": "https://thinklucid.com/product/phoenix-6-mp-imx178/",
    "manufacturer": "Sony",
     "channel": "GREEN",
    "comment": "Covers all cameras using this chip, e.g. the ZWO ASI178MC",
    "version": 1,
    "wavelength": { 
       "value":  [320,330,340,350,360,370,380,390,400,410,420,430,440,450,460,470,480,490,500,510,520,530,540,550,560,570,580,590,600,610,620,630,640,650,660,670,680,690,700,710,720],
       "units": "nm"
    },
    "values": {
      "value": [0.0015,0.0015,0.0015,0.0015,0.0015,0.0015,0.0091,0.058,0.0645,0.0491,0.0381,0.0288,0.037,0.0401,0.047,0.1519,0.4135,0.6235,0.6798,0.6859,0.6906,0.7124,0.6795,0.6618,0.6194,0.5684,0.5059,0.4312,0.3288,0.2274,0.1555,0.1182,0.0978,0.0787,0.039,0.0128,0.0047,0.0018,0.0003,0.0002,0.0001],
      "range": 1
    }
  },
  {
    "model": "Sony IMX178C",
    "name": "Sony IMX178C Blue",
    "type": "OSC_SENSOR",
    "dataQualityMarker": 3,
    "dataSource": "https://thinklucid.com/product/phoenix-6-mp-imx178/",
    "manufacturer": "Sony",
     "channel": "BLUE",
    "comment": "Covers all cameras using this chip, e.g. the ZWO ASI178MC",
    "version": 1,
"wavelength": { 
       "value":  [320,330,340,350,360,370,380,390,400,410,420,430,440,450,460,470,480,490,500,510,520,530,540,550,560,570,580,590,600,610,620,630,640,650,660,670,680,690,700,710,720],
       "units": "nm"
    },
    "values": {
      "value": [0.0019,0.0016,0.0016,0.0016,0.0015,0.0015,0.0213,0.2064,0.369,0.4388,0.4965,0.5418,0.6054,0.6393,0.6552,0.629,0.5764,0.499,0.3802,0.273,0.1762,0.1237,0.0913,0.0647,0.0405,0.0292,0.0251,0.0223,0.0191,0.0164,0.0152,0.0169,0.021,0.025,0.0163,0.0061,0.0019,0.0006,0.0003,0.0002,0.0001],
      "range": 1
    }
  }
]
