[
    {
        "model": "Sony IMX183",
        "name": "Sony IMX183 Red",
        "type": "OSC_SENSOR",
        "dataQualityMarker": 2,
        "dataSource": "https://www.touptekastro.com/de-eu/products/atr183c?srsltid=AfmBOorzeKN-4YYMd4zvVHL3fne7nO7FEQlyYzhUWXK_6xN-IA8tFUj6",
        "manufacturer": "Sony",
        "channel": "RED",
        "comment": "Covers all cameras using this chip",
        "version": 1,
        "wavelength": {
            "value": [
                380.1169590643275,
                400.0,
                412.8654970760234,
                422.22222222222223,
                432.1637426900585,
                440.9356725146199,
                449.1228070175439,
                460.8187134502924,
                470.17543859649123,
                480.70175438596493,
                490.6432748538012,
                502.9239766081871,
                511.69590643274853,
                523.9766081871345,
                533.3333333333334,
                542.1052631578948,
                552.046783625731,
                560.233918128655,
                563.7426900584795,
                566.6666666666666,
                568.421052631579,
                570.7602339181287,
                571.9298245614035,
                574.2690058479532,
                576.0233918128655,
                577.7777777777778,
                578.9473684210526,
                581.8713450292398,
                583.0409356725146,
                584.7953216374269,
                587.719298245614,
                590.6432748538011,
                594.1520467836258,
                601.1695906432749,
                609.9415204678362,
                621.0526315789473,
                629.8245614035088,
                639.1812865497076,
                652.6315789473684,
                661.9883040935672,
                669.5906432748538,
                678.9473684210526,
                686.5497076023391,
                694.1520467836258,
                700.5847953216373
            ],
            "units": "nm"
        },
        "values": {
            "value": [
                0.12744827586206897,
                0.07820689655172419,
                0.05213793103448272,
                0.037655172413793236,
                0.028965517241379413,
                0.02317241379310353,
                0.02027586206896559,
                0.02027586206896559,
                0.02317241379310353,
                0.028965517241379413,
                0.028965517241379413,
                0.037655172413793236,
                0.05213793103448272,
                0.06951724137931037,
                0.06372413793103449,
                0.05213793103448272,
                0.0434482758620689,
                0.05213793103448272,
                0.07820689655172419,
                0.11875862068965526,
                0.1506206896551725,
                0.19117241379310357,
                0.22013793103448276,
                0.2896551724137931,
                0.32731034482758614,
                0.3823448275862069,
                0.4257931034482758,
                0.4953103448275862,
                0.5358620689655172,
                0.5851034482758621,
                0.6546206896551724,
                0.712551724137931,
                0.7531034482758621,
                0.7820689655172414,
                0.7646896551724138,
                0.7328275862068965,
                0.712551724137931,
                0.6951724137931035,
                0.6546206896551724,
                0.6169655172413793,
                0.588,
                0.5532413793103448,
                0.5329655172413793,
                0.5329655172413793,
                0.5445517241379311
            ],
            "range": 1
        }
    },
    {
        "model": "Sony IMX183",
        "name": "Sony IMX183 Green",
        "type": "OSC_SENSOR",
        "dataQualityMarker": 2,
        "dataSource": "https://www.touptekastro.com/de-eu/products/atr183c?srsltid=AfmBOorzeKN-4YYMd4zvVHL3fne7nO7FEQlyYzhUWXK_6xN-IA8tFUj6",
        "manufacturer": "Sony",
        "channel": "GREEN",
        "comment": "Covers all cameras using this chip",
        "version": 1,
        "wavelength": {
            "value": [
                379.5321637426901,
                400.0,
                418.12865497076024,
                433.33333333333337,
                446.7836257309942,
                457.3099415204679,
                461.98830409356725,
                465.49707602339186,
                468.42105263157896,
                471.34502923976606,
                472.51461988304095,
                477.1929824561404,
                479.53216374269005,
                481.8713450292398,
                483.62573099415204,
                487.719298245614,
                491.812865497076,
                494.7368421052631,
                504.093567251462,
                514.6198830409356,
                526.3157894736842,
                542.1052631578948,
                550.2923976608188,
                557.8947368421052,
                562.5730994152046,
                569.0058479532164,
                574.8538011695907,
                580.1169590643275,
                584.7953216374269,
                588.3040935672515,
                592.3976608187135,
                597.0760233918129,
                600.5847953216373,
                604.093567251462,
                608.187134502924,
                612.8654970760234,
                617.5438596491229,
                628.0701754385965,
                636.2573099415205,
                645.0292397660819,
                657.3099415204679,
                670.7602339181287,
                680.1169590643274,
                691.2280701754386,
                700.5847953216373
            ],
            "units": "nm"
        },
        "values": {
            "value": [
                0.08979310344827585,
                0.060827586206896656,
                0.037655172413793236,
                0.03475862068965507,
                0.04634482758620684,
                0.07531034482758614,
                0.11875862068965526,
                0.16800000000000004,
                0.22593103448275864,
                0.27806896551724136,
                0.31862068965517243,
                0.41420689655172416,
                0.4750344827586206,
                0.5242758620689655,
                0.5677241379310345,
                0.631448275862069,
                0.6893793103448276,
                0.7270344827586206,
                0.7878620689655171,
                0.8255172413793103,
                0.84,
                0.8284137931034482,
                0.8023448275862068,
                0.7704827586206896,
                0.7415172413793103,
                0.7067586206896551,
                0.669103448275862,
                0.631448275862069,
                0.5908965517241379,
                0.5445517241379311,
                0.504,
                0.4460689655172414,
                0.39972413793103445,
                0.3533793103448275,
                0.3041379310344827,
                0.2664827586206897,
                0.22593103448275864,
                0.17089655172413798,
                0.14772413793103445,
                0.1303448275862069,
                0.12165517241379309,
                0.13903448275862074,
                0.16220689655172416,
                0.20275862068965522,
                0.2375172413793103
            ],
            "range": 1
        }
    },
    {
        "model": "Sony IMX183",
        "name": "Sony IMX183 Blue",
        "type": "OSC_SENSOR",
        "dataQualityMarker": 2,
        "dataSource": "https://www.touptekastro.com/de-eu/products/atr183c?srsltid=AfmBOorzeKN-4YYMd4zvVHL3fne7nO7FEQlyYzhUWXK_6xN-IA8tFUj6",
        "manufacturer": "Sony",
        "channel": "BLUE",
        "comment": "Covers all cameras using this chip",
        "version": 1,
        "wavelength": {
            "value": [
                380.1169590643275,
                400.58479532163744,
                408.7719298245614,
                414.03508771929825,
                423.9766081871345,
                432.1637426900585,
                438.5964912280702,
                446.7836257309942,
                456.140350877193,
                467.8362573099415,
                474.8538011695906,
                483.62573099415204,
                488.8888888888889,
                493.56725146198835,
                497.0760233918129,
                501.75438596491233,
                506.43274853801165,
                511.69590643274853,
                518.1286549707602,
                525.1461988304094,
                530.9941520467836,
                539.1812865497076,
                547.3684210526316,
                556.140350877193,
                567.8362573099415,
                581.8713450292398,
                592.9824561403509,
                604.6783625730994,
                615.2046783625731,
                626.9005847953217,
                638.5964912280701,
                647.3684210526317,
                660.8187134502923,
                671.3450292397661,
                684.7953216374269,
                700.5847953216373
            ],
            "units": "nm"
        },
        "values": {
            "value": [
                0.2606896551724138,
                0.3649655172413794,
                0.43448275862068964,
                0.4750344827586206,
                0.5329655172413793,
                0.5822068965517242,
                0.6198620689655172,
                0.6517241379310345,
                0.669103448275862,
                0.6517241379310345,
                0.6198620689655172,
                0.5648275862068965,
                0.5155862068965518,
                0.4750344827586206,
                0.4373793103448276,
                0.3823448275862069,
                0.3302068965517242,
                0.2751724137931034,
                0.22013793103448276,
                0.16510344827586199,
                0.13324137931034474,
                0.10427586206896555,
                0.08110344827586213,
                0.0579310344827586,
                0.040551724137930956,
                0.031862068965517354,
                0.02606896551724147,
                0.02317241379310353,
                0.02027586206896559,
                0.02317241379310353,
                0.028965517241379413,
                0.037655172413793236,
                0.04924137931034478,
                0.05503448275862077,
                0.060827586206896656,
                0.06662068965517243
            ],
            "range": 1
        }
    }
]
